bzdocha	bzdocha	SSfs1
bzdocha	bzdocha	SSfs5
bzdocha	bzdochami	SSfp7
bzdocha	bzdoche	SSfs3
bzdocha	bzdoche	SSfs6
bzdocha	bzdochou	SSfs7
bzdochový	bzdochovej	AAfs2x
bzdochový	bzdochovej	AAfs3x
bzdochový	bzdochovej	AAfs6x
bzdochový	bzdochovom	AAms6x
bzdochový	bzdochovom	AAis6x
bzdochový	bzdochovom	AAns6x
bzdochový	bzdochovou	AAfs7x
bzdochový	bzdochová	AAfs1x
bzdochový	bzdochová	AAfs5x
bzdochový	bzdochové	AAip1x
bzdochový	bzdochové	AAip4x
bzdochový	bzdochové	AAip5x
bzdochový	bzdochové	AAfp1x
bzdochový	bzdochové	AAfp4x
bzdochový	bzdochové	AAfp5x
bzdochový	bzdochové	AAns1x
bzdochový	bzdochové	AAns4x
bzdochový	bzdochové	AAns5x
bzdochový	bzdochové	AAnp1x
bzdochový	bzdochové	AAnp4x
bzdochový	bzdochové	AAnp5x
bzdochový	bzdochového	AAms2x
bzdochový	bzdochového	AAms4x
bzdochový	bzdochového	AAis2x
bzdochový	bzdochového	AAns2x
bzdochový	bzdochovému	AAms3x
bzdochový	bzdochovému	AAis3x
bzdochový	bzdochovému	AAns3x
bzdochový	bzdochoví	AAmp1x
bzdochový	bzdochoví	AAmp5x
bzdochový	bzdochovú	AAfs4x
bzdochový	bzdochový	AAms1x
bzdochový	bzdochový	AAms5x
bzdochový	bzdochový	AAis1x
bzdochový	bzdochový	AAis4x
bzdochový	bzdochový	AAis5x
bzdochový	bzdochových	AAmp2x
bzdochový	bzdochových	AAmp4x
bzdochový	bzdochových	AAmp6x
bzdochový	bzdochových	AAip2x
bzdochový	bzdochových	AAip6x
bzdochový	bzdochových	AAfp2x
bzdochový	bzdochových	AAfp6x
bzdochový	bzdochových	AAnp2x
bzdochový	bzdochových	AAnp6x
bzdochový	bzdochovým	AAms7x
bzdochový	bzdochovým	AAmp3x
bzdochový	bzdochovým	AAis7x
bzdochový	bzdochovým	AAip3x
bzdochový	bzdochovým	AAfp3x
bzdochový	bzdochovým	AAns7x
bzdochový	bzdochovým	AAnp3x
bzdochový	bzdochovými	AAmp7x
bzdochový	bzdochovými	AAip7x
bzdochový	bzdochovými	AAfp7x
bzdochový	bzdochovými	AAnp7x
bzdocha	bzdochu	SSfs4
bzdocha	bzdochy	SSfs2
bzdocha	bzdochy	SSfp1
bzdocha	bzdochy	SSfp4
bzdocha	bzdochy	SSfp5
bzdocha	bzdochách	SSfp6
bzdocha	bzdochám	SSfp3
bzdoší	bzdošej	AAfs2x
bzdoší	bzdošej	AAfs3x
bzdoší	bzdošej	AAfs6x
bzdoší	bzdošia	AAfs1x
bzdoší	bzdošia	AAfs5x
bzdoší	bzdošie	AAip1x
bzdoší	bzdošie	AAip4x
bzdoší	bzdošie	AAip5x
bzdoší	bzdošie	AAfp1x
bzdoší	bzdošie	AAfp4x
bzdoší	bzdošie	AAfp5x
bzdoší	bzdošie	AAns1x
bzdoší	bzdošie	AAns4x
bzdoší	bzdošie	AAns5x
bzdoší	bzdošie	AAnp1x
bzdoší	bzdošie	AAnp4x
bzdoší	bzdošie	AAnp5x
bzdoší	bzdošieho	AAms2x
bzdoší	bzdošieho	AAms4x
bzdoší	bzdošieho	AAis2x
bzdoší	bzdošieho	AAns2x
bzdoší	bzdošiemu	AAms3x
bzdoší	bzdošiemu	AAis3x
bzdoší	bzdošiemu	AAns3x
bzdoší	bzdošiu	AAfs4x
bzdoší	bzdošom	AAms6x
bzdoší	bzdošom	AAis6x
bzdoší	bzdošom	AAns6x
bzdoší	bzdošou	AAfs7x
bzdoší	bzdoší	AAms1x
bzdoší	bzdoší	AAms5x
bzdoší	bzdoší	AAmp1x
bzdoší	bzdoší	AAmp5x
bzdoší	bzdoší	AAis1x
bzdoší	bzdoší	AAis4x
bzdoší	bzdoší	AAis5x
bzdoší	bzdoších	AAmp2x
bzdoší	bzdoších	AAmp4x
bzdoší	bzdoších	AAmp6x
bzdoší	bzdoších	AAip2x
bzdoší	bzdoších	AAip6x
bzdoší	bzdoších	AAfp2x
bzdoší	bzdoších	AAfp6x
bzdoší	bzdoších	AAnp2x
bzdoší	bzdoších	AAnp6x
bzdoší	bzdoším	AAms7x
bzdoší	bzdoším	AAmp3x
bzdoší	bzdoším	AAis7x
bzdoší	bzdoším	AAip3x
bzdoší	bzdoším	AAfp3x
bzdoší	bzdoším	AAns7x
bzdoší	bzdoším	AAnp3x
bzdoší	bzdošími	AAmp7x
bzdoší	bzdošími	AAip7x
bzdoší	bzdošími	AAfp7x
bzdoší	bzdošími	AAnp7x
bzdocha	bzdôch	SSfp2
bzdôška	bzdôška	SSfs1
bzdôška	bzdôška	SSfs5
bzdôška	bzdôškach	SSfp6
bzdôška	bzdôškam	SSfp3
bzdôška	bzdôškami	SSfp7
bzdôška	bzdôške	SSfs3
bzdôška	bzdôške	SSfs6
bzdôška	bzdôškou	SSfs7
bzdôška	bzdôšku	SSfs4
bzdôška	bzdôšky	SSfs2
bzdôška	bzdôšky	SSfp1
bzdôška	bzdôšky	SSfp4
bzdôška	bzdôšky	SSfp5
bzdôška	bzdôšok	SSfp2
bzenický	bzenickej	AAfs2x
bzenický	bzenickej	AAfs3x
bzenický	bzenickej	AAfs6x
bzenický	bzenickom	AAms6x
bzenický	bzenickom	AAis6x
bzenický	bzenickom	AAns6x
bzenický	bzenickou	AAfs7x
bzenický	bzenická	AAfs1x
bzenický	bzenická	AAfs5x
bzenický	bzenické	AAip1x
bzenický	bzenické	AAip4x
bzenický	bzenické	AAip5x
bzenický	bzenické	AAfp1x
bzenický	bzenické	AAfp4x
bzenický	bzenické	AAfp5x
bzenický	bzenické	AAns1x
bzenický	bzenické	AAns4x
bzenický	bzenické	AAns5x
bzenický	bzenické	AAnp1x
bzenický	bzenické	AAnp4x
bzenický	bzenické	AAnp5x
bzenický	bzenického	AAms2x
bzenický	bzenického	AAms4x
bzenický	bzenického	AAis2x
bzenický	bzenického	AAns2x
bzenický	bzenickému	AAms3x
bzenický	bzenickému	AAis3x
bzenický	bzenickému	AAns3x
bzenický	bzenickí	AAmp1x
bzenický	bzenickí	AAmp5x
bzenický	bzenickú	AAfs4x
bzenický	bzenický	AAms1x
bzenický	bzenický	AAms5x
bzenický	bzenický	AAis1x
bzenický	bzenický	AAis4x
bzenický	bzenický	AAis5x
bzenický	bzenických	AAmp2x
bzenický	bzenických	AAmp4x
bzenický	bzenických	AAmp6x
bzenický	bzenických	AAip2x
bzenický	bzenických	AAip6x
bzenický	bzenických	AAfp2x
bzenický	bzenických	AAfp6x
bzenický	bzenických	AAnp2x
bzenický	bzenických	AAnp6x
bzenický	bzenickým	AAms7x
bzenický	bzenickým	AAmp3x
bzenický	bzenickým	AAis7x
bzenický	bzenickým	AAip3x
bzenický	bzenickým	AAfp3x
bzenický	bzenickým	AAns7x
bzenický	bzenickým	AAnp3x
bzenický	bzenickými	AAmp7x
bzenický	bzenickými	AAip7x
bzenický	bzenickými	AAfp7x
bzenický	bzenickými	AAnp7x
bzenovský	bzenovskej	AAfs2x
bzenovský	bzenovskej	AAfs3x
bzenovský	bzenovskej	AAfs6x
bzenovský	bzenovskom	AAms6x
bzenovský	bzenovskom	AAis6x
bzenovský	bzenovskom	AAns6x
bzenovský	bzenovskou	AAfs7x
bzenovský	bzenovská	AAfs1x
bzenovský	bzenovská	AAfs5x
bzenovský	bzenovské	AAip1x
bzenovský	bzenovské	AAip4x
bzenovský	bzenovské	AAip5x
bzenovský	bzenovské	AAfp1x
bzenovský	bzenovské	AAfp4x
bzenovský	bzenovské	AAfp5x
bzenovský	bzenovské	AAns1x
bzenovský	bzenovské	AAns4x
bzenovský	bzenovské	AAns5x
bzenovský	bzenovské	AAnp1x
bzenovský	bzenovské	AAnp4x
bzenovský	bzenovské	AAnp5x
bzenovský	bzenovského	AAms2x
bzenovský	bzenovského	AAms4x
bzenovský	bzenovského	AAis2x
bzenovský	bzenovského	AAns2x
bzenovský	bzenovskému	AAms3x
bzenovský	bzenovskému	AAis3x
bzenovský	bzenovskému	AAns3x
bzenovský	bzenovskí	AAmp1x
bzenovský	bzenovskí	AAmp5x
bzenovský	bzenovskú	AAfs4x
bzenovský	bzenovský	AAms1x
bzenovský	bzenovský	AAms5x
bzenovský	bzenovský	AAis1x
bzenovský	bzenovský	AAis4x
bzenovský	bzenovský	AAis5x
bzenovský	bzenovských	AAmp2x
bzenovský	bzenovských	AAmp4x
bzenovský	bzenovských	AAmp6x
bzenovský	bzenovských	AAip2x
bzenovský	bzenovských	AAip6x
bzenovský	bzenovských	AAfp2x
bzenovský	bzenovských	AAfp6x
bzenovský	bzenovských	AAnp2x
bzenovský	bzenovských	AAnp6x
bzenovský	bzenovským	AAms7x
bzenovský	bzenovským	AAmp3x
bzenovský	bzenovským	AAis7x
bzenovský	bzenovským	AAip3x
bzenovský	bzenovským	AAfp3x
bzenovský	bzenovským	AAns7x
bzenovský	bzenovským	AAnp3x
bzenovský	bzenovskými	AAmp7x
bzenovský	bzenovskými	AAip7x
bzenovský	bzenovskými	AAfp7x
bzenovský	bzenovskými	AAnp7x
bzik	bzik	J
bzikavka	bzikaviek	SSfp2
bzikavka	bzikavka	SSfs1
bzikavka	bzikavka	SSfs5
bzikavka	bzikavkami	SSfp7
bzikavka	bzikavke	SSfs3
bzikavka	bzikavke	SSfs6
bzikavka	bzikavkou	SSfs7
bzikavka	bzikavku	SSfs4
bzikavka	bzikavky	SSfs2
bzikavka	bzikavky	SSfp1
bzikavka	bzikavky	SSfp4
bzikavka	bzikavky	SSfp5
bzikavka	bzikavkách	SSfp6
bzikavka	bzikavkám	SSfp3
bziknúť	bzikla	VLdsaf+
bziknúť	bzikla	VLdsbf+
bziknúť	bzikla	VLdscf+
bziknúť	bzikli	VLdpah+
bziknúť	bzikli	VLdpbh+
bziknúť	bzikli	VLdpcm+
bziknúť	bzikli	VLdpci+
bziknúť	bzikli	VLdpcf+
bziknúť	bzikli	VLdpcn+
bziknúť	bzikli	VLdpco+
bziknúť	bziklo	VLdsan+
bziknúť	bziklo	VLdsbn+
bziknúť	bziklo	VLdscn+
bziknúť	bzikne	VKdsc+
bziknúť	bziknem	VKdsa+
bziknúť	bzikneme	VKdpa+
bziknúť	bziknete	VKdpb+
bziknúť	bzikneš	VKdsb+
bziknúť	bzikni	VMdsb+
bziknúť	bziknime	VMdpa+
bziknúť	bziknite	VMdpb+
bziknúť	bziknú	VKdpc+
bziknúť	bziknúc	VHd+
bziknúť	bziknúť	VId+
bziknúť	bzikol	VLdsam+
bziknúť	bzikol	VLdsai+
bziknúť	bzikol	VLdsbm+
bziknúť	bzikol	VLdsbi+
bziknúť	bzikol	VLdscm+
bziknúť	bzikol	VLdsci+
bzinský	bzinskej	AAfs2x
bzinský	bzinskej	AAfs3x
bzinský	bzinskej	AAfs6x
bzinský	bzinskom	AAms6x
bzinský	bzinskom	AAis6x
bzinský	bzinskom	AAns6x
bzinský	bzinskou	AAfs7x
bzinský	bzinská	AAfs1x
bzinský	bzinská	AAfs5x
bzinský	bzinské	AAip1x
bzinský	bzinské	AAip4x
bzinský	bzinské	AAip5x
bzinský	bzinské	AAfp1x
bzinský	bzinské	AAfp4x
bzinský	bzinské	AAfp5x
bzinský	bzinské	AAns1x
bzinský	bzinské	AAns4x
bzinský	bzinské	AAns5x
bzinský	bzinské	AAnp1x
bzinský	bzinské	AAnp4x
bzinský	bzinské	AAnp5x
bzinský	bzinského	AAms2x
bzinský	bzinského	AAms4x
bzinský	bzinského	AAis2x
bzinský	bzinského	AAns2x
bzinský	bzinskému	AAms3x
bzinský	bzinskému	AAis3x
bzinský	bzinskému	AAns3x
bzinský	bzinskí	AAmp1x
bzinský	bzinskí	AAmp5x
bzinský	bzinskú	AAfs4x
bzinský	bzinský	AAms1x
bzinský	bzinský	AAms5x
bzinský	bzinský	AAis1x
bzinský	bzinský	AAis4x
bzinský	bzinský	AAis5x
bzinský	bzinských	AAmp2x
bzinský	bzinských	AAmp4x
bzinský	bzinských	AAmp6x
bzinský	bzinských	AAip2x
bzinský	bzinských	AAip6x
bzinský	bzinských	AAfp2x
bzinský	bzinských	AAfp6x
bzinský	bzinských	AAnp2x
bzinský	bzinských	AAnp6x
bzinský	bzinským	AAms7x
bzinský	bzinským	AAmp3x
bzinský	bzinským	AAis7x
bzinský	bzinským	AAip3x
bzinský	bzinským	AAfp3x
bzinský	bzinským	AAns7x
bzinský	bzinským	AAnp3x
bzinský	bzinskými	AAmp7x
bzinský	bzinskými	AAip7x
bzinský	bzinskými	AAfp7x
bzinský	bzinskými	AAnp7x
bzovský	bzovskej	AAfs2x
bzovský	bzovskej	AAfs3x
bzovský	bzovskej	AAfs6x
bzovskolehôtsky	bzovskolehôtska	AAfs1x
bzovskolehôtsky	bzovskolehôtska	AAfs5x
bzovskolehôtsky	bzovskolehôtske	AAip1x
bzovskolehôtsky	bzovskolehôtske	AAip4x
bzovskolehôtsky	bzovskolehôtske	AAip5x
bzovskolehôtsky	bzovskolehôtske	AAfp1x
bzovskolehôtsky	bzovskolehôtske	AAfp4x
bzovskolehôtsky	bzovskolehôtske	AAfp5x
bzovskolehôtsky	bzovskolehôtske	AAns1x
bzovskolehôtsky	bzovskolehôtske	AAns4x
bzovskolehôtsky	bzovskolehôtske	AAns5x
bzovskolehôtsky	bzovskolehôtske	AAnp1x
bzovskolehôtsky	bzovskolehôtske	AAnp4x
bzovskolehôtsky	bzovskolehôtske	AAnp5x
bzovskolehôtsky	bzovskolehôtskeho	AAms2x
bzovskolehôtsky	bzovskolehôtskeho	AAms4x
bzovskolehôtsky	bzovskolehôtskeho	AAis2x
bzovskolehôtsky	bzovskolehôtskeho	AAns2x
bzovskolehôtsky	bzovskolehôtskej	AAfs2x
bzovskolehôtsky	bzovskolehôtskej	AAfs3x
bzovskolehôtsky	bzovskolehôtskej	AAfs6x
bzovskolehôtsky	bzovskolehôtskemu	AAms3x
bzovskolehôtsky	bzovskolehôtskemu	AAis3x
bzovskolehôtsky	bzovskolehôtskemu	AAns3x
bzovskolehôtsky	bzovskolehôtski	AAmp1x
bzovskolehôtsky	bzovskolehôtski	AAmp5x
bzovskolehôtsky	bzovskolehôtskom	AAms6x
bzovskolehôtsky	bzovskolehôtskom	AAis6x
bzovskolehôtsky	bzovskolehôtskom	AAns6x
bzovskolehôtsky	bzovskolehôtskou	AAfs7x
bzovskolehôtsky	bzovskolehôtsku	AAfs4x
bzovskolehôtsky	bzovskolehôtsky	AAms1x
bzovskolehôtsky	bzovskolehôtsky	AAms5x
bzovskolehôtsky	bzovskolehôtsky	AAis1x
bzovskolehôtsky	bzovskolehôtsky	AAis4x
bzovskolehôtsky	bzovskolehôtsky	AAis5x
bzovskolehôtsky	bzovskolehôtskych	AAmp2x
bzovskolehôtsky	bzovskolehôtskych	AAmp4x
bzovskolehôtsky	bzovskolehôtskych	AAmp6x
bzovskolehôtsky	bzovskolehôtskych	AAip2x
bzovskolehôtsky	bzovskolehôtskych	AAip6x
bzovskolehôtsky	bzovskolehôtskych	AAfp2x
bzovskolehôtsky	bzovskolehôtskych	AAfp6x
bzovskolehôtsky	bzovskolehôtskych	AAnp2x
bzovskolehôtsky	bzovskolehôtskych	AAnp6x
bzovskolehôtsky	bzovskolehôtskym	AAms7x
bzovskolehôtsky	bzovskolehôtskym	AAmp3x
bzovskolehôtsky	bzovskolehôtskym	AAis7x
bzovskolehôtsky	bzovskolehôtskym	AAip3x
bzovskolehôtsky	bzovskolehôtskym	AAfp3x
bzovskolehôtsky	bzovskolehôtskym	AAns7x
bzovskolehôtsky	bzovskolehôtskym	AAnp3x
bzovskolehôtsky	bzovskolehôtskymi	AAmp7x
bzovskolehôtsky	bzovskolehôtskymi	AAip7x
bzovskolehôtsky	bzovskolehôtskymi	AAfp7x
bzovskolehôtsky	bzovskolehôtskymi	AAnp7x
bzovský	bzovskom	AAms6x
bzovský	bzovskom	AAis6x
bzovský	bzovskom	AAns6x
bzovský	bzovskou	AAfs7x
bzovskovolehôtsky	bzovskovolehôtska	AAfs1x
bzovskovolehôtsky	bzovskovolehôtska	AAfs5x
bzovskovolehôtsky	bzovskovolehôtske	AAip1x
bzovskovolehôtsky	bzovskovolehôtske	AAip4x
bzovskovolehôtsky	bzovskovolehôtske	AAip5x
bzovskovolehôtsky	bzovskovolehôtske	AAfp1x
bzovskovolehôtsky	bzovskovolehôtske	AAfp4x
bzovskovolehôtsky	bzovskovolehôtske	AAfp5x
bzovskovolehôtsky	bzovskovolehôtske	AAns1x
bzovskovolehôtsky	bzovskovolehôtske	AAns4x
bzovskovolehôtsky	bzovskovolehôtske	AAns5x
bzovskovolehôtsky	bzovskovolehôtske	AAnp1x
bzovskovolehôtsky	bzovskovolehôtske	AAnp4x
bzovskovolehôtsky	bzovskovolehôtske	AAnp5x
bzovskovolehôtsky	bzovskovolehôtskeho	AAms2x
bzovskovolehôtsky	bzovskovolehôtskeho	AAms4x
bzovskovolehôtsky	bzovskovolehôtskeho	AAis2x
bzovskovolehôtsky	bzovskovolehôtskeho	AAns2x
bzovskovolehôtsky	bzovskovolehôtskej	AAfs2x
bzovskovolehôtsky	bzovskovolehôtskej	AAfs3x
bzovskovolehôtsky	bzovskovolehôtskej	AAfs6x
bzovskovolehôtsky	bzovskovolehôtskemu	AAms3x
bzovskovolehôtsky	bzovskovolehôtskemu	AAis3x
bzovskovolehôtsky	bzovskovolehôtskemu	AAns3x
bzovskovolehôtsky	bzovskovolehôtski	AAmp1x
bzovskovolehôtsky	bzovskovolehôtski	AAmp5x
bzovskovolehôtsky	bzovskovolehôtskom	AAms6x
bzovskovolehôtsky	bzovskovolehôtskom	AAis6x
bzovskovolehôtsky	bzovskovolehôtskom	AAns6x
bzovskovolehôtsky	bzovskovolehôtskou	AAfs7x
bzovskovolehôtsky	bzovskovolehôtsku	AAfs4x
bzovskovolehôtsky	bzovskovolehôtsky	AAms1x
bzovskovolehôtsky	bzovskovolehôtsky	AAms5x
bzovskovolehôtsky	bzovskovolehôtsky	AAis1x
bzovskovolehôtsky	bzovskovolehôtsky	AAis4x
bzovskovolehôtsky	bzovskovolehôtsky	AAis5x
bzovskovolehôtsky	bzovskovolehôtskych	AAmp2x
bzovskovolehôtsky	bzovskovolehôtskych	AAmp4x
bzovskovolehôtsky	bzovskovolehôtskych	AAmp6x
bzovskovolehôtsky	bzovskovolehôtskych	AAip2x
bzovskovolehôtsky	bzovskovolehôtskych	AAip6x
bzovskovolehôtsky	bzovskovolehôtskych	AAfp2x
bzovskovolehôtsky	bzovskovolehôtskych	AAfp6x
bzovskovolehôtsky	bzovskovolehôtskych	AAnp2x
bzovskovolehôtsky	bzovskovolehôtskych	AAnp6x
bzovskovolehôtsky	bzovskovolehôtskym	AAms7x
bzovskovolehôtsky	bzovskovolehôtskym	AAmp3x
bzovskovolehôtsky	bzovskovolehôtskym	AAis7x
bzovskovolehôtsky	bzovskovolehôtskym	AAip3x
bzovskovolehôtsky	bzovskovolehôtskym	AAfp3x
bzovskovolehôtsky	bzovskovolehôtskym	AAns7x
bzovskovolehôtsky	bzovskovolehôtskym	AAnp3x
bzovskovolehôtsky	bzovskovolehôtskymi	AAmp7x
bzovskovolehôtsky	bzovskovolehôtskymi	AAip7x
bzovskovolehôtsky	bzovskovolehôtskymi	AAfp7x
bzovskovolehôtsky	bzovskovolehôtskymi	AAnp7x
bzovský	bzovská	AAfs1x
bzovský	bzovská	AAfs5x
bzovský	bzovské	AAip1x
bzovský	bzovské	AAip4x
bzovský	bzovské	AAip5x
bzovský	bzovské	AAfp1x
bzovský	bzovské	AAfp4x
bzovský	bzovské	AAfp5x
bzovský	bzovské	AAns1x
bzovský	bzovské	AAns4x
bzovský	bzovské	AAns5x
bzovský	bzovské	AAnp1x
bzovský	bzovské	AAnp4x
bzovský	bzovské	AAnp5x
bzovský	bzovského	AAms2x
bzovský	bzovského	AAms4x
bzovský	bzovského	AAis2x
bzovský	bzovského	AAns2x
bzovský	bzovskému	AAms3x
bzovský	bzovskému	AAis3x
bzovský	bzovskému	AAns3x
bzovský	bzovskí	AAmp1x
bzovský	bzovskí	AAmp5x
bzovský	bzovskú	AAfs4x
bzovský	bzovský	AAms1x
bzovský	bzovský	AAms5x
bzovský	bzovský	AAis1x
bzovský	bzovský	AAis4x
bzovský	bzovský	AAis5x
bzovský	bzovských	AAmp2x
bzovský	bzovských	AAmp4x
bzovský	bzovských	AAmp6x
bzovský	bzovských	AAip2x
bzovský	bzovských	AAip6x
bzovský	bzovských	AAfp2x
bzovský	bzovských	AAfp6x
bzovský	bzovských	AAnp2x
bzovský	bzovských	AAnp6x
bzovský	bzovským	AAms7x
bzovský	bzovským	AAmp3x
bzovský	bzovským	AAis7x
bzovský	bzovským	AAip3x
bzovský	bzovským	AAfp3x
bzovský	bzovským	AAns7x
bzovský	bzovským	AAnp3x
bzovský	bzovskými	AAmp7x
bzovský	bzovskými	AAip7x
bzovský	bzovskými	AAfp7x
bzovský	bzovskými	AAnp7x
bzovícky	bzovícka	AAfs1x
bzovícky	bzovícka	AAfs5x
bzovícky	bzovícke	AAip1x
bzovícky	bzovícke	AAip4x
bzovícky	bzovícke	AAip5x
bzovícky	bzovícke	AAfp1x
bzovícky	bzovícke	AAfp4x
bzovícky	bzovícke	AAfp5x
bzovícky	bzovícke	AAns1x
bzovícky	bzovícke	AAns4x
bzovícky	bzovícke	AAns5x
bzovícky	bzovícke	AAnp1x
bzovícky	bzovícke	AAnp4x
bzovícky	bzovícke	AAnp5x
bzovícky	bzovíckeho	AAms2x
bzovícky	bzovíckeho	AAms4x
bzovícky	bzovíckeho	AAis2x
bzovícky	bzovíckeho	AAns2x
bzovícky	bzovíckej	AAfs2x
bzovícky	bzovíckej	AAfs3x
bzovícky	bzovíckej	AAfs6x
bzovícky	bzovíckemu	AAms3x
bzovícky	bzovíckemu	AAis3x
bzovícky	bzovíckemu	AAns3x
bzovícky	bzovícki	AAmp1x
bzovícky	bzovícki	AAmp5x
bzovícky	bzovíckom	AAms6x
bzovícky	bzovíckom	AAis6x
bzovícky	bzovíckom	AAns6x
bzovícky	bzovíckou	AAfs7x
bzovícky	bzovícku	AAfs4x
bzovícky	bzovícky	AAms1x
bzovícky	bzovícky	AAms5x
bzovícky	bzovícky	AAis1x
bzovícky	bzovícky	AAis4x
bzovícky	bzovícky	AAis5x
bzovícky	bzovíckych	AAmp2x
bzovícky	bzovíckych	AAmp4x
bzovícky	bzovíckych	AAmp6x
bzovícky	bzovíckych	AAip2x
bzovícky	bzovíckych	AAip6x
bzovícky	bzovíckych	AAfp2x
bzovícky	bzovíckych	AAfp6x
bzovícky	bzovíckych	AAnp2x
bzovícky	bzovíckych	AAnp6x
bzovícky	bzovíckym	AAms7x
bzovícky	bzovíckym	AAmp3x
bzovícky	bzovíckym	AAis7x
bzovícky	bzovíckym	AAip3x
bzovícky	bzovíckym	AAfp3x
bzovícky	bzovíckym	AAns7x
bzovícky	bzovíckym	AAnp3x
bzovícky	bzovíckymi	AAmp7x
bzovícky	bzovíckymi	AAip7x
bzovícky	bzovíckymi	AAfp7x
bzovícky	bzovíckymi	AAnp7x
bzukotať	bzukoc	VMesb+
bzukotať	bzukoce	VKesc+
bzukotať	bzukocem	VKesa+
bzukotať	bzukoceme	VKepa+
bzukotať	bzukocete	VKepb+
bzukotať	bzukoceš	VKesb+
bzukotať	bzukocme	VMepa+
bzukotať	bzukocte	VMepb+
bzukotať	bzukocú	VKepc+
bzukotať	bzukocúc	VHe+
bzukot	bzukot	SSis1
bzukot	bzukot	SSis4
bzukot	bzukot	SSis5
bzukotať	bzukotajúc	VHe+
bzukotať	bzukotal	VLesam+
bzukotať	bzukotal	VLesai+
bzukotať	bzukotal	VLesbm+
bzukotať	bzukotal	VLesbi+
bzukotať	bzukotal	VLescm+
bzukotať	bzukotal	VLesci+
bzukotať	bzukotala	VLesaf+
bzukotať	bzukotala	VLesbf+
bzukotať	bzukotala	VLescf+
bzukotať	bzukotali	VLepah+
bzukotať	bzukotali	VLepbh+
bzukotať	bzukotali	VLepcm+
bzukotať	bzukotali	VLepci+
bzukotať	bzukotali	VLepcf+
bzukotať	bzukotali	VLepcn+
bzukotať	bzukotali	VLepco+
bzukotať	bzukotalo	VLesan+
bzukotať	bzukotalo	VLesbn+
bzukotať	bzukotalo	VLescn+
bzukotavý	bzukotavej	AAfs2x
bzukotavý	bzukotavej	AAfs3x
bzukotavý	bzukotavej	AAfs6x
bzukotavý	bzukotavejšej	AAfs2y
bzukotavý	bzukotavejšej	AAfs3y
bzukotavý	bzukotavejšej	AAfs6y
bzukotavý	bzukotavejšia	AAfs1y
bzukotavý	bzukotavejšia	AAfs5y
bzukotavý	bzukotavejšie	AAip1y
bzukotavý	bzukotavejšie	AAip4y
bzukotavý	bzukotavejšie	AAip5y
bzukotavý	bzukotavejšie	AAfp1y
bzukotavý	bzukotavejšie	AAfp4y
bzukotavý	bzukotavejšie	AAfp5y
bzukotavý	bzukotavejšie	AAns1y
bzukotavý	bzukotavejšie	AAns4y
bzukotavý	bzukotavejšie	AAns5y
bzukotavý	bzukotavejšie	AAnp1y
bzukotavý	bzukotavejšie	AAnp4y
bzukotavý	bzukotavejšie	AAnp5y
bzukotavý	bzukotavejšieho	AAms2y
bzukotavý	bzukotavejšieho	AAms4y
bzukotavý	bzukotavejšieho	AAis2y
bzukotavý	bzukotavejšieho	AAns2y
bzukotavý	bzukotavejšiemu	AAms3y
bzukotavý	bzukotavejšiemu	AAis3y
bzukotavý	bzukotavejšiemu	AAns3y
bzukotavý	bzukotavejšiu	AAfs4y
bzukotavý	bzukotavejšom	AAms6y
bzukotavý	bzukotavejšom	AAis6y
bzukotavý	bzukotavejšom	AAns6y
bzukotavý	bzukotavejšou	AAfs7y
bzukotavý	bzukotavejší	AAms1y
bzukotavý	bzukotavejší	AAms5y
bzukotavý	bzukotavejší	AAmp1y
bzukotavý	bzukotavejší	AAmp5y
bzukotavý	bzukotavejší	AAis1y
bzukotavý	bzukotavejší	AAis4y
bzukotavý	bzukotavejší	AAis5y
bzukotavý	bzukotavejších	AAmp2y
bzukotavý	bzukotavejších	AAmp4y
bzukotavý	bzukotavejších	AAmp6y
bzukotavý	bzukotavejších	AAip2y
bzukotavý	bzukotavejších	AAip6y
bzukotavý	bzukotavejších	AAfp2y
bzukotavý	bzukotavejších	AAfp6y
bzukotavý	bzukotavejších	AAnp2y
bzukotavý	bzukotavejších	AAnp6y
bzukotavý	bzukotavejším	AAms7y
bzukotavý	bzukotavejším	AAmp3y
bzukotavý	bzukotavejším	AAis7y
bzukotavý	bzukotavejším	AAip3y
bzukotavý	bzukotavejším	AAfp3y
bzukotavý	bzukotavejším	AAns7y
bzukotavý	bzukotavejším	AAnp3y
bzukotavý	bzukotavejšími	AAmp7y
bzukotavý	bzukotavejšími	AAip7y
bzukotavý	bzukotavejšími	AAfp7y
bzukotavý	bzukotavejšími	AAnp7y
bzukotavý	bzukotavom	AAms6x
bzukotavý	bzukotavom	AAis6x
bzukotavý	bzukotavom	AAns6x
bzukotavý	bzukotavou	AAfs7x
bzukotavý	bzukotavá	AAfs1x
bzukotavý	bzukotavá	AAfs5x
bzukotavý	bzukotavé	AAip1x
bzukotavý	bzukotavé	AAip4x
bzukotavý	bzukotavé	AAip5x
bzukotavý	bzukotavé	AAfp1x
bzukotavý	bzukotavé	AAfp4x
bzukotavý	bzukotavé	AAfp5x
bzukotavý	bzukotavé	AAns1x
bzukotavý	bzukotavé	AAns4x
bzukotavý	bzukotavé	AAns5x
bzukotavý	bzukotavé	AAnp1x
bzukotavý	bzukotavé	AAnp4x
bzukotavý	bzukotavé	AAnp5x
bzukotavý	bzukotavého	AAms2x
bzukotavý	bzukotavého	AAms4x
bzukotavý	bzukotavého	AAis2x
bzukotavý	bzukotavého	AAns2x
bzukotavý	bzukotavému	AAms3x
bzukotavý	bzukotavému	AAis3x
bzukotavý	bzukotavému	AAns3x
bzukotavý	bzukotaví	AAmp1x
bzukotavý	bzukotaví	AAmp5x
bzukotavý	bzukotavú	AAfs4x
bzukotavý	bzukotavý	AAms1x
bzukotavý	bzukotavý	AAms5x
bzukotavý	bzukotavý	AAis1x
bzukotavý	bzukotavý	AAis4x
bzukotavý	bzukotavý	AAis5x
bzukotavý	bzukotavých	AAmp2x
bzukotavý	bzukotavých	AAmp4x
bzukotavý	bzukotavých	AAmp6x
bzukotavý	bzukotavých	AAip2x
bzukotavý	bzukotavých	AAip6x
bzukotavý	bzukotavých	AAfp2x
bzukotavý	bzukotavých	AAfp6x
bzukotavý	bzukotavých	AAnp2x
bzukotavý	bzukotavých	AAnp6x
bzukotavý	bzukotavým	AAms7x
bzukotavý	bzukotavým	AAmp3x
bzukotavý	bzukotavým	AAis7x
bzukotavý	bzukotavým	AAip3x
bzukotavý	bzukotavým	AAfp3x
bzukotavý	bzukotavým	AAns7x
bzukotavý	bzukotavým	AAnp3x
bzukotavý	bzukotavými	AAmp7x
bzukotavý	bzukotavými	AAip7x
bzukotavý	bzukotavými	AAfp7x
bzukotavý	bzukotavými	AAnp7x
bzukotať	bzukotať	VIe+
bzukot	bzukote	SSis6
bzukot	bzukotmi	SSip7
bzukot	bzukotoch	SSip6
bzukot	bzukotom	SSis7
bzukot	bzukotom	SSip3
bzukot	bzukotov	SSip2
bzukot	bzukotu	SSis2
bzukot	bzukotu	SSis3
bzukot	bzukoty	SSip1
bzukot	bzukoty	SSip4
bzukot	bzukoty	SSip5
bzučať	bzuč	VMesb+
bzučať	bzučal	VLesam+
bzučať	bzučal	VLesai+
bzučať	bzučal	VLesbm+
bzučať	bzučal	VLesbi+
bzučať	bzučal	VLescm+
bzučať	bzučal	VLesci+
bzučať	bzučala	VLesaf+
bzučať	bzučala	VLesbf+
bzučať	bzučala	VLescf+
bzučať	bzučali	VLepah+
bzučať	bzučali	VLepbh+
bzučať	bzučali	VLepcm+
bzučať	bzučali	VLepci+
bzučať	bzučali	VLepcf+
bzučať	bzučali	VLepcn+
bzučať	bzučali	VLepco+
bzučať	bzučalo	VLesan+
bzučať	bzučalo	VLesbn+
bzučať	bzučalo	VLescn+
bzučanie	bzučania	SSns2
bzučanie	bzučania	SSnp1
bzučanie	bzučania	SSnp4
bzučanie	bzučania	SSnp5
bzučanie	bzučaniach	SSnp6
bzučanie	bzučaniam	SSnp3
bzučanie	bzučaniami	SSnp7
bzučanie	bzučanie	SSns1
bzučanie	bzučanie	SSns4
bzučanie	bzučanie	SSns5
bzučanie	bzučaniu	SSns3
bzučanie	bzučaní	SSns6
bzučanie	bzučaní	SSnp2
bzučanie	bzučaním	SSns7
bzučať	bzučať	VIe+
bzučať	bzučia	VKepc+
bzučať	bzučiac	VHe+
bzučiak	bzučiak	SSis1
bzučiak	bzučiak	SSis4
bzučiak	bzučiak	SSis5
bzučiak	bzučiaka	SSis2
bzučiak	bzučiakmi	SSip7
bzučiak	bzučiakoch	SSip6
bzučiak	bzučiakom	SSis7
bzučiak	bzučiakom	SSip3
bzučiak	bzučiakov	SSip2
bzučiak	bzučiaku	SSis3
bzučiak	bzučiaku	SSis6
bzučiak	bzučiaky	SSip1
bzučiak	bzučiaky	SSip4
bzučiak	bzučiaky	SSip5
bzučievať	bzučieva	VKesc+
bzučievať	bzučievaj	VMesb+
bzučievať	bzučievajme	VMepa+
bzučievať	bzučievajte	VMepb+
bzučievať	bzučievajú	VKepc+
bzučievať	bzučievajúc	VHe+
bzučievať	bzučieval	VLesam+
bzučievať	bzučieval	VLesai+
bzučievať	bzučieval	VLesbm+
bzučievať	bzučieval	VLesbi+
bzučievať	bzučieval	VLescm+
bzučievať	bzučieval	VLesci+
bzučievať	bzučievala	VLesaf+
bzučievať	bzučievala	VLesbf+
bzučievať	bzučievala	VLescf+
bzučievať	bzučievali	VLepah+
bzučievať	bzučievali	VLepbh+
bzučievať	bzučievali	VLepcm+
bzučievať	bzučievali	VLepci+
bzučievať	bzučievali	VLepcf+
bzučievať	bzučievali	VLepcn+
bzučievať	bzučievali	VLepco+
bzučievať	bzučievalo	VLesan+
bzučievať	bzučievalo	VLesbn+
bzučievať	bzučievalo	VLescn+
bzučievať	bzučievam	VKesa+
bzučievať	bzučievame	VKepa+
bzučievať	bzučievate	VKepb+
bzučievať	bzučievaš	VKesb+
bzučievať	bzučievať	VIe+
bzučivý	bzučivej	AAfs2x
bzučivý	bzučivej	AAfs3x
bzučivý	bzučivej	AAfs6x
bzučivý	bzučivejšej	AAfs2y
bzučivý	bzučivejšej	AAfs3y
bzučivý	bzučivejšej	AAfs6y
bzučivý	bzučivejšia	AAfs1y
bzučivý	bzučivejšia	AAfs5y
bzučivý	bzučivejšie	AAip1y
bzučivý	bzučivejšie	AAip4y
bzučivý	bzučivejšie	AAip5y
bzučivý	bzučivejšie	AAfp1y
bzučivý	bzučivejšie	AAfp4y
bzučivý	bzučivejšie	AAfp5y
bzučivý	bzučivejšie	AAns1y
bzučivý	bzučivejšie	AAns4y
bzučivý	bzučivejšie	AAns5y
bzučivý	bzučivejšie	AAnp1y
bzučivý	bzučivejšie	AAnp4y
bzučivý	bzučivejšie	AAnp5y
bzučivý	bzučivejšieho	AAms2y
bzučivý	bzučivejšieho	AAms4y
bzučivý	bzučivejšieho	AAis2y
bzučivý	bzučivejšieho	AAns2y
bzučivý	bzučivejšiemu	AAms3y
bzučivý	bzučivejšiemu	AAis3y
bzučivý	bzučivejšiemu	AAns3y
bzučivý	bzučivejšiu	AAfs4y
bzučivý	bzučivejšom	AAms6y
bzučivý	bzučivejšom	AAis6y
bzučivý	bzučivejšom	AAns6y
bzučivý	bzučivejšou	AAfs7y
bzučivý	bzučivejší	AAms1y
bzučivý	bzučivejší	AAms5y
bzučivý	bzučivejší	AAmp1y
bzučivý	bzučivejší	AAmp5y
bzučivý	bzučivejší	AAis1y
bzučivý	bzučivejší	AAis4y
bzučivý	bzučivejší	AAis5y
bzučivý	bzučivejších	AAmp2y
bzučivý	bzučivejších	AAmp4y
bzučivý	bzučivejších	AAmp6y
bzučivý	bzučivejších	AAip2y
bzučivý	bzučivejších	AAip6y
bzučivý	bzučivejších	AAfp2y
bzučivý	bzučivejších	AAfp6y
bzučivý	bzučivejších	AAnp2y
bzučivý	bzučivejších	AAnp6y
bzučivý	bzučivejším	AAms7y
bzučivý	bzučivejším	AAmp3y
bzučivý	bzučivejším	AAis7y
bzučivý	bzučivejším	AAip3y
bzučivý	bzučivejším	AAfp3y
bzučivý	bzučivejším	AAns7y
bzučivý	bzučivejším	AAnp3y
bzučivý	bzučivejšími	AAmp7y
bzučivý	bzučivejšími	AAip7y
bzučivý	bzučivejšími	AAfp7y
bzučivý	bzučivejšími	AAnp7y
bzučivka	bzučiviek	SSfp2
bzučivka	bzučivka	SSfs1
bzučivka	bzučivka	SSfs5
bzučivka	bzučivkami	SSfp7
bzučivka	bzučivke	SSfs3
bzučivka	bzučivke	SSfs6
bzučivka	bzučivkou	SSfs7
bzučivka	bzučivku	SSfs4
bzučivka	bzučivky	SSfs2
bzučivka	bzučivky	SSfp1
bzučivka	bzučivky	SSfp4
bzučivka	bzučivky	SSfp5
bzučivka	bzučivkách	SSfp6
bzučivka	bzučivkám	SSfp3
bzučivý	bzučivom	AAms6x
bzučivý	bzučivom	AAis6x
bzučivý	bzučivom	AAns6x
bzučivý	bzučivou	AAfs7x
bzučivý	bzučivá	AAfs1x
bzučivý	bzučivá	AAfs5x
bzučivý	bzučivé	AAip1x
bzučivý	bzučivé	AAip4x
bzučivý	bzučivé	AAip5x
bzučivý	bzučivé	AAfp1x
bzučivý	bzučivé	AAfp4x
bzučivý	bzučivé	AAfp5x
bzučivý	bzučivé	AAns1x
bzučivý	bzučivé	AAns4x
bzučivý	bzučivé	AAns5x
bzučivý	bzučivé	AAnp1x
bzučivý	bzučivé	AAnp4x
bzučivý	bzučivé	AAnp5x
bzučivý	bzučivého	AAms2x
bzučivý	bzučivého	AAms4x
bzučivý	bzučivého	AAis2x
bzučivý	bzučivého	AAns2x
bzučivý	bzučivému	AAms3x
bzučivý	bzučivému	AAis3x
bzučivý	bzučivému	AAns3x
bzučivý	bzučiví	AAmp1x
bzučivý	bzučiví	AAmp5x
bzučivý	bzučivú	AAfs4x
bzučivý	bzučivý	AAms1x
bzučivý	bzučivý	AAms5x
bzučivý	bzučivý	AAis1x
bzučivý	bzučivý	AAis4x
bzučivý	bzučivý	AAis5x
bzučivý	bzučivých	AAmp2x
bzučivý	bzučivých	AAmp4x
bzučivý	bzučivých	AAmp6x
bzučivý	bzučivých	AAip2x
bzučivý	bzučivých	AAip6x
bzučivý	bzučivých	AAfp2x
bzučivý	bzučivých	AAfp6x
bzučivý	bzučivých	AAnp2x
bzučivý	bzučivých	AAnp6x
bzučivý	bzučivým	AAms7x
bzučivý	bzučivým	AAmp3x
bzučivý	bzučivým	AAis7x
bzučivý	bzučivým	AAip3x
bzučivý	bzučivým	AAfp3x
bzučivý	bzučivým	AAns7x
bzučivý	bzučivým	AAnp3x
bzučivý	bzučivými	AAmp7x
bzučivý	bzučivými	AAip7x
bzučivý	bzučivými	AAfp7x
bzučivý	bzučivými	AAnp7x
bzučať	bzučme	VMepa+
bzučať	bzučte	VMepb+
bzučať	bzučí	VKesc+
bzučať	bzučím	VKesa+
bzučať	bzučíme	VKepa+
bzučať	bzučíte	VKepb+
bzučať	bzučíš	VKesb+
bzz	bzz	J
bzzz	bzzz	J
bzí	bzí	J
bzíkať	bzíka	VKesc+
bzíkať	bzíkaj	VMesb+
bzíkať	bzíkajme	VMepa+
bzíkať	bzíkajte	VMepb+
bzíkať	bzíkajú	VKepc+
bzíkať	bzíkajúc	VHe+
bzíkať	bzíkal	VLesam+
bzíkať	bzíkal	VLesai+
bzíkať	bzíkal	VLesbm+
bzíkať	bzíkal	VLesbi+
bzíkať	bzíkal	VLescm+
bzíkať	bzíkal	VLesci+
bzíkať	bzíkala	VLesaf+
bzíkať	bzíkala	VLesbf+
bzíkať	bzíkala	VLescf+
bzíkať	bzíkali	VLepah+
bzíkať	bzíkali	VLepbh+
bzíkať	bzíkali	VLepcm+
bzíkať	bzíkali	VLepci+
bzíkať	bzíkali	VLepcf+
bzíkať	bzíkali	VLepcn+
bzíkať	bzíkali	VLepco+
bzíkať	bzíkalo	VLesan+
bzíkať	bzíkalo	VLesbn+
bzíkať	bzíkalo	VLescn+
bzíkať	bzíkam	VKesa+
bzíkať	bzíkame	VKepa+
bzíkať	bzíkate	VKepb+
bzíkavať	bzíkava	VKesc+
bzíkavať	bzíkavaj	VMesb+
bzíkavať	bzíkavajme	VMepa+
bzíkavať	bzíkavajte	VMepb+
bzíkavať	bzíkavajú	VKepc+
bzíkavať	bzíkavajúc	VHe+
bzíkavať	bzíkaval	VLesam+
bzíkavať	bzíkaval	VLesai+
bzíkavať	bzíkaval	VLesbm+
bzíkavať	bzíkaval	VLesbi+
bzíkavať	bzíkaval	VLescm+
bzíkavať	bzíkaval	VLesci+
bzíkavať	bzíkavala	VLesaf+
bzíkavať	bzíkavala	VLesbf+
bzíkavať	bzíkavala	VLescf+
bzíkavať	bzíkavali	VLepah+
bzíkavať	bzíkavali	VLepbh+
bzíkavať	bzíkavali	VLepcm+
bzíkavať	bzíkavali	VLepci+
bzíkavať	bzíkavali	VLepcf+
bzíkavať	bzíkavali	VLepcn+
bzíkavať	bzíkavali	VLepco+
bzíkavať	bzíkavalo	VLesan+
bzíkavať	bzíkavalo	VLesbn+
bzíkavať	bzíkavalo	VLescn+
bzíkavať	bzíkavam	VKesa+
bzíkavať	bzíkavame	VKepa+
bzíkavať	bzíkavate	VKepb+
bzíkavať	bzíkavaš	VKesb+
bzíkavať	bzíkavať	VIe+
bzíkať	bzíkaš	VKesb+
bzíkať	bzíkať	VIe+
bžiansky	bžianska	AAfs1x
bžiansky	bžianska	AAfs5x
bžiansky	bžianske	AAip1x
bžiansky	bžianske	AAip4x
bžiansky	bžianske	AAip5x
bžiansky	bžianske	AAfp1x
bžiansky	bžianske	AAfp4x
bžiansky	bžianske	AAfp5x
bžiansky	bžianske	AAns1x
bžiansky	bžianske	AAns4x
bžiansky	bžianske	AAns5x
bžiansky	bžianske	AAnp1x
bžiansky	bžianske	AAnp4x
bžiansky	bžianske	AAnp5x
bžiansky	bžianskeho	AAms2x
bžiansky	bžianskeho	AAms4x
bžiansky	bžianskeho	AAis2x
bžiansky	bžianskeho	AAns2x
bžiansky	bžianskej	AAfs2x
bžiansky	bžianskej	AAfs3x
bžiansky	bžianskej	AAfs6x
bžiansky	bžianskejšej	AAfs2y
bžiansky	bžianskejšej	AAfs3y
bžiansky	bžianskejšej	AAfs6y
bžiansky	bžianskejšia	AAfs1y
bžiansky	bžianskejšia	AAfs5y
bžiansky	bžianskejšie	AAip1y
bžiansky	bžianskejšie	AAip4y
bžiansky	bžianskejšie	AAip5y
bžiansky	bžianskejšie	AAfp1y
bžiansky	bžianskejšie	AAfp4y
bžiansky	bžianskejšie	AAfp5y
bžiansky	bžianskejšie	AAns1y
bžiansky	bžianskejšie	AAns4y
bžiansky	bžianskejšie	AAns5y
bžiansky	bžianskejšie	AAnp1y
bžiansky	bžianskejšie	AAnp4y
bžiansky	bžianskejšie	AAnp5y
bžiansky	bžianskejšieho	AAms2y
bžiansky	bžianskejšieho	AAms4y
bžiansky	bžianskejšieho	AAis2y
bžiansky	bžianskejšieho	AAns2y
bžiansky	bžianskejšiemu	AAms3y
bžiansky	bžianskejšiemu	AAis3y
bžiansky	bžianskejšiemu	AAns3y
bžiansky	bžianskejšiu	AAfs4y
bžiansky	bžianskejšom	AAms6y
bžiansky	bžianskejšom	AAis6y
bžiansky	bžianskejšom	AAns6y
bžiansky	bžianskejšou	AAfs7y
bžiansky	bžianskejší	AAms1y
bžiansky	bžianskejší	AAms5y
bžiansky	bžianskejší	AAmp1y
bžiansky	bžianskejší	AAmp5y
bžiansky	bžianskejší	AAis1y
bžiansky	bžianskejší	AAis4y
bžiansky	bžianskejší	AAis5y
bžiansky	bžianskejších	AAmp2y
bžiansky	bžianskejších	AAmp4y
bžiansky	bžianskejších	AAmp6y
bžiansky	bžianskejších	AAip2y
bžiansky	bžianskejších	AAip6y
bžiansky	bžianskejších	AAfp2y
bžiansky	bžianskejších	AAfp6y
bžiansky	bžianskejších	AAnp2y
bžiansky	bžianskejších	AAnp6y
bžiansky	bžianskejším	AAms7y
bžiansky	bžianskejším	AAmp3y
bžiansky	bžianskejším	AAis7y
bžiansky	bžianskejším	AAip3y
bžiansky	bžianskejším	AAfp3y
bžiansky	bžianskejším	AAns7y
bžiansky	bžianskejším	AAnp3y
bžiansky	bžianskejšími	AAmp7y
bžiansky	bžianskejšími	AAip7y
bžiansky	bžianskejšími	AAfp7y
bžiansky	bžianskejšími	AAnp7y
bžiansky	bžianskemu	AAms3x
bžiansky	bžianskemu	AAis3x
bžiansky	bžianskemu	AAns3x
bžiansky	bžianski	AAmp1x
bžiansky	bžianski	AAmp5x
bžiansky	bžianskom	AAms6x
bžiansky	bžianskom	AAis6x
bžiansky	bžianskom	AAns6x
bžiansky	bžianskou	AAfs7x
bžiansky	bžiansku	AAfs4x
bžiansky	bžiansky	AAms1x
bžiansky	bžiansky	AAms5x
bžiansky	bžiansky	AAis1x
bžiansky	bžiansky	AAis4x
bžiansky	bžiansky	AAis5x
bžiansky	bžiansky	Dx
bžiansky	bžianskych	AAmp2x
bžiansky	bžianskych	AAmp4x
bžiansky	bžianskych	AAmp6x
bžiansky	bžianskych	AAip2x
bžiansky	bžianskych	AAip6x
bžiansky	bžianskych	AAfp2x
bžiansky	bžianskych	AAfp6x
bžiansky	bžianskych	AAnp2x
bžiansky	bžianskych	AAnp6x
bžiansky	bžianskym	AAms7x
bžiansky	bžianskym	AAmp3x
bžiansky	bžianskym	AAis7x
bžiansky	bžianskym	AAip3x
bžiansky	bžianskym	AAfp3x
bžiansky	bžianskym	AAns7x
bžiansky	bžianskym	AAnp3x
bžiansky	bžianskymi	AAmp7x
bžiansky	bžianskymi	AAip7x
bžiansky	bžianskymi	AAfp7x
bžiansky	bžianskymi	AAnp7x
