EBRD	EBRD	W
eben	eben	SSis1
eben	eben	SSis4
eben	eben	SSis5
eben	ebene	SSis6
ebenista	ebenista	SSms1
ebenista	ebenista	SSms5
ebenista	ebenistami	SSmp7
ebenista	ebenisti	SSmp1
ebenista	ebenisti	SSmp5
ebenista	ebenistoch	SSmp6
ebenista	ebenistom	SSms7
ebenista	ebenistom	SSmp3
ebenista	ebenistov	SSmp2
ebenista	ebenistov	SSmp4
ebenista	ebenistovi	SSms3
ebenista	ebenistovi	SSms6
ebenista	ebenistu	SSms2
ebenista	ebenistu	SSms4
eben	ebenmi	SSip7
eben	ebenoch	SSip6
eben	ebenom	SSis7
eben	ebenom	SSip3
eben	ebenov	SSip2
ebenový	ebenovej	AAfs2x
ebenový	ebenovej	AAfs3x
ebenový	ebenovej	AAfs6x
ebenovník	ebenovník	SSis1
ebenovník	ebenovník	SSis4
ebenovník	ebenovník	SSis5
ebenovník	ebenovníka	SSis2
ebenovník	ebenovníkmi	SSip7
ebenovník	ebenovníkoch	SSip6
ebenovník	ebenovníkom	SSis7
ebenovník	ebenovníkom	SSip3
ebenovník	ebenovníkov	SSip2
ebenovník	ebenovníku	SSis3
ebenovník	ebenovníku	SSis6
ebenovník	ebenovníku	SSip1
ebenovník	ebenovníky	SSip4
ebenovník	ebenovníky	SSip5
ebenový	ebenovom	AAms6x
ebenový	ebenovom	AAis6x
ebenový	ebenovom	AAns6x
ebenový	ebenovou	AAfs7x
ebenovočierny	ebenovočierna	AAfs1x
ebenovočierny	ebenovočierna	AAfs5x
ebenovočierny	ebenovočierne	AAip1x
ebenovočierny	ebenovočierne	AAip4x
ebenovočierny	ebenovočierne	AAip5x
ebenovočierny	ebenovočierne	AAfp1x
ebenovočierny	ebenovočierne	AAfp4x
ebenovočierny	ebenovočierne	AAfp5x
ebenovočierny	ebenovočierne	AAns1x
ebenovočierny	ebenovočierne	AAns4x
ebenovočierny	ebenovočierne	AAns5x
ebenovočierny	ebenovočierne	AAnp1x
ebenovočierny	ebenovočierne	AAnp4x
ebenovočierny	ebenovočierne	AAnp5x
ebenovočierny	ebenovočierneho	AAms2x
ebenovočierny	ebenovočierneho	AAms4x
ebenovočierny	ebenovočierneho	AAis2x
ebenovočierny	ebenovočierneho	AAns2x
ebenovočierny	ebenovočiernej	AAfs2x
ebenovočierny	ebenovočiernej	AAfs3x
ebenovočierny	ebenovočiernej	AAfs6x
ebenovočierny	ebenovočiernemu	AAms3x
ebenovočierny	ebenovočiernemu	AAis3x
ebenovočierny	ebenovočiernemu	AAns3x
ebenovočierny	ebenovočierni	AAmp1x
ebenovočierny	ebenovočierni	AAmp5x
ebenovočierny	ebenovočiernom	AAms6x
ebenovočierny	ebenovočiernom	AAis6x
ebenovočierny	ebenovočiernom	AAns6x
ebenovočierny	ebenovočiernou	AAfs7x
ebenovočierny	ebenovočiernu	AAfs4x
ebenovočierny	ebenovočierny	AAms1x
ebenovočierny	ebenovočierny	AAms5x
ebenovočierny	ebenovočierny	AAis1x
ebenovočierny	ebenovočierny	AAis4x
ebenovočierny	ebenovočierny	AAis5x
ebenovočierny	ebenovočiernych	AAmp2x
ebenovočierny	ebenovočiernych	AAmp4x
ebenovočierny	ebenovočiernych	AAmp6x
ebenovočierny	ebenovočiernych	AAip2x
ebenovočierny	ebenovočiernych	AAip6x
ebenovočierny	ebenovočiernych	AAfp2x
ebenovočierny	ebenovočiernych	AAfp6x
ebenovočierny	ebenovočiernych	AAnp2x
ebenovočierny	ebenovočiernych	AAnp6x
ebenovočierny	ebenovočiernym	AAms7x
ebenovočierny	ebenovočiernym	AAmp3x
ebenovočierny	ebenovočiernym	AAis7x
ebenovočierny	ebenovočiernym	AAip3x
ebenovočierny	ebenovočiernym	AAfp3x
ebenovočierny	ebenovočiernym	AAns7x
ebenovočierny	ebenovočiernym	AAnp3x
ebenovočierny	ebenovočiernymi	AAmp7x
ebenovočierny	ebenovočiernymi	AAip7x
ebenovočierny	ebenovočiernymi	AAfp7x
ebenovočierny	ebenovočiernymi	AAnp7x
ebenový	ebenová	AAfs1x
ebenový	ebenová	AAfs5x
ebenový	ebenové	AAip1x
ebenový	ebenové	AAip4x
ebenový	ebenové	AAip5x
ebenový	ebenové	AAfp1x
ebenový	ebenové	AAfp4x
ebenový	ebenové	AAfp5x
ebenový	ebenové	AAns1x
ebenový	ebenové	AAns4x
ebenový	ebenové	AAns5x
ebenový	ebenové	AAnp1x
ebenový	ebenové	AAnp4x
ebenový	ebenové	AAnp5x
ebenový	ebenového	AAms2x
ebenový	ebenového	AAms4x
ebenový	ebenového	AAis2x
ebenový	ebenového	AAns2x
ebenový	ebenovému	AAms3x
ebenový	ebenovému	AAis3x
ebenový	ebenovému	AAns3x
ebenový	ebenoví	AAmp1x
ebenový	ebenoví	AAmp5x
ebenový	ebenovú	AAfs4x
ebenový	ebenový	AAms1x
ebenový	ebenový	AAms5x
ebenový	ebenový	AAis1x
ebenový	ebenový	AAis4x
ebenový	ebenový	AAis5x
ebenový	ebenových	AAmp2x
ebenový	ebenových	AAmp4x
ebenový	ebenových	AAmp6x
ebenový	ebenových	AAip2x
ebenový	ebenových	AAip6x
ebenový	ebenových	AAfp2x
ebenový	ebenových	AAfp6x
ebenový	ebenových	AAnp2x
ebenový	ebenových	AAnp6x
ebenový	ebenovým	AAms7x
ebenový	ebenovým	AAmp3x
ebenový	ebenovým	AAis7x
ebenový	ebenovým	AAip3x
ebenový	ebenovým	AAfp3x
ebenový	ebenovým	AAns7x
ebenový	ebenovým	AAnp3x
ebenový	ebenovými	AAmp7x
ebenový	ebenovými	AAip7x
ebenový	ebenovými	AAfp7x
ebenový	ebenovými	AAnp7x
eben	ebenu	SSis2
eben	ebenu	SSis3
eben	ebeny	SSip1
eben	ebeny	SSip4
eben	ebeny	SSip5
ebola	ebol	SSfp2
ebola	ebola	SSfs1
ebola	ebola	SSfs5
ebola	ebolami	SSfp7
ebola	ebole	SSfs3
ebola	ebole	SSfs6
ebola	ebolou	SSfs7
ebola	ebolu	SSfs4
ebola	eboly	SSfs2
ebola	eboly	SSfp1
ebola	eboly	SSfp4
ebola	eboly	SSfp5
ebola	ebolách	SSfp6
ebola	ebolám	SSfp3
ebonit	ebonit	SSis1
ebonit	ebonit	SSis4
ebonit	ebonit	SSis5
ebonit	ebonite	SSis6
ebonit	ebonitmi	SSip7
ebonit	ebonitoch	SSip6
ebonit	ebonitom	SSis7
ebonit	ebonitom	SSip3
ebonit	ebonitov	SSip2
ebonitový	ebonitovej	AAfs2x
ebonitový	ebonitovej	AAfs3x
ebonitový	ebonitovej	AAfs6x
ebonitový	ebonitovom	AAms6x
ebonitový	ebonitovom	AAis6x
ebonitový	ebonitovom	AAns6x
ebonitový	ebonitovou	AAfs7x
ebonitový	ebonitová	AAfs1x
ebonitový	ebonitová	AAfs5x
ebonitový	ebonitové	AAip1x
ebonitový	ebonitové	AAip4x
ebonitový	ebonitové	AAip5x
ebonitový	ebonitové	AAfp1x
ebonitový	ebonitové	AAfp4x
ebonitový	ebonitové	AAfp5x
ebonitový	ebonitové	AAns1x
ebonitový	ebonitové	AAns4x
ebonitový	ebonitové	AAns5x
ebonitový	ebonitové	AAnp1x
ebonitový	ebonitové	AAnp4x
ebonitový	ebonitové	AAnp5x
ebonitový	ebonitového	AAms2x
ebonitový	ebonitového	AAms4x
ebonitový	ebonitového	AAis2x
ebonitový	ebonitového	AAns2x
ebonitový	ebonitovému	AAms3x
ebonitový	ebonitovému	AAis3x
ebonitový	ebonitovému	AAns3x
ebonitový	ebonitoví	AAmp1x
ebonitový	ebonitoví	AAmp5x
ebonitový	ebonitovú	AAfs4x
ebonitový	ebonitový	AAms1x
ebonitový	ebonitový	AAms5x
ebonitový	ebonitový	AAis1x
ebonitový	ebonitový	AAis4x
ebonitový	ebonitový	AAis5x
ebonitový	ebonitových	AAmp2x
ebonitový	ebonitových	AAmp4x
ebonitový	ebonitových	AAmp6x
ebonitový	ebonitových	AAip2x
ebonitový	ebonitových	AAip6x
ebonitový	ebonitových	AAfp2x
ebonitový	ebonitových	AAfp6x
ebonitový	ebonitových	AAnp2x
ebonitový	ebonitových	AAnp6x
ebonitový	ebonitovým	AAms7x
ebonitový	ebonitovým	AAmp3x
ebonitový	ebonitovým	AAis7x
ebonitový	ebonitovým	AAip3x
ebonitový	ebonitovým	AAfp3x
ebonitový	ebonitovým	AAns7x
ebonitový	ebonitovým	AAnp3x
ebonitový	ebonitovými	AAmp7x
ebonitový	ebonitovými	AAip7x
ebonitový	ebonitovými	AAfp7x
ebonitový	ebonitovými	AAnp7x
ebonit	ebonitu	SSis2
ebonit	ebonitu	SSis3
ebonit	ebonity	SSip1
ebonit	ebonity	SSip4
ebonit	ebonity	SSip5
eburit	eburit	SSis1
eburit	eburit	SSis4
eburit	eburit	SSis5
eburit	eburite	SSis6
eburit	eburitmi	SSip7
eburit	eburitoch	SSip6
eburit	eburitom	SSis7
eburit	eburitom	SSip3
eburit	eburitov	SSip2
eburitový	eburitovej	AAfs2x
eburitový	eburitovej	AAfs3x
eburitový	eburitovej	AAfs6x
eburitový	eburitovom	AAms6x
eburitový	eburitovom	AAis6x
eburitový	eburitovom	AAns6x
eburitový	eburitovou	AAfs7x
eburitový	eburitová	AAfs1x
eburitový	eburitová	AAfs5x
eburitový	eburitové	AAip1x
eburitový	eburitové	AAip4x
eburitový	eburitové	AAip5x
eburitový	eburitové	AAfp1x
eburitový	eburitové	AAfp4x
eburitový	eburitové	AAfp5x
eburitový	eburitové	AAns1x
eburitový	eburitové	AAns4x
eburitový	eburitové	AAns5x
eburitový	eburitové	AAnp1x
eburitový	eburitové	AAnp4x
eburitový	eburitové	AAnp5x
eburitový	eburitového	AAms2x
eburitový	eburitového	AAms4x
eburitový	eburitového	AAis2x
eburitový	eburitového	AAns2x
eburitový	eburitovému	AAms3x
eburitový	eburitovému	AAis3x
eburitový	eburitovému	AAns3x
eburitový	eburitoví	AAmp1x
eburitový	eburitoví	AAmp5x
eburitový	eburitovú	AAfs4x
eburitový	eburitový	AAms1x
eburitový	eburitový	AAms5x
eburitový	eburitový	AAis1x
eburitový	eburitový	AAis4x
eburitový	eburitový	AAis5x
eburitový	eburitových	AAmp2x
eburitový	eburitových	AAmp4x
eburitový	eburitových	AAmp6x
eburitový	eburitových	AAip2x
eburitový	eburitových	AAip6x
eburitový	eburitových	AAfp2x
eburitový	eburitových	AAfp6x
eburitový	eburitových	AAnp2x
eburitový	eburitových	AAnp6x
eburitový	eburitovým	AAms7x
eburitový	eburitovým	AAmp3x
eburitový	eburitovým	AAis7x
eburitový	eburitovým	AAip3x
eburitový	eburitovým	AAfp3x
eburitový	eburitovým	AAns7x
eburitový	eburitovým	AAnp3x
eburitový	eburitovými	AAmp7x
eburitový	eburitovými	AAip7x
eburitový	eburitovými	AAfp7x
eburitový	eburitovými	AAnp7x
eburit	eburitu	SSis2
eburit	eburitu	SSis3
eburit	eburity	SSip1
eburit	eburity	SSip4
eburit	eburity	SSip5
