Edita	Edita	SSfs1
Edita	Edita	SSfs5
Edita	Editami	SSfp7
Edita	Edite	SSfs3
Edita	Edite	SSfs6
Edita	Editou	SSfs7
Edita	Editu	SSfs4
Edita	Edity	SSfs2
Edita	Edity	SSfp1
Edita	Edity	SSfp4
Edita	Edity	SSfp5
Edita	Editách	SSfp6
Edita	Editám	SSfp3
Edmund	Edmund	SSms1
Edmund	Edmund	SSms5
Edmund	Edmunda	SSms2
Edmund	Edmunda	SSms4
Edmund	Edmundmi	SSmp7
Edmund	Edmundoch	SSmp6
Edmund	Edmundom	SSms7
Edmund	Edmundom	SSmp3
Edmund	Edmundov	SSmp2
Edmund	Edmundov	SSmp4
Edmund	Edmundovi	SSms3
Edmund	Edmundovi	SSms6
Edmund	Edmundovia	SSmp1
Edmund	Edmundovia	SSmp5
Eduard	Eduard	SSms1
Eduard	Eduard	SSms5
Eduard	Eduarda	SSms2
Eduard	Eduarda	SSms4
Eduard	Eduardmi	SSmp7
Eduard	Eduardoch	SSmp6
Eduard	Eduardom	SSms7
Eduard	Eduardom	SSmp3
Eduard	Eduardov	SSmp2
Eduard	Eduardov	SSmp4
Eduard	Eduardovi	SSms3
Eduard	Eduardovi	SSms6
Eduard	Eduardovia	SSmp1
Eduard	Eduardovia	SSmp5
Edita	Edít	SSfp2
edafický	edafickej	AAfs2x
edafický	edafickej	AAfs3x
edafický	edafickej	AAfs6x
edafický	edafickom	AAms6x
edafický	edafickom	AAis6x
edafický	edafickom	AAns6x
edafický	edafickou	AAfs7x
edafický	edafická	AAfs1x
edafický	edafická	AAfs5x
edafický	edafické	AAip1x
edafický	edafické	AAip4x
edafický	edafické	AAip5x
edafický	edafické	AAfp1x
edafický	edafické	AAfp4x
edafický	edafické	AAfp5x
edafický	edafické	AAns1x
edafický	edafické	AAns4x
edafický	edafické	AAns5x
edafický	edafické	AAnp1x
edafický	edafické	AAnp4x
edafický	edafické	AAnp5x
edafický	edafického	AAms2x
edafický	edafického	AAms4x
edafický	edafického	AAis2x
edafický	edafického	AAns2x
edafický	edafickému	AAms3x
edafický	edafickému	AAis3x
edafický	edafickému	AAns3x
edafický	edafickí	AAmp1x
edafický	edafickí	AAmp5x
edafický	edafickú	AAfs4x
edafický	edafický	AAms1x
edafický	edafický	AAms5x
edafický	edafický	AAis1x
edafický	edafický	AAis4x
edafický	edafický	AAis5x
edafický	edafických	AAmp2x
edafický	edafických	AAmp4x
edafický	edafických	AAmp6x
edafický	edafických	AAip2x
edafický	edafických	AAip6x
edafický	edafických	AAfp2x
edafický	edafických	AAfp6x
edafický	edafických	AAnp2x
edafický	edafických	AAnp6x
edafický	edafickým	AAms7x
edafický	edafickým	AAmp3x
edafický	edafickým	AAis7x
edafický	edafickým	AAip3x
edafický	edafickým	AAfp3x
edafický	edafickým	AAns7x
edafický	edafickým	AAnp3x
edafický	edafickými	AAmp7x
edafický	edafickými	AAip7x
edafický	edafickými	AAfp7x
edafický	edafickými	AAnp7x
edafosaurus	edafosaura	SSms2
edafosaurus	edafosaura	SSms4
edafosaurus	edafosaurami	SSip7
edafosaurus	edafosauroch	SSip6
edafosaurus	edafosaurom	SSms7
edafosaurus	edafosaurom	SSip3
edafosaurus	edafosaurov	SSip2
edafosaurus	edafosaurovi	SSms3
edafosaurus	edafosaurovi	SSms6
edafosaurus	edafosaurus	SSms1
edafosaurus	edafosaurus	SSms5
edafosaurus	edafosaury	SSip1
edafosaurus	edafosaury	SSip4
edafosaurus	edafosaury	SSip5
edafón	edafón	SSis1
edafón	edafón	SSis4
edafón	edafón	SSis5
edafón	edafóne	SSis6
edafón	edafónmi	SSip7
edafón	edafónoch	SSip6
edafón	edafónom	SSis7
edafón	edafónom	SSip3
edafón	edafónov	SSip2
edafón	edafónu	SSis2
edafón	edafónu	SSis3
edafón	edafóny	SSip1
edafón	edafóny	SSip4
edafón	edafóny	SSip5
edematózny	edematózna	AAfs1x
edematózny	edematózna	AAfs5x
edematózne	edematózne	Dx
edematózny	edematózne	AAip1x
edematózny	edematózne	AAip4x
edematózny	edematózne	AAip5x
edematózny	edematózne	AAfp1x
edematózny	edematózne	AAfp4x
edematózny	edematózne	AAfp5x
edematózny	edematózne	AAns1x
edematózny	edematózne	AAns4x
edematózny	edematózne	AAns5x
edematózny	edematózne	AAnp1x
edematózny	edematózne	AAnp4x
edematózny	edematózne	AAnp5x
edematózny	edematózneho	AAms2x
edematózny	edematózneho	AAms4x
edematózny	edematózneho	AAis2x
edematózny	edematózneho	AAns2x
edematózny	edematóznej	AAfs2x
edematózny	edematóznej	AAfs3x
edematózny	edematóznej	AAfs6x
edematózny	edematóznemu	AAms3x
edematózny	edematóznemu	AAis3x
edematózny	edematóznemu	AAns3x
edematózny	edematózni	AAmp1x
edematózny	edematózni	AAmp5x
edematózny	edematóznom	AAms6x
edematózny	edematóznom	AAis6x
edematózny	edematóznom	AAns6x
edematózny	edematóznou	AAfs7x
edematózny	edematóznu	AAfs4x
edematózny	edematózny	AAms1x
edematózny	edematózny	AAms5x
edematózny	edematózny	AAis1x
edematózny	edematózny	AAis4x
edematózny	edematózny	AAis5x
edematózny	edematóznych	AAmp2x
edematózny	edematóznych	AAmp4x
edematózny	edematóznych	AAmp6x
edematózny	edematóznych	AAip2x
edematózny	edematóznych	AAip6x
edematózny	edematóznych	AAfp2x
edematózny	edematóznych	AAfp6x
edematózny	edematóznych	AAnp2x
edematózny	edematóznych	AAnp6x
edematózny	edematóznym	AAms7x
edematózny	edematóznym	AAmp3x
edematózny	edematóznym	AAis7x
edematózny	edematóznym	AAip3x
edematózny	edematóznym	AAfp3x
edematózny	edematóznym	AAns7x
edematózny	edematóznym	AAnp3x
edematózny	edematóznymi	AAmp7x
edematózny	edematóznymi	AAip7x
edematózny	edematóznymi	AAfp7x
edematózny	edematóznymi	AAnp7x
eden	eden	SSis1
eden	eden	SSis4
eden	eden	SSis5
eden	edene	SSis6
eden	edenmi	SSip7
eden	edenoch	SSip6
eden	edenom	SSis7
eden	edenom	SSip3
eden	edenov	SSip2
edenský	edenskej	AAfs2x
edenský	edenskej	AAfs3x
edenský	edenskej	AAfs6x
edenský	edenskom	AAms6x
edenský	edenskom	AAis6x
edenský	edenskom	AAns6x
edenský	edenskou	AAfs7x
edenský	edenská	AAfs1x
edenský	edenská	AAfs5x
edenský	edenské	AAip1x
edenský	edenské	AAip4x
edenský	edenské	AAip5x
edenský	edenské	AAfp1x
edenský	edenské	AAfp4x
edenský	edenské	AAfp5x
edenský	edenské	AAns1x
edenský	edenské	AAns4x
edenský	edenské	AAns5x
edenský	edenské	AAnp1x
edenský	edenské	AAnp4x
edenský	edenské	AAnp5x
edenský	edenského	AAms2x
edenský	edenského	AAms4x
edenský	edenského	AAis2x
edenský	edenského	AAns2x
edenský	edenskému	AAms3x
edenský	edenskému	AAis3x
edenský	edenskému	AAns3x
edenský	edenskí	AAmp1x
edenský	edenskí	AAmp5x
edenský	edenskú	AAfs4x
edenský	edenský	AAms1x
edenský	edenský	AAms5x
edenský	edenský	AAis1x
edenský	edenský	AAis4x
edenský	edenský	AAis5x
edenský	edenských	AAmp2x
edenský	edenských	AAmp4x
edenský	edenských	AAmp6x
edenský	edenských	AAip2x
edenský	edenských	AAip6x
edenský	edenských	AAfp2x
edenský	edenských	AAfp6x
edenský	edenských	AAnp2x
edenský	edenských	AAnp6x
edenský	edenským	AAms7x
edenský	edenským	AAmp3x
edenský	edenským	AAis7x
edenský	edenským	AAip3x
edenský	edenským	AAfp3x
edenský	edenským	AAns7x
edenský	edenským	AAnp3x
edenský	edenskými	AAmp7x
edenský	edenskými	AAip7x
edenský	edenskými	AAfp7x
edenský	edenskými	AAnp7x
eden	edenu	SSis2
eden	edenu	SSis3
eden	edeny	SSip1
eden	edeny	SSip4
eden	edeny	SSip5
edikt	edikt	SSis1
edikt	edikt	SSis4
edikt	edikt	SSis5
edikt	edikte	SSis6
edikt	ediktmi	SSip7
edikt	ediktoch	SSip6
edikt	ediktom	SSis7
edikt	ediktom	SSip3
edikt	ediktov	SSip2
edikt	ediktu	SSis2
edikt	ediktu	SSis3
edikt	edikty	SSip1
edikt	edikty	SSip4
edikt	edikty	SSip5
edikula	edikula	SSfs1
edikula	edikula	SSfs5
edikula	edikulami	SSfp7
edikula	edikule	SSfs3
edikula	edikule	SSfs6
edikula	edikulou	SSfs7
edikula	edikulu	SSfs4
edikula	edikuly	SSfs2
edikula	edikuly	SSfp1
edikula	edikuly	SSfp4
edikula	edikuly	SSfp5
edikula	edikulách	SSfp6
edikula	edikulám	SSfp3
edikula	edikúl	SSfp2
edil	edil	SSms1
edil	edil	SSms5
edil	edila	SSms2
edil	edila	SSms4
edil	edili	SSmp1
edil	edili	SSmp5
edil	edilmi	SSmp7
edil	ediloch	SSmp6
edil	edilom	SSms7
edil	edilom	SSmp3
edil	edilov	SSmp2
edil	edilov	SSmp4
edil	edilovi	SSms3
edil	edilovi	SSms6
edil	edilovia	SSmp1
edil	edilovia	SSmp5
edilský	edilskej	AAfs2x
edilský	edilskej	AAfs3x
edilský	edilskej	AAfs6x
edilský	edilskom	AAms6x
edilský	edilskom	AAis6x
edilský	edilskom	AAns6x
edilský	edilskou	AAfs7x
edilský	edilská	AAfs1x
edilský	edilská	AAfs5x
edilský	edilské	AAip1x
edilský	edilské	AAip4x
edilský	edilské	AAip5x
edilský	edilské	AAfp1x
edilský	edilské	AAfp4x
edilský	edilské	AAfp5x
edilský	edilské	AAns1x
edilský	edilské	AAns4x
edilský	edilské	AAns5x
edilský	edilské	AAnp1x
edilský	edilské	AAnp4x
edilský	edilské	AAnp5x
edilský	edilského	AAms2x
edilský	edilského	AAms4x
edilský	edilského	AAis2x
edilský	edilského	AAns2x
edilský	edilskému	AAms3x
edilský	edilskému	AAis3x
edilský	edilskému	AAns3x
edilský	edilskí	AAmp1x
edilský	edilskí	AAmp5x
edilský	edilskú	AAfs4x
edilský	edilský	AAms1x
edilský	edilský	AAms5x
edilský	edilský	AAis1x
edilský	edilský	AAis4x
edilský	edilský	AAis5x
edilský	edilských	AAmp2x
edilský	edilských	AAmp4x
edilský	edilských	AAmp6x
edilský	edilských	AAip2x
edilský	edilských	AAip6x
edilský	edilských	AAfp2x
edilský	edilských	AAfp6x
edilský	edilských	AAnp2x
edilský	edilských	AAnp6x
edilský	edilským	AAms7x
edilský	edilským	AAmp3x
edilský	edilským	AAis7x
edilský	edilským	AAip3x
edilský	edilským	AAfp3x
edilský	edilským	AAns7x
edilský	edilským	AAnp3x
edilský	edilskými	AAmp7x
edilský	edilskými	AAip7x
edilský	edilskými	AAfp7x
edilský	edilskými	AAnp7x
edinburský	edinburskej	AAfs2x
edinburský	edinburskej	AAfs3x
edinburský	edinburskej	AAfs6x
edinburský	edinburskom	AAms6x
edinburský	edinburskom	AAis6x
edinburský	edinburskom	AAns6x
edinburský	edinburskou	AAfs7x
edinburský	edinburská	AAfs1x
edinburský	edinburská	AAfs5x
edinburský	edinburské	AAip1x
edinburský	edinburské	AAip4x
edinburský	edinburské	AAip5x
edinburský	edinburské	AAfp1x
edinburský	edinburské	AAfp4x
edinburský	edinburské	AAfp5x
edinburský	edinburské	AAns1x
edinburský	edinburské	AAns4x
edinburský	edinburské	AAns5x
edinburský	edinburské	AAnp1x
edinburský	edinburské	AAnp4x
edinburský	edinburské	AAnp5x
edinburský	edinburského	AAms2x
edinburský	edinburského	AAms4x
edinburský	edinburského	AAis2x
edinburský	edinburského	AAns2x
edinburský	edinburskému	AAms3x
edinburský	edinburskému	AAis3x
edinburský	edinburskému	AAns3x
edinburský	edinburskí	AAmp1x
edinburský	edinburskí	AAmp5x
edinburský	edinburskú	AAfs4x
edinburský	edinburský	AAms1x
edinburský	edinburský	AAms5x
edinburský	edinburský	AAis1x
edinburský	edinburský	AAis4x
edinburský	edinburský	AAis5x
edinburský	edinburských	AAmp2x
edinburský	edinburských	AAmp4x
edinburský	edinburských	AAmp6x
edinburský	edinburských	AAip2x
edinburský	edinburských	AAip6x
edinburský	edinburských	AAfp2x
edinburský	edinburských	AAfp6x
edinburský	edinburských	AAnp2x
edinburský	edinburských	AAnp6x
edinburský	edinburským	AAms7x
edinburský	edinburským	AAmp3x
edinburský	edinburským	AAis7x
edinburský	edinburským	AAip3x
edinburský	edinburským	AAfp3x
edinburský	edinburským	AAns7x
edinburský	edinburským	AAnp3x
edinburský	edinburskými	AAmp7x
edinburský	edinburskými	AAip7x
edinburský	edinburskými	AAfp7x
edinburský	edinburskými	AAnp7x
editačný	editačnej	AAfs2x
editačný	editačnej	AAfs3x
editačný	editačnej	AAfs6x
editačný	editačnom	AAms6x
editačný	editačnom	AAis6x
editačný	editačnom	AAns6x
editačný	editačnou	AAfs7x
editačný	editačná	AAfs1x
editačný	editačná	AAfs5x
editačný	editačné	AAip1x
editačný	editačné	AAip4x
editačný	editačné	AAip5x
editačný	editačné	AAfp1x
editačný	editačné	AAfp4x
editačný	editačné	AAfp5x
editačný	editačné	AAns1x
editačný	editačné	AAns4x
editačný	editačné	AAns5x
editačný	editačné	AAnp1x
editačný	editačné	AAnp4x
editačný	editačné	AAnp5x
editačný	editačného	AAms2x
editačný	editačného	AAms4x
editačný	editačného	AAis2x
editačný	editačného	AAns2x
editačný	editačnému	AAms3x
editačný	editačnému	AAis3x
editačný	editačnému	AAns3x
editačný	editační	AAmp1x
editačný	editační	AAmp5x
editačný	editačnú	AAfs4x
editačný	editačný	AAms1x
editačný	editačný	AAms5x
editačný	editačný	AAis1x
editačný	editačný	AAis4x
editačný	editačný	AAis5x
editačný	editačných	AAmp2x
editačný	editačných	AAmp4x
editačný	editačných	AAmp6x
editačný	editačných	AAip2x
editačný	editačných	AAip6x
editačný	editačných	AAfp2x
editačný	editačných	AAfp6x
editačný	editačných	AAnp2x
editačný	editačných	AAnp6x
editačný	editačným	AAms7x
editačný	editačným	AAmp3x
editačný	editačným	AAis7x
editačný	editačným	AAip3x
editačný	editačným	AAfp3x
editačný	editačným	AAns7x
editačný	editačným	AAnp3x
editačný	editačnými	AAmp7x
editačný	editačnými	AAip7x
editačný	editačnými	AAfp7x
editačný	editačnými	AAnp7x
editor	editor	SSms1
editor	editor	SSms5
editor	editor	SSis1
editor	editor	SSis4
editor	editor	SSis5
editor	editora	SSms2
editor	editora	SSms4
editor	editora	SSis2
editor	editore	SSis6
editor	editori	SSmp1
editor	editori	SSmp5
editorka	editoriek	SSfp2
editoriál	editoriál	SSis1
editoriál	editoriál	SSis4
editoriál	editoriál	SSis5
editoriál	editoriáli	SSis6
editoriál	editoriálmi	SSip7
editoriál	editoriáloch	SSip6
editoriál	editoriálom	SSis7
editoriál	editoriálom	SSip3
editoriál	editoriálov	SSip2
editoriál	editoriálu	SSis2
editoriál	editoriálu	SSis3
editoriál	editoriály	SSip1
editoriál	editoriály	SSip4
editoriál	editoriály	SSip5
editorka	editorka	SSfs1
editorka	editorka	SSfs5
editorka	editorkami	SSfp7
editorka	editorke	SSfs3
editorka	editorke	SSfs6
editorka	editorkou	SSfs7
editorka	editorku	SSfs4
editorka	editorky	SSfs2
editorka	editorky	SSfp1
editorka	editorky	SSfp4
editorka	editorky	SSfp5
editorka	editorkách	SSfp6
editorka	editorkám	SSfp3
editor	editormi	SSmp7
editor	editormi	SSip7
editor	editoroch	SSmp6
editor	editoroch	SSip6
editor	editorom	SSms7
editor	editorom	SSmp3
editor	editorom	SSis7
editor	editorom	SSip3
editor	editorov	SSmp2
editor	editorov	SSmp4
editor	editorov	SSip2
editor	editorovi	SSms3
editor	editorovi	SSms6
editorský	editorskej	AAfs2x
editorský	editorskej	AAfs3x
editorský	editorskej	AAfs6x
editorský	editorskom	AAms6x
editorský	editorskom	AAis6x
editorský	editorskom	AAns6x
editorský	editorskou	AAfs7x
editorsky	editorsky	Dx
editorský	editorská	AAfs1x
editorský	editorská	AAfs5x
editorský	editorské	AAip1x
editorský	editorské	AAip4x
editorský	editorské	AAip5x
editorský	editorské	AAfp1x
editorský	editorské	AAfp4x
editorský	editorské	AAfp5x
editorský	editorské	AAns1x
editorský	editorské	AAns4x
editorský	editorské	AAns5x
editorský	editorské	AAnp1x
editorský	editorské	AAnp4x
editorský	editorské	AAnp5x
editorský	editorského	AAms2x
editorský	editorského	AAms4x
editorský	editorského	AAis2x
editorský	editorského	AAns2x
editorský	editorskému	AAms3x
editorský	editorskému	AAis3x
editorský	editorskému	AAns3x
editorský	editorskí	AAmp1x
editorský	editorskí	AAmp5x
editorský	editorskú	AAfs4x
editorský	editorský	AAms1x
editorský	editorský	AAms5x
editorský	editorský	AAis1x
editorský	editorský	AAis4x
editorský	editorský	AAis5x
editorský	editorských	AAmp2x
editorský	editorských	AAmp4x
editorský	editorských	AAmp6x
editorský	editorských	AAip2x
editorský	editorských	AAip6x
editorský	editorských	AAfp2x
editorský	editorských	AAfp6x
editorský	editorských	AAnp2x
editorský	editorských	AAnp6x
editorský	editorským	AAms7x
editorský	editorským	AAmp3x
editorský	editorským	AAis7x
editorský	editorským	AAip3x
editorský	editorským	AAfp3x
editorský	editorským	AAns7x
editorský	editorským	AAnp3x
editorský	editorskými	AAmp7x
editorský	editorskými	AAip7x
editorský	editorskými	AAfp7x
editorský	editorskými	AAnp7x
editorstvo	editorstiev	SSnp2
editorstvo	editorstva	SSns2
editorstvo	editorstvami	SSnp7
editorstvo	editorstve	SSns6
editorstvo	editorstvo	SSns1
editorstvo	editorstvo	SSns4
editorstvo	editorstvo	SSns5
editorstvo	editorstvom	SSns7
editorstvo	editorstvu	SSns3
editorstvo	editorstvá	SSnp1
editorstvo	editorstvá	SSnp4
editorstvo	editorstvá	SSnp5
editorstvo	editorstvách	SSnp6
editorstvo	editorstvám	SSnp3
editor	editoru	SSis3
editor	editory	SSip1
editor	editory	SSip4
editor	editory	SSip5
editovací	editovacej	AAfs2x
editovací	editovacej	AAfs3x
editovací	editovacej	AAfs6x
editovací	editovacia	AAfs1x
editovací	editovacia	AAfs5x
editovací	editovacie	AAip1x
editovací	editovacie	AAip4x
editovací	editovacie	AAip5x
editovací	editovacie	AAfp1x
editovací	editovacie	AAfp4x
editovací	editovacie	AAfp5x
editovací	editovacie	AAns1x
editovací	editovacie	AAns4x
editovací	editovacie	AAns5x
editovací	editovacie	AAnp1x
editovací	editovacie	AAnp4x
editovací	editovacie	AAnp5x
editovací	editovacieho	AAms2x
editovací	editovacieho	AAms4x
editovací	editovacieho	AAis2x
editovací	editovacieho	AAns2x
editovací	editovaciemu	AAms3x
editovací	editovaciemu	AAis3x
editovací	editovaciemu	AAns3x
editovací	editovaciu	AAfs4x
editovací	editovacom	AAms6x
editovací	editovacom	AAis6x
editovací	editovacom	AAns6x
editovací	editovacou	AAfs7x
editovací	editovací	AAms1x
editovací	editovací	AAms5x
editovací	editovací	AAmp1x
editovací	editovací	AAmp5x
editovací	editovací	AAis1x
editovací	editovací	AAis4x
editovací	editovací	AAis5x
editovací	editovacích	AAmp2x
editovací	editovacích	AAmp4x
editovací	editovacích	AAmp6x
editovací	editovacích	AAip2x
editovací	editovacích	AAip6x
editovací	editovacích	AAfp2x
editovací	editovacích	AAfp6x
editovací	editovacích	AAnp2x
editovací	editovacích	AAnp6x
editovací	editovacím	AAms7x
editovací	editovacím	AAmp3x
editovací	editovacím	AAis7x
editovací	editovacím	AAip3x
editovací	editovacím	AAfp3x
editovací	editovacím	AAns7x
editovací	editovacím	AAnp3x
editovací	editovacími	AAmp7x
editovací	editovacími	AAip7x
editovací	editovacími	AAfp7x
editovací	editovacími	AAnp7x
editovať	editoval	VLjsam+
editovať	editoval	VLjsai+
editovať	editoval	VLjsbm+
editovať	editoval	VLjsbi+
editovať	editoval	VLjscm+
editovať	editoval	VLjsci+
editovať	editovala	VLjsaf+
editovať	editovala	VLjsbf+
editovať	editovala	VLjscf+
editovať	editovali	VLjpah+
editovať	editovali	VLjpbh+
editovať	editovali	VLjpcm+
editovať	editovali	VLjpci+
editovať	editovali	VLjpcf+
editovať	editovali	VLjpcn+
editovať	editovali	VLjpco+
editovať	editovalo	VLjsan+
editovať	editovalo	VLjsbn+
editovať	editovalo	VLjscn+
editovanie	editovania	SSns2
editovanie	editovania	SSnp1
editovanie	editovania	SSnp4
editovanie	editovania	SSnp5
editovanie	editovaniach	SSnp6
editovanie	editovaniam	SSnp3
editovanie	editovaniami	SSnp7
editovanie	editovanie	SSns1
editovanie	editovanie	SSns4
editovanie	editovanie	SSns5
editovanie	editovaniu	SSns3
editovanie	editovaní	SSns6
editovanie	editovaní	SSnp2
editovanie	editovaním	SSns7
editovať	editovať	VIj+
editovať	edituj	VMjsb+
editovať	edituje	VKjsc+
editovať	editujem	VKjsa+
editovať	editujeme	VKjpa+
editovať	editujete	VKjpb+
editovať	edituješ	VKjsb+
editovať	editujme	VMjpa+
editovať	editujte	VMjpb+
editovať	editujú	VKjpc+
editovať	editujúc	VHj+
editácia	editácia	SSfs1
editácia	editácia	SSfs5
editácia	editáciami	SSfp7
editácia	editácie	SSfs2
editácia	editácie	SSfp1
editácia	editácie	SSfp4
editácia	editácie	SSfp5
editácia	editácii	SSfs3
editácia	editácii	SSfs6
editácia	editáciou	SSfs7
editácia	editáciu	SSfs4
editácia	editáciách	SSfp6
editácia	editáciám	SSfp3
editácia	editácií	SSfp2
edične	edične	Dx
edičný	edičnej	AAfs2x
edičný	edičnej	AAfs3x
edičný	edičnej	AAfs6x
edičný	edičnom	AAms6x
edičný	edičnom	AAis6x
edičný	edičnom	AAns6x
edičný	edičnou	AAfs7x
edičný	edičná	AAfs1x
edičný	edičná	AAfs5x
edičný	edičné	AAip1x
edičný	edičné	AAip4x
edičný	edičné	AAip5x
edičný	edičné	AAfp1x
edičný	edičné	AAfp4x
edičný	edičné	AAfp5x
edičný	edičné	AAns1x
edičný	edičné	AAns4x
edičný	edičné	AAns5x
edičný	edičné	AAnp1x
edičný	edičné	AAnp4x
edičný	edičné	AAnp5x
edičný	edičného	AAms2x
edičný	edičného	AAms4x
edičný	edičného	AAis2x
edičný	edičného	AAns2x
edičný	edičnému	AAms3x
edičný	edičnému	AAis3x
edičný	edičnému	AAns3x
edičný	ediční	AAmp1x
edičný	ediční	AAmp5x
edičný	edičnú	AAfs4x
edičný	edičný	AAms1x
edičný	edičný	AAms5x
edičný	edičný	AAis1x
edičný	edičný	AAis4x
edičný	edičný	AAis5x
edičný	edičných	AAmp2x
edičný	edičných	AAmp4x
edičný	edičných	AAmp6x
edičný	edičných	AAip2x
edičný	edičných	AAip6x
edičný	edičných	AAfp2x
edičný	edičných	AAfp6x
edičný	edičných	AAnp2x
edičný	edičných	AAnp6x
edičný	edičným	AAms7x
edičný	edičným	AAmp3x
edičný	edičným	AAis7x
edičný	edičným	AAip3x
edičný	edičným	AAfp3x
edičný	edičným	AAns7x
edičný	edičným	AAnp3x
edičný	edičnými	AAmp7x
edičný	edičnými	AAip7x
edičný	edičnými	AAfp7x
edičný	edičnými	AAnp7x
edukatívny	edukatívna	AAfs1x
edukatívny	edukatívna	AAfs5x
edukatívny	edukatívne	AAip1x
edukatívny	edukatívne	AAip4x
edukatívny	edukatívne	AAip5x
edukatívny	edukatívne	AAfp1x
edukatívny	edukatívne	AAfp4x
edukatívny	edukatívne	AAfp5x
edukatívny	edukatívne	AAns1x
edukatívny	edukatívne	AAns4x
edukatívny	edukatívne	AAns5x
edukatívny	edukatívne	AAnp1x
edukatívny	edukatívne	AAnp4x
edukatívny	edukatívne	AAnp5x
edukatívny	edukatívneho	AAms2x
edukatívny	edukatívneho	AAms4x
edukatívny	edukatívneho	AAis2x
edukatívny	edukatívneho	AAns2x
edukatívny	edukatívnej	AAfs2x
edukatívny	edukatívnej	AAfs3x
edukatívny	edukatívnej	AAfs6x
edukatívny	edukatívnemu	AAms3x
edukatívny	edukatívnemu	AAis3x
edukatívny	edukatívnemu	AAns3x
edukatívny	edukatívni	AAmp1x
edukatívny	edukatívni	AAmp5x
edukatívny	edukatívnom	AAms6x
edukatívny	edukatívnom	AAis6x
edukatívny	edukatívnom	AAns6x
edukatívnosť	edukatívnosti	SSfs2
edukatívnosť	edukatívnosti	SSfs3
edukatívnosť	edukatívnosti	SSfs6
edukatívnosť	edukatívnosti	SSfp1
edukatívnosť	edukatívnosti	SSfp4
edukatívnosť	edukatívnosti	SSfp5
edukatívnosť	edukatívnostiach	SSfp6
edukatívnosť	edukatívnostiam	SSfp3
edukatívnosť	edukatívností	SSfp2
edukatívnosť	edukatívnosť	SSfs1
edukatívnosť	edukatívnosť	SSfs4
edukatívnosť	edukatívnosť	SSfs5
edukatívnosť	edukatívnosťami	SSfp7
edukatívnosť	edukatívnosťou	SSfs7
edukatívny	edukatívnou	AAfs7x
edukatívny	edukatívnu	AAfs4x
edukatívny	edukatívny	AAms1x
edukatívny	edukatívny	AAms5x
edukatívny	edukatívny	AAis1x
edukatívny	edukatívny	AAis4x
edukatívny	edukatívny	AAis5x
edukatívny	edukatívnych	AAmp2x
edukatívny	edukatívnych	AAmp4x
edukatívny	edukatívnych	AAmp6x
edukatívny	edukatívnych	AAip2x
edukatívny	edukatívnych	AAip6x
edukatívny	edukatívnych	AAfp2x
edukatívny	edukatívnych	AAfp6x
edukatívny	edukatívnych	AAnp2x
edukatívny	edukatívnych	AAnp6x
edukatívny	edukatívnym	AAms7x
edukatívny	edukatívnym	AAmp3x
edukatívny	edukatívnym	AAis7x
edukatívny	edukatívnym	AAip3x
edukatívny	edukatívnym	AAfp3x
edukatívny	edukatívnym	AAns7x
edukatívny	edukatívnym	AAnp3x
edukatívny	edukatívnymi	AAmp7x
edukatívny	edukatívnymi	AAip7x
edukatívny	edukatívnymi	AAfp7x
edukatívny	edukatívnymi	AAnp7x
edukačný	edukačnej	AAfs2x
edukačný	edukačnej	AAfs3x
edukačný	edukačnej	AAfs6x
edukačný	edukačnom	AAms6x
edukačný	edukačnom	AAis6x
edukačný	edukačnom	AAns6x
edukačný	edukačnou	AAfs7x
edukačný	edukačná	AAfs1x
edukačný	edukačná	AAfs5x
edukačný	edukačné	AAip1x
edukačný	edukačné	AAip4x
edukačný	edukačné	AAip5x
edukačný	edukačné	AAfp1x
edukačný	edukačné	AAfp4x
edukačný	edukačné	AAfp5x
edukačný	edukačné	AAns1x
edukačný	edukačné	AAns4x
edukačný	edukačné	AAns5x
edukačný	edukačné	AAnp1x
edukačný	edukačné	AAnp4x
edukačný	edukačné	AAnp5x
edukačný	edukačného	AAms2x
edukačný	edukačného	AAms4x
edukačný	edukačného	AAis2x
edukačný	edukačného	AAns2x
edukačný	edukačnému	AAms3x
edukačný	edukačnému	AAis3x
edukačný	edukačnému	AAns3x
edukačný	edukační	AAmp1x
edukačný	edukační	AAmp5x
edukačný	edukačnú	AAfs4x
edukačný	edukačný	AAms1x
edukačný	edukačný	AAms5x
edukačný	edukačný	AAis1x
edukačný	edukačný	AAis4x
edukačný	edukačný	AAis5x
edukačný	edukačných	AAmp2x
edukačný	edukačných	AAmp4x
edukačný	edukačných	AAmp6x
edukačný	edukačných	AAip2x
edukačný	edukačných	AAip6x
edukačný	edukačných	AAfp2x
edukačný	edukačných	AAfp6x
edukačný	edukačných	AAnp2x
edukačný	edukačných	AAnp6x
edukačný	edukačným	AAms7x
edukačný	edukačným	AAmp3x
edukačný	edukačným	AAis7x
edukačný	edukačným	AAip3x
edukačný	edukačným	AAfp3x
edukačný	edukačným	AAns7x
edukačný	edukačným	AAnp3x
edukačný	edukačnými	AAmp7x
edukačný	edukačnými	AAip7x
edukačný	edukačnými	AAfp7x
edukačný	edukačnými	AAnp7x
edukovať	edukoval	VLesam+
edukovať	edukoval	VLesai+
edukovať	edukoval	VLesbm+
edukovať	edukoval	VLesbi+
edukovať	edukoval	VLescm+
edukovať	edukoval	VLesci+
edukovať	edukovala	VLesaf+
edukovať	edukovala	VLesbf+
edukovať	edukovala	VLescf+
edukovať	edukovali	VLepah+
edukovať	edukovali	VLepbh+
edukovať	edukovali	VLepcm+
edukovať	edukovali	VLepci+
edukovať	edukovali	VLepcf+
edukovať	edukovali	VLepcn+
edukovať	edukovali	VLepco+
edukovať	edukovalo	VLesan+
edukovať	edukovalo	VLesbn+
edukovať	edukovalo	VLescn+
edukovať	edukovať	VIe+
edukovať	edukuj	VMesb+
edukovať	edukuje	VKesc+
edukovať	edukujem	VKesa+
edukovať	edukujeme	VKepa+
edukovať	edukujete	VKepb+
edukovať	edukuješ	VKesb+
edukovať	edukujme	VMepa+
edukovať	edukujte	VMepb+
edukovať	edukujú	VKepc+
edukovať	edukujúc	VHe+
edukácia	edukácia	SSfs1
edukácia	edukácia	SSfs5
edukácia	edukáciami	SSfp7
edukácia	edukácie	SSfs2
edukácia	edukácie	SSfp1
edukácia	edukácie	SSfp4
edukácia	edukácie	SSfp5
edukácia	edukácii	SSfs3
edukácia	edukácii	SSfs6
edukácia	edukáciou	SSfs7
edukácia	edukáciu	SSfs4
edukácia	edukáciách	SSfp6
edukácia	edukáciám	SSfp3
edukácia	edukácií	SSfp2
edukátor	edukátor	SSms1
edukátor	edukátor	SSms5
edukátor	edukátora	SSms2
edukátor	edukátora	SSms4
edukátor	edukátori	SSmp1
edukátor	edukátori	SSmp5
edukátor	edukátormi	SSmp7
edukátor	edukátoroch	SSmp6
edukátor	edukátorom	SSms7
edukátor	edukátorom	SSmp3
edukátor	edukátorov	SSmp2
edukátor	edukátorov	SSmp4
edukátor	edukátorovi	SSms3
edukátor	edukátorovi	SSms6
edém	edém	SSis1
edém	edém	SSis4
edém	edém	SSis5
edém	edéme	SSis6
edém	edémmi	SSip7
edém	edémoch	SSip6
edém	edémom	SSis7
edém	edémom	SSip3
edém	edémov	SSip2
edémový	edémovej	AAfs2x
edémový	edémovej	AAfs3x
edémový	edémovej	AAfs6x
edémový	edémovom	AAms6x
edémový	edémovom	AAis6x
edémový	edémovom	AAns6x
edémový	edémovou	AAfs7x
edémový	edémová	AAfs1x
edémový	edémová	AAfs5x
edémový	edémové	AAip1x
edémový	edémové	AAip4x
edémový	edémové	AAip5x
edémový	edémové	AAfp1x
edémový	edémové	AAfp4x
edémový	edémové	AAfp5x
edémový	edémové	AAns1x
edémový	edémové	AAns4x
edémový	edémové	AAns5x
edémový	edémové	AAnp1x
edémový	edémové	AAnp4x
edémový	edémové	AAnp5x
edémový	edémového	AAms2x
edémový	edémového	AAms4x
edémový	edémového	AAis2x
edémový	edémového	AAns2x
edémový	edémovému	AAms3x
edémový	edémovému	AAis3x
edémový	edémovému	AAns3x
edémový	edémoví	AAmp1x
edémový	edémoví	AAmp5x
edémový	edémovú	AAfs4x
edémový	edémový	AAms1x
edémový	edémový	AAms5x
edémový	edémový	AAis1x
edémový	edémový	AAis4x
edémový	edémový	AAis5x
edémový	edémových	AAmp2x
edémový	edémových	AAmp4x
edémový	edémových	AAmp6x
edémový	edémových	AAip2x
edémový	edémových	AAip6x
edémový	edémových	AAfp2x
edémový	edémových	AAfp6x
edémový	edémových	AAnp2x
edémový	edémových	AAnp6x
edémový	edémovým	AAms7x
edémový	edémovým	AAmp3x
edémový	edémovým	AAis7x
edémový	edémovým	AAip3x
edémový	edémovým	AAfp3x
edémový	edémovým	AAns7x
edémový	edémovým	AAnp3x
edémový	edémovými	AAmp7x
edémový	edémovými	AAip7x
edémový	edémovými	AAfp7x
edémový	edémovými	AAnp7x
edém	edému	SSis2
edém	edému	SSis3
edém	edémy	SSip1
edém	edémy	SSip4
edém	edémy	SSip5
edícia	edícia	SSfs1
edícia	edícia	SSfs5
edícia	edíciami	SSfp7
edícia	edície	SSfs2
edícia	edície	SSfp1
edícia	edície	SSfp4
edícia	edície	SSfp5
edícia	edícii	SSfs3
edícia	edícii	SSfs6
edícia	edíciou	SSfs7
edícia	edíciu	SSfs4
edícia	edíciách	SSfp6
edícia	edíciám	SSfp3
edícia	edícií	SSfp2
