efbasista	efbasista	SSms1
efbasista	efbasista	SSms5
efbasista	efbasistami	SSmp7
efbasista	efbasisti	SSmp1
efbasista	efbasisti	SSmp5
efbasista	efbasistoch	SSmp6
efbasista	efbasistom	SSms7
efbasista	efbasistom	SSmp3
efbasista	efbasistov	SSmp2
efbasista	efbasistov	SSmp4
efbasista	efbasistovi	SSms3
efbasista	efbasistovi	SSms6
efbasista	efbasistu	SSms2
efbasista	efbasistu	SSms4
efedra	efedier	SSfp2
efedra	efedra	SSfs1
efedra	efedra	SSfs5
efedra	efedrami	SSfp7
efedra	efedre	SSfs3
efedra	efedre	SSfs6
efedra	efedrou	SSfs7
efedra	efedru	SSfs4
efedra	efedry	SSfs2
efedra	efedry	SSfp1
efedra	efedry	SSfp4
efedra	efedry	SSfp5
efedra	efedrách	SSfp6
efedra	efedrám	SSfp3
efedrín	efedrín	SSis1
efedrín	efedrín	SSis4
efedrín	efedrín	SSis5
efedrín	efedríne	SSis6
efedrín	efedrínmi	SSip7
efedrín	efedrínoch	SSip6
efedrín	efedrínom	SSis7
efedrín	efedrínom	SSip3
efedrín	efedrínov	SSip2
efedrínový	efedrínovej	AAfs2x
efedrínový	efedrínovej	AAfs3x
efedrínový	efedrínovej	AAfs6x
efedrínový	efedrínovom	AAms6x
efedrínový	efedrínovom	AAis6x
efedrínový	efedrínovom	AAns6x
efedrínový	efedrínovou	AAfs7x
efedrínový	efedrínová	AAfs1x
efedrínový	efedrínová	AAfs5x
efedrínový	efedrínové	AAip1x
efedrínový	efedrínové	AAip4x
efedrínový	efedrínové	AAip5x
efedrínový	efedrínové	AAfp1x
efedrínový	efedrínové	AAfp4x
efedrínový	efedrínové	AAfp5x
efedrínový	efedrínové	AAns1x
efedrínový	efedrínové	AAns4x
efedrínový	efedrínové	AAns5x
efedrínový	efedrínové	AAnp1x
efedrínový	efedrínové	AAnp4x
efedrínový	efedrínové	AAnp5x
efedrínový	efedrínového	AAms2x
efedrínový	efedrínového	AAms4x
efedrínový	efedrínového	AAis2x
efedrínový	efedrínového	AAns2x
efedrínový	efedrínovému	AAms3x
efedrínový	efedrínovému	AAis3x
efedrínový	efedrínovému	AAns3x
efedrínový	efedrínoví	AAmp1x
efedrínový	efedrínoví	AAmp5x
efedrínový	efedrínovú	AAfs4x
efedrínový	efedrínový	AAms1x
efedrínový	efedrínový	AAms5x
efedrínový	efedrínový	AAis1x
efedrínový	efedrínový	AAis4x
efedrínový	efedrínový	AAis5x
efedrínový	efedrínových	AAmp2x
efedrínový	efedrínových	AAmp4x
efedrínový	efedrínových	AAmp6x
efedrínový	efedrínových	AAip2x
efedrínový	efedrínových	AAip6x
efedrínový	efedrínových	AAfp2x
efedrínový	efedrínových	AAfp6x
efedrínový	efedrínových	AAnp2x
efedrínový	efedrínových	AAnp6x
efedrínový	efedrínovým	AAms7x
efedrínový	efedrínovým	AAmp3x
efedrínový	efedrínovým	AAis7x
efedrínový	efedrínovým	AAip3x
efedrínový	efedrínovým	AAfp3x
efedrínový	efedrínovým	AAns7x
efedrínový	efedrínovým	AAnp3x
efedrínový	efedrínovými	AAmp7x
efedrínový	efedrínovými	AAip7x
efedrínový	efedrínovými	AAfp7x
efedrínový	efedrínovými	AAnp7x
efedrín	efedrínu	SSis2
efedrín	efedrínu	SSis3
efedrín	efedríny	SSip1
efedrín	efedríny	SSip4
efedrín	efedríny	SSip5
efekt	efekt	SSis1
efekt	efekt	SSis4
efekt	efekt	SSis5
efekt	efekte	SSis6
efektivita	efektivita	SSfs1
efektivita	efektivita	SSfs5
efektivita	efektivitami	SSfp7
efektivita	efektivite	SSfs3
efektivita	efektivite	SSfs6
efektivita	efektivitou	SSfs7
efektivita	efektivitu	SSfs4
efektivita	efektivity	SSfs2
efektivita	efektivity	SSfp1
efektivita	efektivity	SSfp4
efektivita	efektivity	SSfp5
efektivita	efektivitách	SSfp6
efektivita	efektivitám	SSfp3
efektivita	efektivít	SSfp2
efekt	efektmi	SSip7
efektne	efektne	Dx
efektný	efektnej	AAfs2x
efektný	efektnej	AAfs3x
efektný	efektnej	AAfs6x
efektný	efektnejšej	AAfs2y
efektný	efektnejšej	AAfs3y
efektný	efektnejšej	AAfs6y
efektný	efektnejšia	AAfs1y
efektný	efektnejšia	AAfs5y
efektne	efektnejšie	Dy
efektný	efektnejšie	AAip1y
efektný	efektnejšie	AAip4y
efektný	efektnejšie	AAip5y
efektný	efektnejšie	AAfp1y
efektný	efektnejšie	AAfp4y
efektný	efektnejšie	AAfp5y
efektný	efektnejšie	AAns1y
efektný	efektnejšie	AAns4y
efektný	efektnejšie	AAns5y
efektný	efektnejšie	AAnp1y
efektný	efektnejšie	AAnp4y
efektný	efektnejšie	AAnp5y
efektný	efektnejšieho	AAms2y
efektný	efektnejšieho	AAms4y
efektný	efektnejšieho	AAis2y
efektný	efektnejšieho	AAns2y
efektný	efektnejšiemu	AAms3y
efektný	efektnejšiemu	AAis3y
efektný	efektnejšiemu	AAns3y
efektný	efektnejšiu	AAfs4y
efektný	efektnejšom	AAms6y
efektný	efektnejšom	AAis6y
efektný	efektnejšom	AAns6y
efektný	efektnejšou	AAfs7y
efektný	efektnejší	AAms1y
efektný	efektnejší	AAms5y
efektný	efektnejší	AAmp1y
efektný	efektnejší	AAmp5y
efektný	efektnejší	AAis1y
efektný	efektnejší	AAis4y
efektný	efektnejší	AAis5y
efektný	efektnejších	AAmp2y
efektný	efektnejších	AAmp4y
efektný	efektnejších	AAmp6y
efektný	efektnejších	AAip2y
efektný	efektnejších	AAip6y
efektný	efektnejších	AAfp2y
efektný	efektnejších	AAfp6y
efektný	efektnejších	AAnp2y
efektný	efektnejších	AAnp6y
efektný	efektnejším	AAms7y
efektný	efektnejším	AAmp3y
efektný	efektnejším	AAis7y
efektný	efektnejším	AAip3y
efektný	efektnejším	AAfp3y
efektný	efektnejším	AAns7y
efektný	efektnejším	AAnp3y
efektný	efektnejšími	AAmp7y
efektný	efektnejšími	AAip7y
efektný	efektnejšími	AAfp7y
efektný	efektnejšími	AAnp7y
efektný	efektnom	AAms6x
efektný	efektnom	AAis6x
efektný	efektnom	AAns6x
efektnosť	efektnosti	SSfs2
efektnosť	efektnosti	SSfs3
efektnosť	efektnosti	SSfs6
efektnosť	efektnosti	SSfp1
efektnosť	efektnosti	SSfp4
efektnosť	efektnosti	SSfp5
efektnosť	efektnostiach	SSfp6
efektnosť	efektnostiam	SSfp3
efektnosť	efektností	SSfp2
efektnosť	efektnosť	SSfs1
efektnosť	efektnosť	SSfs4
efektnosť	efektnosť	SSfs5
efektnosť	efektnosťami	SSfp7
efektnosť	efektnosťou	SSfs7
efektný	efektnou	AAfs7x
efektný	efektná	AAfs1x
efektný	efektná	AAfs5x
efektný	efektné	AAip1x
efektný	efektné	AAip4x
efektný	efektné	AAip5x
efektný	efektné	AAfp1x
efektný	efektné	AAfp4x
efektný	efektné	AAfp5x
efektný	efektné	AAns1x
efektný	efektné	AAns4x
efektný	efektné	AAns5x
efektný	efektné	AAnp1x
efektný	efektné	AAnp4x
efektný	efektné	AAnp5x
efektný	efektného	AAms2x
efektný	efektného	AAms4x
efektný	efektného	AAis2x
efektný	efektného	AAns2x
efektný	efektnému	AAms3x
efektný	efektnému	AAis3x
efektný	efektnému	AAns3x
efektný	efektní	AAmp1x
efektný	efektní	AAmp5x
efektný	efektnú	AAfs4x
efektný	efektný	AAms1x
efektný	efektný	AAms5x
efektný	efektný	AAis1x
efektný	efektný	AAis4x
efektný	efektný	AAis5x
efektný	efektných	AAmp2x
efektný	efektných	AAmp4x
efektný	efektných	AAmp6x
efektný	efektných	AAip2x
efektný	efektných	AAip6x
efektný	efektných	AAfp2x
efektný	efektných	AAfp6x
efektný	efektných	AAnp2x
efektný	efektných	AAnp6x
efektný	efektným	AAms7x
efektný	efektným	AAmp3x
efektný	efektným	AAis7x
efektný	efektným	AAip3x
efektný	efektným	AAfp3x
efektný	efektným	AAns7x
efektný	efektným	AAnp3x
efektný	efektnými	AAmp7x
efektný	efektnými	AAip7x
efektný	efektnými	AAfp7x
efektný	efektnými	AAnp7x
efekt	efektoch	SSip6
efekt	efektom	SSis7
efekt	efektom	SSip3
efektor	efektor	SSis1
efektor	efektor	SSis4
efektor	efektor	SSis5
efektor	efektora	SSis2
efektor	efektore	SSis6
efektorický	efektorickej	AAfs2x
efektorický	efektorickej	AAfs3x
efektorický	efektorickej	AAfs6x
efektorický	efektorickom	AAms6x
efektorický	efektorickom	AAis6x
efektorický	efektorickom	AAns6x
efektorický	efektorickou	AAfs7x
efektorický	efektorická	AAfs1x
efektorický	efektorická	AAfs5x
efektorický	efektorické	AAip1x
efektorický	efektorické	AAip4x
efektorický	efektorické	AAip5x
efektorický	efektorické	AAfp1x
efektorický	efektorické	AAfp4x
efektorický	efektorické	AAfp5x
efektorický	efektorické	AAns1x
efektorický	efektorické	AAns4x
efektorický	efektorické	AAns5x
efektorický	efektorické	AAnp1x
efektorický	efektorické	AAnp4x
efektorický	efektorické	AAnp5x
efektorický	efektorického	AAms2x
efektorický	efektorického	AAms4x
efektorický	efektorického	AAis2x
efektorický	efektorického	AAns2x
efektorický	efektorickému	AAms3x
efektorický	efektorickému	AAis3x
efektorický	efektorickému	AAns3x
efektorický	efektorickí	AAmp1x
efektorický	efektorickí	AAmp5x
efektorický	efektorickú	AAfs4x
efektorický	efektorický	AAms1x
efektorický	efektorický	AAms5x
efektorický	efektorický	AAis1x
efektorický	efektorický	AAis4x
efektorický	efektorický	AAis5x
efektorický	efektorických	AAmp2x
efektorický	efektorických	AAmp4x
efektorický	efektorických	AAmp6x
efektorický	efektorických	AAip2x
efektorický	efektorických	AAip6x
efektorický	efektorických	AAfp2x
efektorický	efektorických	AAfp6x
efektorický	efektorických	AAnp2x
efektorický	efektorických	AAnp6x
efektorický	efektorickým	AAms7x
efektorický	efektorickým	AAmp3x
efektorický	efektorickým	AAis7x
efektorický	efektorickým	AAip3x
efektorický	efektorickým	AAfp3x
efektorický	efektorickým	AAns7x
efektorický	efektorickým	AAnp3x
efektorický	efektorickými	AAmp7x
efektorický	efektorickými	AAip7x
efektorický	efektorickými	AAfp7x
efektorický	efektorickými	AAnp7x
efektor	efektormi	SSip7
efektor	efektoroch	SSip6
efektor	efektorom	SSis7
efektor	efektorom	SSip3
efektor	efektorov	SSip2
efektor	efektoru	SSis3
efektor	efektory	SSip1
efektor	efektory	SSip4
efektor	efektory	SSip5
efekt	efektov	SSip2
efektový	efektovej	AAfs2x
efektový	efektovej	AAfs3x
efektový	efektovej	AAfs6x
efektový	efektovom	AAms6x
efektový	efektovom	AAis6x
efektový	efektovom	AAns6x
efektový	efektovou	AAfs7x
efektový	efektová	AAfs1x
efektový	efektová	AAfs5x
efektový	efektové	AAip1x
efektový	efektové	AAip4x
efektový	efektové	AAip5x
efektový	efektové	AAfp1x
efektový	efektové	AAfp4x
efektový	efektové	AAfp5x
efektový	efektové	AAns1x
efektový	efektové	AAns4x
efektový	efektové	AAns5x
efektový	efektové	AAnp1x
efektový	efektové	AAnp4x
efektový	efektové	AAnp5x
efektový	efektového	AAms2x
efektový	efektového	AAms4x
efektový	efektového	AAis2x
efektový	efektového	AAns2x
efektový	efektovému	AAms3x
efektový	efektovému	AAis3x
efektový	efektovému	AAns3x
efektový	efektoví	AAmp1x
efektový	efektoví	AAmp5x
efektový	efektovú	AAfs4x
efektový	efektový	AAms1x
efektový	efektový	AAms5x
efektový	efektový	AAis1x
efektový	efektový	AAis4x
efektový	efektový	AAis5x
efektový	efektových	AAmp2x
efektový	efektových	AAmp4x
efektový	efektových	AAmp6x
efektový	efektových	AAip2x
efektový	efektových	AAip6x
efektový	efektových	AAfp2x
efektový	efektových	AAfp6x
efektový	efektových	AAnp2x
efektový	efektových	AAnp6x
efektový	efektovým	AAms7x
efektový	efektovým	AAmp3x
efektový	efektovým	AAis7x
efektový	efektovým	AAip3x
efektový	efektovým	AAfp3x
efektový	efektovým	AAns7x
efektový	efektovým	AAnp3x
efektový	efektovými	AAmp7x
efektový	efektovými	AAip7x
efektový	efektovými	AAfp7x
efektový	efektovými	AAnp7x
efekt	efektu	SSis2
efekt	efektu	SSis3
efekt	efekty	SSip1
efekt	efekty	SSip4
efekt	efekty	SSip5
efektívny	efektívna	AAfs1x
efektívny	efektívna	AAfs5x
efektívne	efektívne	Dx
efektívny	efektívne	AAip1x
efektívny	efektívne	AAip4x
efektívny	efektívne	AAip5x
efektívny	efektívne	AAfp1x
efektívny	efektívne	AAfp4x
efektívny	efektívne	AAfp5x
efektívny	efektívne	AAns1x
efektívny	efektívne	AAns4x
efektívny	efektívne	AAns5x
efektívny	efektívne	AAnp1x
efektívny	efektívne	AAnp4x
efektívny	efektívne	AAnp5x
efektívny	efektívneho	AAms2x
efektívny	efektívneho	AAms4x
efektívny	efektívneho	AAis2x
efektívny	efektívneho	AAns2x
efektívny	efektívnej	AAfs2x
efektívny	efektívnej	AAfs3x
efektívny	efektívnej	AAfs6x
efektívny	efektívnejšej	AAfs2y
efektívny	efektívnejšej	AAfs3y
efektívny	efektívnejšej	AAfs6y
efektívny	efektívnejšia	AAfs1y
efektívny	efektívnejšia	AAfs5y
efektívne	efektívnejšie	Dy
efektívny	efektívnejšie	AAip1y
efektívny	efektívnejšie	AAip4y
efektívny	efektívnejšie	AAip5y
efektívny	efektívnejšie	AAfp1y
efektívny	efektívnejšie	AAfp4y
efektívny	efektívnejšie	AAfp5y
efektívny	efektívnejšie	AAns1y
efektívny	efektívnejšie	AAns4y
efektívny	efektívnejšie	AAns5y
efektívny	efektívnejšie	AAnp1y
efektívny	efektívnejšie	AAnp4y
efektívny	efektívnejšie	AAnp5y
efektívny	efektívnejšieho	AAms2y
efektívny	efektívnejšieho	AAms4y
efektívny	efektívnejšieho	AAis2y
efektívny	efektívnejšieho	AAns2y
efektívny	efektívnejšiemu	AAms3y
efektívny	efektívnejšiemu	AAis3y
efektívny	efektívnejšiemu	AAns3y
efektívny	efektívnejšiu	AAfs4y
efektívny	efektívnejšom	AAms6y
efektívny	efektívnejšom	AAis6y
efektívny	efektívnejšom	AAns6y
efektívny	efektívnejšou	AAfs7y
efektívny	efektívnejší	AAms1y
efektívny	efektívnejší	AAms5y
efektívny	efektívnejší	AAmp1y
efektívny	efektívnejší	AAmp5y
efektívny	efektívnejší	AAis1y
efektívny	efektívnejší	AAis4y
efektívny	efektívnejší	AAis5y
efektívny	efektívnejších	AAmp2y
efektívny	efektívnejších	AAmp4y
efektívny	efektívnejších	AAmp6y
efektívny	efektívnejších	AAip2y
efektívny	efektívnejších	AAip6y
efektívny	efektívnejších	AAfp2y
efektívny	efektívnejších	AAfp6y
efektívny	efektívnejších	AAnp2y
efektívny	efektívnejších	AAnp6y
efektívny	efektívnejším	AAms7y
efektívny	efektívnejším	AAmp3y
efektívny	efektívnejším	AAis7y
efektívny	efektívnejším	AAip3y
efektívny	efektívnejším	AAfp3y
efektívny	efektívnejším	AAns7y
efektívny	efektívnejším	AAnp3y
efektívny	efektívnejšími	AAmp7y
efektívny	efektívnejšími	AAip7y
efektívny	efektívnejšími	AAfp7y
efektívny	efektívnejšími	AAnp7y
efektívny	efektívnemu	AAms3x
efektívny	efektívnemu	AAis3x
efektívny	efektívnemu	AAns3x
efektívny	efektívni	AAmp1x
efektívny	efektívni	AAmp5x
efektívny	efektívnom	AAms6x
efektívny	efektívnom	AAis6x
efektívny	efektívnom	AAns6x
efektívnosť	efektívnosti	SSfs2
efektívnosť	efektívnosti	SSfs3
efektívnosť	efektívnosti	SSfs6
efektívnosť	efektívnosti	SSfp1
efektívnosť	efektívnosti	SSfp4
efektívnosť	efektívnosti	SSfp5
efektívnosť	efektívnostiach	SSfp6
efektívnosť	efektívnostiam	SSfp3
efektívnosť	efektívností	SSfp2
efektívnosť	efektívnosť	SSfs1
efektívnosť	efektívnosť	SSfs4
efektívnosť	efektívnosť	SSfs5
efektívnosť	efektívnosťami	SSfp7
efektívnosť	efektívnosťou	SSfs7
efektívny	efektívnou	AAfs7x
efektívny	efektívnu	AAfs4x
efektívny	efektívny	AAms1x
efektívny	efektívny	AAms5x
efektívny	efektívny	AAis1x
efektívny	efektívny	AAis4x
efektívny	efektívny	AAis5x
efektívny	efektívnych	AAmp2x
efektívny	efektívnych	AAmp4x
efektívny	efektívnych	AAmp6x
efektívny	efektívnych	AAip2x
efektívny	efektívnych	AAip6x
efektívny	efektívnych	AAfp2x
efektívny	efektívnych	AAfp6x
efektívny	efektívnych	AAnp2x
efektívny	efektívnych	AAnp6x
efektívny	efektívnym	AAms7x
efektívny	efektívnym	AAmp3x
efektívny	efektívnym	AAis7x
efektívny	efektívnym	AAip3x
efektívny	efektívnym	AAfp3x
efektívny	efektívnym	AAns7x
efektívny	efektívnym	AAnp3x
efektívny	efektívnymi	AAmp7x
efektívny	efektívnymi	AAip7x
efektívny	efektívnymi	AAfp7x
efektívny	efektívnymi	AAnp7x
efemerický	efemerickej	AAfs2x
efemerický	efemerickej	AAfs3x
efemerický	efemerickej	AAfs6x
efemerický	efemerickom	AAms6x
efemerický	efemerickom	AAis6x
efemerický	efemerickom	AAns6x
efemerický	efemerickou	AAfs7x
efemerický	efemerická	AAfs1x
efemerický	efemerická	AAfs5x
efemerický	efemerické	AAip1x
efemerický	efemerické	AAip4x
efemerický	efemerické	AAip5x
efemerický	efemerické	AAfp1x
efemerický	efemerické	AAfp4x
efemerický	efemerické	AAfp5x
efemerický	efemerické	AAns1x
efemerický	efemerické	AAns4x
efemerický	efemerické	AAns5x
efemerický	efemerické	AAnp1x
efemerický	efemerické	AAnp4x
efemerický	efemerické	AAnp5x
efemerický	efemerického	AAms2x
efemerický	efemerického	AAms4x
efemerický	efemerického	AAis2x
efemerický	efemerického	AAns2x
efemerický	efemerickému	AAms3x
efemerický	efemerickému	AAis3x
efemerický	efemerickému	AAns3x
efemerický	efemerickí	AAmp1x
efemerický	efemerickí	AAmp5x
efemerický	efemerickú	AAfs4x
efemerický	efemerický	AAms1x
efemerický	efemerický	AAms5x
efemerický	efemerický	AAis1x
efemerický	efemerický	AAis4x
efemerický	efemerický	AAis5x
efemerický	efemerických	AAmp2x
efemerický	efemerických	AAmp4x
efemerický	efemerických	AAmp6x
efemerický	efemerických	AAip2x
efemerický	efemerických	AAip6x
efemerický	efemerických	AAfp2x
efemerický	efemerických	AAfp6x
efemerický	efemerických	AAnp2x
efemerický	efemerických	AAnp6x
efemerický	efemerickým	AAms7x
efemerický	efemerickým	AAmp3x
efemerický	efemerickým	AAis7x
efemerický	efemerickým	AAip3x
efemerický	efemerickým	AAfp3x
efemerický	efemerickým	AAns7x
efemerický	efemerickým	AAnp3x
efemerický	efemerickými	AAmp7x
efemerický	efemerickými	AAip7x
efemerický	efemerickými	AAfp7x
efemerický	efemerickými	AAnp7x
efemerida	efemerida	SSfs1
efemerida	efemerida	SSfs5
efemerida	efemeridami	SSfp7
efemerida	efemeride	SSfs3
efemerida	efemeride	SSfs6
efemerida	efemeridou	SSfs7
efemeridový	efemeridovej	AAfs2x
efemeridový	efemeridovej	AAfs3x
efemeridový	efemeridovej	AAfs6x
efemeridový	efemeridovom	AAms6x
efemeridový	efemeridovom	AAis6x
efemeridový	efemeridovom	AAns6x
efemeridový	efemeridovou	AAfs7x
efemeridový	efemeridová	AAfs1x
efemeridový	efemeridová	AAfs5x
efemeridový	efemeridové	AAip1x
efemeridový	efemeridové	AAip4x
efemeridový	efemeridové	AAip5x
efemeridový	efemeridové	AAfp1x
efemeridový	efemeridové	AAfp4x
efemeridový	efemeridové	AAfp5x
efemeridový	efemeridové	AAns1x
efemeridový	efemeridové	AAns4x
efemeridový	efemeridové	AAns5x
efemeridový	efemeridové	AAnp1x
efemeridový	efemeridové	AAnp4x
efemeridový	efemeridové	AAnp5x
efemeridový	efemeridového	AAms2x
efemeridový	efemeridového	AAms4x
efemeridový	efemeridového	AAis2x
efemeridový	efemeridového	AAns2x
efemeridový	efemeridovému	AAms3x
efemeridový	efemeridovému	AAis3x
efemeridový	efemeridovému	AAns3x
efemeridový	efemeridoví	AAmp1x
efemeridový	efemeridoví	AAmp5x
efemeridový	efemeridovú	AAfs4x
efemeridový	efemeridový	AAms1x
efemeridový	efemeridový	AAms5x
efemeridový	efemeridový	AAis1x
efemeridový	efemeridový	AAis4x
efemeridový	efemeridový	AAis5x
efemeridový	efemeridových	AAmp2x
efemeridový	efemeridových	AAmp4x
efemeridový	efemeridových	AAmp6x
efemeridový	efemeridových	AAip2x
efemeridový	efemeridových	AAip6x
efemeridový	efemeridových	AAfp2x
efemeridový	efemeridových	AAfp6x
efemeridový	efemeridových	AAnp2x
efemeridový	efemeridových	AAnp6x
efemeridový	efemeridovým	AAms7x
efemeridový	efemeridovým	AAmp3x
efemeridový	efemeridovým	AAis7x
efemeridový	efemeridovým	AAip3x
efemeridový	efemeridovým	AAfp3x
efemeridový	efemeridovým	AAns7x
efemeridový	efemeridovým	AAnp3x
efemeridový	efemeridovými	AAmp7x
efemeridový	efemeridovými	AAip7x
efemeridový	efemeridovými	AAfp7x
efemeridový	efemeridovými	AAnp7x
efemerida	efemeridu	SSfs4
efemerida	efemeridy	SSfs2
efemerida	efemeridy	SSfp1
efemerida	efemeridy	SSfp4
efemerida	efemeridy	SSfp5
efemerida	efemeridách	SSfp6
efemerida	efemeridám	SSfp3
efemerida	efemeríd	SSfp2
efeminácia	efeminácia	SSfs1
efeminácia	efeminácia	SSfs5
efeminácia	efemináciami	SSfp7
efeminácia	efeminácie	SSfs2
efeminácia	efeminácie	SSfp1
efeminácia	efeminácie	SSfp4
efeminácia	efeminácie	SSfp5
efeminácia	efeminácii	SSfs3
efeminácia	efeminácii	SSfs6
efeminácia	efemináciou	SSfs7
efeminácia	efemináciu	SSfs4
efeminácia	efemináciách	SSfp6
efeminácia	efemináciám	SSfp3
efeminácia	efeminácií	SSfp2
efeméra	efemér	SSfp2
efeméra	efeméra	SSfs1
efeméra	efeméra	SSfs5
efeméra	efemérach	SSfp6
efeméra	efeméram	SSfp3
efeméra	efemérami	SSfp7
efeméra	efemére	SSfs3
efeméra	efemére	SSfs6
efemérny	efemérna	AAfs1x
efemérny	efemérna	AAfs5x
efemérne	efemérne	Dx
efemérny	efemérne	AAip1x
efemérny	efemérne	AAip4x
efemérny	efemérne	AAip5x
efemérny	efemérne	AAfp1x
efemérny	efemérne	AAfp4x
efemérny	efemérne	AAfp5x
efemérny	efemérne	AAns1x
efemérny	efemérne	AAns4x
efemérny	efemérne	AAns5x
efemérny	efemérne	AAnp1x
efemérny	efemérne	AAnp4x
efemérny	efemérne	AAnp5x
efemérny	efemérneho	AAms2x
efemérny	efemérneho	AAms4x
efemérny	efemérneho	AAis2x
efemérny	efemérneho	AAns2x
efemérny	efemérnej	AAfs2x
efemérny	efemérnej	AAfs3x
efemérny	efemérnej	AAfs6x
efemérny	efemérnejšej	AAfs2y
efemérny	efemérnejšej	AAfs3y
efemérny	efemérnejšej	AAfs6y
efemérny	efemérnejšia	AAfs1y
efemérny	efemérnejšia	AAfs5y
efemérne	efemérnejšie	Dy
efemérny	efemérnejšie	AAip1y
efemérny	efemérnejšie	AAip4y
efemérny	efemérnejšie	AAip5y
efemérny	efemérnejšie	AAfp1y
efemérny	efemérnejšie	AAfp4y
efemérny	efemérnejšie	AAfp5y
efemérny	efemérnejšie	AAns1y
efemérny	efemérnejšie	AAns4y
efemérny	efemérnejšie	AAns5y
efemérny	efemérnejšie	AAnp1y
efemérny	efemérnejšie	AAnp4y
efemérny	efemérnejšie	AAnp5y
efemérny	efemérnejšieho	AAms2y
efemérny	efemérnejšieho	AAms4y
efemérny	efemérnejšieho	AAis2y
efemérny	efemérnejšieho	AAns2y
efemérny	efemérnejšiemu	AAms3y
efemérny	efemérnejšiemu	AAis3y
efemérny	efemérnejšiemu	AAns3y
efemérny	efemérnejšiu	AAfs4y
efemérny	efemérnejšom	AAms6y
efemérny	efemérnejšom	AAis6y
efemérny	efemérnejšom	AAns6y
efemérny	efemérnejšou	AAfs7y
efemérny	efemérnejší	AAms1y
efemérny	efemérnejší	AAms5y
efemérny	efemérnejší	AAmp1y
efemérny	efemérnejší	AAmp5y
efemérny	efemérnejší	AAis1y
efemérny	efemérnejší	AAis4y
efemérny	efemérnejší	AAis5y
efemérny	efemérnejších	AAmp2y
efemérny	efemérnejších	AAmp4y
efemérny	efemérnejších	AAmp6y
efemérny	efemérnejších	AAip2y
efemérny	efemérnejších	AAip6y
efemérny	efemérnejších	AAfp2y
efemérny	efemérnejších	AAfp6y
efemérny	efemérnejších	AAnp2y
efemérny	efemérnejších	AAnp6y
efemérny	efemérnejším	AAms7y
efemérny	efemérnejším	AAmp3y
efemérny	efemérnejším	AAis7y
efemérny	efemérnejším	AAip3y
efemérny	efemérnejším	AAfp3y
efemérny	efemérnejším	AAns7y
efemérny	efemérnejším	AAnp3y
efemérny	efemérnejšími	AAmp7y
efemérny	efemérnejšími	AAip7y
efemérny	efemérnejšími	AAfp7y
efemérny	efemérnejšími	AAnp7y
efemérny	efemérnemu	AAms3x
efemérny	efemérnemu	AAis3x
efemérny	efemérnemu	AAns3x
efemérny	efemérni	AAmp1x
efemérny	efemérni	AAmp5x
efemérny	efemérnom	AAms6x
efemérny	efemérnom	AAis6x
efemérny	efemérnom	AAns6x
efemérnosť	efemérnosti	SSfs2
efemérnosť	efemérnosti	SSfs3
efemérnosť	efemérnosti	SSfs6
efemérnosť	efemérnosti	SSfp1
efemérnosť	efemérnosti	SSfp4
efemérnosť	efemérnosti	SSfp5
efemérnosť	efemérnostiach	SSfp6
efemérnosť	efemérnostiam	SSfp3
efemérnosť	efemérností	SSfp2
efemérnosť	efemérnosť	SSfs1
efemérnosť	efemérnosť	SSfs4
efemérnosť	efemérnosť	SSfs5
efemérnosť	efemérnosťami	SSfp7
efemérnosť	efemérnosťou	SSfs7
efemérny	efemérnou	AAfs7x
efemérny	efemérnu	AAfs4x
efemérny	efemérny	AAms1x
efemérny	efemérny	AAms5x
efemérny	efemérny	AAis1x
efemérny	efemérny	AAis4x
efemérny	efemérny	AAis5x
efemérny	efemérnych	AAmp2x
efemérny	efemérnych	AAmp4x
efemérny	efemérnych	AAmp6x
efemérny	efemérnych	AAip2x
efemérny	efemérnych	AAip6x
efemérny	efemérnych	AAfp2x
efemérny	efemérnych	AAfp6x
efemérny	efemérnych	AAnp2x
efemérny	efemérnych	AAnp6x
efemérny	efemérnym	AAms7x
efemérny	efemérnym	AAmp3x
efemérny	efemérnym	AAis7x
efemérny	efemérnym	AAip3x
efemérny	efemérnym	AAfp3x
efemérny	efemérnym	AAns7x
efemérny	efemérnym	AAnp3x
efemérny	efemérnymi	AAmp7x
efemérny	efemérnymi	AAip7x
efemérny	efemérnymi	AAfp7x
efemérny	efemérnymi	AAnp7x
efeméra	efemérou	SSfs7
efeméra	efeméru	SSfs4
efeméra	efeméry	SSfs2
efeméra	efeméry	SSfp1
efeméra	efeméry	SSfp4
efeméra	efeméry	SSfp5
efendi	efendi	SFms1
efendi	efendi	SFms5
efendi	efendiami	SFmp7
efendi	efendiho	SFms2
efendi	efendiho	SFms4
efendi	efendim	SFms6
efendi	efendim	SFms7
efendi	efendimu	SFms3
efendi	efendioch	SFmp6
efendi	efendiom	SFmp3
efendi	efendiov	SFmp2
efendi	efendiov	SFmp4
efendi	efendiovia	SFmp1
efendi	efendiovia	SFmp5
efervescentný	efervescentnej	AAfs2x
efervescentný	efervescentnej	AAfs3x
efervescentný	efervescentnej	AAfs6x
efervescentný	efervescentnom	AAms6x
efervescentný	efervescentnom	AAis6x
efervescentný	efervescentnom	AAns6x
efervescentný	efervescentnou	AAfs7x
efervescentný	efervescentná	AAfs1x
efervescentný	efervescentná	AAfs5x
efervescentný	efervescentné	AAip1x
efervescentný	efervescentné	AAip4x
efervescentný	efervescentné	AAip5x
efervescentný	efervescentné	AAfp1x
efervescentný	efervescentné	AAfp4x
efervescentný	efervescentné	AAfp5x
efervescentný	efervescentné	AAns1x
efervescentný	efervescentné	AAns4x
efervescentný	efervescentné	AAns5x
efervescentný	efervescentné	AAnp1x
efervescentný	efervescentné	AAnp4x
efervescentný	efervescentné	AAnp5x
efervescentný	efervescentného	AAms2x
efervescentný	efervescentného	AAms4x
efervescentný	efervescentného	AAis2x
efervescentný	efervescentného	AAns2x
efervescentný	efervescentnému	AAms3x
efervescentný	efervescentnému	AAis3x
efervescentný	efervescentnému	AAns3x
efervescentný	efervescentní	AAmp1x
efervescentný	efervescentní	AAmp5x
efervescentný	efervescentnú	AAfs4x
efervescentný	efervescentný	AAms1x
efervescentný	efervescentný	AAms5x
efervescentný	efervescentný	AAis1x
efervescentný	efervescentný	AAis4x
efervescentný	efervescentný	AAis5x
efervescentný	efervescentných	AAmp2x
efervescentný	efervescentných	AAmp4x
efervescentný	efervescentných	AAmp6x
efervescentný	efervescentných	AAip2x
efervescentný	efervescentných	AAip6x
efervescentný	efervescentných	AAfp2x
efervescentný	efervescentných	AAfp6x
efervescentný	efervescentných	AAnp2x
efervescentný	efervescentných	AAnp6x
efervescentný	efervescentným	AAms7x
efervescentný	efervescentným	AAmp3x
efervescentný	efervescentným	AAis7x
efervescentný	efervescentným	AAip3x
efervescentný	efervescentným	AAfp3x
efervescentný	efervescentným	AAns7x
efervescentný	efervescentným	AAnp3x
efervescentný	efervescentnými	AAmp7x
efervescentný	efervescentnými	AAip7x
efervescentný	efervescentnými	AAfp7x
efervescentný	efervescentnými	AAnp7x
efes	efes	SUfs1
efes	efes	SUfs2
efes	efes	SUfs3
efes	efes	SUfs4
efes	efes	SUfs5
efes	efes	SUfs6
efes	efes	SUfs7
efesman	efesman	SSms1
efesman	efesman	SSms5
efesman	efesmana	SSms2
efesman	efesmana	SSms4
efesman	efesmani	SSmp1
efesman	efesmani	SSmp5
efesman	efesmanmi	SSmp7
efesman	efesmanoch	SSmp6
efesman	efesmanom	SSms7
efesman	efesmanom	SSmp3
efesman	efesmanov	SSmp2
efesman	efesmanov	SSmp4
efesman	efesmanovi	SSms3
efesman	efesmanovi	SSms6
efesák	efesáci	SSmp1
efesák	efesáci	SSmp5
efesácky	efesácka	AAfs1x
efesácky	efesácka	AAfs5x
efesácky	efesácke	AAip1x
efesácky	efesácke	AAip4x
efesácky	efesácke	AAip5x
efesácky	efesácke	AAfp1x
efesácky	efesácke	AAfp4x
efesácky	efesácke	AAfp5x
efesácky	efesácke	AAns1x
efesácky	efesácke	AAns4x
efesácky	efesácke	AAns5x
efesácky	efesácke	AAnp1x
efesácky	efesácke	AAnp4x
efesácky	efesácke	AAnp5x
efesácky	efesáckeho	AAms2x
efesácky	efesáckeho	AAms4x
efesácky	efesáckeho	AAis2x
efesácky	efesáckeho	AAns2x
efesácky	efesáckej	AAfs2x
efesácky	efesáckej	AAfs3x
efesácky	efesáckej	AAfs6x
efesácky	efesáckemu	AAms3x
efesácky	efesáckemu	AAis3x
efesácky	efesáckemu	AAns3x
efesácky	efesácki	AAmp1x
efesácky	efesácki	AAmp5x
efesácky	efesáckom	AAms6x
efesácky	efesáckom	AAis6x
efesácky	efesáckom	AAns6x
efesácky	efesáckou	AAfs7x
efesácky	efesácku	AAfs4x
efesácky	efesácky	AAms1x
efesácky	efesácky	AAms5x
efesácky	efesácky	AAis1x
efesácky	efesácky	AAis4x
efesácky	efesácky	AAis5x
efesácky	efesáckych	AAmp2x
efesácky	efesáckych	AAmp4x
efesácky	efesáckych	AAmp6x
efesácky	efesáckych	AAip2x
efesácky	efesáckych	AAip6x
efesácky	efesáckych	AAfp2x
efesácky	efesáckych	AAfp6x
efesácky	efesáckych	AAnp2x
efesácky	efesáckych	AAnp6x
efesácky	efesáckym	AAms7x
efesácky	efesáckym	AAmp3x
efesácky	efesáckym	AAis7x
efesácky	efesáckym	AAip3x
efesácky	efesáckym	AAfp3x
efesácky	efesáckym	AAns7x
efesácky	efesáckym	AAnp3x
efesácky	efesáckymi	AAmp7x
efesácky	efesáckymi	AAip7x
efesácky	efesáckymi	AAfp7x
efesácky	efesáckymi	AAnp7x
efesák	efesák	SSms1
efesák	efesák	SSms5
efesák	efesáka	SSms2
efesák	efesáka	SSms4
efesák	efesákmi	SSmp7
efesák	efesákoch	SSmp6
efesák	efesákom	SSms7
efesák	efesákom	SSmp3
efesák	efesákov	SSmp2
efesák	efesákov	SSmp4
efesák	efesákovi	SSms3
efesák	efesákovi	SSms6
efezský	efezskej	AAfs2x
efezský	efezskej	AAfs3x
efezský	efezskej	AAfs6x
efezský	efezskom	AAms6x
efezský	efezskom	AAis6x
efezský	efezskom	AAns6x
efezský	efezskou	AAfs7x
efezský	efezská	AAfs1x
efezský	efezská	AAfs5x
efezský	efezské	AAip1x
efezský	efezské	AAip4x
efezský	efezské	AAip5x
efezský	efezské	AAfp1x
efezský	efezské	AAfp4x
efezský	efezské	AAfp5x
efezský	efezské	AAns1x
efezský	efezské	AAns4x
efezský	efezské	AAns5x
efezský	efezské	AAnp1x
efezský	efezské	AAnp4x
efezský	efezské	AAnp5x
efezský	efezského	AAms2x
efezský	efezského	AAms4x
efezský	efezského	AAis2x
efezský	efezského	AAns2x
efezský	efezskému	AAms3x
efezský	efezskému	AAis3x
efezský	efezskému	AAns3x
efezský	efezskí	AAmp1x
efezský	efezskí	AAmp5x
efezský	efezskú	AAfs4x
efezský	efezský	AAms1x
efezský	efezský	AAms5x
efezský	efezský	AAis1x
efezský	efezský	AAis4x
efezský	efezský	AAis5x
efezský	efezských	AAmp2x
efezský	efezských	AAmp4x
efezský	efezských	AAmp6x
efezský	efezských	AAip2x
efezský	efezských	AAip6x
efezský	efezských	AAfp2x
efezský	efezských	AAfp6x
efezský	efezských	AAnp2x
efezský	efezských	AAnp6x
efezský	efezským	AAms7x
efezský	efezským	AAmp3x
efezský	efezským	AAis7x
efezský	efezským	AAip3x
efezský	efezským	AAfp3x
efezský	efezským	AAns7x
efezský	efezským	AAnp3x
efezský	efezskými	AAmp7x
efezský	efezskými	AAip7x
efezský	efezskými	AAfp7x
efezský	efezskými	AAnp7x
efka	efiek	SSfp2
efko	efiek	SSnp2
efka	efka	SSfs1
efka	efka	SSfs5
efko	efka	SSns2
efka	efkami	SSfp7
efko	efkami	SSnp7
efka	efke	SSfs3
efka	efke	SSfs6
efko	efko	SSns1
efko	efko	SSns4
efko	efko	SSns5
efko	efkom	SSns7
efka	efkou	SSfs7
efka	efku	SSfs4
efko	efku	SSns3
efko	efku	SSns6
efka	efky	SSfs2
efka	efky	SSfp1
efka	efky	SSfp4
efka	efky	SSfp5
efko	efká	SSnp1
efko	efká	SSnp4
efko	efká	SSnp5
efka	efkách	SSfp6
efko	efkách	SSnp6
efka	efkám	SSfp3
efko	efkám	SSnp3
efkár	efkár	SSms1
efkár	efkár	SSms5
efkár	efkára	SSms2
efkár	efkára	SSms4
efkár	efkári	SSmp1
efkár	efkári	SSmp5
efkárka	efkárka	SSfs1
efkárka	efkárka	SSfs5
efkárka	efkárkach	SSfp6
efkárka	efkárkam	SSfp3
efkárka	efkárkami	SSfp7
efkárka	efkárke	SSfs3
efkárka	efkárke	SSfs6
efkárka	efkárkou	SSfs7
efkárka	efkárku	SSfs4
efkárka	efkárky	SSfs2
efkárka	efkárky	SSfp1
efkárka	efkárky	SSfp4
efkárka	efkárky	SSfp5
efkár	efkármi	SSmp7
efkár	efkároch	SSmp6
efkárka	efkárok	SSfp2
efkár	efkárom	SSms7
efkár	efkárom	SSmp3
efkár	efkárov	SSmp2
efkár	efkárov	SSmp4
efkár	efkárovi	SSms3
efkár	efkárovi	SSms6
efkársky	efkárska	AAfs1x
efkársky	efkárska	AAfs5x
efkársky	efkárske	AAip1x
efkársky	efkárske	AAip4x
efkársky	efkárske	AAip5x
efkársky	efkárske	AAfp1x
efkársky	efkárske	AAfp4x
efkársky	efkárske	AAfp5x
efkársky	efkárske	AAns1x
efkársky	efkárske	AAns4x
efkársky	efkárske	AAns5x
efkársky	efkárske	AAnp1x
efkársky	efkárske	AAnp4x
efkársky	efkárske	AAnp5x
efkársky	efkárskeho	AAms2x
efkársky	efkárskeho	AAms4x
efkársky	efkárskeho	AAis2x
efkársky	efkárskeho	AAns2x
efkársky	efkárskej	AAfs2x
efkársky	efkárskej	AAfs3x
efkársky	efkárskej	AAfs6x
efkársky	efkárskemu	AAms3x
efkársky	efkárskemu	AAis3x
efkársky	efkárskemu	AAns3x
efkársky	efkárski	AAmp1x
efkársky	efkárski	AAmp5x
efkársky	efkárskom	AAms6x
efkársky	efkárskom	AAis6x
efkársky	efkárskom	AAns6x
efkársky	efkárskou	AAfs7x
efkársky	efkársku	AAfs4x
efkársky	efkársky	AAms1x
efkársky	efkársky	AAms5x
efkársky	efkársky	AAis1x
efkársky	efkársky	AAis4x
efkársky	efkársky	AAis5x
efkársky	efkárskych	AAmp2x
efkársky	efkárskych	AAmp4x
efkársky	efkárskych	AAmp6x
efkársky	efkárskych	AAip2x
efkársky	efkárskych	AAip6x
efkársky	efkárskych	AAfp2x
efkársky	efkárskych	AAfp6x
efkársky	efkárskych	AAnp2x
efkársky	efkárskych	AAnp6x
efkársky	efkárskym	AAms7x
efkársky	efkárskym	AAmp3x
efkársky	efkárskym	AAis7x
efkársky	efkárskym	AAip3x
efkársky	efkárskym	AAfp3x
efkársky	efkárskym	AAns7x
efkársky	efkárskym	AAnp3x
efkársky	efkárskymi	AAmp7x
efkársky	efkárskymi	AAip7x
efkársky	efkárskymi	AAfp7x
efkársky	efkárskymi	AAnp7x
efod	efod	SSis1
efod	efod	SSis4
efod	efod	SSis5
efod	efode	SSis6
efod	efodmi	SSip7
efod	efodoch	SSip6
efod	efodom	SSis7
efod	efodom	SSip3
efod	efodov	SSip2
efodový	efodovej	AAfs2x
efodový	efodovej	AAfs3x
efodový	efodovej	AAfs6x
efodový	efodovom	AAms6x
efodový	efodovom	AAis6x
efodový	efodovom	AAns6x
efodový	efodovou	AAfs7x
efodový	efodová	AAfs1x
efodový	efodová	AAfs5x
efodový	efodové	AAip1x
efodový	efodové	AAip4x
efodový	efodové	AAip5x
efodový	efodové	AAfp1x
efodový	efodové	AAfp4x
efodový	efodové	AAfp5x
efodový	efodové	AAns1x
efodový	efodové	AAns4x
efodový	efodové	AAns5x
efodový	efodové	AAnp1x
efodový	efodové	AAnp4x
efodový	efodové	AAnp5x
efodový	efodového	AAms2x
efodový	efodového	AAms4x
efodový	efodového	AAis2x
efodový	efodového	AAns2x
efodový	efodovému	AAms3x
efodový	efodovému	AAis3x
efodový	efodovému	AAns3x
efodový	efodoví	AAmp1x
efodový	efodoví	AAmp5x
efodový	efodovú	AAfs4x
efodový	efodový	AAms1x
efodový	efodový	AAms5x
efodový	efodový	AAis1x
efodový	efodový	AAis4x
efodový	efodový	AAis5x
efodový	efodových	AAmp2x
efodový	efodových	AAmp4x
efodový	efodových	AAmp6x
efodový	efodových	AAip2x
efodový	efodových	AAip6x
efodový	efodových	AAfp2x
efodový	efodových	AAfp6x
efodový	efodových	AAnp2x
efodový	efodových	AAnp6x
efodový	efodovým	AAms7x
efodový	efodovým	AAmp3x
efodový	efodovým	AAis7x
efodový	efodovým	AAip3x
efodový	efodovým	AAfp3x
efodový	efodovým	AAns7x
efodový	efodovým	AAnp3x
efodový	efodovými	AAmp7x
efodový	efodovými	AAip7x
efodový	efodovými	AAfp7x
efodový	efodovými	AAnp7x
efod	efodu	SSis2
efod	efodu	SSis3
efod	efody	SSip1
efod	efody	SSip4
efod	efody	SSip5
efor	efor	SSms1
efor	efor	SSms5
efor	efora	SSms2
efor	efora	SSms4
efor	efori	SSmp1
efor	efori	SSmp5
efor	eformi	SSmp7
efor	eforoch	SSmp6
efor	eforom	SSms7
efor	eforom	SSmp3
efor	eforov	SSmp2
efor	eforov	SSmp4
efor	eforovi	SSms3
efor	eforovi	SSms6
efraimský	efraimskej	AAfs2x
efraimský	efraimskej	AAfs3x
efraimský	efraimskej	AAfs6x
efraimský	efraimskom	AAms6x
efraimský	efraimskom	AAis6x
efraimský	efraimskom	AAns6x
efraimský	efraimskou	AAfs7x
efraimský	efraimská	AAfs1x
efraimský	efraimská	AAfs5x
efraimský	efraimské	AAip1x
efraimský	efraimské	AAip4x
efraimský	efraimské	AAip5x
efraimský	efraimské	AAfp1x
efraimský	efraimské	AAfp4x
efraimský	efraimské	AAfp5x
efraimský	efraimské	AAns1x
efraimský	efraimské	AAns4x
efraimský	efraimské	AAns5x
efraimský	efraimské	AAnp1x
efraimský	efraimské	AAnp4x
efraimský	efraimské	AAnp5x
efraimský	efraimského	AAms2x
efraimský	efraimského	AAms4x
efraimský	efraimského	AAis2x
efraimský	efraimského	AAns2x
efraimský	efraimskému	AAms3x
efraimský	efraimskému	AAis3x
efraimský	efraimskému	AAns3x
efraimský	efraimskí	AAmp1x
efraimský	efraimskí	AAmp5x
efraimský	efraimskú	AAfs4x
efraimský	efraimský	AAms1x
efraimský	efraimský	AAms5x
efraimský	efraimský	AAis1x
efraimský	efraimský	AAis4x
efraimský	efraimský	AAis5x
efraimský	efraimských	AAmp2x
efraimský	efraimských	AAmp4x
efraimský	efraimských	AAmp6x
efraimský	efraimských	AAip2x
efraimský	efraimských	AAip6x
efraimský	efraimských	AAfp2x
efraimský	efraimských	AAfp6x
efraimský	efraimských	AAnp2x
efraimský	efraimských	AAnp6x
efraimský	efraimským	AAms7x
efraimský	efraimským	AAmp3x
efraimský	efraimským	AAis7x
efraimský	efraimským	AAip3x
efraimský	efraimským	AAfp3x
efraimský	efraimským	AAns7x
efraimský	efraimským	AAnp3x
efraimský	efraimskými	AAmp7x
efraimský	efraimskými	AAip7x
efraimský	efraimskými	AAfp7x
efraimský	efraimskými	AAnp7x
efuzívny	efuzívna	AAfs1x
efuzívny	efuzívna	AAfs5x
efuzívny	efuzívne	AAip1x
efuzívny	efuzívne	AAip4x
efuzívny	efuzívne	AAip5x
efuzívny	efuzívne	AAfp1x
efuzívny	efuzívne	AAfp4x
efuzívny	efuzívne	AAfp5x
efuzívny	efuzívne	AAns1x
efuzívny	efuzívne	AAns4x
efuzívny	efuzívne	AAns5x
efuzívny	efuzívne	AAnp1x
efuzívny	efuzívne	AAnp4x
efuzívny	efuzívne	AAnp5x
efuzívny	efuzívneho	AAms2x
efuzívny	efuzívneho	AAms4x
efuzívny	efuzívneho	AAis2x
efuzívny	efuzívneho	AAns2x
efuzívny	efuzívnej	AAfs2x
efuzívny	efuzívnej	AAfs3x
efuzívny	efuzívnej	AAfs6x
efuzívny	efuzívnemu	AAms3x
efuzívny	efuzívnemu	AAis3x
efuzívny	efuzívnemu	AAns3x
efuzívny	efuzívni	AAmp1x
efuzívny	efuzívni	AAmp5x
efuzívny	efuzívnom	AAms6x
efuzívny	efuzívnom	AAis6x
efuzívny	efuzívnom	AAns6x
efuzívny	efuzívnou	AAfs7x
efuzívny	efuzívnu	AAfs4x
efuzívny	efuzívny	AAms1x
efuzívny	efuzívny	AAms5x
efuzívny	efuzívny	AAis1x
efuzívny	efuzívny	AAis4x
efuzívny	efuzívny	AAis5x
efuzívny	efuzívnych	AAmp2x
efuzívny	efuzívnych	AAmp4x
efuzívny	efuzívnych	AAmp6x
efuzívny	efuzívnych	AAip2x
efuzívny	efuzívnych	AAip6x
efuzívny	efuzívnych	AAfp2x
efuzívny	efuzívnych	AAfp6x
efuzívny	efuzívnych	AAnp2x
efuzívny	efuzívnych	AAnp6x
efuzívny	efuzívnym	AAms7x
efuzívny	efuzívnym	AAmp3x
efuzívny	efuzívnym	AAis7x
efuzívny	efuzívnym	AAip3x
efuzívny	efuzívnym	AAfp3x
efuzívny	efuzívnym	AAns7x
efuzívny	efuzívnym	AAnp3x
efuzívny	efuzívnymi	AAmp7x
efuzívny	efuzívnymi	AAip7x
efuzívny	efuzívnymi	AAfp7x
efuzívny	efuzívnymi	AAnp7x
eféb	eféb	SSms1
eféb	eféb	SSms5
eféb	eféba	SSms2
eféb	eféba	SSms4
eféb	efébi	SSmp1
eféb	efébi	SSmp5
eféb	efébmi	SSmp7
eféb	eféboch	SSmp6
eféb	efébom	SSms7
eféb	efébom	SSmp3
eféb	efébov	SSmp2
eféb	efébov	SSmp4
eféb	efébovi	SSms3
eféb	efébovi	SSms6
eféb	efébovia	SSmp1
eféb	efébovia	SSmp5
efébsky	efébsky	Dx
efúzia	efúzia	SSfs1
efúzia	efúzia	SSfs5
efúzia	efúziami	SSfp7
efúzia	efúzie	SSfs2
efúzia	efúzie	SSfp1
efúzia	efúzie	SSfp4
efúzia	efúzie	SSfp5
efúzia	efúzii	SSfs3
efúzia	efúzii	SSfs6
efúzia	efúziou	SSfs7
efúzia	efúziu	SSfs4
efúzia	efúziách	SSfp6
efúzia	efúziám	SSfp3
efúzia	efúzií	SSfp2
efúzny	efúzna	AAfs1x
efúzny	efúzna	AAfs5x
efúzny	efúzne	AAip1x
efúzny	efúzne	AAip4x
efúzny	efúzne	AAip5x
efúzny	efúzne	AAfp1x
efúzny	efúzne	AAfp4x
efúzny	efúzne	AAfp5x
efúzny	efúzne	AAns1x
efúzny	efúzne	AAns4x
efúzny	efúzne	AAns5x
efúzny	efúzne	AAnp1x
efúzny	efúzne	AAnp4x
efúzny	efúzne	AAnp5x
efúzny	efúzneho	AAms2x
efúzny	efúzneho	AAms4x
efúzny	efúzneho	AAis2x
efúzny	efúzneho	AAns2x
efúzny	efúznej	AAfs2x
efúzny	efúznej	AAfs3x
efúzny	efúznej	AAfs6x
efúzny	efúznemu	AAms3x
efúzny	efúznemu	AAis3x
efúzny	efúznemu	AAns3x
efúzny	efúzni	AAmp1x
efúzny	efúzni	AAmp5x
efúzny	efúznom	AAms6x
efúzny	efúznom	AAis6x
efúzny	efúznom	AAns6x
efúzny	efúznou	AAfs7x
efúzny	efúznu	AAfs4x
efúzny	efúzny	AAms1x
efúzny	efúzny	AAms5x
efúzny	efúzny	AAis1x
efúzny	efúzny	AAis4x
efúzny	efúzny	AAis5x
efúzny	efúznych	AAmp2x
efúzny	efúznych	AAmp4x
efúzny	efúznych	AAmp6x
efúzny	efúznych	AAip2x
efúzny	efúznych	AAip6x
efúzny	efúznych	AAfp2x
efúzny	efúznych	AAfp6x
efúzny	efúznych	AAnp2x
efúzny	efúznych	AAnp6x
efúzny	efúznym	AAms7x
efúzny	efúznym	AAmp3x
efúzny	efúznym	AAis7x
efúzny	efúznym	AAip3x
efúzny	efúznym	AAfp3x
efúzny	efúznym	AAns7x
efúzny	efúznym	AAnp3x
efúzny	efúznymi	AAmp7x
efúzny	efúznymi	AAip7x
efúzny	efúznymi	AAfp7x
efúzny	efúznymi	AAnp7x
