eocén	eocén	SSis1
eocén	eocén	SSis4
eocén	eocén	SSis5
eocén	eocéne	SSis6
eocén	eocénmi	SSip7
eocénny	eocénna	AAfs1x
eocénny	eocénna	AAfs5x
eocénny	eocénne	AAip1x
eocénny	eocénne	AAip4x
eocénny	eocénne	AAip5x
eocénny	eocénne	AAfp1x
eocénny	eocénne	AAfp4x
eocénny	eocénne	AAfp5x
eocénny	eocénne	AAns1x
eocénny	eocénne	AAns4x
eocénny	eocénne	AAns5x
eocénny	eocénne	AAnp1x
eocénny	eocénne	AAnp4x
eocénny	eocénne	AAnp5x
eocénny	eocénneho	AAms2x
eocénny	eocénneho	AAms4x
eocénny	eocénneho	AAis2x
eocénny	eocénneho	AAns2x
eocénny	eocénnej	AAfs2x
eocénny	eocénnej	AAfs3x
eocénny	eocénnej	AAfs6x
eocénny	eocénnemu	AAms3x
eocénny	eocénnemu	AAis3x
eocénny	eocénnemu	AAns3x
eocénny	eocénni	AAmp1x
eocénny	eocénni	AAmp5x
eocénny	eocénnom	AAms6x
eocénny	eocénnom	AAis6x
eocénny	eocénnom	AAns6x
eocénny	eocénnou	AAfs7x
eocénny	eocénnu	AAfs4x
eocénny	eocénny	AAms1x
eocénny	eocénny	AAms5x
eocénny	eocénny	AAis1x
eocénny	eocénny	AAis4x
eocénny	eocénny	AAis5x
eocénny	eocénnych	AAmp2x
eocénny	eocénnych	AAmp4x
eocénny	eocénnych	AAmp6x
eocénny	eocénnych	AAip2x
eocénny	eocénnych	AAip6x
eocénny	eocénnych	AAfp2x
eocénny	eocénnych	AAfp6x
eocénny	eocénnych	AAnp2x
eocénny	eocénnych	AAnp6x
eocénny	eocénnym	AAms7x
eocénny	eocénnym	AAmp3x
eocénny	eocénnym	AAis7x
eocénny	eocénnym	AAip3x
eocénny	eocénnym	AAfp3x
eocénny	eocénnym	AAns7x
eocénny	eocénnym	AAnp3x
eocénny	eocénnymi	AAmp7x
eocénny	eocénnymi	AAip7x
eocénny	eocénnymi	AAfp7x
eocénny	eocénnymi	AAnp7x
eocén	eocénoch	SSip6
eocén	eocénom	SSis7
eocén	eocénom	SSip3
eocén	eocénov	SSip2
eocénový	eocénovej	AAfs2x
eocénový	eocénovej	AAfs3x
eocénový	eocénovej	AAfs6x
eocénový	eocénovom	AAms6x
eocénový	eocénovom	AAis6x
eocénový	eocénovom	AAns6x
eocénový	eocénovou	AAfs7x
eocénový	eocénová	AAfs1x
eocénový	eocénová	AAfs5x
eocénový	eocénové	AAip1x
eocénový	eocénové	AAip4x
eocénový	eocénové	AAip5x
eocénový	eocénové	AAfp1x
eocénový	eocénové	AAfp4x
eocénový	eocénové	AAfp5x
eocénový	eocénové	AAns1x
eocénový	eocénové	AAns4x
eocénový	eocénové	AAns5x
eocénový	eocénové	AAnp1x
eocénový	eocénové	AAnp4x
eocénový	eocénové	AAnp5x
eocénový	eocénového	AAms2x
eocénový	eocénového	AAms4x
eocénový	eocénového	AAis2x
eocénový	eocénového	AAns2x
eocénový	eocénovému	AAms3x
eocénový	eocénovému	AAis3x
eocénový	eocénovému	AAns3x
eocénový	eocénoví	AAmp1x
eocénový	eocénoví	AAmp5x
eocénový	eocénovú	AAfs4x
eocénový	eocénový	AAms1x
eocénový	eocénový	AAms5x
eocénový	eocénový	AAis1x
eocénový	eocénový	AAis4x
eocénový	eocénový	AAis5x
eocénový	eocénových	AAmp2x
eocénový	eocénových	AAmp4x
eocénový	eocénových	AAmp6x
eocénový	eocénových	AAip2x
eocénový	eocénových	AAip6x
eocénový	eocénových	AAfp2x
eocénový	eocénových	AAfp6x
eocénový	eocénových	AAnp2x
eocénový	eocénových	AAnp6x
eocénový	eocénovým	AAms7x
eocénový	eocénovým	AAmp3x
eocénový	eocénovým	AAis7x
eocénový	eocénovým	AAip3x
eocénový	eocénovým	AAfp3x
eocénový	eocénovým	AAns7x
eocénový	eocénovým	AAnp3x
eocénový	eocénovými	AAmp7x
eocénový	eocénovými	AAip7x
eocénový	eocénovými	AAfp7x
eocénový	eocénovými	AAnp7x
eocén	eocénu	SSis2
eocén	eocénu	SSis3
eocén	eocény	SSip1
eocén	eocény	SSip4
eocén	eocény	SSip5
eolický	eolickej	AAfs2x
eolický	eolickej	AAfs3x
eolický	eolickej	AAfs6x
eolický	eolickom	AAms6x
eolický	eolickom	AAis6x
eolický	eolickom	AAns6x
eolický	eolickou	AAfs7x
eolický	eolická	AAfs1x
eolický	eolická	AAfs5x
eolický	eolické	AAip1x
eolický	eolické	AAip4x
eolický	eolické	AAip5x
eolický	eolické	AAfp1x
eolický	eolické	AAfp4x
eolický	eolické	AAfp5x
eolický	eolické	AAns1x
eolický	eolické	AAns4x
eolický	eolické	AAns5x
eolický	eolické	AAnp1x
eolický	eolické	AAnp4x
eolický	eolické	AAnp5x
eolický	eolického	AAms2x
eolický	eolického	AAms4x
eolický	eolického	AAis2x
eolický	eolického	AAns2x
eolický	eolickému	AAms3x
eolický	eolickému	AAis3x
eolický	eolickému	AAns3x
eolický	eolickí	AAmp1x
eolický	eolickí	AAmp5x
eolický	eolickú	AAfs4x
eolický	eolický	AAms1x
eolický	eolický	AAms5x
eolický	eolický	AAis1x
eolický	eolický	AAis4x
eolický	eolický	AAis5x
eolický	eolických	AAmp2x
eolický	eolických	AAmp4x
eolický	eolických	AAmp6x
eolický	eolických	AAip2x
eolický	eolických	AAip6x
eolický	eolických	AAfp2x
eolický	eolických	AAfp6x
eolický	eolických	AAnp2x
eolický	eolických	AAnp6x
eolický	eolickým	AAms7x
eolický	eolickým	AAmp3x
eolický	eolickým	AAis7x
eolický	eolickým	AAip3x
eolický	eolickým	AAfp3x
eolický	eolickým	AAns7x
eolický	eolickým	AAnp3x
eolický	eolickými	AAmp7x
eolický	eolickými	AAip7x
eolický	eolickými	AAfp7x
eolický	eolickými	AAnp7x
eolit	eolit	SSis1
eolit	eolit	SSis4
eolit	eolit	SSis5
eolit	eolite	SSis6
eolitický	eolitickej	AAfs2x
eolitický	eolitickej	AAfs3x
eolitický	eolitickej	AAfs6x
eolitický	eolitickom	AAms6x
eolitický	eolitickom	AAis6x
eolitický	eolitickom	AAns6x
eolitický	eolitickou	AAfs7x
eolitický	eolitická	AAfs1x
eolitický	eolitická	AAfs5x
eolitický	eolitické	AAip1x
eolitický	eolitické	AAip4x
eolitický	eolitické	AAip5x
eolitický	eolitické	AAfp1x
eolitický	eolitické	AAfp4x
eolitický	eolitické	AAfp5x
eolitický	eolitické	AAns1x
eolitický	eolitické	AAns4x
eolitický	eolitické	AAns5x
eolitický	eolitické	AAnp1x
eolitický	eolitické	AAnp4x
eolitický	eolitické	AAnp5x
eolitický	eolitického	AAms2x
eolitický	eolitického	AAms4x
eolitický	eolitického	AAis2x
eolitický	eolitického	AAns2x
eolitický	eolitickému	AAms3x
eolitický	eolitickému	AAis3x
eolitický	eolitickému	AAns3x
eolitický	eolitickí	AAmp1x
eolitický	eolitickí	AAmp5x
eolitický	eolitickú	AAfs4x
eolitický	eolitický	AAms1x
eolitický	eolitický	AAms5x
eolitický	eolitický	AAis1x
eolitický	eolitický	AAis4x
eolitický	eolitický	AAis5x
eolitický	eolitických	AAmp2x
eolitický	eolitických	AAmp4x
eolitický	eolitických	AAmp6x
eolitický	eolitických	AAip2x
eolitický	eolitických	AAip6x
eolitický	eolitických	AAfp2x
eolitický	eolitických	AAfp6x
eolitický	eolitických	AAnp2x
eolitický	eolitických	AAnp6x
eolitický	eolitickým	AAms7x
eolitický	eolitickým	AAmp3x
eolitický	eolitickým	AAis7x
eolitický	eolitickým	AAip3x
eolitický	eolitickým	AAfp3x
eolitický	eolitickým	AAns7x
eolitický	eolitickým	AAnp3x
eolitický	eolitickými	AAmp7x
eolitický	eolitickými	AAip7x
eolitický	eolitickými	AAfp7x
eolitický	eolitickými	AAnp7x
eolit	eolitmi	SSip7
eolit	eolitoch	SSip6
eolit	eolitom	SSis7
eolit	eolitom	SSip3
eolit	eolitov	SSip2
eolit	eolitu	SSis2
eolit	eolitu	SSis3
eolit	eolity	SSip1
eolit	eolity	SSip4
eolit	eolity	SSip5
eón	eón	SSis1
eón	eón	SSis4
eón	eón	SSis5
eón	eóne	SSis6
eón	eónmi	SSip7
eón	eónoch	SSip6
eón	eónom	SSis7
eón	eónom	SSip3
eón	eónov	SSip2
eón	eónu	SSis2
eón	eónu	SSis3
eón	eóny	SSip1
eón	eóny	SSip4
eón	eóny	SSip5
