Erik	Erik	SSms1
Erik	Erik	SSms5
Erik	Erika	SSms2
Erik	Erika	SSms4
Erika	Erika	SSfs1
Erika	Erika	SSfs5
Erika	Erikami	SSfp7
Erika	Erike	SSfs3
Erika	Erike	SSfs6
Erik	Erikmi	SSmp7
Erik	Erikoch	SSmp6
Erik	Erikom	SSms7
Erik	Erikom	SSmp3
Erika	Erikou	SSfs7
Erik	Erikov	SSmp2
Erik	Erikov	SSmp4
Erik	Erikovi	SSms3
Erik	Erikovi	SSms6
Erik	Erikovia	SSmp1
Erik	Erikovia	SSmp5
Erika	Eriku	SSfs4
Erika	Eriky	SSfs2
Erika	Eriky	SSfp1
Erika	Eriky	SSfp4
Erika	Eriky	SSfp5
Erika	Erikách	SSfp6
Erika	Erikám	SSfp3
Eritrea	Eritrea	SSfs1
Eritrea	Eritrea	SSfs5
Eritrea	Eritrei	SSfs3
Eritrea	Eritrei	SSfs6
Eritrea	Eritreou	SSfs7
Eritrea	Eritreu	SSfs4
Eritrea	Eritrey	SSfs2
Ernest	Ernest	SSms1
Ernest	Ernest	SSms5
Ernest	Ernesta	SSms2
Ernest	Ernesta	SSms4
Ernest	Ernestmi	SSmp7
Ernest	Ernestoch	SSmp6
Ernest	Ernestom	SSms7
Ernest	Ernestom	SSmp3
Ernest	Ernestov	SSmp2
Ernest	Ernestov	SSmp4
Ernest	Ernestovi	SSms3
Ernest	Ernestovi	SSms6
Ernest	Ernestovia	SSmp1
Ernest	Ernestovia	SSmp5
Ervín	Ervín	SSms1
Ervín	Ervín	SSms5
Ervín	Ervína	SSms2
Ervín	Ervína	SSms4
Ervín	Ervínmi	SSmp7
Ervín	Ervínoch	SSmp6
Ervín	Ervínom	SSms7
Ervín	Ervínom	SSmp3
Ervín	Ervínov	SSmp2
Ervín	Ervínov	SSmp4
Ervín	Ervínovi	SSms3
Ervín	Ervínovi	SSms6
Ervín	Ervínovia	SSmp1
Ervín	Ervínovia	SSmp5
Erika	Erík	SSfp2
Eržika	Eržika	SSfs1
Eržika	Eržika	SSfs5
Eržika	Eržikami	SSfp7
Eržika	Eržike	SSfs3
Eržika	Eržike	SSfs6
Eržika	Eržikou	SSfs7
Eržika	Eržiku	SSfs4
Eržika	Eržiky	SSfs2
Eržika	Eržiky	SSfp1
Eržika	Eržiky	SSfp4
Eržika	Eržiky	SSfp5
Eržika	Eržikách	SSfp6
Eržika	Eržikám	SSfp3
Eržika	Eržík	SSfp2
erb	erb	SSis1
erb	erb	SSis4
erb	erb	SSis5
erb	erbe	SSis6
erbium	erbia	SSns2
erbium	erbiami	SSnp7
erbium	erbiom	SSns7
erbium	erbiu	SSns3
erbium	erbiu	SSns6
erbium	erbium	SSns1
erbium	erbium	SSns4
erbium	erbium	SSns5
erbium	erbiá	SSnp1
erbium	erbiá	SSnp4
erbium	erbiá	SSnp5
erbium	erbiách	SSnp6
erbium	erbiám	SSnp3
erbium	erbií	SSnp2
erb	erbmi	SSip7
erb	erboch	SSip6
erb	erbom	SSis7
erb	erbom	SSip3
erb	erbov	SSip2
erbový	erbovej	AAfs2x
erbový	erbovej	AAfs3x
erbový	erbovej	AAfs6x
erbový	erbovom	AAms6x
erbový	erbovom	AAis6x
erbový	erbovom	AAns6x
erbový	erbovou	AAfs7x
erbový	erbová	AAfs1x
erbový	erbová	AAfs5x
erbový	erbové	AAip1x
erbový	erbové	AAip4x
erbový	erbové	AAip5x
erbový	erbové	AAfp1x
erbový	erbové	AAfp4x
erbový	erbové	AAfp5x
erbový	erbové	AAns1x
erbový	erbové	AAns4x
erbový	erbové	AAns5x
erbový	erbové	AAnp1x
erbový	erbové	AAnp4x
erbový	erbové	AAnp5x
erbový	erbového	AAms2x
erbový	erbového	AAms4x
erbový	erbového	AAis2x
erbový	erbového	AAns2x
erbový	erbovému	AAms3x
erbový	erbovému	AAis3x
erbový	erbovému	AAns3x
erbový	erboví	AAmp1x
erbový	erboví	AAmp5x
erbový	erbovú	AAfs4x
erbový	erbový	AAms1x
erbový	erbový	AAms5x
erbový	erbový	AAis1x
erbový	erbový	AAis4x
erbový	erbový	AAis5x
erbový	erbových	AAmp2x
erbový	erbových	AAmp4x
erbový	erbových	AAmp6x
erbový	erbových	AAip2x
erbový	erbových	AAip6x
erbový	erbových	AAfp2x
erbový	erbových	AAfp6x
erbový	erbových	AAnp2x
erbový	erbových	AAnp6x
erbový	erbovým	AAms7x
erbový	erbovým	AAmp3x
erbový	erbovým	AAis7x
erbový	erbovým	AAip3x
erbový	erbovým	AAfp3x
erbový	erbovým	AAns7x
erbový	erbovým	AAnp3x
erbový	erbovými	AAmp7x
erbový	erbovými	AAip7x
erbový	erbovými	AAfp7x
erbový	erbovými	AAnp7x
erb	erbu	SSis2
erb	erbu	SSis3
erb	erby	SSip1
erb	erby	SSip4
erb	erby	SSip5
erdegbaba	erdegbaba	SSfs1
erdegbaba	erdegbaba	SSfs5
erdegbaba	erdegbabami	SSfp7
erdegbaba	erdegbabe	SSfs3
erdegbaba	erdegbabe	SSfs6
erdegbaba	erdegbabou	SSfs7
erdegbaba	erdegbabu	SSfs4
erdegbaba	erdegbaby	SSfs2
erdegbaba	erdegbaby	SSfp1
erdegbaba	erdegbaby	SSfp4
erdegbaba	erdegbaby	SSfp5
erdegbaba	erdegbabách	SSfp6
erdegbaba	erdegbabám	SSfp3
erdegbaba	erdegbáb	SSfp2
erdžať	erdž	VMesb+
erdžať	erdžal	VLesam+
erdžať	erdžal	VLesai+
erdžať	erdžal	VLesbm+
erdžať	erdžal	VLesbi+
erdžať	erdžal	VLescm+
erdžať	erdžal	VLesci+
erdžať	erdžala	VLesaf+
erdžať	erdžala	VLesbf+
erdžať	erdžala	VLescf+
erdžať	erdžali	VLepah+
erdžať	erdžali	VLepbh+
erdžať	erdžali	VLepcm+
erdžať	erdžali	VLepci+
erdžať	erdžali	VLepcf+
erdžať	erdžali	VLepcn+
erdžať	erdžali	VLepco+
erdžať	erdžalo	VLesan+
erdžať	erdžalo	VLesbn+
erdžať	erdžalo	VLescn+
erdžať	erdžať	VIe+
erdžať	erdžia	VKepc+
erdžať	erdžiac	VHe+
erdžať	erdžme	VMepa+
erdžať	erdžte	VMepb+
erdžať	erdží	VKesc+
erdžať	erdžím	VKesa+
erdžať	erdžíme	VKepa+
erdžať	erdžíte	VKepb+
erdžať	erdžíš	VKesb+
erekcia	erekcia	SSfs1
erekcia	erekcia	SSfs5
erekcia	erekciami	SSfp7
erekcia	erekcie	SSfs2
erekcia	erekcie	SSfp1
erekcia	erekcie	SSfp4
erekcia	erekcie	SSfp5
erekcia	erekcii	SSfs3
erekcia	erekcii	SSfs6
erekcia	erekciou	SSfs7
erekcia	erekciu	SSfs4
erekcia	erekciách	SSfp6
erekcia	erekciám	SSfp3
erekcia	erekcií	SSfp2
erekčný	erekčnej	AAfs2x
erekčný	erekčnej	AAfs3x
erekčný	erekčnej	AAfs6x
erekčný	erekčnom	AAms6x
erekčný	erekčnom	AAis6x
erekčný	erekčnom	AAns6x
erekčný	erekčnou	AAfs7x
erekčný	erekčná	AAfs1x
erekčný	erekčná	AAfs5x
erekčný	erekčné	AAip1x
erekčný	erekčné	AAip4x
erekčný	erekčné	AAip5x
erekčný	erekčné	AAfp1x
erekčný	erekčné	AAfp4x
erekčný	erekčné	AAfp5x
erekčný	erekčné	AAns1x
erekčný	erekčné	AAns4x
erekčný	erekčné	AAns5x
erekčný	erekčné	AAnp1x
erekčný	erekčné	AAnp4x
erekčný	erekčné	AAnp5x
erekčný	erekčného	AAms2x
erekčný	erekčného	AAms4x
erekčný	erekčného	AAis2x
erekčný	erekčného	AAns2x
erekčný	erekčnému	AAms3x
erekčný	erekčnému	AAis3x
erekčný	erekčnému	AAns3x
erekčný	erekční	AAmp1x
erekčný	erekční	AAmp5x
erekčný	erekčnú	AAfs4x
erekčný	erekčný	AAms1x
erekčný	erekčný	AAms5x
erekčný	erekčný	AAis1x
erekčný	erekčný	AAis4x
erekčný	erekčný	AAis5x
erekčný	erekčných	AAmp2x
erekčný	erekčných	AAmp4x
erekčný	erekčných	AAmp6x
erekčný	erekčných	AAip2x
erekčný	erekčných	AAip6x
erekčný	erekčných	AAfp2x
erekčný	erekčných	AAfp6x
erekčný	erekčných	AAnp2x
erekčný	erekčných	AAnp6x
erekčný	erekčným	AAms7x
erekčný	erekčným	AAmp3x
erekčný	erekčným	AAis7x
erekčný	erekčným	AAip3x
erekčný	erekčným	AAfp3x
erekčný	erekčným	AAns7x
erekčný	erekčným	AAnp3x
erekčný	erekčnými	AAmp7x
erekčný	erekčnými	AAip7x
erekčný	erekčnými	AAfp7x
erekčný	erekčnými	AAnp7x
eremita	eremita	SSms1
eremita	eremita	SSms5
eremita	eremiti	SSmp1
eremita	eremiti	SSmp5
eremita	eremitmi	SSmp7
eremita	eremitoch	SSmp6
eremita	eremitom	SSms7
eremita	eremitom	SSmp3
eremita	eremitov	SSmp2
eremita	eremitov	SSmp4
eremita	eremitovi	SSms3
eremita	eremitovi	SSms6
eremitský	eremitskej	AAfs2x
eremitský	eremitskej	AAfs3x
eremitský	eremitskej	AAfs6x
eremitský	eremitskom	AAms6x
eremitský	eremitskom	AAis6x
eremitský	eremitskom	AAns6x
eremitský	eremitskou	AAfs7x
eremitský	eremitská	AAfs1x
eremitský	eremitská	AAfs5x
eremitský	eremitské	AAip1x
eremitský	eremitské	AAip4x
eremitský	eremitské	AAip5x
eremitský	eremitské	AAfp1x
eremitský	eremitské	AAfp4x
eremitský	eremitské	AAfp5x
eremitský	eremitské	AAns1x
eremitský	eremitské	AAns4x
eremitský	eremitské	AAns5x
eremitský	eremitské	AAnp1x
eremitský	eremitské	AAnp4x
eremitský	eremitské	AAnp5x
eremitský	eremitského	AAms2x
eremitský	eremitského	AAms4x
eremitský	eremitského	AAis2x
eremitský	eremitského	AAns2x
eremitský	eremitskému	AAms3x
eremitský	eremitskému	AAis3x
eremitský	eremitskému	AAns3x
eremitský	eremitskí	AAmp1x
eremitský	eremitskí	AAmp5x
eremitský	eremitskú	AAfs4x
eremitský	eremitský	AAms1x
eremitský	eremitský	AAms5x
eremitský	eremitský	AAis1x
eremitský	eremitský	AAis4x
eremitský	eremitský	AAis5x
eremitský	eremitských	AAmp2x
eremitský	eremitských	AAmp4x
eremitský	eremitských	AAmp6x
eremitský	eremitských	AAip2x
eremitský	eremitských	AAip6x
eremitský	eremitských	AAfp2x
eremitský	eremitských	AAfp6x
eremitský	eremitských	AAnp2x
eremitský	eremitských	AAnp6x
eremitský	eremitským	AAms7x
eremitský	eremitským	AAmp3x
eremitský	eremitským	AAis7x
eremitský	eremitským	AAip3x
eremitský	eremitským	AAfp3x
eremitský	eremitským	AAns7x
eremitský	eremitským	AAnp3x
eremitský	eremitskými	AAmp7x
eremitský	eremitskými	AAip7x
eremitský	eremitskými	AAfp7x
eremitský	eremitskými	AAnp7x
eremita	eremitu	SSms2
eremita	eremitu	SSms4
ergo	ergo	T
ergometer	ergometer	SSis1
ergometer	ergometer	SSis4
ergometer	ergometer	SSis5
ergometer	ergometra	SSis2
ergometer	ergometrami	SSip7
ergometer	ergometre	SSip1
ergometer	ergometre	SSip4
ergometer	ergometre	SSip5
ergometer	ergometri	SSis6
ergometria	ergometria	SSfs1
ergometria	ergometria	SSfs5
ergometria	ergometriami	SSfp7
ergometrický	ergometrickej	AAfs2x
ergometrický	ergometrickej	AAfs3x
ergometrický	ergometrickej	AAfs6x
ergometrický	ergometrickom	AAms6x
ergometrický	ergometrickom	AAis6x
ergometrický	ergometrickom	AAns6x
ergometrický	ergometrickou	AAfs7x
ergometrický	ergometrická	AAfs1x
ergometrický	ergometrická	AAfs5x
ergometrický	ergometrické	AAip1x
ergometrický	ergometrické	AAip4x
ergometrický	ergometrické	AAip5x
ergometrický	ergometrické	AAfp1x
ergometrický	ergometrické	AAfp4x
ergometrický	ergometrické	AAfp5x
ergometrický	ergometrické	AAns1x
ergometrický	ergometrické	AAns4x
ergometrický	ergometrické	AAns5x
ergometrický	ergometrické	AAnp1x
ergometrický	ergometrické	AAnp4x
ergometrický	ergometrické	AAnp5x
ergometrický	ergometrického	AAms2x
ergometrický	ergometrického	AAms4x
ergometrický	ergometrického	AAis2x
ergometrický	ergometrického	AAns2x
ergometrický	ergometrickému	AAms3x
ergometrický	ergometrickému	AAis3x
ergometrický	ergometrickému	AAns3x
ergometrický	ergometrickí	AAmp1x
ergometrický	ergometrickí	AAmp5x
ergometrický	ergometrickú	AAfs4x
ergometrický	ergometrický	AAms1x
ergometrický	ergometrický	AAms5x
ergometrický	ergometrický	AAis1x
ergometrický	ergometrický	AAis4x
ergometrický	ergometrický	AAis5x
ergometrický	ergometrických	AAmp2x
ergometrický	ergometrických	AAmp4x
ergometrický	ergometrických	AAmp6x
ergometrický	ergometrických	AAip2x
ergometrický	ergometrických	AAip6x
ergometrický	ergometrických	AAfp2x
ergometrický	ergometrických	AAfp6x
ergometrický	ergometrických	AAnp2x
ergometrický	ergometrických	AAnp6x
ergometrický	ergometrickým	AAms7x
ergometrický	ergometrickým	AAmp3x
ergometrický	ergometrickým	AAis7x
ergometrický	ergometrickým	AAip3x
ergometrický	ergometrickým	AAfp3x
ergometrický	ergometrickým	AAns7x
ergometrický	ergometrickým	AAnp3x
ergometrický	ergometrickými	AAmp7x
ergometrický	ergometrickými	AAip7x
ergometrický	ergometrickými	AAfp7x
ergometrický	ergometrickými	AAnp7x
ergometria	ergometrie	SSfs2
ergometria	ergometrie	SSfp1
ergometria	ergometrie	SSfp4
ergometria	ergometrie	SSfp5
ergometria	ergometrii	SSfs3
ergometria	ergometrii	SSfs6
ergometria	ergometriou	SSfs7
ergometria	ergometriu	SSfs4
ergometria	ergometriách	SSfp6
ergometria	ergometriám	SSfp3
ergometria	ergometrií	SSfp2
ergometer	ergometroch	SSip6
ergometer	ergometrom	SSis7
ergometer	ergometrom	SSip3
ergometer	ergometrov	SSip2
ergometer	ergometru	SSis3
ergonomický	ergonomickej	AAfs2x
ergonomický	ergonomickej	AAfs3x
ergonomický	ergonomickej	AAfs6x
ergonomický	ergonomickom	AAms6x
ergonomický	ergonomickom	AAis6x
ergonomický	ergonomickom	AAns6x
ergonomický	ergonomickou	AAfs7x
ergonomicky	ergonomicky	Dx
ergonomický	ergonomická	AAfs1x
ergonomický	ergonomická	AAfs5x
ergonomický	ergonomické	AAip1x
ergonomický	ergonomické	AAip4x
ergonomický	ergonomické	AAip5x
ergonomický	ergonomické	AAfp1x
ergonomický	ergonomické	AAfp4x
ergonomický	ergonomické	AAfp5x
ergonomický	ergonomické	AAns1x
ergonomický	ergonomické	AAns4x
ergonomický	ergonomické	AAns5x
ergonomický	ergonomické	AAnp1x
ergonomický	ergonomické	AAnp4x
ergonomický	ergonomické	AAnp5x
ergonomický	ergonomického	AAms2x
ergonomický	ergonomického	AAms4x
ergonomický	ergonomického	AAis2x
ergonomický	ergonomického	AAns2x
ergonomický	ergonomickému	AAms3x
ergonomický	ergonomickému	AAis3x
ergonomický	ergonomickému	AAns3x
ergonomický	ergonomickí	AAmp1x
ergonomický	ergonomickí	AAmp5x
ergonomický	ergonomickú	AAfs4x
ergonomický	ergonomický	AAms1x
ergonomický	ergonomický	AAms5x
ergonomický	ergonomický	AAis1x
ergonomický	ergonomický	AAis4x
ergonomický	ergonomický	AAis5x
ergonomický	ergonomických	AAmp2x
ergonomický	ergonomických	AAmp4x
ergonomický	ergonomických	AAmp6x
ergonomický	ergonomických	AAip2x
ergonomický	ergonomických	AAip6x
ergonomický	ergonomických	AAfp2x
ergonomický	ergonomických	AAfp6x
ergonomický	ergonomických	AAnp2x
ergonomický	ergonomických	AAnp6x
ergonomický	ergonomickým	AAms7x
ergonomický	ergonomickým	AAmp3x
ergonomický	ergonomickým	AAis7x
ergonomický	ergonomickým	AAip3x
ergonomický	ergonomickým	AAfp3x
ergonomický	ergonomickým	AAns7x
ergonomický	ergonomickým	AAnp3x
ergonomický	ergonomickými	AAmp7x
ergonomický	ergonomickými	AAip7x
ergonomický	ergonomickými	AAfp7x
ergonomický	ergonomickými	AAnp7x
ergonomika	ergonomika	SSfs1
ergonomika	ergonomika	SSfs5
ergonomika	ergonomikami	SSfp7
ergonomika	ergonomike	SSfs3
ergonomika	ergonomike	SSfs6
ergonomika	ergonomikou	SSfs7
ergonomika	ergonomiku	SSfs4
ergonomika	ergonomiky	SSfs2
ergonomika	ergonomiky	SSfp1
ergonomika	ergonomiky	SSfp4
ergonomika	ergonomiky	SSfp5
ergonomika	ergonomikách	SSfp6
ergonomika	ergonomikám	SSfp3
ergonomika	ergonomík	SSfp2
ergonóm	ergonóm	SSms1
ergonóm	ergonóm	SSms5
ergonóm	ergonóma	SSms2
ergonóm	ergonóma	SSms4
ergonóm	ergonómami	SSmp7
ergonóm	ergonómi	SSmp1
ergonóm	ergonómi	SSmp5
ergonómia	ergonómia	SSfs1
ergonómia	ergonómia	SSfs5
ergonómia	ergonómiami	SSfp7
ergonómia	ergonómie	SSfs2
ergonómia	ergonómie	SSfp1
ergonómia	ergonómie	SSfp4
ergonómia	ergonómie	SSfp5
ergonómia	ergonómii	SSfs3
ergonómia	ergonómii	SSfs6
ergonómia	ergonómiou	SSfs7
ergonómia	ergonómiu	SSfs4
ergonómia	ergonómiách	SSfp6
ergonómia	ergonómiám	SSfp3
ergonómia	ergonómií	SSfp2
ergonómka	ergonómka	SSfs1
ergonómka	ergonómka	SSfs5
ergonómka	ergonómkach	SSfp6
ergonómka	ergonómkam	SSfp3
ergonómka	ergonómkami	SSfp7
ergonómka	ergonómke	SSfs3
ergonómka	ergonómke	SSfs6
ergonómka	ergonómkou	SSfs7
ergonómka	ergonómku	SSfs4
ergonómka	ergonómky	SSfs2
ergonómka	ergonómky	SSfp1
ergonómka	ergonómky	SSfp4
ergonómka	ergonómky	SSfp5
ergonóm	ergonómoch	SSmp6
ergonómka	ergonómok	SSfp2
ergonóm	ergonómom	SSms7
ergonóm	ergonómom	SSmp3
ergonóm	ergonómov	SSmp2
ergonóm	ergonómov	SSmp4
ergonóm	ergonómovi	SSms3
ergonóm	ergonómovi	SSms6
ergonóm	ergonómovia	SSmp1
ergonóm	ergonómovia	SSmp5
ergosterol	ergosterol	SSis1
ergosterol	ergosterol	SSis4
ergosterol	ergosterol	SSis5
ergosterol	ergosterole	SSis6
ergosterol	ergosterolmi	SSip7
ergosterol	ergosteroloch	SSip6
ergosterol	ergosterolom	SSis7
ergosterol	ergosterolom	SSip3
ergosterol	ergosterolov	SSip2
ergosterol	ergosterolu	SSis2
ergosterol	ergosterolu	SSis3
ergosterol	ergosteroly	SSip1
ergosterol	ergosteroly	SSip4
ergosterol	ergosteroly	SSip5
ergoterapeut	ergoterapeut	SSms1
ergoterapeut	ergoterapeut	SSms5
ergoterapeut	ergoterapeuta	SSms2
ergoterapeut	ergoterapeuta	SSms4
ergoterapeut	ergoterapeuti	SSmp1
ergoterapeut	ergoterapeuti	SSmp5
ergoterapeutický	ergoterapeutickej	AAfs2x
ergoterapeutický	ergoterapeutickej	AAfs3x
ergoterapeutický	ergoterapeutickej	AAfs6x
ergoterapeutický	ergoterapeutickom	AAms6x
ergoterapeutický	ergoterapeutickom	AAis6x
ergoterapeutický	ergoterapeutickom	AAns6x
ergoterapeutický	ergoterapeutickou	AAfs7x
ergoterapeutický	ergoterapeutická	AAfs1x
ergoterapeutický	ergoterapeutická	AAfs5x
ergoterapeutický	ergoterapeutické	AAip1x
ergoterapeutický	ergoterapeutické	AAip4x
ergoterapeutický	ergoterapeutické	AAip5x
ergoterapeutický	ergoterapeutické	AAfp1x
ergoterapeutický	ergoterapeutické	AAfp4x
ergoterapeutický	ergoterapeutické	AAfp5x
ergoterapeutický	ergoterapeutické	AAns1x
ergoterapeutický	ergoterapeutické	AAns4x
ergoterapeutický	ergoterapeutické	AAns5x
ergoterapeutický	ergoterapeutické	AAnp1x
ergoterapeutický	ergoterapeutické	AAnp4x
ergoterapeutický	ergoterapeutické	AAnp5x
ergoterapeutický	ergoterapeutického	AAms2x
ergoterapeutický	ergoterapeutického	AAms4x
ergoterapeutický	ergoterapeutického	AAis2x
ergoterapeutický	ergoterapeutického	AAns2x
ergoterapeutický	ergoterapeutickému	AAms3x
ergoterapeutický	ergoterapeutickému	AAis3x
ergoterapeutický	ergoterapeutickému	AAns3x
ergoterapeutický	ergoterapeutickí	AAmp1x
ergoterapeutický	ergoterapeutickí	AAmp5x
ergoterapeutický	ergoterapeutickú	AAfs4x
ergoterapeutický	ergoterapeutický	AAms1x
ergoterapeutický	ergoterapeutický	AAms5x
ergoterapeutický	ergoterapeutický	AAis1x
ergoterapeutický	ergoterapeutický	AAis4x
ergoterapeutický	ergoterapeutický	AAis5x
ergoterapeutický	ergoterapeutických	AAmp2x
ergoterapeutický	ergoterapeutických	AAmp4x
ergoterapeutický	ergoterapeutických	AAmp6x
ergoterapeutický	ergoterapeutických	AAip2x
ergoterapeutický	ergoterapeutických	AAip6x
ergoterapeutický	ergoterapeutických	AAfp2x
ergoterapeutický	ergoterapeutických	AAfp6x
ergoterapeutický	ergoterapeutických	AAnp2x
ergoterapeutický	ergoterapeutických	AAnp6x
ergoterapeutický	ergoterapeutickým	AAms7x
ergoterapeutický	ergoterapeutickým	AAmp3x
ergoterapeutický	ergoterapeutickým	AAis7x
ergoterapeutický	ergoterapeutickým	AAip3x
ergoterapeutický	ergoterapeutickým	AAfp3x
ergoterapeutický	ergoterapeutickým	AAns7x
ergoterapeutický	ergoterapeutickým	AAnp3x
ergoterapeutický	ergoterapeutickými	AAmp7x
ergoterapeutický	ergoterapeutickými	AAip7x
ergoterapeutický	ergoterapeutickými	AAfp7x
ergoterapeutický	ergoterapeutickými	AAnp7x
ergoterapeutka	ergoterapeutiek	SSfp2
ergoterapeutka	ergoterapeutka	SSfs1
ergoterapeutka	ergoterapeutka	SSfs5
ergoterapeutka	ergoterapeutkami	SSfp7
ergoterapeutka	ergoterapeutke	SSfs3
ergoterapeutka	ergoterapeutke	SSfs6
ergoterapeutka	ergoterapeutkou	SSfs7
ergoterapeutka	ergoterapeutku	SSfs4
ergoterapeutka	ergoterapeutky	SSfs2
ergoterapeutka	ergoterapeutky	SSfp1
ergoterapeutka	ergoterapeutky	SSfp4
ergoterapeutka	ergoterapeutky	SSfp5
ergoterapeutka	ergoterapeutkách	SSfp6
ergoterapeutka	ergoterapeutkám	SSfp3
ergoterapeut	ergoterapeutmi	SSmp7
ergoterapeut	ergoterapeutoch	SSmp6
ergoterapeut	ergoterapeutom	SSms7
ergoterapeut	ergoterapeutom	SSmp3
ergoterapeut	ergoterapeutov	SSmp2
ergoterapeut	ergoterapeutov	SSmp4
ergoterapeut	ergoterapeutovi	SSms3
ergoterapeut	ergoterapeutovi	SSms6
ergoterapia	ergoterapia	SSfs1
ergoterapia	ergoterapia	SSfs5
ergoterapia	ergoterapiami	SSfp7
ergoterapia	ergoterapie	SSfs2
ergoterapia	ergoterapie	SSfp1
ergoterapia	ergoterapie	SSfp4
ergoterapia	ergoterapie	SSfp5
ergoterapia	ergoterapii	SSfs3
ergoterapia	ergoterapii	SSfs6
ergoterapia	ergoterapiou	SSfs7
ergoterapia	ergoterapiu	SSfs4
ergoterapia	ergoterapiách	SSfp6
ergoterapia	ergoterapiám	SSfp3
ergoterapia	ergoterapií	SSfp2
erigovať	erigoval	VLesam+
erigovať	erigoval	VLesai+
erigovať	erigoval	VLesbm+
erigovať	erigoval	VLesbi+
erigovať	erigoval	VLescm+
erigovať	erigoval	VLesci+
erigovať	erigovala	VLesaf+
erigovať	erigovala	VLesbf+
erigovať	erigovala	VLescf+
erigovať	erigovali	VLepah+
erigovať	erigovali	VLepbh+
erigovať	erigovali	VLepcm+
erigovať	erigovali	VLepci+
erigovať	erigovali	VLepcf+
erigovať	erigovali	VLepcn+
erigovať	erigovali	VLepco+
erigovať	erigovalo	VLesan+
erigovať	erigovalo	VLesbn+
erigovať	erigovalo	VLescn+
erigovať	erigovať	VIe+
erigovať	eriguj	VMesb+
erigovať	eriguje	VKesc+
erigovať	erigujem	VKesa+
erigovať	erigujeme	VKepa+
erigovať	erigujete	VKepb+
erigovať	eriguješ	VKesb+
erigovať	erigujme	VMepa+
erigovať	erigujte	VMepb+
erigovať	erigujú	VKepc+
erigovať	erigujúc	VHe+
erika	erika	SSfs1
erika	erika	SSfs5
erika	erikami	SSfp7
erika	erike	SSfs3
erika	erike	SSfs6
erika	erikou	SSfs7
erika	eriku	SSfs4
erika	eriky	SSfs2
erika	eriky	SSfp1
erika	eriky	SSfp4
erika	eriky	SSfp5
erika	erikách	SSfp6
erika	erikám	SSfp3
eristický	eristickej	AAfs2x
eristický	eristickej	AAfs3x
eristický	eristickej	AAfs6x
eristický	eristickom	AAms6x
eristický	eristickom	AAis6x
eristický	eristickom	AAns6x
eristický	eristickou	AAfs7x
eristický	eristická	AAfs1x
eristický	eristická	AAfs5x
eristický	eristické	AAip1x
eristický	eristické	AAip4x
eristický	eristické	AAip5x
eristický	eristické	AAfp1x
eristický	eristické	AAfp4x
eristický	eristické	AAfp5x
eristický	eristické	AAns1x
eristický	eristické	AAns4x
eristický	eristické	AAns5x
eristický	eristické	AAnp1x
eristický	eristické	AAnp4x
eristický	eristické	AAnp5x
eristický	eristického	AAms2x
eristický	eristického	AAms4x
eristický	eristického	AAis2x
eristický	eristického	AAns2x
eristický	eristickému	AAms3x
eristický	eristickému	AAis3x
eristický	eristickému	AAns3x
eristický	eristickí	AAmp1x
eristický	eristickí	AAmp5x
eristický	eristickú	AAfs4x
eristický	eristický	AAms1x
eristický	eristický	AAms5x
eristický	eristický	AAis1x
eristický	eristický	AAis4x
eristický	eristický	AAis5x
eristický	eristických	AAmp2x
eristický	eristických	AAmp4x
eristický	eristických	AAmp6x
eristický	eristických	AAip2x
eristický	eristických	AAip6x
eristický	eristických	AAfp2x
eristický	eristických	AAfp6x
eristický	eristických	AAnp2x
eristický	eristických	AAnp6x
eristický	eristickým	AAms7x
eristický	eristickým	AAmp3x
eristický	eristickým	AAis7x
eristický	eristickým	AAip3x
eristický	eristickým	AAfp3x
eristický	eristickým	AAns7x
eristický	eristickým	AAnp3x
eristický	eristickými	AAmp7x
eristický	eristickými	AAip7x
eristický	eristickými	AAfp7x
eristický	eristickými	AAnp7x
eristika	eristika	SSfs1
eristika	eristika	SSfs5
eristika	eristikami	SSfp7
eristika	eristike	SSfs3
eristika	eristike	SSfs6
eristika	eristikou	SSfs7
eristika	eristiku	SSfs4
eristika	eristiky	SSfs2
eristika	eristiky	SSfp1
eristika	eristiky	SSfp4
eristika	eristiky	SSfp5
eristika	eristikách	SSfp6
eristika	eristikám	SSfp3
eristika	eristík	SSfp2
eritrejský	eritrejskej	AAfs2x
eritrejský	eritrejskej	AAfs3x
eritrejský	eritrejskej	AAfs6x
eritrejský	eritrejskom	AAms6x
eritrejský	eritrejskom	AAis6x
eritrejský	eritrejskom	AAns6x
eritrejský	eritrejskou	AAfs7x
eritrejský	eritrejská	AAfs1x
eritrejský	eritrejská	AAfs5x
eritrejský	eritrejské	AAip1x
eritrejský	eritrejské	AAip4x
eritrejský	eritrejské	AAip5x
eritrejský	eritrejské	AAfp1x
eritrejský	eritrejské	AAfp4x
eritrejský	eritrejské	AAfp5x
eritrejský	eritrejské	AAns1x
eritrejský	eritrejské	AAns4x
eritrejský	eritrejské	AAns5x
eritrejský	eritrejské	AAnp1x
eritrejský	eritrejské	AAnp4x
eritrejský	eritrejské	AAnp5x
eritrejský	eritrejského	AAms2x
eritrejský	eritrejského	AAms4x
eritrejský	eritrejského	AAis2x
eritrejský	eritrejského	AAns2x
eritrejský	eritrejskému	AAms3x
eritrejský	eritrejskému	AAis3x
eritrejský	eritrejskému	AAns3x
eritrejský	eritrejskí	AAmp1x
eritrejský	eritrejskí	AAmp5x
eritrejský	eritrejskú	AAfs4x
eritrejský	eritrejský	AAms1x
eritrejský	eritrejský	AAms5x
eritrejský	eritrejský	AAis1x
eritrejský	eritrejský	AAis4x
eritrejský	eritrejský	AAis5x
eritrejský	eritrejských	AAmp2x
eritrejský	eritrejských	AAmp4x
eritrejský	eritrejských	AAmp6x
eritrejský	eritrejských	AAip2x
eritrejský	eritrejských	AAip6x
eritrejský	eritrejských	AAfp2x
eritrejský	eritrejských	AAfp6x
eritrejský	eritrejských	AAnp2x
eritrejský	eritrejských	AAnp6x
eritrejský	eritrejským	AAms7x
eritrejský	eritrejským	AAmp3x
eritrejský	eritrejským	AAis7x
eritrejský	eritrejským	AAip3x
eritrejský	eritrejským	AAfp3x
eritrejský	eritrejským	AAns7x
eritrejský	eritrejským	AAnp3x
eritrejský	eritrejskými	AAmp7x
eritrejský	eritrejskými	AAip7x
eritrejský	eritrejskými	AAfp7x
eritrejský	eritrejskými	AAnp7x
erobik	erobik	SSis1
erobik	erobik	SSis4
erobik	erobik	SSis5
erobik	erobikmi	SSip7
erobik	erobikoch	SSip6
erobik	erobikom	SSis7
erobik	erobikom	SSip3
erobik	erobikov	SSip2
erobik	erobiku	SSis2
erobik	erobiku	SSis3
erobik	erobiku	SSis6
erobik	erobiky	SSip1
erobik	erobiky	SSip4
erobik	erobiky	SSip5
erodovať	erodoval	VLesam+
erodovať	erodoval	VLesai+
erodovať	erodoval	VLesbm+
erodovať	erodoval	VLesbi+
erodovať	erodoval	VLescm+
erodovať	erodoval	VLesci+
erodovať	erodovala	VLesaf+
erodovať	erodovala	VLesbf+
erodovať	erodovala	VLescf+
erodovať	erodovali	VLepah+
erodovať	erodovali	VLepbh+
erodovať	erodovali	VLepcm+
erodovať	erodovali	VLepci+
erodovať	erodovali	VLepcf+
erodovať	erodovali	VLepcn+
erodovať	erodovali	VLepco+
erodovať	erodovalo	VLesan+
erodovať	erodovalo	VLesbn+
erodovať	erodovalo	VLescn+
erodovať	erodovať	VIe+
erodovať	eroduj	VMesb+
erodovať	eroduje	VKesc+
erodovať	erodujem	VKesa+
erodovať	erodujeme	VKepa+
erodovať	erodujete	VKepb+
erodovať	eroduješ	VKesb+
erodovať	erodujme	VMepa+
erodovať	erodujte	VMepb+
erodovať	erodujú	VKepc+
erodovať	erodujúc	VHe+
erogénny	erogénna	AAfs1x
erogénny	erogénna	AAfs5x
erogénny	erogénne	AAip1x
erogénny	erogénne	AAip4x
erogénny	erogénne	AAip5x
erogénny	erogénne	AAfp1x
erogénny	erogénne	AAfp4x
erogénny	erogénne	AAfp5x
erogénny	erogénne	AAns1x
erogénny	erogénne	AAns4x
erogénny	erogénne	AAns5x
erogénny	erogénne	AAnp1x
erogénny	erogénne	AAnp4x
erogénny	erogénne	AAnp5x
erogénny	erogénneho	AAms2x
erogénny	erogénneho	AAms4x
erogénny	erogénneho	AAis2x
erogénny	erogénneho	AAns2x
erogénny	erogénnej	AAfs2x
erogénny	erogénnej	AAfs3x
erogénny	erogénnej	AAfs6x
erogénny	erogénnemu	AAms3x
erogénny	erogénnemu	AAis3x
erogénny	erogénnemu	AAns3x
erogénny	erogénni	AAmp1x
erogénny	erogénni	AAmp5x
erogénny	erogénnom	AAms6x
erogénny	erogénnom	AAis6x
erogénny	erogénnom	AAns6x
erogénny	erogénnou	AAfs7x
erogénny	erogénnu	AAfs4x
erogénny	erogénny	AAms1x
erogénny	erogénny	AAms5x
erogénny	erogénny	AAis1x
erogénny	erogénny	AAis4x
erogénny	erogénny	AAis5x
erogénny	erogénnych	AAmp2x
erogénny	erogénnych	AAmp4x
erogénny	erogénnych	AAmp6x
erogénny	erogénnych	AAip2x
erogénny	erogénnych	AAip6x
erogénny	erogénnych	AAfp2x
erogénny	erogénnych	AAfp6x
erogénny	erogénnych	AAnp2x
erogénny	erogénnych	AAnp6x
erogénny	erogénnym	AAms7x
erogénny	erogénnym	AAmp3x
erogénny	erogénnym	AAis7x
erogénny	erogénnym	AAip3x
erogénny	erogénnym	AAfp3x
erogénny	erogénnym	AAns7x
erogénny	erogénnym	AAnp3x
erogénny	erogénnymi	AAmp7x
erogénny	erogénnymi	AAip7x
erogénny	erogénnymi	AAfp7x
erogénny	erogénnymi	AAnp7x
erohák	eroháci	SSmp1
erohák	eroháci	SSmp5
erohácky	erohácka	AAfs1x
erohácky	erohácka	AAfs5x
erohácky	erohácke	AAip1x
erohácky	erohácke	AAip4x
erohácky	erohácke	AAip5x
erohácky	erohácke	AAfp1x
erohácky	erohácke	AAfp4x
erohácky	erohácke	AAfp5x
erohácky	erohácke	AAns1x
erohácky	erohácke	AAns4x
erohácky	erohácke	AAns5x
erohácky	erohácke	AAnp1x
erohácky	erohácke	AAnp4x
erohácky	erohácke	AAnp5x
erohácky	eroháckeho	AAms2x
erohácky	eroháckeho	AAms4x
erohácky	eroháckeho	AAis2x
erohácky	eroháckeho	AAns2x
erohácky	eroháckej	AAfs2x
erohácky	eroháckej	AAfs3x
erohácky	eroháckej	AAfs6x
erohácky	eroháckemu	AAms3x
erohácky	eroháckemu	AAis3x
erohácky	eroháckemu	AAns3x
erohácky	erohácki	AAmp1x
erohácky	erohácki	AAmp5x
erohácky	eroháckom	AAms6x
erohácky	eroháckom	AAis6x
erohácky	eroháckom	AAns6x
erohácky	eroháckou	AAfs7x
erohácky	erohácku	AAfs4x
erohácky	erohácky	AAms1x
erohácky	erohácky	AAms5x
erohácky	erohácky	AAis1x
erohácky	erohácky	AAis4x
erohácky	erohácky	AAis5x
erohácky	eroháckych	AAmp2x
erohácky	eroháckych	AAmp4x
erohácky	eroháckych	AAmp6x
erohácky	eroháckych	AAip2x
erohácky	eroháckych	AAip6x
erohácky	eroháckych	AAfp2x
erohácky	eroháckych	AAfp6x
erohácky	eroháckych	AAnp2x
erohácky	eroháckych	AAnp6x
erohácky	eroháckym	AAms7x
erohácky	eroháckym	AAmp3x
erohácky	eroháckym	AAis7x
erohácky	eroháckym	AAip3x
erohácky	eroháckym	AAfp3x
erohácky	eroháckym	AAns7x
erohácky	eroháckym	AAnp3x
erohácky	eroháckymi	AAmp7x
erohácky	eroháckymi	AAip7x
erohácky	eroháckymi	AAfp7x
erohácky	eroháckymi	AAnp7x
erohák	erohák	SSms1
erohák	erohák	SSms5
erohák	eroháka	SSms2
erohák	eroháka	SSms4
erohák	erohákmi	SSmp7
erohák	erohákoch	SSmp6
erohák	erohákom	SSms7
erohák	erohákom	SSmp3
erohák	erohákov	SSmp2
erohák	erohákov	SSmp4
erohák	erohákovi	SSms3
erohák	erohákovi	SSms6
eroháčka	eroháčka	SSfs1
eroháčka	eroháčka	SSfs5
eroháčka	eroháčkach	SSfp6
eroháčka	eroháčkam	SSfp3
eroháčka	eroháčkami	SSfp7
eroháčka	eroháčke	SSfs3
eroháčka	eroháčke	SSfs6
eroháčka	eroháčkou	SSfs7
eroháčka	eroháčku	SSfs4
eroháčka	eroháčky	SSfs2
eroháčka	eroháčky	SSfp1
eroháčka	eroháčky	SSfp4
eroháčka	eroháčky	SSfp5
eroháčka	eroháčok	SSfp2
eroplán	eroplán	SSis1
eroplán	eroplán	SSis4
eroplán	eroplán	SSis5
eroplán	eropláne	SSis6
eroplán	eroplánmi	SSip7
eroplán	eroplánoch	SSip6
eroplán	eroplánom	SSis7
eroplán	eroplánom	SSip3
eroplán	eroplánov	SSip2
eroplán	eroplánu	SSis2
eroplán	eroplánu	SSis3
eroplán	eroplány	SSip1
eroplán	eroplány	SSip4
eroplán	eroplány	SSip5
eros	eros	SSis1
eros	eros	SSis4
eros	eros	SSis5
eros	erose	SSis6
eros	erosmi	SSip7
eros	erosoch	SSip6
eros	erosom	SSis7
eros	erosom	SSip3
eros	erosov	SSip2
eros	erosu	SSis2
eros	erosu	SSis3
eros	erosy	SSip1
eros	erosy	SSip4
eros	erosy	SSip5
erotik	erotici	SSmp1
erotik	erotici	SSmp5
erotický	erotickej	AAfs2x
erotický	erotickej	AAfs3x
erotický	erotickej	AAfs6x
erotický	erotickejšej	AAfs2y
erotický	erotickejšej	AAfs3y
erotický	erotickejšej	AAfs6y
erotický	erotickejšia	AAfs1y
erotický	erotickejšia	AAfs5y
eroticky	erotickejšie	Dy
erotický	erotickejšie	AAip1y
erotický	erotickejšie	AAip4y
erotický	erotickejšie	AAip5y
erotický	erotickejšie	AAfp1y
erotický	erotickejšie	AAfp4y
erotický	erotickejšie	AAfp5y
erotický	erotickejšie	AAns1y
erotický	erotickejšie	AAns4y
erotický	erotickejšie	AAns5y
erotický	erotickejšie	AAnp1y
erotický	erotickejšie	AAnp4y
erotický	erotickejšie	AAnp5y
erotický	erotickejšieho	AAms2y
erotický	erotickejšieho	AAms4y
erotický	erotickejšieho	AAis2y
erotický	erotickejšieho	AAns2y
erotický	erotickejšiemu	AAms3y
erotický	erotickejšiemu	AAis3y
erotický	erotickejšiemu	AAns3y
erotický	erotickejšiu	AAfs4y
erotický	erotickejšom	AAms6y
erotický	erotickejšom	AAis6y
erotický	erotickejšom	AAns6y
erotický	erotickejšou	AAfs7y
erotický	erotickejší	AAms1y
erotický	erotickejší	AAms5y
erotický	erotickejší	AAmp1y
erotický	erotickejší	AAmp5y
erotický	erotickejší	AAis1y
erotický	erotickejší	AAis4y
erotický	erotickejší	AAis5y
erotický	erotickejších	AAmp2y
erotický	erotickejších	AAmp4y
erotický	erotickejších	AAmp6y
erotický	erotickejších	AAip2y
erotický	erotickejších	AAip6y
erotický	erotickejších	AAfp2y
erotický	erotickejších	AAfp6y
erotický	erotickejších	AAnp2y
erotický	erotickejších	AAnp6y
erotický	erotickejším	AAms7y
erotický	erotickejším	AAmp3y
erotický	erotickejším	AAis7y
erotický	erotickejším	AAip3y
erotický	erotickejším	AAfp3y
erotický	erotickejším	AAns7y
erotický	erotickejším	AAnp3y
erotický	erotickejšími	AAmp7y
erotický	erotickejšími	AAip7y
erotický	erotickejšími	AAfp7y
erotický	erotickejšími	AAnp7y
erotický	erotickom	AAms6x
erotický	erotickom	AAis6x
erotický	erotickom	AAns6x
erotickosť	erotickosti	SSfs2
erotickosť	erotickosti	SSfs3
erotickosť	erotickosti	SSfs6
erotickosť	erotickosti	SSfp1
erotickosť	erotickosti	SSfp4
erotickosť	erotickosti	SSfp5
erotickosť	erotickostiach	SSfp6
erotickosť	erotickostiam	SSfp3
erotickosť	erotickostí	SSfp2
erotickosť	erotickosť	SSfs1
erotickosť	erotickosť	SSfs4
erotickosť	erotickosť	SSfs5
erotickosť	erotickosťami	SSfp7
erotickosť	erotickosťou	SSfs7
erotický	erotickou	AAfs7x
eroticky	eroticky	Dx
erotický	erotická	AAfs1x
erotický	erotická	AAfs5x
erotický	erotické	AAip1x
erotický	erotické	AAip4x
erotický	erotické	AAip5x
erotický	erotické	AAfp1x
erotický	erotické	AAfp4x
erotický	erotické	AAfp5x
erotický	erotické	AAns1x
erotický	erotické	AAns4x
erotický	erotické	AAns5x
erotický	erotické	AAnp1x
erotický	erotické	AAnp4x
erotický	erotické	AAnp5x
erotický	erotického	AAms2x
erotický	erotického	AAms4x
erotický	erotického	AAis2x
erotický	erotického	AAns2x
erotický	erotickému	AAms3x
erotický	erotickému	AAis3x
erotický	erotickému	AAns3x
erotický	erotickí	AAmp1x
erotický	erotickí	AAmp5x
erotický	erotickú	AAfs4x
erotický	erotický	AAms1x
erotický	erotický	AAms5x
erotický	erotický	AAis1x
erotický	erotický	AAis4x
erotický	erotický	AAis5x
erotický	erotických	AAmp2x
erotický	erotických	AAmp4x
erotický	erotických	AAmp6x
erotický	erotických	AAip2x
erotický	erotických	AAip6x
erotický	erotických	AAfp2x
erotický	erotických	AAfp6x
erotický	erotických	AAnp2x
erotický	erotických	AAnp6x
erotický	erotickým	AAms7x
erotický	erotickým	AAmp3x
erotický	erotickým	AAis7x
erotický	erotickým	AAip3x
erotický	erotickým	AAfp3x
erotický	erotickým	AAns7x
erotický	erotickým	AAnp3x
erotický	erotickými	AAmp7x
erotický	erotickými	AAip7x
erotický	erotickými	AAfp7x
erotický	erotickými	AAnp7x
erotik	erotik	SSms1
erotik	erotik	SSms5
erotik	erotika	SSms2
erotik	erotika	SSms4
erotika	erotika	SSfs1
erotika	erotika	SSfs5
erotika	erotikami	SSfp7
erotika	erotike	SSfs3
erotika	erotike	SSfs6
erotik	erotikmi	SSmp7
erotik	erotikoch	SSmp6
erotik	erotikom	SSms7
erotik	erotikom	SSmp3
erotika	erotikou	SSfs7
erotik	erotikov	SSmp2
erotik	erotikov	SSmp4
erotik	erotikovi	SSms3
erotik	erotikovi	SSms6
erotika	erotiku	SSfs4
erotika	erotiky	SSfs2
erotika	erotiky	SSfp1
erotika	erotiky	SSfp4
erotika	erotiky	SSfp5
erotika	erotikách	SSfp6
erotika	erotikám	SSfp3
erotizmus	erotizmami	SSip7
erotizmus	erotizme	SSis6
erotizmus	erotizmoch	SSip6
erotizmus	erotizmom	SSis7
erotizmus	erotizmom	SSip3
erotizmus	erotizmov	SSip2
erotizmus	erotizmu	SSis2
erotizmus	erotizmu	SSis3
erotizmus	erotizmus	SSis1
erotizmus	erotizmus	SSis4
erotizmus	erotizmus	SSis5
erotizmus	erotizmy	SSip1
erotizmus	erotizmy	SSip4
erotizmus	erotizmy	SSip5
erotizovať	erotizoval	VLesam+
erotizovať	erotizoval	VLesai+
erotizovať	erotizoval	VLesbm+
erotizovať	erotizoval	VLesbi+
erotizovať	erotizoval	VLescm+
erotizovať	erotizoval	VLesci+
erotizovať	erotizovala	VLesaf+
erotizovať	erotizovala	VLesbf+
erotizovať	erotizovala	VLescf+
erotizovať	erotizovali	VLepah+
erotizovať	erotizovali	VLepbh+
erotizovať	erotizovali	VLepcm+
erotizovať	erotizovali	VLepci+
erotizovať	erotizovali	VLepcf+
erotizovať	erotizovali	VLepcn+
erotizovať	erotizovali	VLepco+
erotizovať	erotizovalo	VLesan+
erotizovať	erotizovalo	VLesbn+
erotizovať	erotizovalo	VLescn+
erotizovať	erotizovať	VIe+
erotizovať	erotizuj	VMesb+
erotizovať	erotizuje	VKesc+
erotizovať	erotizujem	VKesa+
erotizovať	erotizujeme	VKepa+
erotizovať	erotizujete	VKepb+
erotizovať	erotizuješ	VKesb+
erotizovať	erotizujme	VMepa+
erotizovať	erotizujte	VMepb+
erotizovať	erotizujú	VKepc+
erotizovať	erotizujúc	VHe+
erotizácia	erotizácia	SSfs1
erotizácia	erotizácia	SSfs5
erotizácia	erotizáciami	SSfp7
erotizácia	erotizácie	SSfs2
erotizácia	erotizácie	SSfp1
erotizácia	erotizácie	SSfp4
erotizácia	erotizácie	SSfp5
erotizácia	erotizácii	SSfs3
erotizácia	erotizácii	SSfs6
erotizácia	erotizáciou	SSfs7
erotizácia	erotizáciu	SSfs4
erotizácia	erotizáciách	SSfp6
erotizácia	erotizáciám	SSfp3
erotizácia	erotizácií	SSfp2
erotička	erotičiek	SSfp2
erotička	erotička	SSfs1
erotička	erotička	SSfs5
erotička	erotičkami	SSfp7
erotička	erotičke	SSfs3
erotička	erotičke	SSfs6
erotička	erotičkou	SSfs7
erotička	erotičku	SSfs4
erotička	erotičky	SSfs2
erotička	erotičky	SSfp1
erotička	erotičky	SSfp4
erotička	erotičky	SSfp5
erotička	erotičkách	SSfp6
erotička	erotičkám	SSfp3
erotogénny	erotogénna	AAfs1x
erotogénny	erotogénna	AAfs5x
erotogénny	erotogénne	AAip1x
erotogénny	erotogénne	AAip4x
erotogénny	erotogénne	AAip5x
erotogénny	erotogénne	AAfp1x
erotogénny	erotogénne	AAfp4x
erotogénny	erotogénne	AAfp5x
erotogénny	erotogénne	AAns1x
erotogénny	erotogénne	AAns4x
erotogénny	erotogénne	AAns5x
erotogénny	erotogénne	AAnp1x
erotogénny	erotogénne	AAnp4x
erotogénny	erotogénne	AAnp5x
erotogénny	erotogénneho	AAms2x
erotogénny	erotogénneho	AAms4x
erotogénny	erotogénneho	AAis2x
erotogénny	erotogénneho	AAns2x
erotogénny	erotogénnej	AAfs2x
erotogénny	erotogénnej	AAfs3x
erotogénny	erotogénnej	AAfs6x
erotogénny	erotogénnemu	AAms3x
erotogénny	erotogénnemu	AAis3x
erotogénny	erotogénnemu	AAns3x
erotogénny	erotogénni	AAmp1x
erotogénny	erotogénni	AAmp5x
erotogénny	erotogénnom	AAms6x
erotogénny	erotogénnom	AAis6x
erotogénny	erotogénnom	AAns6x
erotogénny	erotogénnou	AAfs7x
erotogénny	erotogénnu	AAfs4x
erotogénny	erotogénny	AAms1x
erotogénny	erotogénny	AAms5x
erotogénny	erotogénny	AAis1x
erotogénny	erotogénny	AAis4x
erotogénny	erotogénny	AAis5x
erotogénny	erotogénnych	AAmp2x
erotogénny	erotogénnych	AAmp4x
erotogénny	erotogénnych	AAmp6x
erotogénny	erotogénnych	AAip2x
erotogénny	erotogénnych	AAip6x
erotogénny	erotogénnych	AAfp2x
erotogénny	erotogénnych	AAfp6x
erotogénny	erotogénnych	AAnp2x
erotogénny	erotogénnych	AAnp6x
erotogénny	erotogénnym	AAms7x
erotogénny	erotogénnym	AAmp3x
erotogénny	erotogénnym	AAis7x
erotogénny	erotogénnym	AAip3x
erotogénny	erotogénnym	AAfp3x
erotogénny	erotogénnym	AAns7x
erotogénny	erotogénnym	AAnp3x
erotogénny	erotogénnymi	AAmp7x
erotogénny	erotogénnymi	AAip7x
erotogénny	erotogénnymi	AAfp7x
erotogénny	erotogénnymi	AAnp7x
erotoman	erotoman	SSms1
erotoman	erotoman	SSms5
erotoman	erotomana	SSms2
erotoman	erotomana	SSms4
erotoman	erotomani	SSmp1
erotoman	erotomani	SSmp5
erotomanka	erotomaniek	SSfp2
erotomanka	erotomanka	SSfs1
erotomanka	erotomanka	SSfs5
erotomanka	erotomankami	SSfp7
erotomanka	erotomanke	SSfs3
erotomanka	erotomanke	SSfs6
erotomanka	erotomankou	SSfs7
erotomanka	erotomanku	SSfs4
erotomanka	erotomanky	SSfs2
erotomanka	erotomanky	SSfp1
erotomanka	erotomanky	SSfp4
erotomanka	erotomanky	SSfp5
erotomanka	erotomankách	SSfp6
erotomanka	erotomankám	SSfp3
erotoman	erotomanmi	SSmp7
erotoman	erotomanoch	SSmp6
erotoman	erotomanom	SSms7
erotoman	erotomanom	SSmp3
erotoman	erotomanov	SSmp2
erotoman	erotomanov	SSmp4
erotoman	erotomanovi	SSms3
erotoman	erotomanovi	SSms6
erotomanský	erotomanskej	AAfs2x
erotomanský	erotomanskej	AAfs3x
erotomanský	erotomanskej	AAfs6x
erotomanský	erotomanskom	AAms6x
erotomanský	erotomanskom	AAis6x
erotomanský	erotomanskom	AAns6x
erotomanský	erotomanskou	AAfs7x
erotomanský	erotomanská	AAfs1x
erotomanský	erotomanská	AAfs5x
erotomanský	erotomanské	AAip1x
erotomanský	erotomanské	AAip4x
erotomanský	erotomanské	AAip5x
erotomanský	erotomanské	AAfp1x
erotomanský	erotomanské	AAfp4x
erotomanský	erotomanské	AAfp5x
erotomanský	erotomanské	AAns1x
erotomanský	erotomanské	AAns4x
erotomanský	erotomanské	AAns5x
erotomanský	erotomanské	AAnp1x
erotomanský	erotomanské	AAnp4x
erotomanský	erotomanské	AAnp5x
erotomanský	erotomanského	AAms2x
erotomanský	erotomanského	AAms4x
erotomanský	erotomanského	AAis2x
erotomanský	erotomanského	AAns2x
erotomanský	erotomanskému	AAms3x
erotomanský	erotomanskému	AAis3x
erotomanský	erotomanskému	AAns3x
erotomanský	erotomanskí	AAmp1x
erotomanský	erotomanskí	AAmp5x
erotomanský	erotomanskú	AAfs4x
erotomanský	erotomanský	AAms1x
erotomanský	erotomanský	AAms5x
erotomanský	erotomanský	AAis1x
erotomanský	erotomanský	AAis4x
erotomanský	erotomanský	AAis5x
erotomanský	erotomanských	AAmp2x
erotomanský	erotomanských	AAmp4x
erotomanský	erotomanských	AAmp6x
erotomanský	erotomanských	AAip2x
erotomanský	erotomanských	AAip6x
erotomanský	erotomanských	AAfp2x
erotomanský	erotomanských	AAfp6x
erotomanský	erotomanských	AAnp2x
erotomanský	erotomanských	AAnp6x
erotomanský	erotomanským	AAms7x
erotomanský	erotomanským	AAmp3x
erotomanský	erotomanským	AAis7x
erotomanský	erotomanským	AAip3x
erotomanský	erotomanským	AAfp3x
erotomanský	erotomanským	AAns7x
erotomanský	erotomanským	AAnp3x
erotomanský	erotomanskými	AAmp7x
erotomanský	erotomanskými	AAip7x
erotomanský	erotomanskými	AAfp7x
erotomanský	erotomanskými	AAnp7x
erotománia	erotománia	SSfs1
erotománia	erotománia	SSfs5
erotománia	erotomániami	SSfp7
erotománia	erotománie	SSfs2
erotománia	erotománie	SSfp1
erotománia	erotománie	SSfp4
erotománia	erotománie	SSfp5
erotománia	erotománii	SSfs3
erotománia	erotománii	SSfs6
erotománia	erotomániou	SSfs7
erotománia	erotomániu	SSfs4
erotománia	erotomániách	SSfp6
erotománia	erotomániám	SSfp3
erotománia	erotománií	SSfp2
erotika	erotík	SSfp2
erozívny	erozívna	AAfs1x
erozívny	erozívna	AAfs5x
erozívne	erozívne	Dx
erozívny	erozívne	AAip1x
erozívny	erozívne	AAip4x
erozívny	erozívne	AAip5x
erozívny	erozívne	AAfp1x
erozívny	erozívne	AAfp4x
erozívny	erozívne	AAfp5x
erozívny	erozívne	AAns1x
erozívny	erozívne	AAns4x
erozívny	erozívne	AAns5x
erozívny	erozívne	AAnp1x
erozívny	erozívne	AAnp4x
erozívny	erozívne	AAnp5x
erozívny	erozívneho	AAms2x
erozívny	erozívneho	AAms4x
erozívny	erozívneho	AAis2x
erozívny	erozívneho	AAns2x
erozívny	erozívnej	AAfs2x
erozívny	erozívnej	AAfs3x
erozívny	erozívnej	AAfs6x
erozívny	erozívnejšej	AAfs2y
erozívny	erozívnejšej	AAfs3y
erozívny	erozívnejšej	AAfs6y
erozívny	erozívnejšia	AAfs1y
erozívny	erozívnejšia	AAfs5y
erozívne	erozívnejšie	Dy
erozívny	erozívnejšie	AAip1y
erozívny	erozívnejšie	AAip4y
erozívny	erozívnejšie	AAip5y
erozívny	erozívnejšie	AAfp1y
erozívny	erozívnejšie	AAfp4y
erozívny	erozívnejšie	AAfp5y
erozívny	erozívnejšie	AAns1y
erozívny	erozívnejšie	AAns4y
erozívny	erozívnejšie	AAns5y
erozívny	erozívnejšie	AAnp1y
erozívny	erozívnejšie	AAnp4y
erozívny	erozívnejšie	AAnp5y
erozívny	erozívnejšieho	AAms2y
erozívny	erozívnejšieho	AAms4y
erozívny	erozívnejšieho	AAis2y
erozívny	erozívnejšieho	AAns2y
erozívny	erozívnejšiemu	AAms3y
erozívny	erozívnejšiemu	AAis3y
erozívny	erozívnejšiemu	AAns3y
erozívny	erozívnejšiu	AAfs4y
erozívny	erozívnejšom	AAms6y
erozívny	erozívnejšom	AAis6y
erozívny	erozívnejšom	AAns6y
erozívny	erozívnejšou	AAfs7y
erozívny	erozívnejší	AAms1y
erozívny	erozívnejší	AAms5y
erozívny	erozívnejší	AAmp1y
erozívny	erozívnejší	AAmp5y
erozívny	erozívnejší	AAis1y
erozívny	erozívnejší	AAis4y
erozívny	erozívnejší	AAis5y
erozívny	erozívnejších	AAmp2y
erozívny	erozívnejších	AAmp4y
erozívny	erozívnejších	AAmp6y
erozívny	erozívnejších	AAip2y
erozívny	erozívnejších	AAip6y
erozívny	erozívnejších	AAfp2y
erozívny	erozívnejších	AAfp6y
erozívny	erozívnejších	AAnp2y
erozívny	erozívnejších	AAnp6y
erozívny	erozívnejším	AAms7y
erozívny	erozívnejším	AAmp3y
erozívny	erozívnejším	AAis7y
erozívny	erozívnejším	AAip3y
erozívny	erozívnejším	AAfp3y
erozívny	erozívnejším	AAns7y
erozívny	erozívnejším	AAnp3y
erozívny	erozívnejšími	AAmp7y
erozívny	erozívnejšími	AAip7y
erozívny	erozívnejšími	AAfp7y
erozívny	erozívnejšími	AAnp7y
erozívny	erozívnemu	AAms3x
erozívny	erozívnemu	AAis3x
erozívny	erozívnemu	AAns3x
erozívny	erozívni	AAmp1x
erozívny	erozívni	AAmp5x
erozívny	erozívnom	AAms6x
erozívny	erozívnom	AAis6x
erozívny	erozívnom	AAns6x
erozívny	erozívnou	AAfs7x
erozívny	erozívnu	AAfs4x
erozívny	erozívny	AAms1x
erozívny	erozívny	AAms5x
erozívny	erozívny	AAis1x
erozívny	erozívny	AAis4x
erozívny	erozívny	AAis5x
erozívny	erozívnych	AAmp2x
erozívny	erozívnych	AAmp4x
erozívny	erozívnych	AAmp6x
erozívny	erozívnych	AAip2x
erozívny	erozívnych	AAip6x
erozívny	erozívnych	AAfp2x
erozívny	erozívnych	AAfp6x
erozívny	erozívnych	AAnp2x
erozívny	erozívnych	AAnp6x
erozívny	erozívnym	AAms7x
erozívny	erozívnym	AAmp3x
erozívny	erozívnym	AAis7x
erozívny	erozívnym	AAip3x
erozívny	erozívnym	AAfp3x
erozívny	erozívnym	AAns7x
erozívny	erozívnym	AAnp3x
erozívny	erozívnymi	AAmp7x
erozívny	erozívnymi	AAip7x
erozívny	erozívnymi	AAfp7x
erozívny	erozívnymi	AAnp7x
erráta	errát	SSnp2
errátum	errát	SSnp2
erráta	erráta	SSnp1
erráta	erráta	SSnp4
erráta	erráta	SSnp5
errátum	erráta	SSns2
errátum	erráta	SSnp1
errátum	erráta	SSnp4
errátum	erráta	SSnp5
erráta	errátach	SSnp6
errátum	errátach	SSnp6
erráta	errátam	SSnp3
errátum	errátam	SSnp3
erráta	errátami	SSnp7
errátum	errátami	SSnp7
errátum	erráte	SSns6
errátum	errátom	SSns7
errátum	errátu	SSns3
errátum	errátum	SSns1
errátum	errátum	SSns4
errátum	errátum	SSns5
erudovane	erudovane	Dx
erudovaný	erudovanej	AAfs2x
erudovaný	erudovanej	AAfs3x
erudovaný	erudovanej	AAfs6x
erudovaný	erudovanejšej	AAfs2y
erudovaný	erudovanejšej	AAfs3y
erudovaný	erudovanejšej	AAfs6y
erudovaný	erudovanejšia	AAfs1y
erudovaný	erudovanejšia	AAfs5y
erudovane	erudovanejšie	Dy
erudovaný	erudovanejšie	AAip1y
erudovaný	erudovanejšie	AAip4y
erudovaný	erudovanejšie	AAip5y
erudovaný	erudovanejšie	AAfp1y
erudovaný	erudovanejšie	AAfp4y
erudovaný	erudovanejšie	AAfp5y
erudovaný	erudovanejšie	AAns1y
erudovaný	erudovanejšie	AAns4y
erudovaný	erudovanejšie	AAns5y
erudovaný	erudovanejšie	AAnp1y
erudovaný	erudovanejšie	AAnp4y
erudovaný	erudovanejšie	AAnp5y
erudovaný	erudovanejšieho	AAms2y
erudovaný	erudovanejšieho	AAms4y
erudovaný	erudovanejšieho	AAis2y
erudovaný	erudovanejšieho	AAns2y
erudovaný	erudovanejšiemu	AAms3y
erudovaný	erudovanejšiemu	AAis3y
erudovaný	erudovanejšiemu	AAns3y
erudovaný	erudovanejšiu	AAfs4y
erudovaný	erudovanejšom	AAms6y
erudovaný	erudovanejšom	AAis6y
erudovaný	erudovanejšom	AAns6y
erudovaný	erudovanejšou	AAfs7y
erudovaný	erudovanejší	AAms1y
erudovaný	erudovanejší	AAms5y
erudovaný	erudovanejší	AAmp1y
erudovaný	erudovanejší	AAmp5y
erudovaný	erudovanejší	AAis1y
erudovaný	erudovanejší	AAis4y
erudovaný	erudovanejší	AAis5y
erudovaný	erudovanejších	AAmp2y
erudovaný	erudovanejších	AAmp4y
erudovaný	erudovanejších	AAmp6y
erudovaný	erudovanejších	AAip2y
erudovaný	erudovanejších	AAip6y
erudovaný	erudovanejších	AAfp2y
erudovaný	erudovanejších	AAfp6y
erudovaný	erudovanejších	AAnp2y
erudovaný	erudovanejších	AAnp6y
erudovaný	erudovanejším	AAms7y
erudovaný	erudovanejším	AAmp3y
erudovaný	erudovanejším	AAis7y
erudovaný	erudovanejším	AAip3y
erudovaný	erudovanejším	AAfp3y
erudovaný	erudovanejším	AAns7y
erudovaný	erudovanejším	AAnp3y
erudovaný	erudovanejšími	AAmp7y
erudovaný	erudovanejšími	AAip7y
erudovaný	erudovanejšími	AAfp7y
erudovaný	erudovanejšími	AAnp7y
erudovaný	erudovanom	AAms6x
erudovaný	erudovanom	AAis6x
erudovaný	erudovanom	AAns6x
erudovanosť	erudovanosti	SSfs2
erudovanosť	erudovanosti	SSfs3
erudovanosť	erudovanosti	SSfs6
erudovanosť	erudovanosti	SSfp1
erudovanosť	erudovanosti	SSfp4
erudovanosť	erudovanosti	SSfp5
erudovanosť	erudovanostiach	SSfp6
erudovanosť	erudovanostiam	SSfp3
erudovanosť	erudovaností	SSfp2
erudovanosť	erudovanosť	SSfs1
erudovanosť	erudovanosť	SSfs4
erudovanosť	erudovanosť	SSfs5
erudovanosť	erudovanosťami	SSfp7
erudovanosť	erudovanosťou	SSfs7
erudovaný	erudovanou	AAfs7x
erudovaný	erudovaná	AAfs1x
erudovaný	erudovaná	AAfs5x
erudovaný	erudované	AAip1x
erudovaný	erudované	AAip4x
erudovaný	erudované	AAip5x
erudovaný	erudované	AAfp1x
erudovaný	erudované	AAfp4x
erudovaný	erudované	AAfp5x
erudovaný	erudované	AAns1x
erudovaný	erudované	AAns4x
erudovaný	erudované	AAns5x
erudovaný	erudované	AAnp1x
erudovaný	erudované	AAnp4x
erudovaný	erudované	AAnp5x
erudovaný	erudovaného	AAms2x
erudovaný	erudovaného	AAms4x
erudovaný	erudovaného	AAis2x
erudovaný	erudovaného	AAns2x
erudovaný	erudovanému	AAms3x
erudovaný	erudovanému	AAis3x
erudovaný	erudovanému	AAns3x
erudovaný	erudovaní	AAmp1x
erudovaný	erudovaní	AAmp5x
erudovaný	erudovanú	AAfs4x
erudovaný	erudovaný	AAms1x
erudovaný	erudovaný	AAms5x
erudovaný	erudovaný	AAis1x
erudovaný	erudovaný	AAis4x
erudovaný	erudovaný	AAis5x
erudovaný	erudovaných	AAmp2x
erudovaný	erudovaných	AAmp4x
erudovaný	erudovaných	AAmp6x
erudovaný	erudovaných	AAip2x
erudovaný	erudovaných	AAip6x
erudovaný	erudovaných	AAfp2x
erudovaný	erudovaných	AAfp6x
erudovaný	erudovaných	AAnp2x
erudovaný	erudovaných	AAnp6x
erudovaný	erudovaným	AAms7x
erudovaný	erudovaným	AAmp3x
erudovaný	erudovaným	AAis7x
erudovaný	erudovaným	AAip3x
erudovaný	erudovaným	AAfp3x
erudovaný	erudovaným	AAns7x
erudovaný	erudovaným	AAnp3x
erudovaný	erudovanými	AAmp7x
erudovaný	erudovanými	AAip7x
erudovaný	erudovanými	AAfp7x
erudovaný	erudovanými	AAnp7x
erudícia	erudícia	SSfs1
erudícia	erudícia	SSfs5
erudícia	erudíciami	SSfp7
erudícia	erudície	SSfs2
erudícia	erudície	SSfp1
erudícia	erudície	SSfp4
erudícia	erudície	SSfp5
erudícia	erudícii	SSfs3
erudícia	erudícii	SSfs6
erudícia	erudíciou	SSfs7
erudícia	erudíciu	SSfs4
erudícia	erudíciách	SSfp6
erudícia	erudíciám	SSfp3
erudícia	erudícií	SSfp2
eruka	eruka	SSfs1
eruka	eruka	SSfs5
eruka	erukami	SSfp7
eruka	eruke	SSfs3
eruka	eruke	SSfs6
eruka	erukou	SSfs7
eruka	eruku	SSfs4
eruka	eruky	SSfs2
eruka	eruky	SSfp1
eruka	eruky	SSfp4
eruka	eruky	SSfp5
eruka	erukách	SSfp6
eruka	erukám	SSfp3
erupcia	erupcia	SSfs1
erupcia	erupcia	SSfs5
erupcia	erupciami	SSfp7
erupcia	erupcie	SSfs2
erupcia	erupcie	SSfp1
erupcia	erupcie	SSfp4
erupcia	erupcie	SSfp5
erupcia	erupcii	SSfs3
erupcia	erupcii	SSfs6
erupcia	erupciou	SSfs7
erupcia	erupciu	SSfs4
erupcia	erupciách	SSfp6
erupcia	erupciám	SSfp3
erupcia	erupcií	SSfp2
eruptovať	eruptoval	VLjsam+
eruptovať	eruptoval	VLjsai+
eruptovať	eruptoval	VLjsbm+
eruptovať	eruptoval	VLjsbi+
eruptovať	eruptoval	VLjscm+
eruptovať	eruptoval	VLjsci+
eruptovať	eruptoval	VLesam+
eruptovať	eruptoval	VLesai+
eruptovať	eruptoval	VLesbm+
eruptovať	eruptoval	VLesbi+
eruptovať	eruptoval	VLescm+
eruptovať	eruptoval	VLesci+
eruptovať	eruptovala	VLjsaf+
eruptovať	eruptovala	VLjsbf+
eruptovať	eruptovala	VLjscf+
eruptovať	eruptovala	VLesaf+
eruptovať	eruptovala	VLesbf+
eruptovať	eruptovala	VLescf+
eruptovať	eruptovali	VLjpah+
eruptovať	eruptovali	VLjpbh+
eruptovať	eruptovali	VLjpcm+
eruptovať	eruptovali	VLjpci+
eruptovať	eruptovali	VLjpcf+
eruptovať	eruptovali	VLjpcn+
eruptovať	eruptovali	VLjpco+
eruptovať	eruptovali	VLepah+
eruptovať	eruptovali	VLepbh+
eruptovať	eruptovali	VLepcm+
eruptovať	eruptovali	VLepci+
eruptovať	eruptovali	VLepcf+
eruptovať	eruptovali	VLepcn+
eruptovať	eruptovali	VLepco+
eruptovať	eruptovalo	VLjsan+
eruptovať	eruptovalo	VLjsbn+
eruptovať	eruptovalo	VLjscn+
eruptovať	eruptovalo	VLesan+
eruptovať	eruptovalo	VLesbn+
eruptovať	eruptovalo	VLescn+
eruptovať	eruptovať	VIj+
eruptovať	eruptovať	VIe+
eruptovať	eruptuj	VMjsb+
eruptovať	eruptuj	VMesb+
eruptovať	eruptuje	VKjsc+
eruptovať	eruptuje	VKesc+
eruptovať	eruptujem	VKjsa+
eruptovať	eruptujem	VKesa+
eruptovať	eruptujeme	VKjpa+
eruptovať	eruptujeme	VKepa+
eruptovať	eruptujete	VKjpb+
eruptovať	eruptujete	VKepb+
eruptovať	eruptuješ	VKjsb+
eruptovať	eruptuješ	VKesb+
eruptovať	eruptujme	VMjpa+
eruptovať	eruptujme	VMepa+
eruptovať	eruptujte	VMjpb+
eruptovať	eruptujte	VMepb+
eruptovať	eruptujú	VKjpc+
eruptovať	eruptujú	VKepc+
eruptovať	eruptujúc	VHj+
eruptovať	eruptujúc	VHe+
eruptívny	eruptívna	AAfs1x
eruptívny	eruptívna	AAfs5x
eruptívne	eruptívne	Dx
eruptívny	eruptívne	AAip1x
eruptívny	eruptívne	AAip4x
eruptívny	eruptívne	AAip5x
eruptívny	eruptívne	AAfp1x
eruptívny	eruptívne	AAfp4x
eruptívny	eruptívne	AAfp5x
eruptívny	eruptívne	AAns1x
eruptívny	eruptívne	AAns4x
eruptívny	eruptívne	AAns5x
eruptívny	eruptívne	AAnp1x
eruptívny	eruptívne	AAnp4x
eruptívny	eruptívne	AAnp5x
eruptívny	eruptívneho	AAms2x
eruptívny	eruptívneho	AAms4x
eruptívny	eruptívneho	AAis2x
eruptívny	eruptívneho	AAns2x
eruptívny	eruptívnej	AAfs2x
eruptívny	eruptívnej	AAfs3x
eruptívny	eruptívnej	AAfs6x
eruptívny	eruptívnejšej	AAfs2y
eruptívny	eruptívnejšej	AAfs3y
eruptívny	eruptívnejšej	AAfs6y
eruptívny	eruptívnejšia	AAfs1y
eruptívny	eruptívnejšia	AAfs5y
eruptívne	eruptívnejšie	Dy
eruptívny	eruptívnejšie	AAip1y
eruptívny	eruptívnejšie	AAip4y
eruptívny	eruptívnejšie	AAip5y
eruptívny	eruptívnejšie	AAfp1y
eruptívny	eruptívnejšie	AAfp4y
eruptívny	eruptívnejšie	AAfp5y
eruptívny	eruptívnejšie	AAns1y
eruptívny	eruptívnejšie	AAns4y
eruptívny	eruptívnejšie	AAns5y
eruptívny	eruptívnejšie	AAnp1y
eruptívny	eruptívnejšie	AAnp4y
eruptívny	eruptívnejšie	AAnp5y
eruptívny	eruptívnejšieho	AAms2y
eruptívny	eruptívnejšieho	AAms4y
eruptívny	eruptívnejšieho	AAis2y
eruptívny	eruptívnejšieho	AAns2y
eruptívny	eruptívnejšiemu	AAms3y
eruptívny	eruptívnejšiemu	AAis3y
eruptívny	eruptívnejšiemu	AAns3y
eruptívny	eruptívnejšiu	AAfs4y
eruptívny	eruptívnejšom	AAms6y
eruptívny	eruptívnejšom	AAis6y
eruptívny	eruptívnejšom	AAns6y
eruptívny	eruptívnejšou	AAfs7y
eruptívny	eruptívnejší	AAms1y
eruptívny	eruptívnejší	AAms5y
eruptívny	eruptívnejší	AAmp1y
eruptívny	eruptívnejší	AAmp5y
eruptívny	eruptívnejší	AAis1y
eruptívny	eruptívnejší	AAis4y
eruptívny	eruptívnejší	AAis5y
eruptívny	eruptívnejších	AAmp2y
eruptívny	eruptívnejších	AAmp4y
eruptívny	eruptívnejších	AAmp6y
eruptívny	eruptívnejších	AAip2y
eruptívny	eruptívnejších	AAip6y
eruptívny	eruptívnejších	AAfp2y
eruptívny	eruptívnejších	AAfp6y
eruptívny	eruptívnejších	AAnp2y
eruptívny	eruptívnejších	AAnp6y
eruptívny	eruptívnejším	AAms7y
eruptívny	eruptívnejším	AAmp3y
eruptívny	eruptívnejším	AAis7y
eruptívny	eruptívnejším	AAip3y
eruptívny	eruptívnejším	AAfp3y
eruptívny	eruptívnejším	AAns7y
eruptívny	eruptívnejším	AAnp3y
eruptívny	eruptívnejšími	AAmp7y
eruptívny	eruptívnejšími	AAip7y
eruptívny	eruptívnejšími	AAfp7y
eruptívny	eruptívnejšími	AAnp7y
eruptívny	eruptívnemu	AAms3x
eruptívny	eruptívnemu	AAis3x
eruptívny	eruptívnemu	AAns3x
eruptívny	eruptívni	AAmp1x
eruptívny	eruptívni	AAmp5x
eruptívny	eruptívnom	AAms6x
eruptívny	eruptívnom	AAis6x
eruptívny	eruptívnom	AAns6x
eruptívnosť	eruptívnosti	SSfs2
eruptívnosť	eruptívnosti	SSfs3
eruptívnosť	eruptívnosti	SSfs6
eruptívnosť	eruptívnosti	SSfp1
eruptívnosť	eruptívnosti	SSfp4
eruptívnosť	eruptívnosti	SSfp5
eruptívnosť	eruptívnostiach	SSfp6
eruptívnosť	eruptívnostiam	SSfp3
eruptívnosť	eruptívností	SSfp2
eruptívnosť	eruptívnosť	SSfs1
eruptívnosť	eruptívnosť	SSfs4
eruptívnosť	eruptívnosť	SSfs5
eruptívnosť	eruptívnosťami	SSfp7
eruptívnosť	eruptívnosťou	SSfs7
eruptívny	eruptívnou	AAfs7x
eruptívny	eruptívnu	AAfs4x
eruptívny	eruptívny	AAms1x
eruptívny	eruptívny	AAms5x
eruptívny	eruptívny	AAis1x
eruptívny	eruptívny	AAis4x
eruptívny	eruptívny	AAis5x
eruptívny	eruptívnych	AAmp2x
eruptívny	eruptívnych	AAmp4x
eruptívny	eruptívnych	AAmp6x
eruptívny	eruptívnych	AAip2x
eruptívny	eruptívnych	AAip6x
eruptívny	eruptívnych	AAfp2x
eruptívny	eruptívnych	AAfp6x
eruptívny	eruptívnych	AAnp2x
eruptívny	eruptívnych	AAnp6x
eruptívny	eruptívnym	AAms7x
eruptívny	eruptívnym	AAmp3x
eruptívny	eruptívnym	AAis7x
eruptívny	eruptívnym	AAip3x
eruptívny	eruptívnym	AAfp3x
eruptívny	eruptívnym	AAns7x
eruptívny	eruptívnym	AAnp3x
eruptívny	eruptívnymi	AAmp7x
eruptívny	eruptívnymi	AAip7x
eruptívny	eruptívnymi	AAfp7x
eruptívny	eruptívnymi	AAnp7x
erupčný	erupčnej	AAfs2x
erupčný	erupčnej	AAfs3x
erupčný	erupčnej	AAfs6x
erupčný	erupčnom	AAms6x
erupčný	erupčnom	AAis6x
erupčný	erupčnom	AAns6x
erupčný	erupčnou	AAfs7x
erupčný	erupčná	AAfs1x
erupčný	erupčná	AAfs5x
erupčný	erupčné	AAip1x
erupčný	erupčné	AAip4x
erupčný	erupčné	AAip5x
erupčný	erupčné	AAfp1x
erupčný	erupčné	AAfp4x
erupčný	erupčné	AAfp5x
erupčný	erupčné	AAns1x
erupčný	erupčné	AAns4x
erupčný	erupčné	AAns5x
erupčný	erupčné	AAnp1x
erupčný	erupčné	AAnp4x
erupčný	erupčné	AAnp5x
erupčný	erupčného	AAms2x
erupčný	erupčného	AAms4x
erupčný	erupčného	AAis2x
erupčný	erupčného	AAns2x
erupčný	erupčnému	AAms3x
erupčný	erupčnému	AAis3x
erupčný	erupčnému	AAns3x
erupčný	erupční	AAmp1x
erupčný	erupční	AAmp5x
erupčný	erupčnú	AAfs4x
erupčný	erupčný	AAms1x
erupčný	erupčný	AAms5x
erupčný	erupčný	AAis1x
erupčný	erupčný	AAis4x
erupčný	erupčný	AAis5x
erupčný	erupčných	AAmp2x
erupčný	erupčných	AAmp4x
erupčný	erupčných	AAmp6x
erupčný	erupčných	AAip2x
erupčný	erupčných	AAip6x
erupčný	erupčných	AAfp2x
erupčný	erupčných	AAfp6x
erupčný	erupčných	AAnp2x
erupčný	erupčných	AAnp6x
erupčný	erupčným	AAms7x
erupčný	erupčným	AAmp3x
erupčný	erupčným	AAis7x
erupčný	erupčným	AAip3x
erupčný	erupčným	AAfp3x
erupčný	erupčným	AAns7x
erupčný	erupčným	AAnp3x
erupčný	erupčnými	AAmp7x
erupčný	erupčnými	AAip7x
erupčný	erupčnými	AAfp7x
erupčný	erupčnými	AAnp7x
erytrocyt	erytrocyt	SSis1
erytrocyt	erytrocyt	SSis4
erytrocyt	erytrocyt	SSis5
erytrocyt	erytrocyte	SSis6
erytrocyt	erytrocytmi	SSip7
erytrocyt	erytrocytoch	SSip6
erytrocyt	erytrocytom	SSis7
erytrocyt	erytrocytom	SSip3
erytrocyt	erytrocytov	SSip2
erytrocytový	erytrocytovej	AAfs2x
erytrocytový	erytrocytovej	AAfs3x
erytrocytový	erytrocytovej	AAfs6x
erytrocytový	erytrocytovom	AAms6x
erytrocytový	erytrocytovom	AAis6x
erytrocytový	erytrocytovom	AAns6x
erytrocytový	erytrocytovou	AAfs7x
erytrocytový	erytrocytová	AAfs1x
erytrocytový	erytrocytová	AAfs5x
erytrocytový	erytrocytové	AAip1x
erytrocytový	erytrocytové	AAip4x
erytrocytový	erytrocytové	AAip5x
erytrocytový	erytrocytové	AAfp1x
erytrocytový	erytrocytové	AAfp4x
erytrocytový	erytrocytové	AAfp5x
erytrocytový	erytrocytové	AAns1x
erytrocytový	erytrocytové	AAns4x
erytrocytový	erytrocytové	AAns5x
erytrocytový	erytrocytové	AAnp1x
erytrocytový	erytrocytové	AAnp4x
erytrocytový	erytrocytové	AAnp5x
erytrocytový	erytrocytového	AAms2x
erytrocytový	erytrocytového	AAms4x
erytrocytový	erytrocytového	AAis2x
erytrocytový	erytrocytového	AAns2x
erytrocytový	erytrocytovému	AAms3x
erytrocytový	erytrocytovému	AAis3x
erytrocytový	erytrocytovému	AAns3x
erytrocytový	erytrocytoví	AAmp1x
erytrocytový	erytrocytoví	AAmp5x
erytrocytový	erytrocytovú	AAfs4x
erytrocytový	erytrocytový	AAms1x
erytrocytový	erytrocytový	AAms5x
erytrocytový	erytrocytový	AAis1x
erytrocytový	erytrocytový	AAis4x
erytrocytový	erytrocytový	AAis5x
erytrocytový	erytrocytových	AAmp2x
erytrocytový	erytrocytových	AAmp4x
erytrocytový	erytrocytových	AAmp6x
erytrocytový	erytrocytových	AAip2x
erytrocytový	erytrocytových	AAip6x
erytrocytový	erytrocytových	AAfp2x
erytrocytový	erytrocytových	AAfp6x
erytrocytový	erytrocytových	AAnp2x
erytrocytový	erytrocytových	AAnp6x
erytrocytový	erytrocytovým	AAms7x
erytrocytový	erytrocytovým	AAmp3x
erytrocytový	erytrocytovým	AAis7x
erytrocytový	erytrocytovým	AAip3x
erytrocytový	erytrocytovým	AAfp3x
erytrocytový	erytrocytovým	AAns7x
erytrocytový	erytrocytovým	AAnp3x
erytrocytový	erytrocytovými	AAmp7x
erytrocytový	erytrocytovými	AAip7x
erytrocytový	erytrocytovými	AAfp7x
erytrocytový	erytrocytovými	AAnp7x
erytrocyt	erytrocytu	SSis2
erytrocyt	erytrocytu	SSis3
erytrocyt	erytrocyty	SSip1
erytrocyt	erytrocyty	SSip4
erytrocyt	erytrocyty	SSip5
erytromycín	erytromycín	SSis1
erytromycín	erytromycín	SSis4
erytromycín	erytromycín	SSis5
erytromycín	erytromycíne	SSis6
erytromycín	erytromycínmi	SSip7
erytromycín	erytromycínoch	SSip6
erytromycín	erytromycínom	SSis7
erytromycín	erytromycínom	SSip3
erytromycín	erytromycínov	SSip2
erytromycínový	erytromycínovej	AAfs2x
erytromycínový	erytromycínovej	AAfs3x
erytromycínový	erytromycínovej	AAfs6x
erytromycínový	erytromycínovom	AAms6x
erytromycínový	erytromycínovom	AAis6x
erytromycínový	erytromycínovom	AAns6x
erytromycínový	erytromycínovou	AAfs7x
erytromycínový	erytromycínová	AAfs1x
erytromycínový	erytromycínová	AAfs5x
erytromycínový	erytromycínové	AAip1x
erytromycínový	erytromycínové	AAip4x
erytromycínový	erytromycínové	AAip5x
erytromycínový	erytromycínové	AAfp1x
erytromycínový	erytromycínové	AAfp4x
erytromycínový	erytromycínové	AAfp5x
erytromycínový	erytromycínové	AAns1x
erytromycínový	erytromycínové	AAns4x
erytromycínový	erytromycínové	AAns5x
erytromycínový	erytromycínové	AAnp1x
erytromycínový	erytromycínové	AAnp4x
erytromycínový	erytromycínové	AAnp5x
erytromycínový	erytromycínového	AAms2x
erytromycínový	erytromycínového	AAms4x
erytromycínový	erytromycínového	AAis2x
erytromycínový	erytromycínového	AAns2x
erytromycínový	erytromycínovému	AAms3x
erytromycínový	erytromycínovému	AAis3x
erytromycínový	erytromycínovému	AAns3x
erytromycínový	erytromycínoví	AAmp1x
erytromycínový	erytromycínoví	AAmp5x
erytromycínový	erytromycínovú	AAfs4x
erytromycínový	erytromycínový	AAms1x
erytromycínový	erytromycínový	AAms5x
erytromycínový	erytromycínový	AAis1x
erytromycínový	erytromycínový	AAis4x
erytromycínový	erytromycínový	AAis5x
erytromycínový	erytromycínových	AAmp2x
erytromycínový	erytromycínových	AAmp4x
erytromycínový	erytromycínových	AAmp6x
erytromycínový	erytromycínových	AAip2x
erytromycínový	erytromycínových	AAip6x
erytromycínový	erytromycínových	AAfp2x
erytromycínový	erytromycínových	AAfp6x
erytromycínový	erytromycínových	AAnp2x
erytromycínový	erytromycínových	AAnp6x
erytromycínový	erytromycínovým	AAms7x
erytromycínový	erytromycínovým	AAmp3x
erytromycínový	erytromycínovým	AAis7x
erytromycínový	erytromycínovým	AAip3x
erytromycínový	erytromycínovým	AAfp3x
erytromycínový	erytromycínovým	AAns7x
erytromycínový	erytromycínovým	AAnp3x
erytromycínový	erytromycínovými	AAmp7x
erytromycínový	erytromycínovými	AAip7x
erytromycínový	erytromycínovými	AAfp7x
erytromycínový	erytromycínovými	AAnp7x
erytromycín	erytromycínu	SSis2
erytromycín	erytromycínu	SSis3
erytromycín	erytromycíny	SSip1
erytromycín	erytromycíny	SSip4
erytromycín	erytromycíny	SSip5
erár	erár	SSis1
erár	erár	SSis4
erár	erár	SSis5
erár	erári	SSis6
erár	erármi	SSip7
erárny	erárna	AAfs1x
erárny	erárna	AAfs5x
erárny	erárne	AAip1x
erárny	erárne	AAip4x
erárny	erárne	AAip5x
erárny	erárne	AAfp1x
erárny	erárne	AAfp4x
erárny	erárne	AAfp5x
erárny	erárne	AAns1x
erárny	erárne	AAns4x
erárny	erárne	AAns5x
erárny	erárne	AAnp1x
erárny	erárne	AAnp4x
erárny	erárne	AAnp5x
erárny	erárneho	AAms2x
erárny	erárneho	AAms4x
erárny	erárneho	AAis2x
erárny	erárneho	AAns2x
erárny	erárnej	AAfs2x
erárny	erárnej	AAfs3x
erárny	erárnej	AAfs6x
erárny	erárnemu	AAms3x
erárny	erárnemu	AAis3x
erárny	erárnemu	AAns3x
erárny	erárni	AAmp1x
erárny	erárni	AAmp5x
erárny	erárnom	AAms6x
erárny	erárnom	AAis6x
erárny	erárnom	AAns6x
erárny	erárnou	AAfs7x
erárny	erárnu	AAfs4x
erárny	erárny	AAms1x
erárny	erárny	AAms5x
erárny	erárny	AAis1x
erárny	erárny	AAis4x
erárny	erárny	AAis5x
erárny	erárnych	AAmp2x
erárny	erárnych	AAmp4x
erárny	erárnych	AAmp6x
erárny	erárnych	AAip2x
erárny	erárnych	AAip6x
erárny	erárnych	AAfp2x
erárny	erárnych	AAfp6x
erárny	erárnych	AAnp2x
erárny	erárnych	AAnp6x
erárny	erárnym	AAms7x
erárny	erárnym	AAmp3x
erárny	erárnym	AAis7x
erárny	erárnym	AAip3x
erárny	erárnym	AAfp3x
erárny	erárnym	AAns7x
erárny	erárnym	AAnp3x
erárny	erárnymi	AAmp7x
erárny	erárnymi	AAip7x
erárny	erárnymi	AAfp7x
erárny	erárnymi	AAnp7x
erár	erároch	SSip6
erár	erárom	SSis7
erár	erárom	SSip3
erár	erárov	SSip2
erár	eráru	SSis2
erár	eráru	SSis3
erár	eráry	SSip1
erár	eráry	SSip4
erár	eráry	SSip5
erika	erík	SSfp2
eróhá	eróhá	SUns1
eróhá	eróhá	SUns2
eróhá	eróhá	SUns3
eróhá	eróhá	SUns4
eróhá	eróhá	SUns5
eróhá	eróhá	SUns6
eróhá	eróhá	SUns7
erózia	erózia	SSfs1
erózia	erózia	SSfs5
erózia	eróziami	SSfp7
erózia	erózie	SSfs2
erózia	erózie	SSfp1
erózia	erózie	SSfp4
erózia	erózie	SSfp5
erózia	erózii	SSfs3
erózia	erózii	SSfs6
erózia	eróziou	SSfs7
erózia	eróziu	SSfs4
erózia	eróziách	SSfp6
erózia	eróziám	SSfp3
erózia	erózií	SSfp2
erózny	erózna	AAfs1x
erózny	erózna	AAfs5x
erózny	erózne	AAip1x
erózny	erózne	AAip4x
erózny	erózne	AAip5x
erózny	erózne	AAfp1x
erózny	erózne	AAfp4x
erózny	erózne	AAfp5x
erózny	erózne	AAns1x
erózny	erózne	AAns4x
erózny	erózne	AAns5x
erózny	erózne	AAnp1x
erózny	erózne	AAnp4x
erózny	erózne	AAnp5x
erózny	erózneho	AAms2x
erózny	erózneho	AAms4x
erózny	erózneho	AAis2x
erózny	erózneho	AAns2x
erózny	eróznej	AAfs2x
erózny	eróznej	AAfs3x
erózny	eróznej	AAfs6x
erózny	eróznemu	AAms3x
erózny	eróznemu	AAis3x
erózny	eróznemu	AAns3x
erózny	erózni	AAmp1x
erózny	erózni	AAmp5x
erózny	eróznom	AAms6x
erózny	eróznom	AAis6x
erózny	eróznom	AAns6x
erózny	eróznou	AAfs7x
erózny	eróznu	AAfs4x
erózny	erózny	AAms1x
erózny	erózny	AAms5x
erózny	erózny	AAis1x
erózny	erózny	AAis4x
erózny	erózny	AAis5x
erózny	eróznych	AAmp2x
erózny	eróznych	AAmp4x
erózny	eróznych	AAmp6x
erózny	eróznych	AAip2x
erózny	eróznych	AAip6x
erózny	eróznych	AAfp2x
erózny	eróznych	AAfp6x
erózny	eróznych	AAnp2x
erózny	eróznych	AAnp6x
erózny	eróznym	AAms7x
erózny	eróznym	AAmp3x
erózny	eróznym	AAis7x
erózny	eróznym	AAip3x
erózny	eróznym	AAfp3x
erózny	eróznym	AAns7x
erózny	eróznym	AAnp3x
erózny	eróznymi	AAmp7x
erózny	eróznymi	AAip7x
erózny	eróznymi	AAfp7x
erózny	eróznymi	AAnp7x
eruka	erúk	SSfp2
éra	ér	SSfp2
éra	éra	SSfs1
éra	éra	SSfs5
éra	érach	SSfp6
éra	éram	SSfp3
éra	érami	SSfp7
éra	ére	SSfs3
éra	ére	SSfs6
éra	érou	SSfs7
éra	éru	SSfs4
éra	éry	SSfs2
éra	éry	SSfp1
éra	éry	SSfp4
éra	éry	SSfp5
