hm	hm	J
hm	hm	T
hmat	hmat	SSis1
hmat	hmat	SSis4
hmat	hmat	SSis5
hmatať	hmataj	VMesb+
hmatať	hmatajme	VMepa+
hmatať	hmatajte	VMepb+
hmatať	hmatajú	VKepc+
hmatať	hmatajúc	VHe+
hmatať	hmatal	VLesam+
hmatať	hmatal	VLesai+
hmatať	hmatal	VLesbm+
hmatať	hmatal	VLesbi+
hmatať	hmatal	VLescm+
hmatať	hmatal	VLesci+
hmatať	hmatala	VLesaf+
hmatať	hmatala	VLesbf+
hmatať	hmatala	VLescf+
hmatať	hmatali	VLepah+
hmatať	hmatali	VLepbh+
hmatať	hmatali	VLepcm+
hmatať	hmatali	VLepci+
hmatať	hmatali	VLepcf+
hmatať	hmatali	VLepcn+
hmatať	hmatali	VLepco+
hmatať	hmatalo	VLesan+
hmatať	hmatalo	VLesbn+
hmatať	hmatalo	VLescn+
hmatateľne	hmatateľne	Dx
hmatateľný	hmatateľnej	AAfs2x
hmatateľný	hmatateľnej	AAfs3x
hmatateľný	hmatateľnej	AAfs6x
hmatateľný	hmatateľnejšej	AAfs2y
hmatateľný	hmatateľnejšej	AAfs3y
hmatateľný	hmatateľnejšej	AAfs6y
hmatateľný	hmatateľnejšia	AAfs1y
hmatateľný	hmatateľnejšia	AAfs5y
hmatateľne	hmatateľnejšie	Dy
hmatateľný	hmatateľnejšie	AAip1y
hmatateľný	hmatateľnejšie	AAip4y
hmatateľný	hmatateľnejšie	AAip5y
hmatateľný	hmatateľnejšie	AAfp1y
hmatateľný	hmatateľnejšie	AAfp4y
hmatateľný	hmatateľnejšie	AAfp5y
hmatateľný	hmatateľnejšie	AAns1y
hmatateľný	hmatateľnejšie	AAns4y
hmatateľný	hmatateľnejšie	AAns5y
hmatateľný	hmatateľnejšie	AAnp1y
hmatateľný	hmatateľnejšie	AAnp4y
hmatateľný	hmatateľnejšie	AAnp5y
hmatateľný	hmatateľnejšieho	AAms2y
hmatateľný	hmatateľnejšieho	AAms4y
hmatateľný	hmatateľnejšieho	AAis2y
hmatateľný	hmatateľnejšieho	AAns2y
hmatateľný	hmatateľnejšiemu	AAms3y
hmatateľný	hmatateľnejšiemu	AAis3y
hmatateľný	hmatateľnejšiemu	AAns3y
hmatateľný	hmatateľnejšiu	AAfs4y
hmatateľný	hmatateľnejšom	AAms6y
hmatateľný	hmatateľnejšom	AAis6y
hmatateľný	hmatateľnejšom	AAns6y
hmatateľný	hmatateľnejšou	AAfs7y
hmatateľný	hmatateľnejší	AAms1y
hmatateľný	hmatateľnejší	AAms5y
hmatateľný	hmatateľnejší	AAmp1y
hmatateľný	hmatateľnejší	AAmp5y
hmatateľný	hmatateľnejší	AAis1y
hmatateľný	hmatateľnejší	AAis4y
hmatateľný	hmatateľnejší	AAis5y
hmatateľný	hmatateľnejších	AAmp2y
hmatateľný	hmatateľnejších	AAmp4y
hmatateľný	hmatateľnejších	AAmp6y
hmatateľný	hmatateľnejších	AAip2y
hmatateľný	hmatateľnejších	AAip6y
hmatateľný	hmatateľnejších	AAfp2y
hmatateľný	hmatateľnejších	AAfp6y
hmatateľný	hmatateľnejších	AAnp2y
hmatateľný	hmatateľnejších	AAnp6y
hmatateľný	hmatateľnejším	AAms7y
hmatateľný	hmatateľnejším	AAmp3y
hmatateľný	hmatateľnejším	AAis7y
hmatateľný	hmatateľnejším	AAip3y
hmatateľný	hmatateľnejším	AAfp3y
hmatateľný	hmatateľnejším	AAns7y
hmatateľný	hmatateľnejším	AAnp3y
hmatateľný	hmatateľnejšími	AAmp7y
hmatateľný	hmatateľnejšími	AAip7y
hmatateľný	hmatateľnejšími	AAfp7y
hmatateľný	hmatateľnejšími	AAnp7y
hmatateľný	hmatateľnom	AAms6x
hmatateľný	hmatateľnom	AAis6x
hmatateľný	hmatateľnom	AAns6x
hmatateľnosť	hmatateľnosti	SSfs2
hmatateľnosť	hmatateľnosti	SSfs3
hmatateľnosť	hmatateľnosti	SSfs6
hmatateľnosť	hmatateľnosti	SSfp1
hmatateľnosť	hmatateľnosti	SSfp4
hmatateľnosť	hmatateľnosti	SSfp5
hmatateľnosť	hmatateľnostiach	SSfp6
hmatateľnosť	hmatateľnostiam	SSfp3
hmatateľnosť	hmatateľností	SSfp2
hmatateľnosť	hmatateľnosť	SSfs1
hmatateľnosť	hmatateľnosť	SSfs4
hmatateľnosť	hmatateľnosť	SSfs5
hmatateľnosť	hmatateľnosťami	SSfp7
hmatateľnosť	hmatateľnosťou	SSfs7
hmatateľný	hmatateľnou	AAfs7x
hmatateľný	hmatateľná	AAfs1x
hmatateľný	hmatateľná	AAfs5x
hmatateľný	hmatateľné	AAip1x
hmatateľný	hmatateľné	AAip4x
hmatateľný	hmatateľné	AAip5x
hmatateľný	hmatateľné	AAfp1x
hmatateľný	hmatateľné	AAfp4x
hmatateľný	hmatateľné	AAfp5x
hmatateľný	hmatateľné	AAns1x
hmatateľný	hmatateľné	AAns4x
hmatateľný	hmatateľné	AAns5x
hmatateľný	hmatateľné	AAnp1x
hmatateľný	hmatateľné	AAnp4x
hmatateľný	hmatateľné	AAnp5x
hmatateľný	hmatateľného	AAms2x
hmatateľný	hmatateľného	AAms4x
hmatateľný	hmatateľného	AAis2x
hmatateľný	hmatateľného	AAns2x
hmatateľný	hmatateľnému	AAms3x
hmatateľný	hmatateľnému	AAis3x
hmatateľný	hmatateľnému	AAns3x
hmatateľný	hmatateľní	AAmp1x
hmatateľný	hmatateľní	AAmp5x
hmatateľný	hmatateľnú	AAfs4x
hmatateľný	hmatateľný	AAms1x
hmatateľný	hmatateľný	AAms5x
hmatateľný	hmatateľný	AAis1x
hmatateľný	hmatateľný	AAis4x
hmatateľný	hmatateľný	AAis5x
hmatateľný	hmatateľných	AAmp2x
hmatateľný	hmatateľných	AAmp4x
hmatateľný	hmatateľných	AAmp6x
hmatateľný	hmatateľných	AAip2x
hmatateľný	hmatateľných	AAip6x
hmatateľný	hmatateľných	AAfp2x
hmatateľný	hmatateľných	AAfp6x
hmatateľný	hmatateľných	AAnp2x
hmatateľný	hmatateľných	AAnp6x
hmatateľný	hmatateľným	AAms7x
hmatateľný	hmatateľným	AAmp3x
hmatateľný	hmatateľným	AAis7x
hmatateľný	hmatateľným	AAip3x
hmatateľný	hmatateľným	AAfp3x
hmatateľný	hmatateľným	AAns7x
hmatateľný	hmatateľným	AAnp3x
hmatateľný	hmatateľnými	AAmp7x
hmatateľný	hmatateľnými	AAip7x
hmatateľný	hmatateľnými	AAfp7x
hmatateľný	hmatateľnými	AAnp7x
hmatať	hmatať	VIe+
hmat	hmate	SSis6
hmatkať	hmatkaj	VMesb+
hmatkať	hmatkajme	VMepa+
hmatkať	hmatkajte	VMepb+
hmatkať	hmatkajú	VKepc+
hmatkať	hmatkajúc	VHe+
hmatkať	hmatkal	VLesam+
hmatkať	hmatkal	VLesai+
hmatkať	hmatkal	VLesbm+
hmatkať	hmatkal	VLesbi+
hmatkať	hmatkal	VLescm+
hmatkať	hmatkal	VLesci+
hmatkať	hmatkala	VLesaf+
hmatkať	hmatkala	VLesbf+
hmatkať	hmatkala	VLescf+
hmatkať	hmatkali	VLepah+
hmatkať	hmatkali	VLepbh+
hmatkať	hmatkali	VLepcm+
hmatkať	hmatkali	VLepci+
hmatkať	hmatkali	VLepcf+
hmatkať	hmatkali	VLepcn+
hmatkať	hmatkali	VLepco+
hmatkať	hmatkalo	VLesan+
hmatkať	hmatkalo	VLesbn+
hmatkať	hmatkalo	VLescn+
hmatkať	hmatkať	VIe+
hmatkať	hmatká	VKesc+
hmatkať	hmatkám	VKesa+
hmatkať	hmatkáme	VKepa+
hmatkať	hmatkáte	VKepb+
hmatkať	hmatkáš	VKesb+
hmatnúť	hmatla	VLdsaf+
hmatnúť	hmatla	VLdsbf+
hmatnúť	hmatla	VLdscf+
hmatnúť	hmatli	VLdpah+
hmatnúť	hmatli	VLdpbh+
hmatnúť	hmatli	VLdpcm+
hmatnúť	hmatli	VLdpci+
hmatnúť	hmatli	VLdpcf+
hmatnúť	hmatli	VLdpcn+
hmatnúť	hmatli	VLdpco+
hmatnúť	hmatlo	VLdsan+
hmatnúť	hmatlo	VLdsbn+
hmatnúť	hmatlo	VLdscn+
hmat	hmatmi	SSip7
hmatnúť	hmatne	VKdsc+
hmatnúť	hmatnem	VKdsa+
hmatnúť	hmatneme	VKdpa+
hmatnúť	hmatnete	VKdpb+
hmatnúť	hmatneš	VKdsb+
hmatnúť	hmatni	VMdsb+
hmatnúť	hmatnime	VMdpa+
hmatnúť	hmatnite	VMdpb+
hmatník	hmatník	SSis1
hmatník	hmatník	SSis4
hmatník	hmatník	SSis5
hmatník	hmatníka	SSis2
hmatník	hmatníkmi	SSip7
hmatník	hmatníkoch	SSip6
hmatník	hmatníkom	SSis7
hmatník	hmatníkom	SSip3
hmatník	hmatníkov	SSip2
hmatník	hmatníku	SSis3
hmatník	hmatníku	SSis6
hmatník	hmatníky	SSip1
hmatník	hmatníky	SSip4
hmatník	hmatníky	SSip5
hmatnúť	hmatnú	VKdpc+
hmatnúť	hmatnúc	VHd+
hmatnúť	hmatnúť	VId+
hmat	hmatoch	SSip6
hmatnúť	hmatol	VLdsam+
hmatnúť	hmatol	VLdsai+
hmatnúť	hmatol	VLdsbm+
hmatnúť	hmatol	VLdsbi+
hmatnúť	hmatol	VLdscm+
hmatnúť	hmatol	VLdsci+
hmat	hmatom	SSis7
hmat	hmatom	SSip3
hmat	hmatov	SSip2
hmatový	hmatovej	AAfs2x
hmatový	hmatovej	AAfs3x
hmatový	hmatovej	AAfs6x
hmatový	hmatovom	AAms6x
hmatový	hmatovom	AAis6x
hmatový	hmatovom	AAns6x
hmatový	hmatovou	AAfs7x
hmatový	hmatová	AAfs1x
hmatový	hmatová	AAfs5x
hmatový	hmatové	AAip1x
hmatový	hmatové	AAip4x
hmatový	hmatové	AAip5x
hmatový	hmatové	AAfp1x
hmatový	hmatové	AAfp4x
hmatový	hmatové	AAfp5x
hmatový	hmatové	AAns1x
hmatový	hmatové	AAns4x
hmatový	hmatové	AAns5x
hmatový	hmatové	AAnp1x
hmatový	hmatové	AAnp4x
hmatový	hmatové	AAnp5x
hmatový	hmatového	AAms2x
hmatový	hmatového	AAms4x
hmatový	hmatového	AAis2x
hmatový	hmatového	AAns2x
hmatový	hmatovému	AAms3x
hmatový	hmatovému	AAis3x
hmatový	hmatovému	AAns3x
hmatový	hmatoví	AAmp1x
hmatový	hmatoví	AAmp5x
hmatový	hmatovú	AAfs4x
hmatový	hmatový	AAms1x
hmatový	hmatový	AAms5x
hmatový	hmatový	AAis1x
hmatový	hmatový	AAis4x
hmatový	hmatový	AAis5x
hmatový	hmatových	AAmp2x
hmatový	hmatových	AAmp4x
hmatový	hmatových	AAmp6x
hmatový	hmatových	AAip2x
hmatový	hmatových	AAip6x
hmatový	hmatových	AAfp2x
hmatový	hmatových	AAfp6x
hmatový	hmatových	AAnp2x
hmatový	hmatových	AAnp6x
hmatový	hmatovým	AAms7x
hmatový	hmatovým	AAmp3x
hmatový	hmatovým	AAis7x
hmatový	hmatovým	AAip3x
hmatový	hmatovým	AAfp3x
hmatový	hmatovým	AAns7x
hmatový	hmatovým	AAnp3x
hmatový	hmatovými	AAmp7x
hmatový	hmatovými	AAip7x
hmatový	hmatovými	AAfp7x
hmatový	hmatovými	AAnp7x
hmat	hmatu	SSis2
hmat	hmatu	SSis3
hmat	hmaty	SSip1
hmat	hmaty	SSip4
hmat	hmaty	SSip5
hmatať	hmatá	VKesc+
hmatať	hmatám	VKesa+
hmatať	hmatáme	VKepa+
hmatať	hmatáte	VKepb+
hmatať	hmatáš	VKesb+
hmla	hmiel	SSfp2
hmkať	hmkaj	VMesb+
hmkať	hmkajme	VMepa+
hmkať	hmkajte	VMepb+
hmkať	hmkajú	VKepc+
hmkať	hmkajúc	VHe+
hmkať	hmkal	VLesam+
hmkať	hmkal	VLesai+
hmkať	hmkal	VLesbm+
hmkať	hmkal	VLesbi+
hmkať	hmkal	VLescm+
hmkať	hmkal	VLesci+
hmkať	hmkala	VLesaf+
hmkať	hmkala	VLesbf+
hmkať	hmkala	VLescf+
hmkať	hmkali	VLepah+
hmkať	hmkali	VLepbh+
hmkať	hmkali	VLepcm+
hmkať	hmkali	VLepci+
hmkať	hmkali	VLepcf+
hmkať	hmkali	VLepcn+
hmkať	hmkali	VLepco+
hmkať	hmkalo	VLesan+
hmkať	hmkalo	VLesbn+
hmkať	hmkalo	VLescn+
hmkať	hmkať	VIe+
hmkať	hmká	VKesc+
hmkať	hmkám	VKesa+
hmkať	hmkáme	VKepa+
hmkať	hmkáte	VKepb+
hmkať	hmkáš	VKesb+
hmla	hmla	SSfs1
hmla	hmla	SSfs5
hmla	hmlami	SSfp7
hmla	hmle	SSfs3
hmla	hmle	SSfs6
hmliť	hmli	VMesb+
hmliť	hmlia	VKepc+
hmliť	hmliac	VHe+
hmliť	hmlil	VLesam+
hmliť	hmlil	VLesai+
hmliť	hmlil	VLesbm+
hmliť	hmlil	VLesbi+
hmliť	hmlil	VLescm+
hmliť	hmlil	VLesci+
hmliť	hmlila	VLesaf+
hmliť	hmlila	VLesbf+
hmliť	hmlila	VLescf+
hmliť	hmlili	VLepah+
hmliť	hmlili	VLepbh+
hmliť	hmlili	VLepcm+
hmliť	hmlili	VLepci+
hmliť	hmlili	VLepcf+
hmliť	hmlili	VLepcn+
hmliť	hmlili	VLepco+
hmliť	hmlilo	VLesan+
hmliť	hmlilo	VLesbn+
hmliť	hmlilo	VLescn+
hmliť	hmlime	VMepa+
hmlistý	hmlistej	AAfs2x
hmlistý	hmlistej	AAfs3x
hmlistý	hmlistej	AAfs6x
hmlistý	hmlistejšej	AAfs2y
hmlistý	hmlistejšej	AAfs3y
hmlistý	hmlistejšej	AAfs6y
hmlistý	hmlistejšia	AAfs1y
hmlistý	hmlistejšia	AAfs5y
hmlisto	hmlistejšie	Dy
hmlistý	hmlistejšie	AAip1y
hmlistý	hmlistejšie	AAip4y
hmlistý	hmlistejšie	AAip5y
hmlistý	hmlistejšie	AAfp1y
hmlistý	hmlistejšie	AAfp4y
hmlistý	hmlistejšie	AAfp5y
hmlistý	hmlistejšie	AAns1y
hmlistý	hmlistejšie	AAns4y
hmlistý	hmlistejšie	AAns5y
hmlistý	hmlistejšie	AAnp1y
hmlistý	hmlistejšie	AAnp4y
hmlistý	hmlistejšie	AAnp5y
hmlistý	hmlistejšieho	AAms2y
hmlistý	hmlistejšieho	AAms4y
hmlistý	hmlistejšieho	AAis2y
hmlistý	hmlistejšieho	AAns2y
hmlistý	hmlistejšiemu	AAms3y
hmlistý	hmlistejšiemu	AAis3y
hmlistý	hmlistejšiemu	AAns3y
hmlistý	hmlistejšiu	AAfs4y
hmlistý	hmlistejšom	AAms6y
hmlistý	hmlistejšom	AAis6y
hmlistý	hmlistejšom	AAns6y
hmlistý	hmlistejšou	AAfs7y
hmlistý	hmlistejší	AAms1y
hmlistý	hmlistejší	AAms5y
hmlistý	hmlistejší	AAmp1y
hmlistý	hmlistejší	AAmp5y
hmlistý	hmlistejší	AAis1y
hmlistý	hmlistejší	AAis4y
hmlistý	hmlistejší	AAis5y
hmlistý	hmlistejších	AAmp2y
hmlistý	hmlistejších	AAmp4y
hmlistý	hmlistejších	AAmp6y
hmlistý	hmlistejších	AAip2y
hmlistý	hmlistejších	AAip6y
hmlistý	hmlistejších	AAfp2y
hmlistý	hmlistejších	AAfp6y
hmlistý	hmlistejších	AAnp2y
hmlistý	hmlistejších	AAnp6y
hmlistý	hmlistejším	AAms7y
hmlistý	hmlistejším	AAmp3y
hmlistý	hmlistejším	AAis7y
hmlistý	hmlistejším	AAip3y
hmlistý	hmlistejším	AAfp3y
hmlistý	hmlistejším	AAns7y
hmlistý	hmlistejším	AAnp3y
hmlistý	hmlistejšími	AAmp7y
hmlistý	hmlistejšími	AAip7y
hmlistý	hmlistejšími	AAfp7y
hmlistý	hmlistejšími	AAnp7y
hmlisto	hmlisto	Dx
hmlistý	hmlistom	AAms6x
hmlistý	hmlistom	AAis6x
hmlistý	hmlistom	AAns6x
hmlistý	hmlistou	AAfs7x
hmlistý	hmlistá	AAfs1x
hmlistý	hmlistá	AAfs5x
hmlistý	hmlisté	AAip1x
hmlistý	hmlisté	AAip4x
hmlistý	hmlisté	AAip5x
hmlistý	hmlisté	AAfp1x
hmlistý	hmlisté	AAfp4x
hmlistý	hmlisté	AAfp5x
hmlistý	hmlisté	AAns1x
hmlistý	hmlisté	AAns4x
hmlistý	hmlisté	AAns5x
hmlistý	hmlisté	AAnp1x
hmlistý	hmlisté	AAnp4x
hmlistý	hmlisté	AAnp5x
hmlistý	hmlistého	AAms2x
hmlistý	hmlistého	AAms4x
hmlistý	hmlistého	AAis2x
hmlistý	hmlistého	AAns2x
hmlistý	hmlistému	AAms3x
hmlistý	hmlistému	AAis3x
hmlistý	hmlistému	AAns3x
hmlistý	hmlistí	AAmp1x
hmlistý	hmlistí	AAmp5x
hmlistý	hmlistú	AAfs4x
hmlistý	hmlistý	AAms1x
hmlistý	hmlistý	AAms5x
hmlistý	hmlistý	AAis1x
hmlistý	hmlistý	AAis4x
hmlistý	hmlistý	AAis5x
hmlistý	hmlistých	AAmp2x
hmlistý	hmlistých	AAmp4x
hmlistý	hmlistých	AAmp6x
hmlistý	hmlistých	AAip2x
hmlistý	hmlistých	AAip6x
hmlistý	hmlistých	AAfp2x
hmlistý	hmlistých	AAfp6x
hmlistý	hmlistých	AAnp2x
hmlistý	hmlistých	AAnp6x
hmlistý	hmlistým	AAms7x
hmlistý	hmlistým	AAmp3x
hmlistý	hmlistým	AAis7x
hmlistý	hmlistým	AAip3x
hmlistý	hmlistým	AAfp3x
hmlistý	hmlistým	AAns7x
hmlistý	hmlistým	AAnp3x
hmlistý	hmlistými	AAmp7x
hmlistý	hmlistými	AAip7x
hmlistý	hmlistými	AAfp7x
hmlistý	hmlistými	AAnp7x
hmliť	hmlite	VMepb+
hmliť	hmliť	VIe+
hmla	hmlou	SSfs7
hmlový	hmlovej	AAfs2x
hmlový	hmlovej	AAfs3x
hmlový	hmlovej	AAfs6x
hmlovka	hmloviek	SSfp2
hmlovina	hmlovina	SSfs1
hmlovina	hmlovina	SSfs5
hmlovina	hmlovinami	SSfp7
hmlovina	hmlovine	SSfs3
hmlovina	hmlovine	SSfs6
hmlovina	hmlovinou	SSfs7
hmlovina	hmlovinu	SSfs4
hmlovina	hmloviny	SSfs2
hmlovina	hmloviny	SSfp1
hmlovina	hmloviny	SSfp4
hmlovina	hmloviny	SSfp5
hmlovina	hmlovinách	SSfp6
hmlovina	hmlovinám	SSfp3
hmlovite	hmlovite	Dx
hmlovitý	hmlovitej	AAfs2x
hmlovitý	hmlovitej	AAfs3x
hmlovitý	hmlovitej	AAfs6x
hmlovitý	hmlovitejšej	AAfs2y
hmlovitý	hmlovitejšej	AAfs3y
hmlovitý	hmlovitejšej	AAfs6y
hmlovitý	hmlovitejšia	AAfs1y
hmlovitý	hmlovitejšia	AAfs5y
hmlovitý	hmlovitejšie	AAip1y
hmlovitý	hmlovitejšie	AAip4y
hmlovitý	hmlovitejšie	AAip5y
hmlovitý	hmlovitejšie	AAfp1y
hmlovitý	hmlovitejšie	AAfp4y
hmlovitý	hmlovitejšie	AAfp5y
hmlovitý	hmlovitejšie	AAns1y
hmlovitý	hmlovitejšie	AAns4y
hmlovitý	hmlovitejšie	AAns5y
hmlovitý	hmlovitejšie	AAnp1y
hmlovitý	hmlovitejšie	AAnp4y
hmlovitý	hmlovitejšie	AAnp5y
hmlovitý	hmlovitejšieho	AAms2y
hmlovitý	hmlovitejšieho	AAms4y
hmlovitý	hmlovitejšieho	AAis2y
hmlovitý	hmlovitejšieho	AAns2y
hmlovitý	hmlovitejšiemu	AAms3y
hmlovitý	hmlovitejšiemu	AAis3y
hmlovitý	hmlovitejšiemu	AAns3y
hmlovitý	hmlovitejšiu	AAfs4y
hmlovitý	hmlovitejšom	AAms6y
hmlovitý	hmlovitejšom	AAis6y
hmlovitý	hmlovitejšom	AAns6y
hmlovitý	hmlovitejšou	AAfs7y
hmlovitý	hmlovitejší	AAms1y
hmlovitý	hmlovitejší	AAms5y
hmlovitý	hmlovitejší	AAmp1y
hmlovitý	hmlovitejší	AAmp5y
hmlovitý	hmlovitejší	AAis1y
hmlovitý	hmlovitejší	AAis4y
hmlovitý	hmlovitejší	AAis5y
hmlovitý	hmlovitejších	AAmp2y
hmlovitý	hmlovitejších	AAmp4y
hmlovitý	hmlovitejších	AAmp6y
hmlovitý	hmlovitejších	AAip2y
hmlovitý	hmlovitejších	AAip6y
hmlovitý	hmlovitejších	AAfp2y
hmlovitý	hmlovitejších	AAfp6y
hmlovitý	hmlovitejších	AAnp2y
hmlovitý	hmlovitejších	AAnp6y
hmlovitý	hmlovitejším	AAms7y
hmlovitý	hmlovitejším	AAmp3y
hmlovitý	hmlovitejším	AAis7y
hmlovitý	hmlovitejším	AAip3y
hmlovitý	hmlovitejším	AAfp3y
hmlovitý	hmlovitejším	AAns7y
hmlovitý	hmlovitejším	AAnp3y
hmlovitý	hmlovitejšími	AAmp7y
hmlovitý	hmlovitejšími	AAip7y
hmlovitý	hmlovitejšími	AAfp7y
hmlovitý	hmlovitejšími	AAnp7y
hmlovito	hmlovito	Dx
hmlovitý	hmlovitom	AAms6x
hmlovitý	hmlovitom	AAis6x
hmlovitý	hmlovitom	AAns6x
hmlovitosť	hmlovitosti	SSfs2
hmlovitosť	hmlovitosti	SSfs3
hmlovitosť	hmlovitosti	SSfs6
hmlovitosť	hmlovitosti	SSfp1
hmlovitosť	hmlovitosti	SSfp4
hmlovitosť	hmlovitosti	SSfp5
hmlovitosť	hmlovitostiach	SSfp6
hmlovitosť	hmlovitostiam	SSfp3
hmlovitosť	hmlovitostí	SSfp2
hmlovitosť	hmlovitosť	SSfs1
hmlovitosť	hmlovitosť	SSfs4
hmlovitosť	hmlovitosť	SSfs5
hmlovitosť	hmlovitosťami	SSfp7
hmlovitosť	hmlovitosťou	SSfs7
hmlovitý	hmlovitou	AAfs7x
hmlovitý	hmlovitá	AAfs1x
hmlovitý	hmlovitá	AAfs5x
hmlovitý	hmlovité	AAip1x
hmlovitý	hmlovité	AAip4x
hmlovitý	hmlovité	AAip5x
hmlovitý	hmlovité	AAfp1x
hmlovitý	hmlovité	AAfp4x
hmlovitý	hmlovité	AAfp5x
hmlovitý	hmlovité	AAns1x
hmlovitý	hmlovité	AAns4x
hmlovitý	hmlovité	AAns5x
hmlovitý	hmlovité	AAnp1x
hmlovitý	hmlovité	AAnp4x
hmlovitý	hmlovité	AAnp5x
hmlovitý	hmlovitého	AAms2x
hmlovitý	hmlovitého	AAms4x
hmlovitý	hmlovitého	AAis2x
hmlovitý	hmlovitého	AAns2x
hmlovitý	hmlovitému	AAms3x
hmlovitý	hmlovitému	AAis3x
hmlovitý	hmlovitému	AAns3x
hmlovitý	hmlovití	AAmp1x
hmlovitý	hmlovití	AAmp5x
hmlovitý	hmlovitú	AAfs4x
hmlovitý	hmlovitý	AAms1x
hmlovitý	hmlovitý	AAms5x
hmlovitý	hmlovitý	AAis1x
hmlovitý	hmlovitý	AAis4x
hmlovitý	hmlovitý	AAis5x
hmlovitý	hmlovitých	AAmp2x
hmlovitý	hmlovitých	AAmp4x
hmlovitý	hmlovitých	AAmp6x
hmlovitý	hmlovitých	AAip2x
hmlovitý	hmlovitých	AAip6x
hmlovitý	hmlovitých	AAfp2x
hmlovitý	hmlovitých	AAfp6x
hmlovitý	hmlovitých	AAnp2x
hmlovitý	hmlovitých	AAnp6x
hmlovitý	hmlovitým	AAms7x
hmlovitý	hmlovitým	AAmp3x
hmlovitý	hmlovitým	AAis7x
hmlovitý	hmlovitým	AAip3x
hmlovitý	hmlovitým	AAfp3x
hmlovitý	hmlovitým	AAns7x
hmlovitý	hmlovitým	AAnp3x
hmlovitý	hmlovitými	AAmp7x
hmlovitý	hmlovitými	AAip7x
hmlovitý	hmlovitými	AAfp7x
hmlovitý	hmlovitými	AAnp7x
hmlovka	hmlovka	SSfs1
hmlovka	hmlovka	SSfs5
hmlovka	hmlovkami	SSfp7
hmlovka	hmlovke	SSfs3
hmlovka	hmlovke	SSfs6
hmlovka	hmlovkou	SSfs7
hmlovka	hmlovku	SSfs4
hmlovka	hmlovky	SSfs2
hmlovka	hmlovky	SSfp1
hmlovka	hmlovky	SSfp4
hmlovka	hmlovky	SSfp5
hmlovka	hmlovkách	SSfp6
hmlovka	hmlovkám	SSfp3
hmlový	hmlovom	AAms6x
hmlový	hmlovom	AAis6x
hmlový	hmlovom	AAns6x
hmlový	hmlovou	AAfs7x
hmlový	hmlová	AAfs1x
hmlový	hmlová	AAfs5x
hmlový	hmlové	AAip1x
hmlový	hmlové	AAip4x
hmlový	hmlové	AAip5x
hmlový	hmlové	AAfp1x
hmlový	hmlové	AAfp4x
hmlový	hmlové	AAfp5x
hmlový	hmlové	AAns1x
hmlový	hmlové	AAns4x
hmlový	hmlové	AAns5x
hmlový	hmlové	AAnp1x
hmlový	hmlové	AAnp4x
hmlový	hmlové	AAnp5x
hmlový	hmlového	AAms2x
hmlový	hmlového	AAms4x
hmlový	hmlového	AAis2x
hmlový	hmlového	AAns2x
hmlový	hmlovému	AAms3x
hmlový	hmlovému	AAis3x
hmlový	hmlovému	AAns3x
hmlový	hmloví	AAmp1x
hmlový	hmloví	AAmp5x
hmlovina	hmlovín	SSfp2
hmlový	hmlovú	AAfs4x
hmlový	hmlový	AAms1x
hmlový	hmlový	AAms5x
hmlový	hmlový	AAis1x
hmlový	hmlový	AAis4x
hmlový	hmlový	AAis5x
hmlový	hmlových	AAmp2x
hmlový	hmlových	AAmp4x
hmlový	hmlových	AAmp6x
hmlový	hmlových	AAip2x
hmlový	hmlových	AAip6x
hmlový	hmlových	AAfp2x
hmlový	hmlových	AAfp6x
hmlový	hmlových	AAnp2x
hmlový	hmlových	AAnp6x
hmlový	hmlovým	AAms7x
hmlový	hmlovým	AAmp3x
hmlový	hmlovým	AAis7x
hmlový	hmlovým	AAip3x
hmlový	hmlovým	AAfp3x
hmlový	hmlovým	AAns7x
hmlový	hmlovým	AAnp3x
hmlový	hmlovými	AAmp7x
hmlový	hmlovými	AAip7x
hmlový	hmlovými	AAfp7x
hmlový	hmlovými	AAnp7x
hmla	hmlu	SSfs4
hmla	hmly	SSfs2
hmla	hmly	SSfp1
hmla	hmly	SSfp4
hmla	hmly	SSfp5
hmla	hmlách	SSfp6
hmla	hmlám	SSfp3
hmliť	hmlí	VKesc+
hmliť	hmlím	VKesa+
hmliť	hmlíme	VKepa+
hmliť	hmlíte	VKepb+
hmliť	hmlíš	VKesb+
hmota	hmota	SSfs1
hmota	hmota	SSfs5
hmota	hmotami	SSfp7
hmota	hmote	SSfs3
hmota	hmote	SSfs6
hmotne	hmotne	Dx
hmotný	hmotnej	AAfs2x
hmotný	hmotnej	AAfs3x
hmotný	hmotnej	AAfs6x
hmotný	hmotnejšej	AAfs2y
hmotný	hmotnejšej	AAfs3y
hmotný	hmotnejšej	AAfs6y
hmotný	hmotnejšia	AAfs1y
hmotný	hmotnejšia	AAfs5y
hmotne	hmotnejšie	Dy
hmotný	hmotnejšie	AAip1y
hmotný	hmotnejšie	AAip4y
hmotný	hmotnejšie	AAip5y
hmotný	hmotnejšie	AAfp1y
hmotný	hmotnejšie	AAfp4y
hmotný	hmotnejšie	AAfp5y
hmotný	hmotnejšie	AAns1y
hmotný	hmotnejšie	AAns4y
hmotný	hmotnejšie	AAns5y
hmotný	hmotnejšie	AAnp1y
hmotný	hmotnejšie	AAnp4y
hmotný	hmotnejšie	AAnp5y
hmotný	hmotnejšieho	AAms2y
hmotný	hmotnejšieho	AAms4y
hmotný	hmotnejšieho	AAis2y
hmotný	hmotnejšieho	AAns2y
hmotný	hmotnejšiemu	AAms3y
hmotný	hmotnejšiemu	AAis3y
hmotný	hmotnejšiemu	AAns3y
hmotný	hmotnejšiu	AAfs4y
hmotný	hmotnejšom	AAms6y
hmotný	hmotnejšom	AAis6y
hmotný	hmotnejšom	AAns6y
hmotný	hmotnejšou	AAfs7y
hmotný	hmotnejší	AAms1y
hmotný	hmotnejší	AAms5y
hmotný	hmotnejší	AAmp1y
hmotný	hmotnejší	AAmp5y
hmotný	hmotnejší	AAis1y
hmotný	hmotnejší	AAis4y
hmotný	hmotnejší	AAis5y
hmotný	hmotnejších	AAmp2y
hmotný	hmotnejších	AAmp4y
hmotný	hmotnejších	AAmp6y
hmotný	hmotnejších	AAip2y
hmotný	hmotnejších	AAip6y
hmotný	hmotnejších	AAfp2y
hmotný	hmotnejších	AAfp6y
hmotný	hmotnejších	AAnp2y
hmotný	hmotnejších	AAnp6y
hmotný	hmotnejším	AAms7y
hmotný	hmotnejším	AAmp3y
hmotný	hmotnejším	AAis7y
hmotný	hmotnejším	AAip3y
hmotný	hmotnejším	AAfp3y
hmotný	hmotnejším	AAns7y
hmotný	hmotnejším	AAnp3y
hmotný	hmotnejšími	AAmp7y
hmotný	hmotnejšími	AAip7y
hmotný	hmotnejšími	AAfp7y
hmotný	hmotnejšími	AAnp7y
hmotný	hmotnom	AAms6x
hmotný	hmotnom	AAis6x
hmotný	hmotnom	AAns6x
hmotnosť	hmotnosti	SSfs2
hmotnosť	hmotnosti	SSfs3
hmotnosť	hmotnosti	SSfs6
hmotnosť	hmotnosti	SSfp1
hmotnosť	hmotnosti	SSfp4
hmotnosť	hmotnosti	SSfp5
hmotnosť	hmotnostiach	SSfp6
hmotnosť	hmotnostiam	SSfp3
hmotnostný	hmotnostnej	AAfs2x
hmotnostný	hmotnostnej	AAfs3x
hmotnostný	hmotnostnej	AAfs6x
hmotnostný	hmotnostnom	AAms6x
hmotnostný	hmotnostnom	AAis6x
hmotnostný	hmotnostnom	AAns6x
hmotnostný	hmotnostnou	AAfs7x
hmotnostný	hmotnostná	AAfs1x
hmotnostný	hmotnostná	AAfs5x
hmotnostný	hmotnostné	AAip1x
hmotnostný	hmotnostné	AAip4x
hmotnostný	hmotnostné	AAip5x
hmotnostný	hmotnostné	AAfp1x
hmotnostný	hmotnostné	AAfp4x
hmotnostný	hmotnostné	AAfp5x
hmotnostný	hmotnostné	AAns1x
hmotnostný	hmotnostné	AAns4x
hmotnostný	hmotnostné	AAns5x
hmotnostný	hmotnostné	AAnp1x
hmotnostný	hmotnostné	AAnp4x
hmotnostný	hmotnostné	AAnp5x
hmotnostný	hmotnostného	AAms2x
hmotnostný	hmotnostného	AAms4x
hmotnostný	hmotnostného	AAis2x
hmotnostný	hmotnostného	AAns2x
hmotnostný	hmotnostnému	AAms3x
hmotnostný	hmotnostnému	AAis3x
hmotnostný	hmotnostnému	AAns3x
hmotnostný	hmotnostní	AAmp1x
hmotnostný	hmotnostní	AAmp5x
hmotnostný	hmotnostnú	AAfs4x
hmotnostný	hmotnostný	AAms1x
hmotnostný	hmotnostný	AAms5x
hmotnostný	hmotnostný	AAis1x
hmotnostný	hmotnostný	AAis4x
hmotnostný	hmotnostný	AAis5x
hmotnostný	hmotnostných	AAmp2x
hmotnostný	hmotnostných	AAmp4x
hmotnostný	hmotnostných	AAmp6x
hmotnostný	hmotnostných	AAip2x
hmotnostný	hmotnostných	AAip6x
hmotnostný	hmotnostných	AAfp2x
hmotnostný	hmotnostných	AAfp6x
hmotnostný	hmotnostných	AAnp2x
hmotnostný	hmotnostných	AAnp6x
hmotnostný	hmotnostným	AAms7x
hmotnostný	hmotnostným	AAmp3x
hmotnostný	hmotnostným	AAis7x
hmotnostný	hmotnostným	AAip3x
hmotnostný	hmotnostným	AAfp3x
hmotnostný	hmotnostným	AAns7x
hmotnostný	hmotnostným	AAnp3x
hmotnostný	hmotnostnými	AAmp7x
hmotnostný	hmotnostnými	AAip7x
hmotnostný	hmotnostnými	AAfp7x
hmotnostný	hmotnostnými	AAnp7x
hmotnosť	hmotností	SSfp2
hmotnosť	hmotnosť	SSfs1
hmotnosť	hmotnosť	SSfs4
hmotnosť	hmotnosť	SSfs5
hmotnosť	hmotnosťami	SSfp7
hmotnosť	hmotnosťou	SSfs7
hmotný	hmotnou	AAfs7x
hmotný	hmotná	AAfs1x
hmotný	hmotná	AAfs5x
hmotný	hmotné	AAip1x
hmotný	hmotné	AAip4x
hmotný	hmotné	AAip5x
hmotný	hmotné	AAfp1x
hmotný	hmotné	AAfp4x
hmotný	hmotné	AAfp5x
hmotný	hmotné	AAns1x
hmotný	hmotné	AAns4x
hmotný	hmotné	AAns5x
hmotný	hmotné	AAnp1x
hmotný	hmotné	AAnp4x
hmotný	hmotné	AAnp5x
hmotný	hmotného	AAms2x
hmotný	hmotného	AAms4x
hmotný	hmotného	AAis2x
hmotný	hmotného	AAns2x
hmotný	hmotnému	AAms3x
hmotný	hmotnému	AAis3x
hmotný	hmotnému	AAns3x
hmotný	hmotní	AAmp1x
hmotný	hmotní	AAmp5x
hmotný	hmotnú	AAfs4x
hmotný	hmotný	AAms1x
hmotný	hmotný	AAms5x
hmotný	hmotný	AAis1x
hmotný	hmotný	AAis4x
hmotný	hmotný	AAis5x
hmotný	hmotných	AAmp2x
hmotný	hmotných	AAmp4x
hmotný	hmotných	AAmp6x
hmotný	hmotných	AAip2x
hmotný	hmotných	AAip6x
hmotný	hmotných	AAfp2x
hmotný	hmotných	AAfp6x
hmotný	hmotných	AAnp2x
hmotný	hmotných	AAnp6x
hmotný	hmotným	AAms7x
hmotný	hmotným	AAmp3x
hmotný	hmotným	AAis7x
hmotný	hmotným	AAip3x
hmotný	hmotným	AAfp3x
hmotný	hmotným	AAns7x
hmotný	hmotným	AAnp3x
hmotný	hmotnými	AAmp7x
hmotný	hmotnými	AAip7x
hmotný	hmotnými	AAfp7x
hmotný	hmotnými	AAnp7x
hmota	hmotou	SSfs7
hmota	hmotu	SSfs4
hmota	hmoty	SSfs2
hmota	hmoty	SSfp1
hmota	hmoty	SSfp4
hmota	hmoty	SSfp5
hmota	hmotách	SSfp6
hmota	hmotám	SSfp3
hmotár	hmotár	SSms1
hmotár	hmotár	SSms5
hmotár	hmotára	SSms2
hmotár	hmotára	SSms4
hmotár	hmotári	SSmp1
hmotár	hmotári	SSmp5
hmotárka	hmotárka	SSfs1
hmotárka	hmotárka	SSfs5
hmotárka	hmotárkach	SSfp6
hmotárka	hmotárkam	SSfp3
hmotárka	hmotárkami	SSfp7
hmotárka	hmotárke	SSfs3
hmotárka	hmotárke	SSfs6
hmotárka	hmotárkou	SSfs7
hmotárka	hmotárku	SSfs4
hmotárka	hmotárky	SSfs2
hmotárka	hmotárky	SSfp1
hmotárka	hmotárky	SSfp4
hmotárka	hmotárky	SSfp5
hmotár	hmotármi	SSmp7
hmotár	hmotároch	SSmp6
hmotárka	hmotárok	SSfp2
hmotár	hmotárom	SSms7
hmotár	hmotárom	SSmp3
hmotár	hmotárov	SSmp2
hmotár	hmotárov	SSmp4
hmotár	hmotárovi	SSms3
hmotár	hmotárovi	SSms6
hmotársky	hmotárska	AAfs1x
hmotársky	hmotárska	AAfs5x
hmotársky	hmotárske	AAip1x
hmotársky	hmotárske	AAip4x
hmotársky	hmotárske	AAip5x
hmotársky	hmotárske	AAfp1x
hmotársky	hmotárske	AAfp4x
hmotársky	hmotárske	AAfp5x
hmotársky	hmotárske	AAns1x
hmotársky	hmotárske	AAns4x
hmotársky	hmotárske	AAns5x
hmotársky	hmotárske	AAnp1x
hmotársky	hmotárske	AAnp4x
hmotársky	hmotárske	AAnp5x
hmotársky	hmotárskeho	AAms2x
hmotársky	hmotárskeho	AAms4x
hmotársky	hmotárskeho	AAis2x
hmotársky	hmotárskeho	AAns2x
hmotársky	hmotárskej	AAfs2x
hmotársky	hmotárskej	AAfs3x
hmotársky	hmotárskej	AAfs6x
hmotársky	hmotárskemu	AAms3x
hmotársky	hmotárskemu	AAis3x
hmotársky	hmotárskemu	AAns3x
hmotársky	hmotárski	AAmp1x
hmotársky	hmotárski	AAmp5x
hmotársky	hmotárskom	AAms6x
hmotársky	hmotárskom	AAis6x
hmotársky	hmotárskom	AAns6x
hmotársky	hmotárskou	AAfs7x
hmotársky	hmotársku	AAfs4x
hmotársky	hmotársky	AAms1x
hmotársky	hmotársky	AAms5x
hmotársky	hmotársky	AAis1x
hmotársky	hmotársky	AAis4x
hmotársky	hmotársky	AAis5x
hmotársky	hmotárskych	AAmp2x
hmotársky	hmotárskych	AAmp4x
hmotársky	hmotárskych	AAmp6x
hmotársky	hmotárskych	AAip2x
hmotársky	hmotárskych	AAip6x
hmotársky	hmotárskych	AAfp2x
hmotársky	hmotárskych	AAfp6x
hmotársky	hmotárskych	AAnp2x
hmotársky	hmotárskych	AAnp6x
hmotársky	hmotárskym	AAms7x
hmotársky	hmotárskym	AAmp3x
hmotársky	hmotárskym	AAis7x
hmotársky	hmotárskym	AAip3x
hmotársky	hmotárskym	AAfp3x
hmotársky	hmotárskym	AAns7x
hmotársky	hmotárskym	AAnp3x
hmotársky	hmotárskymi	AAmp7x
hmotársky	hmotárskymi	AAip7x
hmotársky	hmotárskymi	AAfp7x
hmotársky	hmotárskymi	AAnp7x
hmotárstvo	hmotárstiev	SSnp2
hmotárstvo	hmotárstva	SSns2
hmotárstvo	hmotárstva	SSnp1
hmotárstvo	hmotárstva	SSnp4
hmotárstvo	hmotárstva	SSnp5
hmotárstvo	hmotárstvach	SSnp6
hmotárstvo	hmotárstvam	SSnp3
hmotárstvo	hmotárstvami	SSnp7
hmotárstvo	hmotárstve	SSns6
hmotárstvo	hmotárstvo	SSns1
hmotárstvo	hmotárstvo	SSns4
hmotárstvo	hmotárstvo	SSns5
hmotárstvo	hmotárstvom	SSns7
hmotárstvo	hmotárstvu	SSns3
*hmoždinka	hmoždiniek	SSfp2
*hmoždinka	hmoždinka	SSfs1
*hmoždinka	hmoždinka	SSfs5
*hmoždinka	hmoždinkami	SSfp7
*hmoždinka	hmoždinke	SSfs3
*hmoždinka	hmoždinke	SSfs6
*hmoždinka	hmoždinkou	SSfs7
*hmoždinka	hmoždinku	SSfs4
*hmoždinka	hmoždinky	SSfs2
*hmoždinka	hmoždinky	SSfp1
*hmoždinka	hmoždinky	SSfp4
*hmoždinka	hmoždinky	SSfp5
*hmoždinka	hmoždinkách	SSfp6
*hmoždinka	hmoždinkám	SSfp3
hmyz	hmyz	SSis1
hmyz	hmyz	SSis4
hmyz	hmyz	SSis5
hmyz	hmyze	SSis6
hmyzí	hmyzej	AAfs2x
hmyzí	hmyzej	AAfs3x
hmyzí	hmyzej	AAfs6x
hmyzí	hmyzia	AAfs1x
hmyzí	hmyzia	AAfs5x
hmyzí	hmyzie	AAip1x
hmyzí	hmyzie	AAip4x
hmyzí	hmyzie	AAip5x
hmyzí	hmyzie	AAfp1x
hmyzí	hmyzie	AAfp4x
hmyzí	hmyzie	AAfp5x
hmyzí	hmyzie	AAns1x
hmyzí	hmyzie	AAns4x
hmyzí	hmyzie	AAns5x
hmyzí	hmyzie	AAnp1x
hmyzí	hmyzie	AAnp4x
hmyzí	hmyzie	AAnp5x
hmyzí	hmyzieho	AAms2x
hmyzí	hmyzieho	AAms4x
hmyzí	hmyzieho	AAis2x
hmyzí	hmyzieho	AAns2x
hmyzí	hmyziemu	AAms3x
hmyzí	hmyziemu	AAis3x
hmyzí	hmyziemu	AAns3x
hmyzí	hmyziu	AAfs4x
hmyz	hmyzmi	SSip7
hmyz	hmyzoch	SSip6
hmyz	hmyzom	SSis7
hmyz	hmyzom	SSip3
hmyzí	hmyzom	AAms6x
hmyzí	hmyzom	AAis6x
hmyzí	hmyzom	AAns6x
hmyzí	hmyzou	AAfs7x
hmyz	hmyzov	SSip2
hmyzožravec	hmyzožravca	SSms2
hmyzožravec	hmyzožravca	SSms4
hmyzožravec	hmyzožravcami	SSip7
hmyzožravec	hmyzožravce	SSip1
hmyzožravec	hmyzožravce	SSip4
hmyzožravec	hmyzožravce	SSip5
hmyzožravec	hmyzožravcoch	SSip6
hmyzožravec	hmyzožravcom	SSms7
hmyzožravec	hmyzožravcom	SSip3
hmyzožravec	hmyzožravcov	SSip2
hmyzožravec	hmyzožravcovi	SSms3
hmyzožravec	hmyzožravcovi	SSms6
hmyzožravec	hmyzožravec	SSms1
hmyzožravec	hmyzožravec	SSms5
hmyzožravý	hmyzožravej	AAfs2x
hmyzožravý	hmyzožravej	AAfs3x
hmyzožravý	hmyzožravej	AAfs6x
hmyzožravý	hmyzožravom	AAms6x
hmyzožravý	hmyzožravom	AAis6x
hmyzožravý	hmyzožravom	AAns6x
hmyzožravý	hmyzožravou	AAfs7x
hmyzožravý	hmyzožravá	AAfs1x
hmyzožravý	hmyzožravá	AAfs5x
hmyzožravý	hmyzožravé	AAip1x
hmyzožravý	hmyzožravé	AAip4x
hmyzožravý	hmyzožravé	AAip5x
hmyzožravý	hmyzožravé	AAfp1x
hmyzožravý	hmyzožravé	AAfp4x
hmyzožravý	hmyzožravé	AAfp5x
hmyzožravý	hmyzožravé	AAns1x
hmyzožravý	hmyzožravé	AAns4x
hmyzožravý	hmyzožravé	AAns5x
hmyzožravý	hmyzožravé	AAnp1x
hmyzožravý	hmyzožravé	AAnp4x
hmyzožravý	hmyzožravé	AAnp5x
hmyzožravý	hmyzožravého	AAms2x
hmyzožravý	hmyzožravého	AAms4x
hmyzožravý	hmyzožravého	AAis2x
hmyzožravý	hmyzožravého	AAns2x
hmyzožravý	hmyzožravému	AAms3x
hmyzožravý	hmyzožravému	AAis3x
hmyzožravý	hmyzožravému	AAns3x
hmyzožravý	hmyzožraví	AAmp1x
hmyzožravý	hmyzožraví	AAmp5x
hmyzožravý	hmyzožravú	AAfs4x
hmyzožravý	hmyzožravý	AAms1x
hmyzožravý	hmyzožravý	AAms5x
hmyzožravý	hmyzožravý	AAis1x
hmyzožravý	hmyzožravý	AAis4x
hmyzožravý	hmyzožravý	AAis5x
hmyzožravý	hmyzožravých	AAmp2x
hmyzožravý	hmyzožravých	AAmp4x
hmyzožravý	hmyzožravých	AAmp6x
hmyzožravý	hmyzožravých	AAip2x
hmyzožravý	hmyzožravých	AAip6x
hmyzožravý	hmyzožravých	AAfp2x
hmyzožravý	hmyzožravých	AAfp6x
hmyzožravý	hmyzožravých	AAnp2x
hmyzožravý	hmyzožravých	AAnp6x
hmyzožravý	hmyzožravým	AAms7x
hmyzožravý	hmyzožravým	AAmp3x
hmyzožravý	hmyzožravým	AAis7x
hmyzožravý	hmyzožravým	AAip3x
hmyzožravý	hmyzožravým	AAfp3x
hmyzožravý	hmyzožravým	AAns7x
hmyzožravý	hmyzožravým	AAnp3x
hmyzožravý	hmyzožravými	AAmp7x
hmyzožravý	hmyzožravými	AAip7x
hmyzožravý	hmyzožravými	AAfp7x
hmyzožravý	hmyzožravými	AAnp7x
hmyz	hmyzu	SSis2
hmyz	hmyzu	SSis3
hmyz	hmyzy	SSip1
hmyz	hmyzy	SSip4
hmyz	hmyzy	SSip5
hmyzí	hmyzí	AAms1x
hmyzí	hmyzí	AAms5x
hmyzí	hmyzí	AAmp1x
hmyzí	hmyzí	AAmp5x
hmyzí	hmyzí	AAis1x
hmyzí	hmyzí	AAis4x
hmyzí	hmyzí	AAis5x
hmyzí	hmyzích	AAmp2x
hmyzí	hmyzích	AAmp4x
hmyzí	hmyzích	AAmp6x
hmyzí	hmyzích	AAip2x
hmyzí	hmyzích	AAip6x
hmyzí	hmyzích	AAfp2x
hmyzí	hmyzích	AAfp6x
hmyzí	hmyzích	AAnp2x
hmyzí	hmyzích	AAnp6x
hmyzí	hmyzím	AAms7x
hmyzí	hmyzím	AAmp3x
hmyzí	hmyzím	AAis7x
hmyzí	hmyzím	AAip3x
hmyzí	hmyzím	AAfp3x
hmyzí	hmyzím	AAns7x
hmyzí	hmyzím	AAnp3x
hmyzí	hmyzími	AAmp7x
hmyzí	hmyzími	AAip7x
hmyzí	hmyzími	AAfp7x
hmyzí	hmyzími	AAnp7x
hmota	hmôt	SSfp2
hmýriť	hmýr	VMesb+
hmýriť	hmýri	VKesc+
hmýriť	hmýria	VKepc+
hmýriť	hmýriac	VHe+
hmýriť	hmýril	VLesam+
hmýriť	hmýril	VLesai+
hmýriť	hmýril	VLesbm+
hmýriť	hmýril	VLesbi+
hmýriť	hmýril	VLescm+
hmýriť	hmýril	VLesci+
hmýriť	hmýrila	VLesaf+
hmýriť	hmýrila	VLesbf+
hmýriť	hmýrila	VLescf+
hmýriť	hmýrili	VLepah+
hmýriť	hmýrili	VLepbh+
hmýriť	hmýrili	VLepcm+
hmýriť	hmýrili	VLepci+
hmýriť	hmýrili	VLepcf+
hmýriť	hmýrili	VLepcn+
hmýriť	hmýrili	VLepco+
hmýriť	hmýrilo	VLesan+
hmýriť	hmýrilo	VLesbn+
hmýriť	hmýrilo	VLescn+
hmýriť	hmýrim	VKesa+
hmýriť	hmýrime	VKepa+
hmýriť	hmýrite	VKepb+
hmýriť	hmýriš	VKesb+
hmýriť	hmýriť	VIe+
hmýriť	hmýrme	VMepa+
hmýriť	hmýrte	VMepb+
