Kirgizsko	Kirgizska	SSns2
Kirgizsko	Kirgizsko	SSns1
Kirgizsko	Kirgizsko	SSns4
Kirgizsko	Kirgizsko	SSns5
Kirgizsko	Kirgizskom	SSns7
Kirgizsko	Kirgizsku	SSns3
Kirgizsko	Kirgizsku	SSns6
Kiribati	Kiribati	SUns1
Kiribati	Kiribati	SUns2
Kiribati	Kiribati	SUns3
Kiribati	Kiribati	SUns4
Kiribati	Kiribati	SUns5
Kiribati	Kiribati	SUns6
Kiribati	Kiribati	SUns7
kiahne	kiahne	SSfp1
kiahne	kiahne	SSfp4
kiahne	kiahne	SSfp5
kiahne	kiahní	SSfp2
kiahne	kiahňach	SSfp6
kiahne	kiahňam	SSfp3
kiahne	kiahňami	SSfp7
kiahňový	kiahňovej	AAfs2x
kiahňový	kiahňovej	AAfs3x
kiahňový	kiahňovej	AAfs6x
kiahňový	kiahňovom	AAms6x
kiahňový	kiahňovom	AAis6x
kiahňový	kiahňovom	AAns6x
kiahňový	kiahňovou	AAfs7x
kiahňový	kiahňová	AAfs1x
kiahňový	kiahňová	AAfs5x
kiahňový	kiahňové	AAip1x
kiahňový	kiahňové	AAip4x
kiahňový	kiahňové	AAip5x
kiahňový	kiahňové	AAfp1x
kiahňový	kiahňové	AAfp4x
kiahňový	kiahňové	AAfp5x
kiahňový	kiahňové	AAns1x
kiahňový	kiahňové	AAns4x
kiahňový	kiahňové	AAns5x
kiahňový	kiahňové	AAnp1x
kiahňový	kiahňové	AAnp4x
kiahňový	kiahňové	AAnp5x
kiahňový	kiahňového	AAms2x
kiahňový	kiahňového	AAms4x
kiahňový	kiahňového	AAis2x
kiahňový	kiahňového	AAns2x
kiahňový	kiahňovému	AAms3x
kiahňový	kiahňovému	AAis3x
kiahňový	kiahňovému	AAns3x
kiahňový	kiahňoví	AAmp1x
kiahňový	kiahňoví	AAmp5x
kiahňový	kiahňovú	AAfs4x
kiahňový	kiahňový	AAms1x
kiahňový	kiahňový	AAms5x
kiahňový	kiahňový	AAis1x
kiahňový	kiahňový	AAis4x
kiahňový	kiahňový	AAis5x
kiahňový	kiahňových	AAmp2x
kiahňový	kiahňových	AAmp4x
kiahňový	kiahňových	AAmp6x
kiahňový	kiahňových	AAip2x
kiahňový	kiahňových	AAip6x
kiahňový	kiahňových	AAfp2x
kiahňový	kiahňových	AAfp6x
kiahňový	kiahňových	AAnp2x
kiahňový	kiahňových	AAnp6x
kiahňový	kiahňovým	AAms7x
kiahňový	kiahňovým	AAmp3x
kiahňový	kiahňovým	AAis7x
kiahňový	kiahňovým	AAip3x
kiahňový	kiahňovým	AAfp3x
kiahňový	kiahňovým	AAns7x
kiahňový	kiahňovým	AAnp3x
kiahňový	kiahňovými	AAmp7x
kiahňový	kiahňovými	AAip7x
kiahňový	kiahňovými	AAfp7x
kiahňový	kiahňovými	AAnp7x
kiarovský	kiarovskej	AAfs2x
kiarovský	kiarovskej	AAfs3x
kiarovský	kiarovskej	AAfs6x
kiarovský	kiarovskom	AAms6x
kiarovský	kiarovskom	AAis6x
kiarovský	kiarovskom	AAns6x
kiarovský	kiarovskou	AAfs7x
kiarovský	kiarovská	AAfs1x
kiarovský	kiarovská	AAfs5x
kiarovský	kiarovské	AAip1x
kiarovský	kiarovské	AAip4x
kiarovský	kiarovské	AAip5x
kiarovský	kiarovské	AAfp1x
kiarovský	kiarovské	AAfp4x
kiarovský	kiarovské	AAfp5x
kiarovský	kiarovské	AAns1x
kiarovský	kiarovské	AAns4x
kiarovský	kiarovské	AAns5x
kiarovský	kiarovské	AAnp1x
kiarovský	kiarovské	AAnp4x
kiarovský	kiarovské	AAnp5x
kiarovský	kiarovského	AAms2x
kiarovský	kiarovského	AAms4x
kiarovský	kiarovského	AAis2x
kiarovský	kiarovského	AAns2x
kiarovský	kiarovskému	AAms3x
kiarovský	kiarovskému	AAis3x
kiarovský	kiarovskému	AAns3x
kiarovský	kiarovskí	AAmp1x
kiarovský	kiarovskí	AAmp5x
kiarovský	kiarovskú	AAfs4x
kiarovský	kiarovský	AAms1x
kiarovský	kiarovský	AAms5x
kiarovský	kiarovský	AAis1x
kiarovský	kiarovský	AAis4x
kiarovský	kiarovský	AAis5x
kiarovský	kiarovských	AAmp2x
kiarovský	kiarovských	AAmp4x
kiarovský	kiarovských	AAmp6x
kiarovský	kiarovských	AAip2x
kiarovský	kiarovských	AAip6x
kiarovský	kiarovských	AAfp2x
kiarovský	kiarovských	AAfp6x
kiarovský	kiarovských	AAnp2x
kiarovský	kiarovských	AAnp6x
kiarovský	kiarovským	AAms7x
kiarovský	kiarovským	AAmp3x
kiarovský	kiarovským	AAis7x
kiarovský	kiarovským	AAip3x
kiarovský	kiarovským	AAfp3x
kiarovský	kiarovským	AAns7x
kiarovský	kiarovským	AAnp3x
kiarovský	kiarovskými	AAmp7x
kiarovský	kiarovskými	AAip7x
kiarovský	kiarovskými	AAfp7x
kiarovský	kiarovskými	AAnp7x
kibic	kibic	SSms1
kibic	kibic	SSms5
kibic	kibica	SSms2
kibic	kibica	SSms4
kibic	kibici	SSmp1
kibic	kibici	SSmp5
kibic	kibicmi	SSmp7
kibic	kibicoch	SSmp6
kibic	kibicom	SSms7
kibic	kibicom	SSmp3
kibic	kibicov	SSmp2
kibic	kibicov	SSmp4
kibicovať	kibicoval	VLesam+
kibicovať	kibicoval	VLesai+
kibicovať	kibicoval	VLesbm+
kibicovať	kibicoval	VLesbi+
kibicovať	kibicoval	VLescm+
kibicovať	kibicoval	VLesci+
kibicovať	kibicovala	VLesaf+
kibicovať	kibicovala	VLesbf+
kibicovať	kibicovala	VLescf+
kibicovať	kibicovali	VLepah+
kibicovať	kibicovali	VLepbh+
kibicovať	kibicovali	VLepcm+
kibicovať	kibicovali	VLepci+
kibicovať	kibicovali	VLepcf+
kibicovať	kibicovali	VLepcn+
kibicovať	kibicovali	VLepco+
kibicovať	kibicovalo	VLesan+
kibicovať	kibicovalo	VLesbn+
kibicovať	kibicovalo	VLescn+
kibicovať	kibicovať	VIe+
kibic	kibicovi	SSms3
kibic	kibicovi	SSms6
kibicovať	kibicuj	VMesb+
kibicovať	kibicuje	VKesc+
kibicovať	kibicujem	VKesa+
kibicovať	kibicujeme	VKepa+
kibicovať	kibicujete	VKepb+
kibicovať	kibicuješ	VKesb+
kibicovať	kibicujme	VMepa+
kibicovať	kibicujte	VMepb+
kibicovať	kibicujú	VKepc+
kibicovať	kibicujúc	VHe+
ký	kie	PAip1
ký	kie	PAip4
ký	kie	PAip5
ký	kie	PAfp1
ký	kie	PAfp4
ký	kie	PAfp5
ký	kie	PAns1
ký	kie	PAns4
ký	kie	PAns5
ký	kie	PAnp1
ký	kie	PAnp4
ký	kie	PAnp5
kefa	kief	SSfp2
ký	kieho	PAms2
ký	kieho	PAms4
ký	kieho	PAis2
ký	kieho	PAns2
kýže	kiehože	PAms2
kýže	kiehože	PAms4
kýže	kiehože	PAis2
kýže	kiehože	PAns2
ký	kiemu	PAms3
ký	kiemu	PAis3
ký	kiemu	PAns3
kýže	kiemuže	PAms3
kýže	kiemuže	PAis3
kýže	kiemuže	PAns3
kiež	kiež	T
kiežby	kiežby	TY
kýže	kieže	PAip1
kýže	kieže	PAip4
kýže	kieže	PAip5
kýže	kieže	PAfp1
kýže	kieže	PAfp4
kýže	kieže	PAfp5
kýže	kieže	PAns1
kýže	kieže	PAns4
kýže	kieže	PAns5
kýže	kieže	PAnp1
kýže	kieže	PAnp4
kýže	kieže	PAnp5
kigalský	kigalskej	AAfs2x
kigalský	kigalskej	AAfs3x
kigalský	kigalskej	AAfs6x
kigalský	kigalskom	AAms6x
kigalský	kigalskom	AAis6x
kigalský	kigalskom	AAns6x
kigalský	kigalskou	AAfs7x
kigalský	kigalská	AAfs1x
kigalský	kigalská	AAfs5x
kigalský	kigalské	AAip1x
kigalský	kigalské	AAip4x
kigalský	kigalské	AAip5x
kigalský	kigalské	AAfp1x
kigalský	kigalské	AAfp4x
kigalský	kigalské	AAfp5x
kigalský	kigalské	AAns1x
kigalský	kigalské	AAns4x
kigalský	kigalské	AAns5x
kigalský	kigalské	AAnp1x
kigalský	kigalské	AAnp4x
kigalský	kigalské	AAnp5x
kigalský	kigalského	AAms2x
kigalský	kigalského	AAms4x
kigalský	kigalského	AAis2x
kigalský	kigalského	AAns2x
kigalský	kigalskému	AAms3x
kigalský	kigalskému	AAis3x
kigalský	kigalskému	AAns3x
kigalský	kigalskí	AAmp1x
kigalský	kigalskí	AAmp5x
kigalský	kigalskú	AAfs4x
kigalský	kigalský	AAms1x
kigalský	kigalský	AAms5x
kigalský	kigalský	AAis1x
kigalský	kigalský	AAis4x
kigalský	kigalský	AAis5x
kigalský	kigalských	AAmp2x
kigalský	kigalských	AAmp4x
kigalský	kigalských	AAmp6x
kigalský	kigalských	AAip2x
kigalský	kigalských	AAip6x
kigalský	kigalských	AAfp2x
kigalský	kigalských	AAfp6x
kigalský	kigalských	AAnp2x
kigalský	kigalských	AAnp6x
kigalský	kigalským	AAms7x
kigalský	kigalským	AAmp3x
kigalský	kigalským	AAis7x
kigalský	kigalským	AAip3x
kigalský	kigalským	AAfp3x
kigalský	kigalským	AAns7x
kigalský	kigalským	AAnp3x
kigalský	kigalskými	AAmp7x
kigalský	kigalskými	AAip7x
kigalský	kigalskými	AAfp7x
kigalský	kigalskými	AAnp7x
kikiriki	kikiriki	J
kikirikí	kikirikí	J
kikiríkať	kikiríka	VKesc+
kikiríkať	kikiríkaj	VMesb+
kikiríkať	kikiríkajme	VMepa+
kikiríkať	kikiríkajte	VMepb+
kikiríkať	kikiríkajú	VKepc+
kikiríkať	kikiríkajúc	VHe+
kikiríkať	kikiríkal	VLesam+
kikiríkať	kikiríkal	VLesai+
kikiríkať	kikiríkal	VLesbm+
kikiríkať	kikiríkal	VLesbi+
kikiríkať	kikiríkal	VLescm+
kikiríkať	kikiríkal	VLesci+
kikiríkať	kikiríkala	VLesaf+
kikiríkať	kikiríkala	VLesbf+
kikiríkať	kikiríkala	VLescf+
kikiríkať	kikiríkali	VLepah+
kikiríkať	kikiríkali	VLepbh+
kikiríkať	kikiríkali	VLepcm+
kikiríkať	kikiríkali	VLepci+
kikiríkať	kikiríkali	VLepcf+
kikiríkať	kikiríkali	VLepcn+
kikiríkať	kikiríkali	VLepco+
kikiríkať	kikiríkalo	VLesan+
kikiríkať	kikiríkalo	VLesbn+
kikiríkať	kikiríkalo	VLescn+
kikiríkať	kikiríkam	VKesa+
kikiríkať	kikiríkame	VKepa+
kikiríkať	kikiríkate	VKepb+
kikiríkať	kikiríkaš	VKesb+
kikiríkať	kikiríkať	VIe+
*kiks	kiks	SSis1
*kiks	kiks	SSis4
*kiks	kiks	SSis5
*kiks	kiksami	SSip7
*kiks	kikse	SSis6
*kiksnúť	kiksla	VLdsaf+
*kiksnúť	kiksla	VLdsbf+
*kiksnúť	kiksla	VLdscf+
*kiksnúť	kiksli	VLdpah+
*kiksnúť	kiksli	VLdpbh+
*kiksnúť	kiksli	VLdpcm+
*kiksnúť	kiksli	VLdpci+
*kiksnúť	kiksli	VLdpcf+
*kiksnúť	kiksli	VLdpcn+
*kiksnúť	kiksli	VLdpco+
*kiksnúť	kikslo	VLdsan+
*kiksnúť	kikslo	VLdsbn+
*kiksnúť	kikslo	VLdscn+
*kiksnúť	kiksne	VKdsc+
*kiksnúť	kiksnem	VKdsa+
*kiksnúť	kiksneme	VKdpa+
*kiksnúť	kiksnete	VKdpb+
*kiksnúť	kiksneš	VKdsb+
*kiksnúť	kiksni	VMdsb+
*kiksnúť	kiksnime	VMdpa+
*kiksnúť	kiksnite	VMdpb+
*kiksnúť	kiksnú	VKdpc+
*kiksnúť	kiksnúc	VHd+
*kiksnúť	kiksnúť	VId+
*kiks	kiksoch	SSip6
*kiksnúť	kiksol	VLdsam+
*kiksnúť	kiksol	VLdsai+
*kiksnúť	kiksol	VLdsbm+
*kiksnúť	kiksol	VLdsbi+
*kiksnúť	kiksol	VLdscm+
*kiksnúť	kiksol	VLdsci+
*kiks	kiksom	SSis7
*kiks	kiksom	SSip3
*kiks	kiksov	SSip2
*kiksovať	kiksoval	VLesam+
*kiksovať	kiksoval	VLesai+
*kiksovať	kiksoval	VLesbm+
*kiksovať	kiksoval	VLesbi+
*kiksovať	kiksoval	VLescm+
*kiksovať	kiksoval	VLesci+
*kiksovať	kiksovala	VLesaf+
*kiksovať	kiksovala	VLesbf+
*kiksovať	kiksovala	VLescf+
*kiksovať	kiksovali	VLepah+
*kiksovať	kiksovali	VLepbh+
*kiksovať	kiksovali	VLepcm+
*kiksovať	kiksovali	VLepci+
*kiksovať	kiksovali	VLepcf+
*kiksovať	kiksovali	VLepcn+
*kiksovať	kiksovali	VLepco+
*kiksovať	kiksovalo	VLesan+
*kiksovať	kiksovalo	VLesbn+
*kiksovať	kiksovalo	VLescn+
*kiksovať	kiksovať	VIe+
*kiks	kiksu	SSis2
*kiks	kiksu	SSis3
*kiksovať	kiksuj	VMesb+
*kiksovať	kiksuje	VKesc+
*kiksovať	kiksujem	VKesa+
*kiksovať	kiksujeme	VKepa+
*kiksovať	kiksujete	VKepb+
*kiksovať	kiksuješ	VKesb+
*kiksovať	kiksujme	VMepa+
*kiksovať	kiksujte	VMepb+
*kiksovať	kiksujú	VKepc+
*kiksovať	kiksujúc	VHe+
*kiks	kiksy	SSip1
*kiks	kiksy	SSip4
*kiks	kiksy	SSip5
kilo	kila	SSns2
kilo	kilami	SSnp7
kilo	kile	SSns6
kilečko	kilečiek	SSnp2
kilečko	kilečka	SSns2
kilečko	kilečkami	SSnp7
kilečko	kilečko	SSns1
kilečko	kilečko	SSns4
kilečko	kilečko	SSns5
kilečko	kilečkom	SSns7
kilečko	kilečku	SSns3
kilečko	kilečku	SSns6
kilečko	kilečká	SSnp1
kilečko	kilečká	SSnp4
kilečko	kilečká	SSnp5
kilečko	kilečkách	SSnp6
kilečko	kilečkám	SSnp3
kilimandžársky	kilimandžárska	AAfs1x
kilimandžársky	kilimandžárska	AAfs5x
kilimandžársky	kilimandžárske	AAip1x
kilimandžársky	kilimandžárske	AAip4x
kilimandžársky	kilimandžárske	AAip5x
kilimandžársky	kilimandžárske	AAfp1x
kilimandžársky	kilimandžárske	AAfp4x
kilimandžársky	kilimandžárske	AAfp5x
kilimandžársky	kilimandžárske	AAns1x
kilimandžársky	kilimandžárske	AAns4x
kilimandžársky	kilimandžárske	AAns5x
kilimandžársky	kilimandžárske	AAnp1x
kilimandžársky	kilimandžárske	AAnp4x
kilimandžársky	kilimandžárske	AAnp5x
kilimandžársky	kilimandžárskeho	AAms2x
kilimandžársky	kilimandžárskeho	AAms4x
kilimandžársky	kilimandžárskeho	AAis2x
kilimandžársky	kilimandžárskeho	AAns2x
kilimandžársky	kilimandžárskej	AAfs2x
kilimandžársky	kilimandžárskej	AAfs3x
kilimandžársky	kilimandžárskej	AAfs6x
kilimandžársky	kilimandžárskemu	AAms3x
kilimandžársky	kilimandžárskemu	AAis3x
kilimandžársky	kilimandžárskemu	AAns3x
kilimandžársky	kilimandžárski	AAmp1x
kilimandžársky	kilimandžárski	AAmp5x
kilimandžársky	kilimandžárskom	AAms6x
kilimandžársky	kilimandžárskom	AAis6x
kilimandžársky	kilimandžárskom	AAns6x
kilimandžársky	kilimandžárskou	AAfs7x
kilimandžársky	kilimandžársku	AAfs4x
kilimandžársky	kilimandžársky	AAms1x
kilimandžársky	kilimandžársky	AAms5x
kilimandžársky	kilimandžársky	AAis1x
kilimandžársky	kilimandžársky	AAis4x
kilimandžársky	kilimandžársky	AAis5x
kilimandžársky	kilimandžárskych	AAmp2x
kilimandžársky	kilimandžárskych	AAmp4x
kilimandžársky	kilimandžárskych	AAmp6x
kilimandžársky	kilimandžárskych	AAip2x
kilimandžársky	kilimandžárskych	AAip6x
kilimandžársky	kilimandžárskych	AAfp2x
kilimandžársky	kilimandžárskych	AAfp6x
kilimandžársky	kilimandžárskych	AAnp2x
kilimandžársky	kilimandžárskych	AAnp6x
kilimandžársky	kilimandžárskym	AAms7x
kilimandžársky	kilimandžárskym	AAmp3x
kilimandžársky	kilimandžárskym	AAis7x
kilimandžársky	kilimandžárskym	AAip3x
kilimandžársky	kilimandžárskym	AAfp3x
kilimandžársky	kilimandžárskym	AAns7x
kilimandžársky	kilimandžárskym	AAnp3x
kilimandžársky	kilimandžárskymi	AAmp7x
kilimandžársky	kilimandžárskymi	AAip7x
kilimandžársky	kilimandžárskymi	AAfp7x
kilimandžársky	kilimandžárskymi	AAnp7x
kilo	kilo	SSns1
kilo	kilo	SSns4
kilo	kilo	SSns5
kilogram	kilogram	SSis1
kilogram	kilogram	SSis4
kilogram	kilogram	SSis5
kilogram	kilogramami	SSip7
kilogram	kilograme	SSis6
kilogram	kilogramoch	SSip6
kilogram	kilogramom	SSis7
kilogram	kilogramom	SSip3
kilogram	kilogramov	SSip2
kilogramový	kilogramovej	AAfs2x
kilogramový	kilogramovej	AAfs3x
kilogramový	kilogramovej	AAfs6x
kilogramový	kilogramovom	AAms6x
kilogramový	kilogramovom	AAis6x
kilogramový	kilogramovom	AAns6x
kilogramový	kilogramovou	AAfs7x
kilogramový	kilogramová	AAfs1x
kilogramový	kilogramová	AAfs5x
kilogramový	kilogramové	AAip1x
kilogramový	kilogramové	AAip4x
kilogramový	kilogramové	AAip5x
kilogramový	kilogramové	AAfp1x
kilogramový	kilogramové	AAfp4x
kilogramový	kilogramové	AAfp5x
kilogramový	kilogramové	AAns1x
kilogramový	kilogramové	AAns4x
kilogramový	kilogramové	AAns5x
kilogramový	kilogramové	AAnp1x
kilogramový	kilogramové	AAnp4x
kilogramový	kilogramové	AAnp5x
kilogramový	kilogramového	AAms2x
kilogramový	kilogramového	AAms4x
kilogramový	kilogramového	AAis2x
kilogramový	kilogramového	AAns2x
kilogramový	kilogramovému	AAms3x
kilogramový	kilogramovému	AAis3x
kilogramový	kilogramovému	AAns3x
kilogramový	kilogramoví	AAmp1x
kilogramový	kilogramoví	AAmp5x
kilogramový	kilogramovú	AAfs4x
kilogramový	kilogramový	AAms1x
kilogramový	kilogramový	AAms5x
kilogramový	kilogramový	AAis1x
kilogramový	kilogramový	AAis4x
kilogramový	kilogramový	AAis5x
kilogramový	kilogramových	AAmp2x
kilogramový	kilogramových	AAmp4x
kilogramový	kilogramových	AAmp6x
kilogramový	kilogramových	AAip2x
kilogramový	kilogramových	AAip6x
kilogramový	kilogramových	AAfp2x
kilogramový	kilogramových	AAfp6x
kilogramový	kilogramových	AAnp2x
kilogramový	kilogramových	AAnp6x
kilogramový	kilogramovým	AAms7x
kilogramový	kilogramovým	AAmp3x
kilogramový	kilogramovým	AAis7x
kilogramový	kilogramovým	AAip3x
kilogramový	kilogramovým	AAfp3x
kilogramový	kilogramovým	AAns7x
kilogramový	kilogramovým	AAnp3x
kilogramový	kilogramovými	AAmp7x
kilogramový	kilogramovými	AAip7x
kilogramový	kilogramovými	AAfp7x
kilogramový	kilogramovými	AAnp7x
kilogram	kilogramu	SSis2
kilogram	kilogramu	SSis3
kilogram	kilogramy	SSip1
kilogram	kilogramy	SSip4
kilogram	kilogramy	SSip5
kilohertz	kilohertz	SSis1
kilohertz	kilohertz	SSis4
kilohertz	kilohertz	SSis5
kilohertz	kilohertza	SSis2
kilohertz	kilohertze	SSip1
kilohertz	kilohertze	SSip4
kilohertz	kilohertze	SSip5
kilohertz	kilohertzi	SSis6
kilohertz	kilohertzmi	SSip7
kilohertz	kilohertzoch	SSip6
kilohertz	kilohertzom	SSis7
kilohertz	kilohertzom	SSip3
kilohertz	kilohertzov	SSip2
kilohertz	kilohertzu	SSis3
kilojoule	kilojoulami	SSip7
kilojoule	kilojoule	SSis1
kilojoule	kilojoule	SSis4
kilojoule	kilojoule	SSis5
kilojoule	kilojoule	SSis6
kilojoule	kilojouloch	SSip6
kilojoule	kilojoulom	SSis7
kilojoule	kilojoulom	SSip3
kilojoule	kilojoulov	SSip2
kilojoule	kilojoulu	SSis2
kilojoule	kilojoulu	SSis3
kilojoule	kilojouly	SSip1
kilojoule	kilojouly	SSip4
kilojoule	kilojouly	SSip5
kilokalória	kilokalória	SSfs1
kilokalória	kilokalória	SSfs5
kilokalória	kilokalóriami	SSfp7
kilokalória	kilokalórie	SSfs2
kilokalória	kilokalórie	SSfp1
kilokalória	kilokalórie	SSfp4
kilokalória	kilokalórie	SSfp5
kilokalória	kilokalórii	SSfs3
kilokalória	kilokalórii	SSfs6
kilokalória	kilokalóriou	SSfs7
kilokalória	kilokalóriu	SSfs4
kilokalória	kilokalóriách	SSfp6
kilokalória	kilokalóriám	SSfp3
kilokalória	kilokalórií	SSfp2
kilo	kilom	SSns7
kilometer	kilometer	SSis1
kilometer	kilometer	SSis4
kilometer	kilometer	SSis5
kilometer	kilometra	SSis2
kilometer	kilometrami	SSip7
kilometer	kilometre	SSip1
kilometer	kilometre	SSip4
kilometer	kilometre	SSip5
kilometer	kilometri	SSis6
kilometer	kilometroch	SSip6
kilometer	kilometrom	SSis7
kilometer	kilometrom	SSip3
kilometer	kilometrov	SSip2
kilometrový	kilometrovej	AAfs2x
kilometrový	kilometrovej	AAfs3x
kilometrový	kilometrovej	AAfs6x
kilometrovné	kilometrovnom	SAns6
kilometrovné	kilometrovné	SAns1
kilometrovné	kilometrovné	SAns4
kilometrovné	kilometrovné	SAns5
kilometrovné	kilometrovného	SAns2
kilometrovné	kilometrovnému	SAns3
kilometrovník	kilometrovník	SSis1
kilometrovník	kilometrovník	SSis4
kilometrovník	kilometrovník	SSis5
kilometrovník	kilometrovníka	SSis2
kilometrovník	kilometrovníkmi	SSip7
kilometrovník	kilometrovníkoch	SSip6
kilometrovník	kilometrovníkom	SSis7
kilometrovník	kilometrovníkom	SSip3
kilometrovník	kilometrovníkov	SSip2
kilometrovník	kilometrovníku	SSis3
kilometrovník	kilometrovníku	SSis6
kilometrovník	kilometrovníky	SSip1
kilometrovník	kilometrovníky	SSip4
kilometrovník	kilometrovníky	SSip5
kilometrovné	kilometrovným	SAns7
kilometrový	kilometrovom	AAms6x
kilometrový	kilometrovom	AAis6x
kilometrový	kilometrovom	AAns6x
kilometrový	kilometrovou	AAfs7x
kilometrový	kilometrová	AAfs1x
kilometrový	kilometrová	AAfs5x
kilometrový	kilometrové	AAip1x
kilometrový	kilometrové	AAip4x
kilometrový	kilometrové	AAip5x
kilometrový	kilometrové	AAfp1x
kilometrový	kilometrové	AAfp4x
kilometrový	kilometrové	AAfp5x
kilometrový	kilometrové	AAns1x
kilometrový	kilometrové	AAns4x
kilometrový	kilometrové	AAns5x
kilometrový	kilometrové	AAnp1x
kilometrový	kilometrové	AAnp4x
kilometrový	kilometrové	AAnp5x
kilometrový	kilometrového	AAms2x
kilometrový	kilometrového	AAms4x
kilometrový	kilometrového	AAis2x
kilometrový	kilometrového	AAns2x
kilometrový	kilometrovému	AAms3x
kilometrový	kilometrovému	AAis3x
kilometrový	kilometrovému	AAns3x
kilometrový	kilometroví	AAmp1x
kilometrový	kilometroví	AAmp5x
kilometrový	kilometrovú	AAfs4x
kilometrový	kilometrový	AAms1x
kilometrový	kilometrový	AAms5x
kilometrový	kilometrový	AAis1x
kilometrový	kilometrový	AAis4x
kilometrový	kilometrový	AAis5x
kilometrový	kilometrových	AAmp2x
kilometrový	kilometrových	AAmp4x
kilometrový	kilometrových	AAmp6x
kilometrový	kilometrových	AAip2x
kilometrový	kilometrových	AAip6x
kilometrový	kilometrových	AAfp2x
kilometrový	kilometrových	AAfp6x
kilometrový	kilometrových	AAnp2x
kilometrový	kilometrových	AAnp6x
kilometrový	kilometrovým	AAms7x
kilometrový	kilometrovým	AAmp3x
kilometrový	kilometrovým	AAis7x
kilometrový	kilometrovým	AAip3x
kilometrový	kilometrovým	AAfp3x
kilometrový	kilometrovým	AAns7x
kilometrový	kilometrovým	AAnp3x
kilometrový	kilometrovými	AAmp7x
kilometrový	kilometrovými	AAip7x
kilometrový	kilometrovými	AAfp7x
kilometrový	kilometrovými	AAnp7x
kilometer	kilometru	SSis3
kilopond	kilopond	SSis1
kilopond	kilopond	SSis4
kilopond	kilopond	SSis5
kilopond	kiloponde	SSis6
kilopond	kilopondmi	SSip7
kilopond	kilopondoch	SSip6
kilopond	kilopondom	SSis7
kilopond	kilopondom	SSip3
kilopond	kilopondov	SSip2
kilopond	kilopondu	SSis2
kilopond	kilopondu	SSis3
kilopond	kilopondy	SSip1
kilopond	kilopondy	SSip4
kilopond	kilopondy	SSip5
kilový	kilovej	AAfs2x
kilový	kilovej	AAfs3x
kilový	kilovej	AAfs6x
kilovolt	kilovolt	SSis1
kilovolt	kilovolt	SSis4
kilovolt	kilovolt	SSis5
kilovolt	kilovolte	SSis6
kilovolt	kilovoltmi	SSip7
kilovolt	kilovoltoch	SSip6
kilovolt	kilovoltom	SSis7
kilovolt	kilovoltom	SSip3
kilovolt	kilovoltov	SSip2
kilovoltový	kilovoltovej	AAfs2x
kilovoltový	kilovoltovej	AAfs3x
kilovoltový	kilovoltovej	AAfs6x
kilovoltový	kilovoltovom	AAms6x
kilovoltový	kilovoltovom	AAis6x
kilovoltový	kilovoltovom	AAns6x
kilovoltový	kilovoltovou	AAfs7x
kilovoltový	kilovoltová	AAfs1x
kilovoltový	kilovoltová	AAfs5x
kilovoltový	kilovoltové	AAip1x
kilovoltový	kilovoltové	AAip4x
kilovoltový	kilovoltové	AAip5x
kilovoltový	kilovoltové	AAfp1x
kilovoltový	kilovoltové	AAfp4x
kilovoltový	kilovoltové	AAfp5x
kilovoltový	kilovoltové	AAns1x
kilovoltový	kilovoltové	AAns4x
kilovoltový	kilovoltové	AAns5x
kilovoltový	kilovoltové	AAnp1x
kilovoltový	kilovoltové	AAnp4x
kilovoltový	kilovoltové	AAnp5x
kilovoltový	kilovoltového	AAms2x
kilovoltový	kilovoltového	AAms4x
kilovoltový	kilovoltového	AAis2x
kilovoltový	kilovoltového	AAns2x
kilovoltový	kilovoltovému	AAms3x
kilovoltový	kilovoltovému	AAis3x
kilovoltový	kilovoltovému	AAns3x
kilovoltový	kilovoltoví	AAmp1x
kilovoltový	kilovoltoví	AAmp5x
kilovoltový	kilovoltovú	AAfs4x
kilovoltový	kilovoltový	AAms1x
kilovoltový	kilovoltový	AAms5x
kilovoltový	kilovoltový	AAis1x
kilovoltový	kilovoltový	AAis4x
kilovoltový	kilovoltový	AAis5x
kilovoltový	kilovoltových	AAmp2x
kilovoltový	kilovoltových	AAmp4x
kilovoltový	kilovoltových	AAmp6x
kilovoltový	kilovoltových	AAip2x
kilovoltový	kilovoltových	AAip6x
kilovoltový	kilovoltových	AAfp2x
kilovoltový	kilovoltových	AAfp6x
kilovoltový	kilovoltových	AAnp2x
kilovoltový	kilovoltových	AAnp6x
kilovoltový	kilovoltovým	AAms7x
kilovoltový	kilovoltovým	AAmp3x
kilovoltový	kilovoltovým	AAis7x
kilovoltový	kilovoltovým	AAip3x
kilovoltový	kilovoltovým	AAfp3x
kilovoltový	kilovoltovým	AAns7x
kilovoltový	kilovoltovým	AAnp3x
kilovoltový	kilovoltovými	AAmp7x
kilovoltový	kilovoltovými	AAip7x
kilovoltový	kilovoltovými	AAfp7x
kilovoltový	kilovoltovými	AAnp7x
kilovolt	kilovoltu	SSis2
kilovolt	kilovoltu	SSis3
kilovolt	kilovolty	SSip1
kilovolt	kilovolty	SSip4
kilovolt	kilovolty	SSip5
kilový	kilovom	AAms6x
kilový	kilovom	AAis6x
kilový	kilovom	AAns6x
kilový	kilovou	AAfs7x
kilový	kilová	AAfs1x
kilový	kilová	AAfs5x
kilový	kilové	AAip1x
kilový	kilové	AAip4x
kilový	kilové	AAip5x
kilový	kilové	AAfp1x
kilový	kilové	AAfp4x
kilový	kilové	AAfp5x
kilový	kilové	AAns1x
kilový	kilové	AAns4x
kilový	kilové	AAns5x
kilový	kilové	AAnp1x
kilový	kilové	AAnp4x
kilový	kilové	AAnp5x
kilový	kilového	AAms2x
kilový	kilového	AAms4x
kilový	kilového	AAis2x
kilový	kilového	AAns2x
kilový	kilovému	AAms3x
kilový	kilovému	AAis3x
kilový	kilovému	AAns3x
kilový	kiloví	AAmp1x
kilový	kiloví	AAmp5x
kilový	kilovú	AAfs4x
kilový	kilový	AAms1x
kilový	kilový	AAms5x
kilový	kilový	AAis1x
kilový	kilový	AAis4x
kilový	kilový	AAis5x
kilový	kilových	AAmp2x
kilový	kilových	AAmp4x
kilový	kilových	AAmp6x
kilový	kilových	AAip2x
kilový	kilových	AAip6x
kilový	kilových	AAfp2x
kilový	kilových	AAfp6x
kilový	kilových	AAnp2x
kilový	kilových	AAnp6x
kilový	kilovým	AAms7x
kilový	kilovým	AAmp3x
kilový	kilovým	AAis7x
kilový	kilovým	AAip3x
kilový	kilovým	AAfp3x
kilový	kilovým	AAns7x
kilový	kilovým	AAnp3x
kilový	kilovými	AAmp7x
kilový	kilovými	AAip7x
kilový	kilovými	AAfp7x
kilový	kilovými	AAnp7x
kilowatt	kilowatt	SSis1
kilowatt	kilowatt	SSis4
kilowatt	kilowatt	SSis5
kilowatt	kilowatte	SSis6
kilowatthodina	kilowatthodina	SSfs1
kilowatthodina	kilowatthodina	SSfs5
kilowatthodina	kilowatthodinami	SSfp7
kilowatthodina	kilowatthodine	SSfs3
kilowatthodina	kilowatthodine	SSfs6
kilowatthodina	kilowatthodinou	SSfs7
kilowatthodinový	kilowatthodinovej	AAfs2x
kilowatthodinový	kilowatthodinovej	AAfs3x
kilowatthodinový	kilowatthodinovej	AAfs6x
kilowatthodinový	kilowatthodinovom	AAms6x
kilowatthodinový	kilowatthodinovom	AAis6x
kilowatthodinový	kilowatthodinovom	AAns6x
kilowatthodinový	kilowatthodinovou	AAfs7x
kilowatthodinový	kilowatthodinová	AAfs1x
kilowatthodinový	kilowatthodinová	AAfs5x
kilowatthodinový	kilowatthodinové	AAip1x
kilowatthodinový	kilowatthodinové	AAip4x
kilowatthodinový	kilowatthodinové	AAip5x
kilowatthodinový	kilowatthodinové	AAfp1x
kilowatthodinový	kilowatthodinové	AAfp4x
kilowatthodinový	kilowatthodinové	AAfp5x
kilowatthodinový	kilowatthodinové	AAns1x
kilowatthodinový	kilowatthodinové	AAns4x
kilowatthodinový	kilowatthodinové	AAns5x
kilowatthodinový	kilowatthodinové	AAnp1x
kilowatthodinový	kilowatthodinové	AAnp4x
kilowatthodinový	kilowatthodinové	AAnp5x
kilowatthodinový	kilowatthodinového	AAms2x
kilowatthodinový	kilowatthodinového	AAms4x
kilowatthodinový	kilowatthodinového	AAis2x
kilowatthodinový	kilowatthodinového	AAns2x
kilowatthodinový	kilowatthodinovému	AAms3x
kilowatthodinový	kilowatthodinovému	AAis3x
kilowatthodinový	kilowatthodinovému	AAns3x
kilowatthodinový	kilowatthodinoví	AAmp1x
kilowatthodinový	kilowatthodinoví	AAmp5x
kilowatthodinový	kilowatthodinovú	AAfs4x
kilowatthodinový	kilowatthodinový	AAms1x
kilowatthodinový	kilowatthodinový	AAms5x
kilowatthodinový	kilowatthodinový	AAis1x
kilowatthodinový	kilowatthodinový	AAis4x
kilowatthodinový	kilowatthodinový	AAis5x
kilowatthodinový	kilowatthodinových	AAmp2x
kilowatthodinový	kilowatthodinových	AAmp4x
kilowatthodinový	kilowatthodinových	AAmp6x
kilowatthodinový	kilowatthodinových	AAip2x
kilowatthodinový	kilowatthodinových	AAip6x
kilowatthodinový	kilowatthodinových	AAfp2x
kilowatthodinový	kilowatthodinových	AAfp6x
kilowatthodinový	kilowatthodinových	AAnp2x
kilowatthodinový	kilowatthodinových	AAnp6x
kilowatthodinový	kilowatthodinovým	AAms7x
kilowatthodinový	kilowatthodinovým	AAmp3x
kilowatthodinový	kilowatthodinovým	AAis7x
kilowatthodinový	kilowatthodinovým	AAip3x
kilowatthodinový	kilowatthodinovým	AAfp3x
kilowatthodinový	kilowatthodinovým	AAns7x
kilowatthodinový	kilowatthodinovým	AAnp3x
kilowatthodinový	kilowatthodinovými	AAmp7x
kilowatthodinový	kilowatthodinovými	AAip7x
kilowatthodinový	kilowatthodinovými	AAfp7x
kilowatthodinový	kilowatthodinovými	AAnp7x
kilowatthodina	kilowatthodinu	SSfs4
kilowatthodina	kilowatthodiny	SSfs2
kilowatthodina	kilowatthodiny	SSfp1
kilowatthodina	kilowatthodiny	SSfp4
kilowatthodina	kilowatthodiny	SSfp5
kilowatthodina	kilowatthodinách	SSfp6
kilowatthodina	kilowatthodinám	SSfp3
kilowatthodina	kilowatthodín	SSfp2
kilowatt	kilowattmi	SSip7
kilowatt	kilowattoch	SSip6
kilowatt	kilowattom	SSis7
kilowatt	kilowattom	SSip3
kilowatt	kilowattov	SSip2
kilowattový	kilowattovej	AAfs2x
kilowattový	kilowattovej	AAfs3x
kilowattový	kilowattovej	AAfs6x
kilowattový	kilowattovom	AAms6x
kilowattový	kilowattovom	AAis6x
kilowattový	kilowattovom	AAns6x
kilowattový	kilowattovou	AAfs7x
kilowattový	kilowattová	AAfs1x
kilowattový	kilowattová	AAfs5x
kilowattový	kilowattové	AAip1x
kilowattový	kilowattové	AAip4x
kilowattový	kilowattové	AAip5x
kilowattový	kilowattové	AAfp1x
kilowattový	kilowattové	AAfp4x
kilowattový	kilowattové	AAfp5x
kilowattový	kilowattové	AAns1x
kilowattový	kilowattové	AAns4x
kilowattový	kilowattové	AAns5x
kilowattový	kilowattové	AAnp1x
kilowattový	kilowattové	AAnp4x
kilowattový	kilowattové	AAnp5x
kilowattový	kilowattového	AAms2x
kilowattový	kilowattového	AAms4x
kilowattový	kilowattového	AAis2x
kilowattový	kilowattového	AAns2x
kilowattový	kilowattovému	AAms3x
kilowattový	kilowattovému	AAis3x
kilowattový	kilowattovému	AAns3x
kilowattový	kilowattoví	AAmp1x
kilowattový	kilowattoví	AAmp5x
kilowattový	kilowattovú	AAfs4x
kilowattový	kilowattový	AAms1x
kilowattový	kilowattový	AAms5x
kilowattový	kilowattový	AAis1x
kilowattový	kilowattový	AAis4x
kilowattový	kilowattový	AAis5x
kilowattový	kilowattových	AAmp2x
kilowattový	kilowattových	AAmp4x
kilowattový	kilowattových	AAmp6x
kilowattový	kilowattových	AAip2x
kilowattový	kilowattových	AAip6x
kilowattový	kilowattových	AAfp2x
kilowattový	kilowattových	AAfp6x
kilowattový	kilowattových	AAnp2x
kilowattový	kilowattových	AAnp6x
kilowattový	kilowattovým	AAms7x
kilowattový	kilowattovým	AAmp3x
kilowattový	kilowattovým	AAis7x
kilowattový	kilowattovým	AAip3x
kilowattový	kilowattovým	AAfp3x
kilowattový	kilowattovým	AAns7x
kilowattový	kilowattovým	AAnp3x
kilowattový	kilowattovými	AAmp7x
kilowattový	kilowattovými	AAip7x
kilowattový	kilowattovými	AAfp7x
kilowattový	kilowattovými	AAnp7x
kilowatt	kilowattu	SSis2
kilowatt	kilowattu	SSis3
kilowatt	kilowatty	SSip1
kilowatt	kilowatty	SSip4
kilowatt	kilowatty	SSip5
kilo	kilu	SSns3
kilo	kilá	SSnp1
kilo	kilá	SSnp4
kilo	kilá	SSnp5
kilo	kilách	SSnp6
kilo	kilám	SSnp3
kimono	kimon	SSnp2
kimono	kimona	SSns2
kimono	kimonami	SSnp7
kimono	kimone	SSns6
kimono	kimono	AUfp1x
kimono	kimono	AUfp2x
kimono	kimono	AUfp3x
kimono	kimono	AUfp4x
kimono	kimono	AUfp5x
kimono	kimono	AUfp6x
kimono	kimono	AUfp7x
kimono	kimono	AUfs1x
kimono	kimono	AUfs2x
kimono	kimono	AUfs3x
kimono	kimono	AUfs4x
kimono	kimono	AUfs5x
kimono	kimono	AUfs6x
kimono	kimono	AUfs7x
kimono	kimono	AUip1x
kimono	kimono	AUip2x
kimono	kimono	AUip3x
kimono	kimono	AUip4x
kimono	kimono	AUip5x
kimono	kimono	AUip6x
kimono	kimono	AUip7x
kimono	kimono	AUis1x
kimono	kimono	AUis2x
kimono	kimono	AUis3x
kimono	kimono	AUis4x
kimono	kimono	AUis5x
kimono	kimono	AUis6x
kimono	kimono	AUis7x
kimono	kimono	AUmp1x
kimono	kimono	AUmp2x
kimono	kimono	AUmp3x
kimono	kimono	AUmp4x
kimono	kimono	AUmp5x
kimono	kimono	AUmp6x
kimono	kimono	AUmp7x
kimono	kimono	AUms1x
kimono	kimono	AUms2x
kimono	kimono	AUms3x
kimono	kimono	AUms4x
kimono	kimono	AUms5x
kimono	kimono	AUms6x
kimono	kimono	AUms7x
kimono	kimono	AUnp1x
kimono	kimono	AUnp2x
kimono	kimono	AUnp3x
kimono	kimono	AUnp4x
kimono	kimono	AUnp5x
kimono	kimono	AUnp6x
kimono	kimono	AUnp7x
kimono	kimono	AUns1x
kimono	kimono	AUns2x
kimono	kimono	AUns3x
kimono	kimono	AUns4x
kimono	kimono	AUns5x
kimono	kimono	AUns6x
kimono	kimono	AUns7x
kimono	kimono	SSns1
kimono	kimono	SSns4
kimono	kimono	SSns5
kimono	kimonom	SSns7
kimonový	kimonovej	AAfs2x
kimonový	kimonovej	AAfs3x
kimonový	kimonovej	AAfs6x
kimonový	kimonovom	AAms6x
kimonový	kimonovom	AAis6x
kimonový	kimonovom	AAns6x
kimonový	kimonovou	AAfs7x
kimonový	kimonová	AAfs1x
kimonový	kimonová	AAfs5x
kimonový	kimonové	AAip1x
kimonový	kimonové	AAip4x
kimonový	kimonové	AAip5x
kimonový	kimonové	AAfp1x
kimonový	kimonové	AAfp4x
kimonový	kimonové	AAfp5x
kimonový	kimonové	AAns1x
kimonový	kimonové	AAns4x
kimonový	kimonové	AAns5x
kimonový	kimonové	AAnp1x
kimonový	kimonové	AAnp4x
kimonový	kimonové	AAnp5x
kimonový	kimonového	AAms2x
kimonový	kimonového	AAms4x
kimonový	kimonového	AAis2x
kimonový	kimonového	AAns2x
kimonový	kimonovému	AAms3x
kimonový	kimonovému	AAis3x
kimonový	kimonovému	AAns3x
kimonový	kimonoví	AAmp1x
kimonový	kimonoví	AAmp5x
kimonový	kimonovú	AAfs4x
kimonový	kimonový	AAms1x
kimonový	kimonový	AAms5x
kimonový	kimonový	AAis1x
kimonový	kimonový	AAis4x
kimonový	kimonový	AAis5x
kimonový	kimonových	AAmp2x
kimonový	kimonových	AAmp4x
kimonový	kimonových	AAmp6x
kimonový	kimonových	AAip2x
kimonový	kimonových	AAip6x
kimonový	kimonových	AAfp2x
kimonový	kimonových	AAfp6x
kimonový	kimonových	AAnp2x
kimonový	kimonových	AAnp6x
kimonový	kimonovým	AAms7x
kimonový	kimonovým	AAmp3x
kimonový	kimonovým	AAis7x
kimonový	kimonovým	AAip3x
kimonový	kimonovým	AAfp3x
kimonový	kimonovým	AAns7x
kimonový	kimonovým	AAnp3x
kimonový	kimonovými	AAmp7x
kimonový	kimonovými	AAip7x
kimonový	kimonovými	AAfp7x
kimonový	kimonovými	AAnp7x
kimono	kimonu	SSns3
kimono	kimoná	SSnp1
kimono	kimoná	SSnp4
kimono	kimoná	SSnp5
kimono	kimonách	SSnp6
kimono	kimonám	SSnp3
kino	kina	SSns2
kino	kinami	SSnp7
kindžal	kindžal	SSis1
kindžal	kindžal	SSis4
kindžal	kindžal	SSis5
kindžal	kindžale	SSis6
kindžal	kindžalmi	SSip7
kindžal	kindžaloch	SSip6
kindžal	kindžalom	SSis7
kindžal	kindžalom	SSip3
kindžal	kindžalov	SSip2
kindžal	kindžalu	SSis2
kindžal	kindžalu	SSis3
kindžal	kindžaly	SSip1
kindžal	kindžaly	SSip4
kindžal	kindžaly	SSip5
kino	kine	SSns6
kinematický	kinematickej	AAfs2x
kinematický	kinematickej	AAfs3x
kinematický	kinematickej	AAfs6x
kinematický	kinematickom	AAms6x
kinematický	kinematickom	AAis6x
kinematický	kinematickom	AAns6x
kinematický	kinematickou	AAfs7x
kinematický	kinematická	AAfs1x
kinematický	kinematická	AAfs5x
kinematický	kinematické	AAip1x
kinematický	kinematické	AAip4x
kinematický	kinematické	AAip5x
kinematický	kinematické	AAfp1x
kinematický	kinematické	AAfp4x
kinematický	kinematické	AAfp5x
kinematický	kinematické	AAns1x
kinematický	kinematické	AAns4x
kinematický	kinematické	AAns5x
kinematický	kinematické	AAnp1x
kinematický	kinematické	AAnp4x
kinematický	kinematické	AAnp5x
kinematický	kinematického	AAms2x
kinematický	kinematického	AAms4x
kinematický	kinematického	AAis2x
kinematický	kinematického	AAns2x
kinematický	kinematickému	AAms3x
kinematický	kinematickému	AAis3x
kinematický	kinematickému	AAns3x
kinematický	kinematickí	AAmp1x
kinematický	kinematickí	AAmp5x
kinematický	kinematickú	AAfs4x
kinematický	kinematický	AAms1x
kinematický	kinematický	AAms5x
kinematický	kinematický	AAis1x
kinematický	kinematický	AAis4x
kinematický	kinematický	AAis5x
kinematický	kinematických	AAmp2x
kinematický	kinematických	AAmp4x
kinematický	kinematických	AAmp6x
kinematický	kinematických	AAip2x
kinematický	kinematických	AAip6x
kinematický	kinematických	AAfp2x
kinematický	kinematických	AAfp6x
kinematický	kinematických	AAnp2x
kinematický	kinematických	AAnp6x
kinematický	kinematickým	AAms7x
kinematický	kinematickým	AAmp3x
kinematický	kinematickým	AAis7x
kinematický	kinematickým	AAip3x
kinematický	kinematickým	AAfp3x
kinematický	kinematickým	AAns7x
kinematický	kinematickým	AAnp3x
kinematický	kinematickými	AAmp7x
kinematický	kinematickými	AAip7x
kinematický	kinematickými	AAfp7x
kinematický	kinematickými	AAnp7x
kinematika	kinematika	SSfs1
kinematika	kinematika	SSfs5
kinematika	kinematikami	SSfp7
kinematika	kinematike	SSfs3
kinematika	kinematike	SSfs6
kinematika	kinematikou	SSfs7
kinematika	kinematiku	SSfs4
kinematika	kinematiky	SSfs2
kinematika	kinematiky	SSfp1
kinematika	kinematiky	SSfp4
kinematika	kinematiky	SSfp5
kinematika	kinematikách	SSfp6
kinematika	kinematikám	SSfp3
kinematografia	kinematografia	SSfs1
kinematografia	kinematografia	SSfs5
kinematografia	kinematografiami	SSfp7
kinematografický	kinematografickej	AAfs2x
kinematografický	kinematografickej	AAfs3x
kinematografický	kinematografickej	AAfs6x
kinematografický	kinematografickom	AAms6x
kinematografický	kinematografickom	AAis6x
kinematografický	kinematografickom	AAns6x
kinematografický	kinematografickou	AAfs7x
kinematografický	kinematografická	AAfs1x
kinematografický	kinematografická	AAfs5x
kinematografický	kinematografické	AAip1x
kinematografický	kinematografické	AAip4x
kinematografický	kinematografické	AAip5x
kinematografický	kinematografické	AAfp1x
kinematografický	kinematografické	AAfp4x
kinematografický	kinematografické	AAfp5x
kinematografický	kinematografické	AAns1x
kinematografický	kinematografické	AAns4x
kinematografický	kinematografické	AAns5x
kinematografický	kinematografické	AAnp1x
kinematografický	kinematografické	AAnp4x
kinematografický	kinematografické	AAnp5x
kinematografický	kinematografického	AAms2x
kinematografický	kinematografického	AAms4x
kinematografický	kinematografického	AAis2x
kinematografický	kinematografického	AAns2x
kinematografický	kinematografickému	AAms3x
kinematografický	kinematografickému	AAis3x
kinematografický	kinematografickému	AAns3x
kinematografický	kinematografickí	AAmp1x
kinematografický	kinematografickí	AAmp5x
kinematografický	kinematografickú	AAfs4x
kinematografický	kinematografický	AAms1x
kinematografický	kinematografický	AAms5x
kinematografický	kinematografický	AAis1x
kinematografický	kinematografický	AAis4x
kinematografický	kinematografický	AAis5x
kinematografický	kinematografických	AAmp2x
kinematografický	kinematografických	AAmp4x
kinematografický	kinematografických	AAmp6x
kinematografický	kinematografických	AAip2x
kinematografický	kinematografických	AAip6x
kinematografický	kinematografických	AAfp2x
kinematografický	kinematografických	AAfp6x
kinematografický	kinematografických	AAnp2x
kinematografický	kinematografických	AAnp6x
kinematografický	kinematografickým	AAms7x
kinematografický	kinematografickým	AAmp3x
kinematografický	kinematografickým	AAis7x
kinematografický	kinematografickým	AAip3x
kinematografický	kinematografickým	AAfp3x
kinematografický	kinematografickým	AAns7x
kinematografický	kinematografickým	AAnp3x
kinematografický	kinematografickými	AAmp7x
kinematografický	kinematografickými	AAip7x
kinematografický	kinematografickými	AAfp7x
kinematografický	kinematografickými	AAnp7x
kinematografia	kinematografie	SSfs2
kinematografia	kinematografie	SSfp1
kinematografia	kinematografie	SSfp4
kinematografia	kinematografie	SSfp5
kinematografia	kinematografii	SSfs3
kinematografia	kinematografii	SSfs6
kinematografia	kinematografiou	SSfs7
kinematografia	kinematografiu	SSfs4
kinematografia	kinematografiách	SSfp6
kinematografia	kinematografiám	SSfp3
kinematografia	kinematografií	SSfp2
kinematika	kinematík	SSfp2
kinestetický	kinestetickej	AAfs2x
kinestetický	kinestetickej	AAfs3x
kinestetický	kinestetickej	AAfs6x
kinestetický	kinestetickom	AAms6x
kinestetický	kinestetickom	AAis6x
kinestetický	kinestetickom	AAns6x
kinestetický	kinestetickou	AAfs7x
kinestetický	kinestetická	AAfs1x
kinestetický	kinestetická	AAfs5x
kinestetický	kinestetické	AAip1x
kinestetický	kinestetické	AAip4x
kinestetický	kinestetické	AAip5x
kinestetický	kinestetické	AAfp1x
kinestetický	kinestetické	AAfp4x
kinestetický	kinestetické	AAfp5x
kinestetický	kinestetické	AAns1x
kinestetický	kinestetické	AAns4x
kinestetický	kinestetické	AAns5x
kinestetický	kinestetické	AAnp1x
kinestetický	kinestetické	AAnp4x
kinestetický	kinestetické	AAnp5x
kinestetický	kinestetického	AAms2x
kinestetický	kinestetického	AAms4x
kinestetický	kinestetického	AAis2x
kinestetický	kinestetického	AAns2x
kinestetický	kinestetickému	AAms3x
kinestetický	kinestetickému	AAis3x
kinestetický	kinestetickému	AAns3x
kinestetický	kinestetickí	AAmp1x
kinestetický	kinestetickí	AAmp5x
kinestetický	kinestetickú	AAfs4x
kinestetický	kinestetický	AAms1x
kinestetický	kinestetický	AAms5x
kinestetický	kinestetický	AAis1x
kinestetický	kinestetický	AAis4x
kinestetický	kinestetický	AAis5x
kinestetický	kinestetických	AAmp2x
kinestetický	kinestetických	AAmp4x
kinestetický	kinestetických	AAmp6x
kinestetický	kinestetických	AAip2x
kinestetický	kinestetických	AAip6x
kinestetický	kinestetických	AAfp2x
kinestetický	kinestetických	AAfp6x
kinestetický	kinestetických	AAnp2x
kinestetický	kinestetických	AAnp6x
kinestetický	kinestetickým	AAms7x
kinestetický	kinestetickým	AAmp3x
kinestetický	kinestetickým	AAis7x
kinestetický	kinestetickým	AAip3x
kinestetický	kinestetickým	AAfp3x
kinestetický	kinestetickým	AAns7x
kinestetický	kinestetickým	AAnp3x
kinestetický	kinestetickými	AAmp7x
kinestetický	kinestetickými	AAip7x
kinestetický	kinestetickými	AAfp7x
kinestetický	kinestetickými	AAnp7x
kinestéza	kinestéz	SSfp2
kinestéza	kinestéza	SSfs1
kinestéza	kinestéza	SSfs5
kinestéza	kinestézach	SSfp6
kinestéza	kinestézam	SSfp3
kinestéza	kinestézami	SSfp7
kinestéza	kinestéze	SSfs3
kinestéza	kinestéze	SSfs6
kinestéza	kinestézou	SSfs7
kinestéza	kinestézu	SSfs4
kinestéza	kinestézy	SSfs2
kinestéza	kinestézy	SSfp1
kinestéza	kinestézy	SSfp4
kinestéza	kinestézy	SSfp5
kinetický	kinetickej	AAfs2x
kinetický	kinetickej	AAfs3x
kinetický	kinetickej	AAfs6x
kinetický	kinetickom	AAms6x
kinetický	kinetickom	AAis6x
kinetický	kinetickom	AAns6x
kinetický	kinetickou	AAfs7x
kinetický	kinetická	AAfs1x
kinetický	kinetická	AAfs5x
kinetický	kinetické	AAip1x
kinetický	kinetické	AAip4x
kinetický	kinetické	AAip5x
kinetický	kinetické	AAfp1x
kinetický	kinetické	AAfp4x
kinetický	kinetické	AAfp5x
kinetický	kinetické	AAns1x
kinetický	kinetické	AAns4x
kinetický	kinetické	AAns5x
kinetický	kinetické	AAnp1x
kinetický	kinetické	AAnp4x
kinetický	kinetické	AAnp5x
kinetický	kinetického	AAms2x
kinetický	kinetického	AAms4x
kinetický	kinetického	AAis2x
kinetický	kinetického	AAns2x
kinetický	kinetickému	AAms3x
kinetický	kinetickému	AAis3x
kinetický	kinetickému	AAns3x
kinetický	kinetickí	AAmp1x
kinetický	kinetickí	AAmp5x
kinetický	kinetickú	AAfs4x
kinetický	kinetický	AAms1x
kinetický	kinetický	AAms5x
kinetický	kinetický	AAis1x
kinetický	kinetický	AAis4x
kinetický	kinetický	AAis5x
kinetický	kinetických	AAmp2x
kinetický	kinetických	AAmp4x
kinetický	kinetických	AAmp6x
kinetický	kinetických	AAip2x
kinetický	kinetických	AAip6x
kinetický	kinetických	AAfp2x
kinetický	kinetických	AAfp6x
kinetický	kinetických	AAnp2x
kinetický	kinetických	AAnp6x
kinetický	kinetickým	AAms7x
kinetický	kinetickým	AAmp3x
kinetický	kinetickým	AAis7x
kinetický	kinetickým	AAip3x
kinetický	kinetickým	AAfp3x
kinetický	kinetickým	AAns7x
kinetický	kinetickým	AAnp3x
kinetický	kinetickými	AAmp7x
kinetický	kinetickými	AAip7x
kinetický	kinetickými	AAfp7x
kinetický	kinetickými	AAnp7x
kinetika	kinetika	SSfs1
kinetika	kinetika	SSfs5
kinetika	kinetikami	SSfp7
kinetika	kinetike	SSfs3
kinetika	kinetike	SSfs6
kinetika	kinetikou	SSfs7
kinetika	kinetiku	SSfs4
kinetika	kinetiky	SSfs2
kinetika	kinetiky	SSfp1
kinetika	kinetiky	SSfp4
kinetika	kinetiky	SSfp5
kinetika	kinetikách	SSfp6
kinetika	kinetikám	SSfp3
kinetika	kinetík	SSfp2
kingstonský	kingstonskej	AAfs2x
kingstonský	kingstonskej	AAfs3x
kingstonský	kingstonskej	AAfs6x
kingstonský	kingstonskom	AAms6x
kingstonský	kingstonskom	AAis6x
kingstonský	kingstonskom	AAns6x
kingstonský	kingstonskou	AAfs7x
kingstonský	kingstonská	AAfs1x
kingstonský	kingstonská	AAfs5x
kingstonský	kingstonské	AAip1x
kingstonský	kingstonské	AAip4x
kingstonský	kingstonské	AAip5x
kingstonský	kingstonské	AAfp1x
kingstonský	kingstonské	AAfp4x
kingstonský	kingstonské	AAfp5x
kingstonský	kingstonské	AAns1x
kingstonský	kingstonské	AAns4x
kingstonský	kingstonské	AAns5x
kingstonský	kingstonské	AAnp1x
kingstonský	kingstonské	AAnp4x
kingstonský	kingstonské	AAnp5x
kingstonský	kingstonského	AAms2x
kingstonský	kingstonského	AAms4x
kingstonský	kingstonského	AAis2x
kingstonský	kingstonského	AAns2x
kingstonský	kingstonskému	AAms3x
kingstonský	kingstonskému	AAis3x
kingstonský	kingstonskému	AAns3x
kingstonský	kingstonskí	AAmp1x
kingstonský	kingstonskí	AAmp5x
kingstonský	kingstonskú	AAfs4x
kingstonský	kingstonský	AAms1x
kingstonský	kingstonský	AAms5x
kingstonský	kingstonský	AAis1x
kingstonský	kingstonský	AAis4x
kingstonský	kingstonský	AAis5x
kingstonský	kingstonských	AAmp2x
kingstonský	kingstonských	AAmp4x
kingstonský	kingstonských	AAmp6x
kingstonský	kingstonských	AAip2x
kingstonský	kingstonských	AAip6x
kingstonský	kingstonských	AAfp2x
kingstonský	kingstonských	AAfp6x
kingstonský	kingstonských	AAnp2x
kingstonský	kingstonských	AAnp6x
kingstonský	kingstonským	AAms7x
kingstonský	kingstonským	AAmp3x
kingstonský	kingstonským	AAis7x
kingstonský	kingstonským	AAip3x
kingstonský	kingstonským	AAfp3x
kingstonský	kingstonským	AAns7x
kingstonský	kingstonským	AAnp3x
kingstonský	kingstonskými	AAmp7x
kingstonský	kingstonskými	AAip7x
kingstonský	kingstonskými	AAfp7x
kingstonský	kingstonskými	AAnp7x
kingstownský	kingstownskej	AAfs2x
kingstownský	kingstownskej	AAfs3x
kingstownský	kingstownskej	AAfs6x
kingstownský	kingstownskom	AAms6x
kingstownský	kingstownskom	AAis6x
kingstownský	kingstownskom	AAns6x
kingstownský	kingstownskou	AAfs7x
kingstownský	kingstownská	AAfs1x
kingstownský	kingstownská	AAfs5x
kingstownský	kingstownské	AAip1x
kingstownský	kingstownské	AAip4x
kingstownský	kingstownské	AAip5x
kingstownský	kingstownské	AAfp1x
kingstownský	kingstownské	AAfp4x
kingstownský	kingstownské	AAfp5x
kingstownský	kingstownské	AAns1x
kingstownský	kingstownské	AAns4x
kingstownský	kingstownské	AAns5x
kingstownský	kingstownské	AAnp1x
kingstownský	kingstownské	AAnp4x
kingstownský	kingstownské	AAnp5x
kingstownský	kingstownského	AAms2x
kingstownský	kingstownského	AAms4x
kingstownský	kingstownského	AAis2x
kingstownský	kingstownského	AAns2x
kingstownský	kingstownskému	AAms3x
kingstownský	kingstownskému	AAis3x
kingstownský	kingstownskému	AAns3x
kingstownský	kingstownskí	AAmp1x
kingstownský	kingstownskí	AAmp5x
kingstownský	kingstownskú	AAfs4x
kingstownský	kingstownský	AAms1x
kingstownský	kingstownský	AAms5x
kingstownský	kingstownský	AAis1x
kingstownský	kingstownský	AAis4x
kingstownský	kingstownský	AAis5x
kingstownský	kingstownských	AAmp2x
kingstownský	kingstownských	AAmp4x
kingstownský	kingstownských	AAmp6x
kingstownský	kingstownských	AAip2x
kingstownský	kingstownských	AAip6x
kingstownský	kingstownských	AAfp2x
kingstownský	kingstownských	AAfp6x
kingstownský	kingstownských	AAnp2x
kingstownský	kingstownských	AAnp6x
kingstownský	kingstownským	AAms7x
kingstownský	kingstownským	AAmp3x
kingstownský	kingstownským	AAis7x
kingstownský	kingstownským	AAip3x
kingstownský	kingstownským	AAfp3x
kingstownský	kingstownským	AAns7x
kingstownský	kingstownským	AAnp3x
kingstownský	kingstownskými	AAmp7x
kingstownský	kingstownskými	AAip7x
kingstownský	kingstownskými	AAfp7x
kingstownský	kingstownskými	AAnp7x
kino	kino	SSns1
kino	kino	SSns4
kino	kino	SSns5
kinofikačný	kinofikačnej	AAfs2x
kinofikačný	kinofikačnej	AAfs3x
kinofikačný	kinofikačnej	AAfs6x
kinofikačný	kinofikačnom	AAms6x
kinofikačný	kinofikačnom	AAis6x
kinofikačný	kinofikačnom	AAns6x
kinofikačný	kinofikačnou	AAfs7x
kinofikačný	kinofikačná	AAfs1x
kinofikačný	kinofikačná	AAfs5x
kinofikačný	kinofikačné	AAip1x
kinofikačný	kinofikačné	AAip4x
kinofikačný	kinofikačné	AAip5x
kinofikačný	kinofikačné	AAfp1x
kinofikačný	kinofikačné	AAfp4x
kinofikačný	kinofikačné	AAfp5x
kinofikačný	kinofikačné	AAns1x
kinofikačný	kinofikačné	AAns4x
kinofikačný	kinofikačné	AAns5x
kinofikačný	kinofikačné	AAnp1x
kinofikačný	kinofikačné	AAnp4x
kinofikačný	kinofikačné	AAnp5x
kinofikačný	kinofikačného	AAms2x
kinofikačný	kinofikačného	AAms4x
kinofikačný	kinofikačného	AAis2x
kinofikačný	kinofikačného	AAns2x
kinofikačný	kinofikačnému	AAms3x
kinofikačný	kinofikačnému	AAis3x
kinofikačný	kinofikačnému	AAns3x
kinofikačný	kinofikační	AAmp1x
kinofikačný	kinofikační	AAmp5x
kinofikačný	kinofikačnú	AAfs4x
kinofikačný	kinofikačný	AAms1x
kinofikačný	kinofikačný	AAms5x
kinofikačný	kinofikačný	AAis1x
kinofikačný	kinofikačný	AAis4x
kinofikačný	kinofikačný	AAis5x
kinofikačný	kinofikačných	AAmp2x
kinofikačný	kinofikačných	AAmp4x
kinofikačný	kinofikačných	AAmp6x
kinofikačný	kinofikačných	AAip2x
kinofikačný	kinofikačných	AAip6x
kinofikačný	kinofikačných	AAfp2x
kinofikačný	kinofikačných	AAfp6x
kinofikačný	kinofikačných	AAnp2x
kinofikačný	kinofikačných	AAnp6x
kinofikačný	kinofikačným	AAms7x
kinofikačný	kinofikačným	AAmp3x
kinofikačný	kinofikačným	AAis7x
kinofikačný	kinofikačným	AAip3x
kinofikačný	kinofikačným	AAfp3x
kinofikačný	kinofikačným	AAns7x
kinofikačný	kinofikačným	AAnp3x
kinofikačný	kinofikačnými	AAmp7x
kinofikačný	kinofikačnými	AAip7x
kinofikačný	kinofikačnými	AAfp7x
kinofikačný	kinofikačnými	AAnp7x
kinofikácia	kinofikácia	SSfs1
kinofikácia	kinofikácia	SSfs5
kinofikácia	kinofikáciami	SSfp7
kinofikácia	kinofikácie	SSfs2
kinofikácia	kinofikácie	SSfp1
kinofikácia	kinofikácie	SSfp4
kinofikácia	kinofikácie	SSfp5
kinofikácia	kinofikácii	SSfs3
kinofikácia	kinofikácii	SSfs6
kinofikácia	kinofikáciou	SSfs7
kinofikácia	kinofikáciu	SSfs4
kinofikácia	kinofikáciách	SSfp6
kinofikácia	kinofikáciám	SSfp3
kinofikácia	kinofikácií	SSfp2
kinofilm	kinofilm	SSis1
kinofilm	kinofilm	SSis4
kinofilm	kinofilm	SSis5
kinofilm	kinofilmami	SSip7
kinofilm	kinofilme	SSis6
kinofilm	kinofilmoch	SSip6
kinofilm	kinofilmom	SSis7
kinofilm	kinofilmom	SSip3
kinofilm	kinofilmov	SSip2
kinofilm	kinofilmu	SSis2
kinofilm	kinofilmu	SSis3
kinofilm	kinofilmy	SSip1
kinofilm	kinofilmy	SSip4
kinofilm	kinofilmy	SSip5
kino	kinom	SSns7
kinooperatér	kinooperatér	SSms1
kinooperatér	kinooperatér	SSms5
kinooperatér	kinooperatéra	SSms2
kinooperatér	kinooperatéra	SSms4
kinooperatér	kinooperatéri	SSmp1
kinooperatér	kinooperatéri	SSmp5
kinooperatér	kinooperatérmi	SSmp7
kinooperatér	kinooperatéroch	SSmp6
kinooperatér	kinooperatérom	SSms7
kinooperatér	kinooperatérom	SSmp3
kinooperatér	kinooperatérov	SSmp2
kinooperatér	kinooperatérov	SSmp4
kinooperatér	kinooperatérovi	SSms3
kinooperatér	kinooperatérovi	SSms6
kinooperatérsky	kinooperatérska	AAfs1x
kinooperatérsky	kinooperatérska	AAfs5x
kinooperatérsky	kinooperatérske	AAip1x
kinooperatérsky	kinooperatérske	AAip4x
kinooperatérsky	kinooperatérske	AAip5x
kinooperatérsky	kinooperatérske	AAfp1x
kinooperatérsky	kinooperatérske	AAfp4x
kinooperatérsky	kinooperatérske	AAfp5x
kinooperatérsky	kinooperatérske	AAns1x
kinooperatérsky	kinooperatérske	AAns4x
kinooperatérsky	kinooperatérske	AAns5x
kinooperatérsky	kinooperatérske	AAnp1x
kinooperatérsky	kinooperatérske	AAnp4x
kinooperatérsky	kinooperatérske	AAnp5x
kinooperatérsky	kinooperatérskeho	AAms2x
kinooperatérsky	kinooperatérskeho	AAms4x
kinooperatérsky	kinooperatérskeho	AAis2x
kinooperatérsky	kinooperatérskeho	AAns2x
kinooperatérsky	kinooperatérskej	AAfs2x
kinooperatérsky	kinooperatérskej	AAfs3x
kinooperatérsky	kinooperatérskej	AAfs6x
kinooperatérsky	kinooperatérskemu	AAms3x
kinooperatérsky	kinooperatérskemu	AAis3x
kinooperatérsky	kinooperatérskemu	AAns3x
kinooperatérsky	kinooperatérski	AAmp1x
kinooperatérsky	kinooperatérski	AAmp5x
kinooperatérsky	kinooperatérskom	AAms6x
kinooperatérsky	kinooperatérskom	AAis6x
kinooperatérsky	kinooperatérskom	AAns6x
kinooperatérsky	kinooperatérskou	AAfs7x
kinooperatérsky	kinooperatérsku	AAfs4x
kinooperatérsky	kinooperatérsky	AAms1x
kinooperatérsky	kinooperatérsky	AAms5x
kinooperatérsky	kinooperatérsky	AAis1x
kinooperatérsky	kinooperatérsky	AAis4x
kinooperatérsky	kinooperatérsky	AAis5x
kinooperatérsky	kinooperatérskych	AAmp2x
kinooperatérsky	kinooperatérskych	AAmp4x
kinooperatérsky	kinooperatérskych	AAmp6x
kinooperatérsky	kinooperatérskych	AAip2x
kinooperatérsky	kinooperatérskych	AAip6x
kinooperatérsky	kinooperatérskych	AAfp2x
kinooperatérsky	kinooperatérskych	AAfp6x
kinooperatérsky	kinooperatérskych	AAnp2x
kinooperatérsky	kinooperatérskych	AAnp6x
kinooperatérsky	kinooperatérskym	AAms7x
kinooperatérsky	kinooperatérskym	AAmp3x
kinooperatérsky	kinooperatérskym	AAis7x
kinooperatérsky	kinooperatérskym	AAip3x
kinooperatérsky	kinooperatérskym	AAfp3x
kinooperatérsky	kinooperatérskym	AAns7x
kinooperatérsky	kinooperatérskym	AAnp3x
kinooperatérsky	kinooperatérskymi	AAmp7x
kinooperatérsky	kinooperatérskymi	AAip7x
kinooperatérsky	kinooperatérskymi	AAfp7x
kinooperatérsky	kinooperatérskymi	AAnp7x
kinosála	kinosál	SSfp2
kinosála	kinosála	SSfs1
kinosála	kinosála	SSfs5
kinosála	kinosálach	SSfp6
kinosála	kinosálam	SSfp3
kinosála	kinosálami	SSfp7
kinosála	kinosále	SSfs3
kinosála	kinosále	SSfs6
kinosála	kinosálou	SSfs7
kinosála	kinosálu	SSfs4
kinosála	kinosály	SSfs2
kinosála	kinosály	SSfp1
kinosála	kinosály	SSfp4
kinosála	kinosály	SSfp5
kinshaský	kinshaskej	AAfs2x
kinshaský	kinshaskej	AAfs3x
kinshaský	kinshaskej	AAfs6x
kinshaský	kinshaskom	AAms6x
kinshaský	kinshaskom	AAis6x
kinshaský	kinshaskom	AAns6x
kinshaský	kinshaskou	AAfs7x
kinshaský	kinshaská	AAfs1x
kinshaský	kinshaská	AAfs5x
kinshaský	kinshaské	AAip1x
kinshaský	kinshaské	AAip4x
kinshaský	kinshaské	AAip5x
kinshaský	kinshaské	AAfp1x
kinshaský	kinshaské	AAfp4x
kinshaský	kinshaské	AAfp5x
kinshaský	kinshaské	AAns1x
kinshaský	kinshaské	AAns4x
kinshaský	kinshaské	AAns5x
kinshaský	kinshaské	AAnp1x
kinshaský	kinshaské	AAnp4x
kinshaský	kinshaské	AAnp5x
kinshaský	kinshaského	AAms2x
kinshaský	kinshaského	AAms4x
kinshaský	kinshaského	AAis2x
kinshaský	kinshaského	AAns2x
kinshaský	kinshaskému	AAms3x
kinshaský	kinshaskému	AAis3x
kinshaský	kinshaskému	AAns3x
kinshaský	kinshaskí	AAmp1x
kinshaský	kinshaskí	AAmp5x
kinshaský	kinshaskú	AAfs4x
kinshaský	kinshaský	AAms1x
kinshaský	kinshaský	AAms5x
kinshaský	kinshaský	AAis1x
kinshaský	kinshaský	AAis4x
kinshaský	kinshaský	AAis5x
kinshaský	kinshaských	AAmp2x
kinshaský	kinshaských	AAmp4x
kinshaský	kinshaských	AAmp6x
kinshaský	kinshaských	AAip2x
kinshaský	kinshaských	AAip6x
kinshaský	kinshaských	AAfp2x
kinshaský	kinshaských	AAfp6x
kinshaský	kinshaských	AAnp2x
kinshaský	kinshaských	AAnp6x
kinshaský	kinshaským	AAms7x
kinshaský	kinshaským	AAmp3x
kinshaský	kinshaským	AAis7x
kinshaský	kinshaským	AAip3x
kinshaský	kinshaským	AAfp3x
kinshaský	kinshaským	AAns7x
kinshaský	kinshaským	AAnp3x
kinshaský	kinshaskými	AAmp7x
kinshaský	kinshaskými	AAip7x
kinshaský	kinshaskými	AAfp7x
kinshaský	kinshaskými	AAnp7x
kino	kinu	SSns3
kino	kiná	SSnp1
kino	kiná	SSnp4
kino	kiná	SSnp5
kino	kinách	SSnp6
kino	kinám	SSnp3
kiosk	kiosk	SSis1
kiosk	kiosk	SSis4
kiosk	kiosk	SSis5
kiosk	kioskmi	SSip7
kiosk	kioskoch	SSip6
kiosk	kioskom	SSis7
kiosk	kioskom	SSip3
kiosk	kioskov	SSip2
kiosk	kiosku	SSis2
kiosk	kiosku	SSis3
kiosk	kiosku	SSis6
kiosk	kiosky	SSip1
kiosk	kiosky	SSip4
kiosk	kiosky	SSip5
kirgiz	kirgiz	W
kirgizský	kirgizskej	AAfs2x
kirgizský	kirgizskej	AAfs3x
kirgizský	kirgizskej	AAfs6x
kirgizský	kirgizskom	AAms6x
kirgizský	kirgizskom	AAis6x
kirgizský	kirgizskom	AAns6x
kirgizský	kirgizskou	AAfs7x
kirgizsky	kirgizsky	Dx
kirgizský	kirgizská	AAfs1x
kirgizský	kirgizská	AAfs5x
kirgizský	kirgizské	AAip1x
kirgizský	kirgizské	AAip4x
kirgizský	kirgizské	AAip5x
kirgizský	kirgizské	AAfp1x
kirgizský	kirgizské	AAfp4x
kirgizský	kirgizské	AAfp5x
kirgizský	kirgizské	AAns1x
kirgizský	kirgizské	AAns4x
kirgizský	kirgizské	AAns5x
kirgizský	kirgizské	AAnp1x
kirgizský	kirgizské	AAnp4x
kirgizský	kirgizské	AAnp5x
kirgizský	kirgizského	AAms2x
kirgizský	kirgizského	AAms4x
kirgizský	kirgizského	AAis2x
kirgizský	kirgizského	AAns2x
kirgizský	kirgizskému	AAms3x
kirgizský	kirgizskému	AAis3x
kirgizský	kirgizskému	AAns3x
kirgizský	kirgizskí	AAmp1x
kirgizský	kirgizskí	AAmp5x
kirgizský	kirgizskú	AAfs4x
kirgizský	kirgizský	AAms1x
kirgizský	kirgizský	AAms5x
kirgizský	kirgizský	AAis1x
kirgizský	kirgizský	AAis4x
kirgizský	kirgizský	AAis5x
kirgizský	kirgizských	AAmp2x
kirgizský	kirgizských	AAmp4x
kirgizský	kirgizských	AAmp6x
kirgizský	kirgizských	AAip2x
kirgizský	kirgizských	AAip6x
kirgizský	kirgizských	AAfp2x
kirgizský	kirgizských	AAfp6x
kirgizský	kirgizských	AAnp2x
kirgizský	kirgizských	AAnp6x
kirgizský	kirgizským	AAms7x
kirgizský	kirgizským	AAmp3x
kirgizský	kirgizským	AAis7x
kirgizský	kirgizským	AAip3x
kirgizský	kirgizským	AAfp3x
kirgizský	kirgizským	AAns7x
kirgizský	kirgizským	AAnp3x
kirgizský	kirgizskými	AAmp7x
kirgizský	kirgizskými	AAip7x
kirgizský	kirgizskými	AAfp7x
kirgizský	kirgizskými	AAnp7x
kiribatský	kiribatskej	AAfs2x
kiribatský	kiribatskej	AAfs3x
kiribatský	kiribatskej	AAfs6x
kiribatský	kiribatskom	AAms6x
kiribatský	kiribatskom	AAis6x
kiribatský	kiribatskom	AAns6x
kiribatský	kiribatskou	AAfs7x
kiribatský	kiribatská	AAfs1x
kiribatský	kiribatská	AAfs5x
kiribatský	kiribatské	AAip1x
kiribatský	kiribatské	AAip4x
kiribatský	kiribatské	AAip5x
kiribatský	kiribatské	AAfp1x
kiribatský	kiribatské	AAfp4x
kiribatský	kiribatské	AAfp5x
kiribatský	kiribatské	AAns1x
kiribatský	kiribatské	AAns4x
kiribatský	kiribatské	AAns5x
kiribatský	kiribatské	AAnp1x
kiribatský	kiribatské	AAnp4x
kiribatský	kiribatské	AAnp5x
kiribatský	kiribatského	AAms2x
kiribatský	kiribatského	AAms4x
kiribatský	kiribatského	AAis2x
kiribatský	kiribatského	AAns2x
kiribatský	kiribatskému	AAms3x
kiribatský	kiribatskému	AAis3x
kiribatský	kiribatskému	AAns3x
kiribatský	kiribatskí	AAmp1x
kiribatský	kiribatskí	AAmp5x
kiribatský	kiribatskú	AAfs4x
kiribatský	kiribatský	AAms1x
kiribatský	kiribatský	AAms5x
kiribatský	kiribatský	AAis1x
kiribatský	kiribatský	AAis4x
kiribatský	kiribatský	AAis5x
kiribatský	kiribatských	AAmp2x
kiribatský	kiribatských	AAmp4x
kiribatský	kiribatských	AAmp6x
kiribatský	kiribatských	AAip2x
kiribatský	kiribatských	AAip6x
kiribatský	kiribatských	AAfp2x
kiribatský	kiribatských	AAfp6x
kiribatský	kiribatských	AAnp2x
kiribatský	kiribatských	AAnp6x
kiribatský	kiribatským	AAms7x
kiribatský	kiribatským	AAmp3x
kiribatský	kiribatským	AAis7x
kiribatský	kiribatským	AAip3x
kiribatský	kiribatským	AAfp3x
kiribatský	kiribatským	AAns7x
kiribatský	kiribatským	AAnp3x
kiribatský	kiribatskými	AAmp7x
kiribatský	kiribatskými	AAip7x
kiribatský	kiribatskými	AAfp7x
kiribatský	kiribatskými	AAnp7x
*kisňa	kisne	SSfs2
*kisňa	kisne	SSfp1
*kisňa	kisne	SSfp4
*kisňa	kisne	SSfp5
*kisňa	kisni	SSfs3
*kisňa	kisni	SSfs6
*kisňa	kisniach	SSfp6
*kisňa	kisniam	SSfp3
*kisnička	kisničiek	SSfp2
*kisnička	kisnička	SSfs1
*kisnička	kisnička	SSfs5
*kisnička	kisničkami	SSfp7
*kisnička	kisničke	SSfs3
*kisnička	kisničke	SSfs6
*kisnička	kisničkou	SSfs7
*kisnička	kisničku	SSfs4
*kisnička	kisničky	SSfs2
*kisnička	kisničky	SSfp1
*kisnička	kisničky	SSfp4
*kisnička	kisničky	SSfp5
*kisnička	kisničkách	SSfp6
*kisnička	kisničkám	SSfp3
*kisňa	kisní	SSfp2
*kisňa	kisňa	SSfs1
*kisňa	kisňa	SSfs5
*kisňa	kisňami	SSfp7
*kisňa	kisňou	SSfs7
*kisňa	kisňu	SSfs4
kiva	kiva	SSfs1
kiva	kiva	SSfs5
kiva	kivami	SSfp7
kiva	kive	SSfs3
kiva	kive	SSfs6
kiví	kivej	AAfs2x
kiví	kivej	AAfs3x
kiví	kivej	AAfs6x
kivi	kivi	SUns1
kivi	kivi	SUns2
kivi	kivi	SUns3
kivi	kivi	SUns4
kivi	kivi	SUns5
kivi	kivi	SUns6
kivi	kivi	SUns7
kivi	kivi	SUnp1
kivi	kivi	SUnp2
kivi	kivi	SUnp3
kivi	kivi	SUnp4
kivi	kivi	SUnp5
kivi	kivi	SUnp6
kivi	kivi	SUnp7
kivi	kivi	SFms1
kivi	kivi	SFms5
kiví	kivia	AAfs1x
kiví	kivia	AAfs5x
kivi	kiviami	SFip7
kiví	kivie	AAip1x
kiví	kivie	AAip4x
kiví	kivie	AAip5x
kiví	kivie	AAfp1x
kiví	kivie	AAfp4x
kiví	kivie	AAfp5x
kiví	kivie	AAns1x
kiví	kivie	AAns4x
kiví	kivie	AAns5x
kiví	kivie	AAnp1x
kiví	kivie	AAnp4x
kiví	kivie	AAnp5x
kiví	kivieho	AAms2x
kiví	kivieho	AAms4x
kiví	kivieho	AAis2x
kiví	kivieho	AAns2x
kiví	kiviemu	AAms3x
kiví	kiviemu	AAis3x
kiví	kiviemu	AAns3x
kivi	kiviho	SFms2
kivi	kiviho	SFms4
kivi	kivim	SFms6
kivi	kivim	SFms7
kivi	kivimu	SFms3
kivi	kivioch	SFip6
kivi	kiviom	SFip3
kivi	kiviov	SFip2
kivi	kiviov	SFip4
kivi	kiviovia	SFip1
kivi	kiviovia	SFip5
kiví	kiviu	AAfs4x
kiví	kivom	AAms6x
kiví	kivom	AAis6x
kiví	kivom	AAns6x
kiva	kivou	SSfs7
kiví	kivou	AAfs7x
kivový	kivovej	AAfs2x
kivový	kivovej	AAfs3x
kivový	kivovej	AAfs6x
kivový	kivovom	AAms6x
kivový	kivovom	AAis6x
kivový	kivovom	AAns6x
kivový	kivovou	AAfs7x
kivový	kivová	AAfs1x
kivový	kivová	AAfs5x
kivový	kivové	AAip1x
kivový	kivové	AAip4x
kivový	kivové	AAip5x
kivový	kivové	AAfp1x
kivový	kivové	AAfp4x
kivový	kivové	AAfp5x
kivový	kivové	AAns1x
kivový	kivové	AAns4x
kivový	kivové	AAns5x
kivový	kivové	AAnp1x
kivový	kivové	AAnp4x
kivový	kivové	AAnp5x
kivový	kivového	AAms2x
kivový	kivového	AAms4x
kivový	kivového	AAis2x
kivový	kivového	AAns2x
kivový	kivovému	AAms3x
kivový	kivovému	AAis3x
kivový	kivovému	AAns3x
kivový	kivoví	AAmp1x
kivový	kivoví	AAmp5x
kivový	kivovú	AAfs4x
kivový	kivový	AAms1x
kivový	kivový	AAms5x
kivový	kivový	AAis1x
kivový	kivový	AAis4x
kivový	kivový	AAis5x
kivový	kivových	AAmp2x
kivový	kivových	AAmp4x
kivový	kivových	AAmp6x
kivový	kivových	AAip2x
kivový	kivových	AAip6x
kivový	kivových	AAfp2x
kivový	kivových	AAfp6x
kivový	kivových	AAnp2x
kivový	kivových	AAnp6x
kivový	kivovým	AAms7x
kivový	kivovým	AAmp3x
kivový	kivovým	AAis7x
kivový	kivovým	AAip3x
kivový	kivovým	AAfp3x
kivový	kivovým	AAns7x
kivový	kivovým	AAnp3x
kivový	kivovými	AAmp7x
kivový	kivovými	AAip7x
kivový	kivovými	AAfp7x
kivový	kivovými	AAnp7x
kiva	kivu	SSfs4
kiva	kivy	SSfs2
kiva	kivy	SSfp1
kiva	kivy	SSfp4
kiva	kivy	SSfp5
kiva	kivách	SSfp6
kiva	kivám	SSfp3
kiví	kiví	AAms1x
kiví	kiví	AAms5x
kiví	kiví	AAmp1x
kiví	kiví	AAmp5x
kiví	kiví	AAis1x
kiví	kiví	AAis4x
kiví	kiví	AAis5x
kiví	kivích	AAmp2x
kiví	kivích	AAmp4x
kiví	kivích	AAmp6x
kiví	kivích	AAip2x
kiví	kivích	AAip6x
kiví	kivích	AAfp2x
kiví	kivích	AAfp6x
kiví	kivích	AAnp2x
kiví	kivích	AAnp6x
kiví	kivím	AAms7x
kiví	kivím	AAmp3x
kiví	kivím	AAis7x
kiví	kivím	AAip3x
kiví	kivím	AAfp3x
kiví	kivím	AAns7x
kiví	kivím	AAnp3x
kiví	kivími	AAmp7x
kiví	kivími	AAip7x
kiví	kivími	AAfp7x
kiví	kivími	AAnp7x
kišasonka	kišasoniek	SSfp2
kišasonka	kišasonka	SSfs1
kišasonka	kišasonka	SSfs5
kišasonka	kišasonkami	SSfp7
kišasonka	kišasonke	SSfs3
kišasonka	kišasonke	SSfs6
kišasonka	kišasonkou	SSfs7
kišasonka	kišasonku	SSfs4
kišasonka	kišasonky	SSfs2
kišasonka	kišasonky	SSfp1
kišasonka	kišasonky	SSfp4
kišasonka	kišasonky	SSfp5
kišasonka	kišasonkách	SSfp6
kišasonka	kišasonkám	SSfp3
kišiňovský	kišiňovskej	AAfs2x
kišiňovský	kišiňovskej	AAfs3x
kišiňovský	kišiňovskej	AAfs6x
kišiňovský	kišiňovskom	AAms6x
kišiňovský	kišiňovskom	AAis6x
kišiňovský	kišiňovskom	AAns6x
kišiňovský	kišiňovskou	AAfs7x
kišiňovský	kišiňovská	AAfs1x
kišiňovský	kišiňovská	AAfs5x
kišiňovský	kišiňovské	AAip1x
kišiňovský	kišiňovské	AAip4x
kišiňovský	kišiňovské	AAip5x
kišiňovský	kišiňovské	AAfp1x
kišiňovský	kišiňovské	AAfp4x
kišiňovský	kišiňovské	AAfp5x
kišiňovský	kišiňovské	AAns1x
kišiňovský	kišiňovské	AAns4x
kišiňovský	kišiňovské	AAns5x
kišiňovský	kišiňovské	AAnp1x
kišiňovský	kišiňovské	AAnp4x
kišiňovský	kišiňovské	AAnp5x
kišiňovský	kišiňovského	AAms2x
kišiňovský	kišiňovského	AAms4x
kišiňovský	kišiňovského	AAis2x
kišiňovský	kišiňovského	AAns2x
kišiňovský	kišiňovskému	AAms3x
kišiňovský	kišiňovskému	AAis3x
kišiňovský	kišiňovskému	AAns3x
kišiňovský	kišiňovskí	AAmp1x
kišiňovský	kišiňovskí	AAmp5x
kišiňovský	kišiňovskú	AAfs4x
kišiňovský	kišiňovský	AAms1x
kišiňovský	kišiňovský	AAms5x
kišiňovský	kišiňovský	AAis1x
kišiňovský	kišiňovský	AAis4x
kišiňovský	kišiňovský	AAis5x
kišiňovský	kišiňovských	AAmp2x
kišiňovský	kišiňovských	AAmp4x
kišiňovský	kišiňovských	AAmp6x
kišiňovský	kišiňovských	AAip2x
kišiňovský	kišiňovských	AAip6x
kišiňovský	kišiňovských	AAfp2x
kišiňovský	kišiňovských	AAfp6x
kišiňovský	kišiňovských	AAnp2x
kišiňovský	kišiňovských	AAnp6x
kišiňovský	kišiňovským	AAms7x
kišiňovský	kišiňovským	AAmp3x
kišiňovský	kišiňovským	AAis7x
kišiňovský	kišiňovským	AAip3x
kišiňovský	kišiňovským	AAfp3x
kišiňovský	kišiňovským	AAns7x
kišiňovský	kišiňovským	AAnp3x
kišiňovský	kišiňovskými	AAmp7x
kišiňovský	kišiňovskými	AAip7x
kišiňovský	kišiňovskými	AAfp7x
kišiňovský	kišiňovskými	AAnp7x
ký	kí	PAmp1
ký	kí	PAmp5
kilo	kíl	SSnp2
kino	kín	SSnp2
kiva	kív	SSfp2
kýže	kíže	PAmp1
kýže	kíže	PAmp5
