LP	LP	W
ľpieť	ľpej	VMesb+
ľpieť	ľpejme	VMepa+
ľpieť	ľpejte	VMepb+
ľpieť	ľpejú	VKepc+
ľpieť	ľpejúc	VHe+
ľpieť	ľpel	VLesam+
ľpieť	ľpel	VLesai+
ľpieť	ľpel	VLesbm+
ľpieť	ľpel	VLesbi+
ľpieť	ľpel	VLescm+
ľpieť	ľpel	VLesci+
ľpieť	ľpela	VLesaf+
ľpieť	ľpela	VLesbf+
ľpieť	ľpela	VLescf+
ľpieť	ľpeli	VLepah+
ľpieť	ľpeli	VLepbh+
ľpieť	ľpeli	VLepcm+
ľpieť	ľpeli	VLepci+
ľpieť	ľpeli	VLepcf+
ľpieť	ľpeli	VLepcn+
ľpieť	ľpeli	VLepco+
ľpieť	ľpelo	VLesan+
ľpieť	ľpelo	VLesbn+
ľpieť	ľpelo	VLescn+
ľpieť	ľpie	VKesc+
ľpieť	ľpiem	VKesa+
ľpieť	ľpieme	VKepa+
ľpieť	ľpiete	VKepb+
ľpieť	ľpieš	VKesb+
ľpieť	ľpieť	VIe+
