LS	LS	W
LSD	LSD	W
ĽS	ĽS	W
lesť	ľsti	SSfs2
lesť	ľsti	SSfs3
lesť	ľsti	SSfs6
lesť	ľsti	SSfp1
lesť	ľsti	SSfp4
lesť	ľsti	SSfp5
lesť	ľstiach	SSfp6
lesť	ľstiam	SSfp3
ľstivý	ľstivej	AAfs2x
ľstivý	ľstivej	AAfs3x
ľstivý	ľstivej	AAfs6x
ľstivý	ľstivejšej	AAfs2y
ľstivý	ľstivejšej	AAfs3y
ľstivý	ľstivejšej	AAfs6y
ľstivý	ľstivejšia	AAfs1y
ľstivý	ľstivejšia	AAfs5y
ľstivo	ľstivejšie	Dy
ľstivý	ľstivejšie	AAip1y
ľstivý	ľstivejšie	AAip4y
ľstivý	ľstivejšie	AAip5y
ľstivý	ľstivejšie	AAfp1y
ľstivý	ľstivejšie	AAfp4y
ľstivý	ľstivejšie	AAfp5y
ľstivý	ľstivejšie	AAns1y
ľstivý	ľstivejšie	AAns4y
ľstivý	ľstivejšie	AAns5y
ľstivý	ľstivejšie	AAnp1y
ľstivý	ľstivejšie	AAnp4y
ľstivý	ľstivejšie	AAnp5y
ľstivý	ľstivejšieho	AAms2y
ľstivý	ľstivejšieho	AAms4y
ľstivý	ľstivejšieho	AAis2y
ľstivý	ľstivejšieho	AAns2y
ľstivý	ľstivejšiemu	AAms3y
ľstivý	ľstivejšiemu	AAis3y
ľstivý	ľstivejšiemu	AAns3y
ľstivý	ľstivejšiu	AAfs4y
ľstivý	ľstivejšom	AAms6y
ľstivý	ľstivejšom	AAis6y
ľstivý	ľstivejšom	AAns6y
ľstivý	ľstivejšou	AAfs7y
ľstivý	ľstivejší	AAms1y
ľstivý	ľstivejší	AAms5y
ľstivý	ľstivejší	AAmp1y
ľstivý	ľstivejší	AAmp5y
ľstivý	ľstivejší	AAis1y
ľstivý	ľstivejší	AAis4y
ľstivý	ľstivejší	AAis5y
ľstivý	ľstivejších	AAmp2y
ľstivý	ľstivejších	AAmp4y
ľstivý	ľstivejších	AAmp6y
ľstivý	ľstivejších	AAip2y
ľstivý	ľstivejších	AAip6y
ľstivý	ľstivejších	AAfp2y
ľstivý	ľstivejších	AAfp6y
ľstivý	ľstivejších	AAnp2y
ľstivý	ľstivejších	AAnp6y
ľstivý	ľstivejším	AAms7y
ľstivý	ľstivejším	AAmp3y
ľstivý	ľstivejším	AAis7y
ľstivý	ľstivejším	AAip3y
ľstivý	ľstivejším	AAfp3y
ľstivý	ľstivejším	AAns7y
ľstivý	ľstivejším	AAnp3y
ľstivý	ľstivejšími	AAmp7y
ľstivý	ľstivejšími	AAip7y
ľstivý	ľstivejšími	AAfp7y
ľstivý	ľstivejšími	AAnp7y
ľstivo	ľstivo	Dx
ľstivý	ľstivom	AAms6x
ľstivý	ľstivom	AAis6x
ľstivý	ľstivom	AAns6x
ľstivosť	ľstivosti	SSfs2
ľstivosť	ľstivosti	SSfs3
ľstivosť	ľstivosti	SSfs6
ľstivosť	ľstivosti	SSfp1
ľstivosť	ľstivosti	SSfp4
ľstivosť	ľstivosti	SSfp5
ľstivosť	ľstivostiach	SSfp6
ľstivosť	ľstivostiam	SSfp3
ľstivosť	ľstivostí	SSfp2
ľstivosť	ľstivosť	SSfs1
ľstivosť	ľstivosť	SSfs4
ľstivosť	ľstivosť	SSfs5
ľstivosť	ľstivosťami	SSfp7
ľstivosť	ľstivosťou	SSfs7
ľstivý	ľstivou	AAfs7x
ľstivý	ľstivá	AAfs1x
ľstivý	ľstivá	AAfs5x
ľstivý	ľstivé	AAip1x
ľstivý	ľstivé	AAip4x
ľstivý	ľstivé	AAip5x
ľstivý	ľstivé	AAfp1x
ľstivý	ľstivé	AAfp4x
ľstivý	ľstivé	AAfp5x
ľstivý	ľstivé	AAns1x
ľstivý	ľstivé	AAns4x
ľstivý	ľstivé	AAns5x
ľstivý	ľstivé	AAnp1x
ľstivý	ľstivé	AAnp4x
ľstivý	ľstivé	AAnp5x
ľstivý	ľstivého	AAms2x
ľstivý	ľstivého	AAms4x
ľstivý	ľstivého	AAis2x
ľstivý	ľstivého	AAns2x
ľstivý	ľstivému	AAms3x
ľstivý	ľstivému	AAis3x
ľstivý	ľstivému	AAns3x
ľstivý	ľstiví	AAmp1x
ľstivý	ľstiví	AAmp5x
ľstivý	ľstivú	AAfs4x
ľstivý	ľstivý	AAms1x
ľstivý	ľstivý	AAms5x
ľstivý	ľstivý	AAis1x
ľstivý	ľstivý	AAis4x
ľstivý	ľstivý	AAis5x
ľstivý	ľstivých	AAmp2x
ľstivý	ľstivých	AAmp4x
ľstivý	ľstivých	AAmp6x
ľstivý	ľstivých	AAip2x
ľstivý	ľstivých	AAip6x
ľstivý	ľstivých	AAfp2x
ľstivý	ľstivých	AAfp6x
ľstivý	ľstivých	AAnp2x
ľstivý	ľstivých	AAnp6x
ľstivý	ľstivým	AAms7x
ľstivý	ľstivým	AAmp3x
ľstivý	ľstivým	AAis7x
ľstivý	ľstivým	AAip3x
ľstivý	ľstivým	AAfp3x
ľstivý	ľstivým	AAns7x
ľstivý	ľstivým	AAnp3x
ľstivý	ľstivými	AAmp7x
ľstivý	ľstivými	AAip7x
ľstivý	ľstivými	AAfp7x
ľstivý	ľstivými	AAnp7x
lesť	ľstí	SSfp2
lesť	ľsťami	SSfp7
lesť	ľsťou	SSfs7
