LVL	LVL	W
ľvovský	ľvovskej	AAfs2x
ľvovský	ľvovskej	AAfs3x
ľvovský	ľvovskej	AAfs6x
ľvovský	ľvovskom	AAms6x
ľvovský	ľvovskom	AAis6x
ľvovský	ľvovskom	AAns6x
ľvovský	ľvovskou	AAfs7x
ľvovský	ľvovská	AAfs1x
ľvovský	ľvovská	AAfs5x
ľvovský	ľvovské	AAip1x
ľvovský	ľvovské	AAip4x
ľvovský	ľvovské	AAip5x
ľvovský	ľvovské	AAfp1x
ľvovský	ľvovské	AAfp4x
ľvovský	ľvovské	AAfp5x
ľvovský	ľvovské	AAns1x
ľvovský	ľvovské	AAns4x
ľvovský	ľvovské	AAns5x
ľvovský	ľvovské	AAnp1x
ľvovský	ľvovské	AAnp4x
ľvovský	ľvovské	AAnp5x
ľvovský	ľvovského	AAms2x
ľvovský	ľvovského	AAms4x
ľvovský	ľvovského	AAis2x
ľvovský	ľvovského	AAns2x
ľvovský	ľvovskému	AAms3x
ľvovský	ľvovskému	AAis3x
ľvovský	ľvovskému	AAns3x
ľvovský	ľvovskí	AAmp1x
ľvovský	ľvovskí	AAmp5x
ľvovský	ľvovskú	AAfs4x
ľvovský	ľvovský	AAms1x
ľvovský	ľvovský	AAms5x
ľvovský	ľvovský	AAis1x
ľvovský	ľvovský	AAis4x
ľvovský	ľvovský	AAis5x
ľvovský	ľvovských	AAmp2x
ľvovský	ľvovských	AAmp4x
ľvovský	ľvovských	AAmp6x
ľvovský	ľvovských	AAip2x
ľvovský	ľvovských	AAip6x
ľvovský	ľvovských	AAfp2x
ľvovský	ľvovských	AAfp6x
ľvovský	ľvovských	AAnp2x
ľvovský	ľvovských	AAnp6x
ľvovský	ľvovským	AAms7x
ľvovský	ľvovským	AAmp3x
ľvovský	ľvovským	AAis7x
ľvovský	ľvovským	AAip3x
ľvovský	ľvovským	AAfp3x
ľvovský	ľvovským	AAns7x
ľvovský	ľvovským	AAnp3x
ľvovský	ľvovskými	AAmp7x
ľvovský	ľvovskými	AAip7x
ľvovský	ľvovskými	AAfp7x
ľvovský	ľvovskými	AAnp7x
