Lýdia	Lýdia	SSfs1
Lýdia	Lýdia	SSfs5
Lýdia	Lýdiami	SSfp7
Lýdia	Lýdie	SSfs2
Lýdia	Lýdie	SSfp1
Lýdia	Lýdie	SSfp4
Lýdia	Lýdie	SSfp5
Lýdia	Lýdii	SSfs3
Lýdia	Lýdii	SSfs6
Lýdia	Lýdiou	SSfs7
Lýdia	Lýdiu	SSfs4
Lýdia	Lýdiách	SSfp6
Lýdia	Lýdiám	SSfp3
Lýdia	Lýdií	SSfp2
lyceálny	lyceálna	AAfs1x
lyceálny	lyceálna	AAfs5x
lyceálny	lyceálne	AAip1x
lyceálny	lyceálne	AAip4x
lyceálny	lyceálne	AAip5x
lyceálny	lyceálne	AAfp1x
lyceálny	lyceálne	AAfp4x
lyceálny	lyceálne	AAfp5x
lyceálny	lyceálne	AAns1x
lyceálny	lyceálne	AAns4x
lyceálny	lyceálne	AAns5x
lyceálny	lyceálne	AAnp1x
lyceálny	lyceálne	AAnp4x
lyceálny	lyceálne	AAnp5x
lyceálny	lyceálneho	AAms2x
lyceálny	lyceálneho	AAms4x
lyceálny	lyceálneho	AAis2x
lyceálny	lyceálneho	AAns2x
lyceálny	lyceálnej	AAfs2x
lyceálny	lyceálnej	AAfs3x
lyceálny	lyceálnej	AAfs6x
lyceálny	lyceálnemu	AAms3x
lyceálny	lyceálnemu	AAis3x
lyceálny	lyceálnemu	AAns3x
lyceálny	lyceálni	AAmp1x
lyceálny	lyceálni	AAmp5x
lyceálny	lyceálnom	AAms6x
lyceálny	lyceálnom	AAis6x
lyceálny	lyceálnom	AAns6x
lyceálny	lyceálnou	AAfs7x
lyceálny	lyceálnu	AAfs4x
lyceálny	lyceálny	AAms1x
lyceálny	lyceálny	AAms5x
lyceálny	lyceálny	AAis1x
lyceálny	lyceálny	AAis4x
lyceálny	lyceálny	AAis5x
lyceálny	lyceálnych	AAmp2x
lyceálny	lyceálnych	AAmp4x
lyceálny	lyceálnych	AAmp6x
lyceálny	lyceálnych	AAip2x
lyceálny	lyceálnych	AAip6x
lyceálny	lyceálnych	AAfp2x
lyceálny	lyceálnych	AAfp6x
lyceálny	lyceálnych	AAnp2x
lyceálny	lyceálnych	AAnp6x
lyceálny	lyceálnym	AAms7x
lyceálny	lyceálnym	AAmp3x
lyceálny	lyceálnym	AAis7x
lyceálny	lyceálnym	AAip3x
lyceálny	lyceálnym	AAfp3x
lyceálny	lyceálnym	AAns7x
lyceálny	lyceálnym	AAnp3x
lyceálny	lyceálnymi	AAmp7x
lyceálny	lyceálnymi	AAip7x
lyceálny	lyceálnymi	AAfp7x
lyceálny	lyceálnymi	AAnp7x
lyko	lyka	SSns2
lyko	lykami	SSnp7
lyko	lyko	SSns1
lyko	lyko	SSns4
lyko	lyko	SSns5
lyko	lykom	SSns7
lykovec	lykovca	SSis2
lykovec	lykovcami	SSip7
lykovec	lykovce	SSip1
lykovec	lykovce	SSip4
lykovec	lykovce	SSip5
lykovec	lykovci	SSis6
lykovec	lykovcoch	SSip6
lykovec	lykovcom	SSis7
lykovec	lykovcom	SSip3
lykovec	lykovcov	SSip2
lykovec	lykovcu	SSis3
lykovec	lykovec	SSis1
lykovec	lykovec	SSis4
lykovec	lykovec	SSis5
lykový	lykovej	AAfs2x
lykový	lykovej	AAfs3x
lykový	lykovej	AAfs6x
lykový	lykovom	AAms6x
lykový	lykovom	AAis6x
lykový	lykovom	AAns6x
lykový	lykovou	AAfs7x
lykový	lyková	AAfs1x
lykový	lyková	AAfs5x
lykový	lykové	AAip1x
lykový	lykové	AAip4x
lykový	lykové	AAip5x
lykový	lykové	AAfp1x
lykový	lykové	AAfp4x
lykový	lykové	AAfp5x
lykový	lykové	AAns1x
lykový	lykové	AAns4x
lykový	lykové	AAns5x
lykový	lykové	AAnp1x
lykový	lykové	AAnp4x
lykový	lykové	AAnp5x
lykový	lykového	AAms2x
lykový	lykového	AAms4x
lykový	lykového	AAis2x
lykový	lykového	AAns2x
lykový	lykovému	AAms3x
lykový	lykovému	AAis3x
lykový	lykovému	AAns3x
lykový	lykoví	AAmp1x
lykový	lykoví	AAmp5x
lykový	lykovú	AAfs4x
lykový	lykový	AAms1x
lykový	lykový	AAms5x
lykový	lykový	AAis1x
lykový	lykový	AAis4x
lykový	lykový	AAis5x
lykový	lykových	AAmp2x
lykový	lykových	AAmp4x
lykový	lykových	AAmp6x
lykový	lykových	AAip2x
lykový	lykových	AAip6x
lykový	lykových	AAfp2x
lykový	lykových	AAfp6x
lykový	lykových	AAnp2x
lykový	lykových	AAnp6x
lykový	lykovým	AAms7x
lykový	lykovým	AAmp3x
lykový	lykovým	AAis7x
lykový	lykovým	AAip3x
lykový	lykovým	AAfp3x
lykový	lykovým	AAns7x
lykový	lykovým	AAnp3x
lykový	lykovými	AAmp7x
lykový	lykovými	AAip7x
lykový	lykovými	AAfp7x
lykový	lykovými	AAnp7x
lykožrút	lykožrút	SSms1
lykožrút	lykožrút	SSms5
lykožrút	lykožrúta	SSms2
lykožrút	lykožrúta	SSms4
lykožrútí	lykožrútej	AAfs2x
lykožrútí	lykožrútej	AAfs3x
lykožrútí	lykožrútej	AAfs6x
lykožrút	lykožrúti	SSmp1
lykožrút	lykožrúti	SSmp5
lykožrútí	lykožrútia	AAfs1x
lykožrútí	lykožrútia	AAfs5x
lykožrútí	lykožrútie	AAip1x
lykožrútí	lykožrútie	AAip4x
lykožrútí	lykožrútie	AAip5x
lykožrútí	lykožrútie	AAfp1x
lykožrútí	lykožrútie	AAfp4x
lykožrútí	lykožrútie	AAfp5x
lykožrútí	lykožrútie	AAns1x
lykožrútí	lykožrútie	AAns4x
lykožrútí	lykožrútie	AAns5x
lykožrútí	lykožrútie	AAnp1x
lykožrútí	lykožrútie	AAnp4x
lykožrútí	lykožrútie	AAnp5x
lykožrútí	lykožrútieho	AAms2x
lykožrútí	lykožrútieho	AAms4x
lykožrútí	lykožrútieho	AAis2x
lykožrútí	lykožrútieho	AAns2x
lykožrútí	lykožrútiemu	AAms3x
lykožrútí	lykožrútiemu	AAis3x
lykožrútí	lykožrútiemu	AAns3x
lykožrútí	lykožrútiu	AAfs4x
lykožrút	lykožrútmi	SSmp7
lykožrút	lykožrútmi	SSip7
lykožrút	lykožrútoch	SSmp6
lykožrút	lykožrútoch	SSip6
lykožrút	lykožrútom	SSms7
lykožrút	lykožrútom	SSmp3
lykožrút	lykožrútom	SSip3
lykožrút	lykožrútov	SSmp2
lykožrút	lykožrútov	SSmp4
lykožrút	lykožrútov	SSip2
lykožrút	lykožrútovi	SSms3
lykožrút	lykožrútovi	SSms6
lykožrút	lykožrúty	SSip1
lykožrút	lykožrúty	SSip4
lykožrút	lykožrúty	SSip5
lykožrútí	lykožrútí	AAms1x
lykožrútí	lykožrútí	AAms5x
lykožrútí	lykožrútí	AAmp1x
lykožrútí	lykožrútí	AAmp5x
lykožrútí	lykožrútí	AAis1x
lykožrútí	lykožrútí	AAis4x
lykožrútí	lykožrútí	AAis5x
lykožrútí	lykožrútích	AAmp2x
lykožrútí	lykožrútích	AAmp4x
lykožrútí	lykožrútích	AAmp6x
lykožrútí	lykožrútích	AAip2x
lykožrútí	lykožrútích	AAip6x
lykožrútí	lykožrútích	AAfp2x
lykožrútí	lykožrútích	AAfp6x
lykožrútí	lykožrútích	AAnp2x
lykožrútí	lykožrútích	AAnp6x
lykožrútí	lykožrútím	AAms7x
lykožrútí	lykožrútím	AAmp3x
lykožrútí	lykožrútím	AAis7x
lykožrútí	lykožrútím	AAip3x
lykožrútí	lykožrútím	AAfp3x
lykožrútí	lykožrútím	AAns7x
lykožrútí	lykožrútím	AAnp3x
lykožrútí	lykožrútími	AAmp7x
lykožrútí	lykožrútími	AAip7x
lykožrútí	lykožrútími	AAfp7x
lykožrútí	lykožrútími	AAnp7x
lykožrútí	lykožrúťom	AAms6x
lykožrútí	lykožrúťom	AAis6x
lykožrútí	lykožrúťom	AAns6x
lykožrútí	lykožrúťou	AAfs7x
lyko	lyku	SSns3
lyko	lyku	SSns6
lyko	lyká	SSnp1
lyko	lyká	SSnp4
lyko	lyká	SSnp5
lyko	lykách	SSnp6
lyko	lykám	SSnp3
lymfa	lymfa	SSfs1
lymfa	lymfa	SSfs5
lymfa	lymfami	SSfp7
lymfatický	lymfatickej	AAfs2x
lymfatický	lymfatickej	AAfs3x
lymfatický	lymfatickej	AAfs6x
lymfatický	lymfatickom	AAms6x
lymfatický	lymfatickom	AAis6x
lymfatický	lymfatickom	AAns6x
lymfatický	lymfatickou	AAfs7x
lymfatický	lymfatická	AAfs1x
lymfatický	lymfatická	AAfs5x
lymfatický	lymfatické	AAip1x
lymfatický	lymfatické	AAip4x
lymfatický	lymfatické	AAip5x
lymfatický	lymfatické	AAfp1x
lymfatický	lymfatické	AAfp4x
lymfatický	lymfatické	AAfp5x
lymfatický	lymfatické	AAns1x
lymfatický	lymfatické	AAns4x
lymfatický	lymfatické	AAns5x
lymfatický	lymfatické	AAnp1x
lymfatický	lymfatické	AAnp4x
lymfatický	lymfatické	AAnp5x
lymfatický	lymfatického	AAms2x
lymfatický	lymfatického	AAms4x
lymfatický	lymfatického	AAis2x
lymfatický	lymfatického	AAns2x
lymfatický	lymfatickému	AAms3x
lymfatický	lymfatickému	AAis3x
lymfatický	lymfatickému	AAns3x
lymfatický	lymfatickí	AAmp1x
lymfatický	lymfatickí	AAmp5x
lymfatický	lymfatickú	AAfs4x
lymfatický	lymfatický	AAms1x
lymfatický	lymfatický	AAms5x
lymfatický	lymfatický	AAis1x
lymfatický	lymfatický	AAis4x
lymfatický	lymfatický	AAis5x
lymfatický	lymfatických	AAmp2x
lymfatický	lymfatických	AAmp4x
lymfatický	lymfatických	AAmp6x
lymfatický	lymfatických	AAip2x
lymfatický	lymfatických	AAip6x
lymfatický	lymfatických	AAfp2x
lymfatický	lymfatických	AAfp6x
lymfatický	lymfatických	AAnp2x
lymfatický	lymfatických	AAnp6x
lymfatický	lymfatickým	AAms7x
lymfatický	lymfatickým	AAmp3x
lymfatický	lymfatickým	AAis7x
lymfatický	lymfatickým	AAip3x
lymfatický	lymfatickým	AAfp3x
lymfatický	lymfatickým	AAns7x
lymfatický	lymfatickým	AAnp3x
lymfatický	lymfatickými	AAmp7x
lymfatický	lymfatickými	AAip7x
lymfatický	lymfatickými	AAfp7x
lymfatický	lymfatickými	AAnp7x
lymfa	lymfe	SSfs3
lymfa	lymfe	SSfs6
lymfa	lymfou	SSfs7
lymfa	lymfu	SSfs4
lymfa	lymfy	SSfs2
lymfa	lymfy	SSfp1
lymfa	lymfy	SSfp4
lymfa	lymfy	SSfp5
lymfa	lymfách	SSfp6
lymfa	lymfám	SSfp3
lynč	lynč	SSis1
lynč	lynč	SSis4
lynč	lynč	SSis5
lynč	lynče	SSip1
lynč	lynče	SSip4
lynč	lynče	SSip5
lynč	lynči	SSis6
lynč	lynčmi	SSip7
lynč	lynčoch	SSip6
lynč	lynčom	SSis7
lynč	lynčom	SSip3
lynč	lynčov	SSip2
lynčovať	lynčoval	VLjsam+
lynčovať	lynčoval	VLjsai+
lynčovať	lynčoval	VLjsbm+
lynčovať	lynčoval	VLjsbi+
lynčovať	lynčoval	VLjscm+
lynčovať	lynčoval	VLjsci+
lynčovať	lynčovala	VLjsaf+
lynčovať	lynčovala	VLjsbf+
lynčovať	lynčovala	VLjscf+
lynčovať	lynčovali	VLjpah+
lynčovať	lynčovali	VLjpbh+
lynčovať	lynčovali	VLjpcm+
lynčovať	lynčovali	VLjpci+
lynčovať	lynčovali	VLjpcf+
lynčovať	lynčovali	VLjpcn+
lynčovať	lynčovali	VLjpco+
lynčovať	lynčovalo	VLjsan+
lynčovať	lynčovalo	VLjsbn+
lynčovať	lynčovalo	VLjscn+
lynčovať	lynčovať	VIj+
lynč	lynču	SSis2
lynč	lynču	SSis3
lynčovať	lynčuj	VMjsb+
lynčovať	lynčuje	VKjsc+
lynčovať	lynčujem	VKjsa+
lynčovať	lynčujeme	VKjpa+
lynčovať	lynčujete	VKjpb+
lynčovať	lynčuješ	VKjsb+
lynčovať	lynčujme	VMjpa+
lynčovať	lynčujte	VMjpb+
lynčovať	lynčujú	VKjpc+
lynčovať	lynčujúc	VHj+
lyrik	lyrici	SSmp1
lyrik	lyrici	SSmp5
lyrický	lyrickej	AAfs2x
lyrický	lyrickej	AAfs3x
lyrický	lyrickej	AAfs6x
lyrický	lyrickejšej	AAfs2y
lyrický	lyrickejšej	AAfs3y
lyrický	lyrickejšej	AAfs6y
lyrický	lyrickejšia	AAfs1y
lyrický	lyrickejšia	AAfs5y
lyricky	lyrickejšie	Dy
lyrický	lyrickejšie	AAip1y
lyrický	lyrickejšie	AAip4y
lyrický	lyrickejšie	AAip5y
lyrický	lyrickejšie	AAfp1y
lyrický	lyrickejšie	AAfp4y
lyrický	lyrickejšie	AAfp5y
lyrický	lyrickejšie	AAns1y
lyrický	lyrickejšie	AAns4y
lyrický	lyrickejšie	AAns5y
lyrický	lyrickejšie	AAnp1y
lyrický	lyrickejšie	AAnp4y
lyrický	lyrickejšie	AAnp5y
lyrický	lyrickejšieho	AAms2y
lyrický	lyrickejšieho	AAms4y
lyrický	lyrickejšieho	AAis2y
lyrický	lyrickejšieho	AAns2y
lyrický	lyrickejšiemu	AAms3y
lyrický	lyrickejšiemu	AAis3y
lyrický	lyrickejšiemu	AAns3y
lyrický	lyrickejšiu	AAfs4y
lyrický	lyrickejšom	AAms6y
lyrický	lyrickejšom	AAis6y
lyrický	lyrickejšom	AAns6y
lyrický	lyrickejšou	AAfs7y
lyrický	lyrickejší	AAms1y
lyrický	lyrickejší	AAms5y
lyrický	lyrickejší	AAmp1y
lyrický	lyrickejší	AAmp5y
lyrický	lyrickejší	AAis1y
lyrický	lyrickejší	AAis4y
lyrický	lyrickejší	AAis5y
lyrický	lyrickejších	AAmp2y
lyrický	lyrickejších	AAmp4y
lyrický	lyrickejších	AAmp6y
lyrický	lyrickejších	AAip2y
lyrický	lyrickejších	AAip6y
lyrický	lyrickejších	AAfp2y
lyrický	lyrickejších	AAfp6y
lyrický	lyrickejších	AAnp2y
lyrický	lyrickejších	AAnp6y
lyrický	lyrickejším	AAms7y
lyrický	lyrickejším	AAmp3y
lyrický	lyrickejším	AAis7y
lyrický	lyrickejším	AAip3y
lyrický	lyrickejším	AAfp3y
lyrický	lyrickejším	AAns7y
lyrický	lyrickejším	AAnp3y
lyrický	lyrickejšími	AAmp7y
lyrický	lyrickejšími	AAip7y
lyrický	lyrickejšími	AAfp7y
lyrický	lyrickejšími	AAnp7y
lyrickoepický	lyrickoepickej	AAfs2x
lyrickoepický	lyrickoepickej	AAfs3x
lyrickoepický	lyrickoepickej	AAfs6x
lyrickoepický	lyrickoepickom	AAms6x
lyrickoepický	lyrickoepickom	AAis6x
lyrickoepický	lyrickoepickom	AAns6x
lyrickoepický	lyrickoepickou	AAfs7x
lyrickoepický	lyrickoepická	AAfs1x
lyrickoepický	lyrickoepická	AAfs5x
lyrickoepický	lyrickoepické	AAip1x
lyrickoepický	lyrickoepické	AAip4x
lyrickoepický	lyrickoepické	AAip5x
lyrickoepický	lyrickoepické	AAfp1x
lyrickoepický	lyrickoepické	AAfp4x
lyrickoepický	lyrickoepické	AAfp5x
lyrickoepický	lyrickoepické	AAns1x
lyrickoepický	lyrickoepické	AAns4x
lyrickoepický	lyrickoepické	AAns5x
lyrickoepický	lyrickoepické	AAnp1x
lyrickoepický	lyrickoepické	AAnp4x
lyrickoepický	lyrickoepické	AAnp5x
lyrickoepický	lyrickoepického	AAms2x
lyrickoepický	lyrickoepického	AAms4x
lyrickoepický	lyrickoepického	AAis2x
lyrickoepický	lyrickoepického	AAns2x
lyrickoepický	lyrickoepickému	AAms3x
lyrickoepický	lyrickoepickému	AAis3x
lyrickoepický	lyrickoepickému	AAns3x
lyrickoepický	lyrickoepickí	AAmp1x
lyrickoepický	lyrickoepickí	AAmp5x
lyrickoepický	lyrickoepickú	AAfs4x
lyrickoepický	lyrickoepický	AAms1x
lyrickoepický	lyrickoepický	AAms5x
lyrickoepický	lyrickoepický	AAis1x
lyrickoepický	lyrickoepický	AAis4x
lyrickoepický	lyrickoepický	AAis5x
lyrickoepický	lyrickoepických	AAmp2x
lyrickoepický	lyrickoepických	AAmp4x
lyrickoepický	lyrickoepických	AAmp6x
lyrickoepický	lyrickoepických	AAip2x
lyrickoepický	lyrickoepických	AAip6x
lyrickoepický	lyrickoepických	AAfp2x
lyrickoepický	lyrickoepických	AAfp6x
lyrickoepický	lyrickoepických	AAnp2x
lyrickoepický	lyrickoepických	AAnp6x
lyrickoepický	lyrickoepickým	AAms7x
lyrickoepický	lyrickoepickým	AAmp3x
lyrickoepický	lyrickoepickým	AAis7x
lyrickoepický	lyrickoepickým	AAip3x
lyrickoepický	lyrickoepickým	AAfp3x
lyrickoepický	lyrickoepickým	AAns7x
lyrickoepický	lyrickoepickým	AAnp3x
lyrickoepický	lyrickoepickými	AAmp7x
lyrickoepický	lyrickoepickými	AAip7x
lyrickoepický	lyrickoepickými	AAfp7x
lyrickoepický	lyrickoepickými	AAnp7x
lyrický	lyrickom	AAms6x
lyrický	lyrickom	AAis6x
lyrický	lyrickom	AAns6x
lyrickosť	lyrickosti	SSfs2
lyrickosť	lyrickosti	SSfs3
lyrickosť	lyrickosti	SSfs6
lyrickosť	lyrickosti	SSfp1
lyrickosť	lyrickosti	SSfp4
lyrickosť	lyrickosti	SSfp5
lyrickosť	lyrickostiach	SSfp6
lyrickosť	lyrickostiam	SSfp3
lyrickosť	lyrickostí	SSfp2
lyrickosť	lyrickosť	SSfs1
lyrickosť	lyrickosť	SSfs4
lyrickosť	lyrickosť	SSfs5
lyrickosť	lyrickosťami	SSfp7
lyrickosť	lyrickosťou	SSfs7
lyrický	lyrickou	AAfs7x
lyricky	lyricky	Dx
lyrický	lyrická	AAfs1x
lyrický	lyrická	AAfs5x
lyrický	lyrické	AAip1x
lyrický	lyrické	AAip4x
lyrický	lyrické	AAip5x
lyrický	lyrické	AAfp1x
lyrický	lyrické	AAfp4x
lyrický	lyrické	AAfp5x
lyrický	lyrické	AAns1x
lyrický	lyrické	AAns4x
lyrický	lyrické	AAns5x
lyrický	lyrické	AAnp1x
lyrický	lyrické	AAnp4x
lyrický	lyrické	AAnp5x
lyrický	lyrického	AAms2x
lyrický	lyrického	AAms4x
lyrický	lyrického	AAis2x
lyrický	lyrického	AAns2x
lyrický	lyrickému	AAms3x
lyrický	lyrickému	AAis3x
lyrický	lyrickému	AAns3x
lyrický	lyrickí	AAmp1x
lyrický	lyrickí	AAmp5x
lyrický	lyrickú	AAfs4x
lyrický	lyrický	AAms1x
lyrický	lyrický	AAms5x
lyrický	lyrický	AAis1x
lyrický	lyrický	AAis4x
lyrický	lyrický	AAis5x
lyrický	lyrických	AAmp2x
lyrický	lyrických	AAmp4x
lyrický	lyrických	AAmp6x
lyrický	lyrických	AAip2x
lyrický	lyrických	AAip6x
lyrický	lyrických	AAfp2x
lyrický	lyrických	AAfp6x
lyrický	lyrických	AAnp2x
lyrický	lyrických	AAnp6x
lyrický	lyrickým	AAms7x
lyrický	lyrickým	AAmp3x
lyrický	lyrickým	AAis7x
lyrický	lyrickým	AAip3x
lyrický	lyrickým	AAfp3x
lyrický	lyrickým	AAns7x
lyrický	lyrickým	AAnp3x
lyrický	lyrickými	AAmp7x
lyrický	lyrickými	AAip7x
lyrický	lyrickými	AAfp7x
lyrický	lyrickými	AAnp7x
lyrik	lyrik	SSms1
lyrik	lyrik	SSms5
lyrik	lyrika	SSms2
lyrik	lyrika	SSms4
lyrika	lyrika	SSfs1
lyrika	lyrika	SSfs5
lyrika	lyrikami	SSfp7
lyrika	lyrike	SSfs3
lyrika	lyrike	SSfs6
lyrik	lyrikmi	SSmp7
lyrik	lyrikoch	SSmp6
lyrik	lyrikom	SSms7
lyrik	lyrikom	SSmp3
lyrika	lyrikou	SSfs7
lyrik	lyrikov	SSmp2
lyrik	lyrikov	SSmp4
lyrik	lyrikovi	SSms3
lyrik	lyrikovi	SSms6
lyrika	lyriku	SSfs4
lyrika	lyriky	SSfs2
lyrika	lyriky	SSfp1
lyrika	lyriky	SSfp4
lyrika	lyriky	SSfp5
lyrika	lyrikách	SSfp6
lyrika	lyrikám	SSfp3
lyrika	lyrík	SSfp2
lysý	lysej	AAfs2x
lysý	lysej	AAfs3x
lysý	lysej	AAfs6x
lysý	lysejšej	AAfs2y
lysý	lysejšej	AAfs3y
lysý	lysejšej	AAfs6y
lysý	lysejšia	AAfs1y
lysý	lysejšia	AAfs5y
lysý	lysejšie	AAip1y
lysý	lysejšie	AAip4y
lysý	lysejšie	AAip5y
lysý	lysejšie	AAfp1y
lysý	lysejšie	AAfp4y
lysý	lysejšie	AAfp5y
lysý	lysejšie	AAns1y
lysý	lysejšie	AAns4y
lysý	lysejšie	AAns5y
lysý	lysejšie	AAnp1y
lysý	lysejšie	AAnp4y
lysý	lysejšie	AAnp5y
lysý	lysejšieho	AAms2y
lysý	lysejšieho	AAms4y
lysý	lysejšieho	AAis2y
lysý	lysejšieho	AAns2y
lysý	lysejšiemu	AAms3y
lysý	lysejšiemu	AAis3y
lysý	lysejšiemu	AAns3y
lysý	lysejšiu	AAfs4y
lysý	lysejšom	AAms6y
lysý	lysejšom	AAis6y
lysý	lysejšom	AAns6y
lysý	lysejšou	AAfs7y
lysý	lysejší	AAms1y
lysý	lysejší	AAms5y
lysý	lysejší	AAmp1y
lysý	lysejší	AAmp5y
lysý	lysejší	AAis1y
lysý	lysejší	AAis4y
lysý	lysejší	AAis5y
lysý	lysejších	AAmp2y
lysý	lysejších	AAmp4y
lysý	lysejších	AAmp6y
lysý	lysejších	AAip2y
lysý	lysejších	AAip6y
lysý	lysejších	AAfp2y
lysý	lysejších	AAfp6y
lysý	lysejších	AAnp2y
lysý	lysejších	AAnp6y
lysý	lysejším	AAms7y
lysý	lysejším	AAmp3y
lysý	lysejším	AAis7y
lysý	lysejším	AAip3y
lysý	lysejším	AAfp3y
lysý	lysejším	AAns7y
lysý	lysejším	AAnp3y
lysý	lysejšími	AAmp7y
lysý	lysejšími	AAip7y
lysý	lysejšími	AAfp7y
lysý	lysejšími	AAnp7y
lysiansky	lysianska	AAfs1x
lysiansky	lysianska	AAfs5x
lysiansky	lysianske	AAip1x
lysiansky	lysianske	AAip4x
lysiansky	lysianske	AAip5x
lysiansky	lysianske	AAfp1x
lysiansky	lysianske	AAfp4x
lysiansky	lysianske	AAfp5x
lysiansky	lysianske	AAns1x
lysiansky	lysianske	AAns4x
lysiansky	lysianske	AAns5x
lysiansky	lysianske	AAnp1x
lysiansky	lysianske	AAnp4x
lysiansky	lysianske	AAnp5x
lysiansky	lysianskeho	AAms2x
lysiansky	lysianskeho	AAms4x
lysiansky	lysianskeho	AAis2x
lysiansky	lysianskeho	AAns2x
lysiansky	lysianskej	AAfs2x
lysiansky	lysianskej	AAfs3x
lysiansky	lysianskej	AAfs6x
lysiansky	lysianskejšej	AAfs2y
lysiansky	lysianskejšej	AAfs3y
lysiansky	lysianskejšej	AAfs6y
lysiansky	lysianskejšia	AAfs1y
lysiansky	lysianskejšia	AAfs5y
lysiansky	lysianskejšie	AAip1y
lysiansky	lysianskejšie	AAip4y
lysiansky	lysianskejšie	AAip5y
lysiansky	lysianskejšie	AAfp1y
lysiansky	lysianskejšie	AAfp4y
lysiansky	lysianskejšie	AAfp5y
lysiansky	lysianskejšie	AAns1y
lysiansky	lysianskejšie	AAns4y
lysiansky	lysianskejšie	AAns5y
lysiansky	lysianskejšie	AAnp1y
lysiansky	lysianskejšie	AAnp4y
lysiansky	lysianskejšie	AAnp5y
lysiansky	lysianskejšieho	AAms2y
lysiansky	lysianskejšieho	AAms4y
lysiansky	lysianskejšieho	AAis2y
lysiansky	lysianskejšieho	AAns2y
lysiansky	lysianskejšiemu	AAms3y
lysiansky	lysianskejšiemu	AAis3y
lysiansky	lysianskejšiemu	AAns3y
lysiansky	lysianskejšiu	AAfs4y
lysiansky	lysianskejšom	AAms6y
lysiansky	lysianskejšom	AAis6y
lysiansky	lysianskejšom	AAns6y
lysiansky	lysianskejšou	AAfs7y
lysiansky	lysianskejší	AAms1y
lysiansky	lysianskejší	AAms5y
lysiansky	lysianskejší	AAmp1y
lysiansky	lysianskejší	AAmp5y
lysiansky	lysianskejší	AAis1y
lysiansky	lysianskejší	AAis4y
lysiansky	lysianskejší	AAis5y
lysiansky	lysianskejších	AAmp2y
lysiansky	lysianskejších	AAmp4y
lysiansky	lysianskejších	AAmp6y
lysiansky	lysianskejších	AAip2y
lysiansky	lysianskejších	AAip6y
lysiansky	lysianskejších	AAfp2y
lysiansky	lysianskejších	AAfp6y
lysiansky	lysianskejších	AAnp2y
lysiansky	lysianskejších	AAnp6y
lysiansky	lysianskejším	AAms7y
lysiansky	lysianskejším	AAmp3y
lysiansky	lysianskejším	AAis7y
lysiansky	lysianskejším	AAip3y
lysiansky	lysianskejším	AAfp3y
lysiansky	lysianskejším	AAns7y
lysiansky	lysianskejším	AAnp3y
lysiansky	lysianskejšími	AAmp7y
lysiansky	lysianskejšími	AAip7y
lysiansky	lysianskejšími	AAfp7y
lysiansky	lysianskejšími	AAnp7y
lysiansky	lysianskemu	AAms3x
lysiansky	lysianskemu	AAis3x
lysiansky	lysianskemu	AAns3x
lysiansky	lysianski	AAmp1x
lysiansky	lysianski	AAmp5x
lysiansky	lysianskom	AAms6x
lysiansky	lysianskom	AAis6x
lysiansky	lysianskom	AAns6x
lysiansky	lysianskou	AAfs7x
lysiansky	lysiansku	AAfs4x
lysiansky	lysiansky	AAms1x
lysiansky	lysiansky	AAms5x
lysiansky	lysiansky	AAis1x
lysiansky	lysiansky	AAis4x
lysiansky	lysiansky	AAis5x
lysiansky	lysiansky	Dx
lysiansky	lysianskych	AAmp2x
lysiansky	lysianskych	AAmp4x
lysiansky	lysianskych	AAmp6x
lysiansky	lysianskych	AAip2x
lysiansky	lysianskych	AAip6x
lysiansky	lysianskych	AAfp2x
lysiansky	lysianskych	AAfp6x
lysiansky	lysianskych	AAnp2x
lysiansky	lysianskych	AAnp6x
lysiansky	lysianskym	AAms7x
lysiansky	lysianskym	AAmp3x
lysiansky	lysianskym	AAis7x
lysiansky	lysianskym	AAip3x
lysiansky	lysianskym	AAfp3x
lysiansky	lysianskym	AAns7x
lysiansky	lysianskym	AAnp3x
lysiansky	lysianskymi	AAmp7x
lysiansky	lysianskymi	AAip7x
lysiansky	lysianskymi	AAfp7x
lysiansky	lysianskymi	AAnp7x
lysický	lysickej	AAfs2x
lysický	lysickej	AAfs3x
lysický	lysickej	AAfs6x
lysický	lysickom	AAms6x
lysický	lysickom	AAis6x
lysický	lysickom	AAns6x
lysický	lysickou	AAfs7x
lysický	lysická	AAfs1x
lysický	lysická	AAfs5x
lysický	lysické	AAip1x
lysický	lysické	AAip4x
lysický	lysické	AAip5x
lysický	lysické	AAfp1x
lysický	lysické	AAfp4x
lysický	lysické	AAfp5x
lysický	lysické	AAns1x
lysický	lysické	AAns4x
lysický	lysické	AAns5x
lysický	lysické	AAnp1x
lysický	lysické	AAnp4x
lysický	lysické	AAnp5x
lysický	lysického	AAms2x
lysický	lysického	AAms4x
lysický	lysického	AAis2x
lysický	lysického	AAns2x
lysický	lysickému	AAms3x
lysický	lysickému	AAis3x
lysický	lysickému	AAns3x
lysický	lysickí	AAmp1x
lysický	lysickí	AAmp5x
lysický	lysickú	AAfs4x
lysický	lysický	AAms1x
lysický	lysický	AAms5x
lysický	lysický	AAis1x
lysický	lysický	AAis4x
lysický	lysický	AAis5x
lysický	lysických	AAmp2x
lysický	lysických	AAmp4x
lysický	lysických	AAmp6x
lysický	lysických	AAip2x
lysický	lysických	AAip6x
lysický	lysických	AAfp2x
lysický	lysických	AAfp6x
lysický	lysických	AAnp2x
lysický	lysických	AAnp6x
lysický	lysickým	AAms7x
lysický	lysickým	AAmp3x
lysický	lysickým	AAis7x
lysický	lysickým	AAip3x
lysický	lysickým	AAfp3x
lysický	lysickým	AAns7x
lysický	lysickým	AAnp3x
lysický	lysickými	AAmp7x
lysický	lysickými	AAip7x
lysický	lysickými	AAfp7x
lysický	lysickými	AAnp7x
lyska	lysiek	SSfp2
lysina	lysina	SSfs1
lysina	lysina	SSfs5
lysina	lysinami	SSfp7
lysina	lysine	SSfs3
lysina	lysine	SSfs6
lysinka	lysiniek	SSfp2
lysinka	lysinka	SSfs1
lysinka	lysinka	SSfs5
lysinka	lysinkami	SSfp7
lysinka	lysinke	SSfs3
lysinka	lysinke	SSfs6
lysinka	lysinkou	SSfs7
lysinka	lysinku	SSfs4
lysinka	lysinky	SSfs2
lysinka	lysinky	SSfp1
lysinka	lysinky	SSfp4
lysinka	lysinky	SSfp5
lysinka	lysinkách	SSfp6
lysinka	lysinkám	SSfp3
lysina	lysinou	SSfs7
lysina	lysinu	SSfs4
lysina	lysiny	SSfs2
lysina	lysiny	SSfp1
lysina	lysiny	SSfp4
lysina	lysiny	SSfp5
lysina	lysinách	SSfp6
lysina	lysinám	SSfp3
lyska	lyska	SSfs1
lyska	lyska	SSfs5
lyska	lyskami	SSfp7
lyska	lyske	SSfs3
lyska	lyske	SSfs6
lyska	lyskou	SSfs7
lyska	lysku	SSfs4
lyska	lysky	SSfs2
lyska	lysky	SSfp1
lyska	lysky	SSfp4
lyska	lysky	SSfp5
lyska	lyskách	SSfp6
lyska	lyskám	SSfp3
lysý	lysom	AAms6x
lysý	lysom	AAis6x
lysý	lysom	AAns6x
lysý	lysou	AAfs7x
lysý	lysá	AAfs1x
lysý	lysá	AAfs5x
lysý	lysé	AAip1x
lysý	lysé	AAip4x
lysý	lysé	AAip5x
lysý	lysé	AAfp1x
lysý	lysé	AAfp4x
lysý	lysé	AAfp5x
lysý	lysé	AAns1x
lysý	lysé	AAns4x
lysý	lysé	AAns5x
lysý	lysé	AAnp1x
lysý	lysé	AAnp4x
lysý	lysé	AAnp5x
lysý	lysého	AAms2x
lysý	lysého	AAms4x
lysý	lysého	AAis2x
lysý	lysého	AAns2x
lysý	lysému	AAms3x
lysý	lysému	AAis3x
lysý	lysému	AAns3x
lysý	lysí	AAmp1x
lysý	lysí	AAmp5x
lysina	lysín	SSfp2
lysý	lysú	AAfs4x
lysý	lysý	AAms1x
lysý	lysý	AAms5x
lysý	lysý	AAis1x
lysý	lysý	AAis4x
lysý	lysý	AAis5x
lysý	lysých	AAmp2x
lysý	lysých	AAmp4x
lysý	lysých	AAmp6x
lysý	lysých	AAip2x
lysý	lysých	AAip6x
lysý	lysých	AAfp2x
lysý	lysých	AAfp6x
lysý	lysých	AAnp2x
lysý	lysých	AAnp6x
lysý	lysým	AAms7x
lysý	lysým	AAmp3x
lysý	lysým	AAis7x
lysý	lysým	AAip3x
lysý	lysým	AAfp3x
lysý	lysým	AAns7x
lysý	lysým	AAnp3x
lysý	lysými	AAmp7x
lysý	lysými	AAip7x
lysý	lysými	AAfp7x
lysý	lysými	AAnp7x
lyzoform	lyzoform	SSis1
lyzoform	lyzoform	SSis4
lyzoform	lyzoform	SSis5
lyzoform	lyzoformami	SSip7
lyzoform	lyzoforme	SSis6
lyzoform	lyzoformoch	SSip6
lyzoform	lyzoformom	SSis7
lyzoform	lyzoformom	SSip3
lyzoform	lyzoformov	SSip2
lyzoform	lyzoformu	SSis2
lyzoform	lyzoformu	SSis3
lyzoform	lyzoformy	SSip1
lyzoform	lyzoformy	SSip4
lyzoform	lyzoformy	SSip5
lyzol	lyzol	SSis1
lyzol	lyzol	SSis4
lyzol	lyzol	SSis5
lyzol	lyzole	SSis6
lyzol	lyzolmi	SSip7
lyzol	lyzoloch	SSip6
lyzol	lyzolom	SSis7
lyzol	lyzolom	SSip3
lyzol	lyzolov	SSip2
lyzol	lyzolu	SSis2
lyzol	lyzolu	SSis3
lyzol	lyzoly	SSip1
lyzol	lyzoly	SSip4
lyzol	lyzoly	SSip5
lyža	lyža	SSfs1
lyža	lyža	SSfs5
lyža	lyžami	SSfp7
lyža	lyže	SSfs2
lyža	lyže	SSfp1
lyža	lyže	SSfp4
lyža	lyže	SSfp5
lyža	lyži	SSfs3
lyža	lyži	SSfs6
lyža	lyžiach	SSfp6
lyža	lyžiam	SSfp3
lyžiar	lyžiar	SSms1
lyžiar	lyžiar	SSms5
lyžiar	lyžiara	SSms2
lyžiar	lyžiara	SSms4
lyžiarak	lyžiarak	SSis1
lyžiarak	lyžiarak	SSis4
lyžiarak	lyžiarak	SSis5
lyžiarak	lyžiaraka	SSis2
lyžiarak	lyžiarakmi	SSip7
lyžiarak	lyžiarakoch	SSip6
lyžiarak	lyžiarakom	SSis7
lyžiarak	lyžiarakom	SSip3
lyžiarak	lyžiarakov	SSip2
lyžiarak	lyžiaraku	SSis3
lyžiarak	lyžiaraku	SSis6
lyžiarak	lyžiaraky	SSip1
lyžiarak	lyžiaraky	SSip4
lyžiarak	lyžiaraky	SSip5
lyžiareň	lyžiareň	SSfs1
lyžiareň	lyžiareň	SSfs4
lyžiareň	lyžiareň	SSfs5
lyžiar	lyžiari	SSmp1
lyžiar	lyžiari	SSmp5
lyžiarka	lyžiarka	SSfs1
lyžiarka	lyžiarka	SSfs5
lyžiarka	lyžiarkach	SSfp6
lyžiarka	lyžiarkam	SSfp3
lyžiarka	lyžiarkami	SSfp7
lyžiarka	lyžiarke	SSfs3
lyžiarka	lyžiarke	SSfs6
lyžiarka	lyžiarkou	SSfs7
lyžiarka	lyžiarku	SSfs4
lyžiarka	lyžiarky	SSfs2
lyžiarka	lyžiarky	SSfp1
lyžiarka	lyžiarky	SSfp4
lyžiarka	lyžiarky	SSfp5
lyžiar	lyžiarmi	SSmp7
lyžiareň	lyžiarne	SSfs2
lyžiareň	lyžiarne	SSfp1
lyžiareň	lyžiarne	SSfp4
lyžiareň	lyžiarne	SSfp5
lyžiareň	lyžiarni	SSfs3
lyžiareň	lyžiarni	SSfs6
lyžiareň	lyžiarní	SSfp2
lyžiar	lyžiaroch	SSmp6
lyžiarka	lyžiarok	SSfp2
lyžiar	lyžiarom	SSms7
lyžiar	lyžiarom	SSmp3
lyžiar	lyžiarov	SSmp2
lyžiar	lyžiarov	SSmp4
lyžiar	lyžiarovi	SSms3
lyžiar	lyžiarovi	SSms6
lyžiarsky	lyžiarska	AAfs1x
lyžiarsky	lyžiarska	AAfs5x
lyžiarsky	lyžiarske	AAip1x
lyžiarsky	lyžiarske	AAip4x
lyžiarsky	lyžiarske	AAip5x
lyžiarsky	lyžiarske	AAfp1x
lyžiarsky	lyžiarske	AAfp4x
lyžiarsky	lyžiarske	AAfp5x
lyžiarsky	lyžiarske	AAns1x
lyžiarsky	lyžiarske	AAns4x
lyžiarsky	lyžiarske	AAns5x
lyžiarsky	lyžiarske	AAnp1x
lyžiarsky	lyžiarske	AAnp4x
lyžiarsky	lyžiarske	AAnp5x
lyžiarsky	lyžiarskeho	AAms2x
lyžiarsky	lyžiarskeho	AAms4x
lyžiarsky	lyžiarskeho	AAis2x
lyžiarsky	lyžiarskeho	AAns2x
lyžiarsky	lyžiarskej	AAfs2x
lyžiarsky	lyžiarskej	AAfs3x
lyžiarsky	lyžiarskej	AAfs6x
lyžiarsky	lyžiarskemu	AAms3x
lyžiarsky	lyžiarskemu	AAis3x
lyžiarsky	lyžiarskemu	AAns3x
lyžiarsky	lyžiarski	AAmp1x
lyžiarsky	lyžiarski	AAmp5x
lyžiarsky	lyžiarskom	AAms6x
lyžiarsky	lyžiarskom	AAis6x
lyžiarsky	lyžiarskom	AAns6x
lyžiarsky	lyžiarskou	AAfs7x
lyžiarsky	lyžiarsku	AAfs4x
lyžiarsky	lyžiarsky	AAms1x
lyžiarsky	lyžiarsky	AAms5x
lyžiarsky	lyžiarsky	AAis1x
lyžiarsky	lyžiarsky	AAis4x
lyžiarsky	lyžiarsky	AAis5x
lyžiarsky	lyžiarskych	AAmp2x
lyžiarsky	lyžiarskych	AAmp4x
lyžiarsky	lyžiarskych	AAmp6x
lyžiarsky	lyžiarskych	AAip2x
lyžiarsky	lyžiarskych	AAip6x
lyžiarsky	lyžiarskych	AAfp2x
lyžiarsky	lyžiarskych	AAfp6x
lyžiarsky	lyžiarskych	AAnp2x
lyžiarsky	lyžiarskych	AAnp6x
lyžiarsky	lyžiarskym	AAms7x
lyžiarsky	lyžiarskym	AAmp3x
lyžiarsky	lyžiarskym	AAis7x
lyžiarsky	lyžiarskym	AAip3x
lyžiarsky	lyžiarskym	AAfp3x
lyžiarsky	lyžiarskym	AAns7x
lyžiarsky	lyžiarskym	AAnp3x
lyžiarsky	lyžiarskymi	AAmp7x
lyžiarsky	lyžiarskymi	AAip7x
lyžiarsky	lyžiarskymi	AAfp7x
lyžiarsky	lyžiarskymi	AAnp7x
lyžiarstvo	lyžiarstiev	SSnp2
lyžiarstvo	lyžiarstva	SSns2
lyžiarstvo	lyžiarstva	SSnp1
lyžiarstvo	lyžiarstva	SSnp4
lyžiarstvo	lyžiarstva	SSnp5
lyžiarstvo	lyžiarstvach	SSnp6
lyžiarstvo	lyžiarstvam	SSnp3
lyžiarstvo	lyžiarstvami	SSnp7
lyžiarstvo	lyžiarstve	SSns6
lyžiarstvo	lyžiarstvo	SSns1
lyžiarstvo	lyžiarstvo	SSns4
lyžiarstvo	lyžiarstvo	SSns5
lyžiarstvo	lyžiarstvom	SSns7
lyžiarstvo	lyžiarstvu	SSns3
lyžiareň	lyžiarňach	SSfp6
lyžiareň	lyžiarňam	SSfp3
lyžiareň	lyžiarňami	SSfp7
lyžiareň	lyžiarňou	SSfs7
lyžica	lyžica	SSfs1
lyžica	lyžica	SSfs5
lyžica	lyžicami	SSfp7
lyžica	lyžice	SSfs2
lyžica	lyžice	SSfp1
lyžica	lyžice	SSfp4
lyžica	lyžice	SSfp5
lyžica	lyžici	SSfs3
lyžica	lyžici	SSfs6
lyžica	lyžiciach	SSfp6
lyžica	lyžiciam	SSfp3
lyžica	lyžicou	SSfs7
lyžicový	lyžicovej	AAfs2x
lyžicový	lyžicovej	AAfs3x
lyžicový	lyžicovej	AAfs6x
lyžicový	lyžicovom	AAms6x
lyžicový	lyžicovom	AAis6x
lyžicový	lyžicovom	AAns6x
lyžicový	lyžicovou	AAfs7x
lyžicový	lyžicová	AAfs1x
lyžicový	lyžicová	AAfs5x
lyžicový	lyžicové	AAip1x
lyžicový	lyžicové	AAip4x
lyžicový	lyžicové	AAip5x
lyžicový	lyžicové	AAfp1x
lyžicový	lyžicové	AAfp4x
lyžicový	lyžicové	AAfp5x
lyžicový	lyžicové	AAns1x
lyžicový	lyžicové	AAns4x
lyžicový	lyžicové	AAns5x
lyžicový	lyžicové	AAnp1x
lyžicový	lyžicové	AAnp4x
lyžicový	lyžicové	AAnp5x
lyžicový	lyžicového	AAms2x
lyžicový	lyžicového	AAms4x
lyžicový	lyžicového	AAis2x
lyžicový	lyžicového	AAns2x
lyžicový	lyžicovému	AAms3x
lyžicový	lyžicovému	AAis3x
lyžicový	lyžicovému	AAns3x
lyžicový	lyžicoví	AAmp1x
lyžicový	lyžicoví	AAmp5x
lyžicový	lyžicovú	AAfs4x
lyžicový	lyžicový	AAms1x
lyžicový	lyžicový	AAms5x
lyžicový	lyžicový	AAis1x
lyžicový	lyžicový	AAis4x
lyžicový	lyžicový	AAis5x
lyžicový	lyžicových	AAmp2x
lyžicový	lyžicových	AAmp4x
lyžicový	lyžicových	AAmp6x
lyžicový	lyžicových	AAip2x
lyžicový	lyžicových	AAip6x
lyžicový	lyžicových	AAfp2x
lyžicový	lyžicových	AAfp6x
lyžicový	lyžicových	AAnp2x
lyžicový	lyžicových	AAnp6x
lyžicový	lyžicovým	AAms7x
lyžicový	lyžicovým	AAmp3x
lyžicový	lyžicovým	AAis7x
lyžicový	lyžicovým	AAip3x
lyžicový	lyžicovým	AAfp3x
lyžicový	lyžicovým	AAns7x
lyžicový	lyžicovým	AAnp3x
lyžicový	lyžicovými	AAmp7x
lyžicový	lyžicovými	AAip7x
lyžicový	lyžicovými	AAfp7x
lyžicový	lyžicovými	AAnp7x
lyžica	lyžicu	SSfs4
lyžička	lyžičiek	SSfp2
lyžička	lyžička	SSfs1
lyžička	lyžička	SSfs5
lyžička	lyžičkami	SSfp7
lyžička	lyžičke	SSfs3
lyžička	lyžičke	SSfs6
lyžička	lyžičkou	SSfs7
lyžička	lyžičku	SSfs4
lyžička	lyžičky	SSfs2
lyžička	lyžičky	SSfp1
lyžička	lyžičky	SSfp4
lyžička	lyžičky	SSfp5
lyžička	lyžičkách	SSfp6
lyžička	lyžičkám	SSfp3
lyža	lyžou	SSfs7
lyžovať	lyžoval	VLesam+
lyžovať	lyžoval	VLesai+
lyžovať	lyžoval	VLesbm+
lyžovať	lyžoval	VLesbi+
lyžovať	lyžoval	VLescm+
lyžovať	lyžoval	VLesci+
lyžovať	lyžovala	VLesaf+
lyžovať	lyžovala	VLesbf+
lyžovať	lyžovala	VLescf+
lyžovať	lyžovali	VLepah+
lyžovať	lyžovali	VLepbh+
lyžovať	lyžovali	VLepcm+
lyžovať	lyžovali	VLepci+
lyžovať	lyžovali	VLepcf+
lyžovať	lyžovali	VLepcn+
lyžovať	lyžovali	VLepco+
lyžovať	lyžovalo	VLesan+
lyžovať	lyžovalo	VLesbn+
lyžovať	lyžovalo	VLescn+
lyžovanie	lyžovania	SSns2
lyžovanie	lyžovania	SSnp1
lyžovanie	lyžovania	SSnp4
lyžovanie	lyžovania	SSnp5
lyžovanie	lyžovaniach	SSnp6
lyžovanie	lyžovaniam	SSnp3
lyžovanie	lyžovaniami	SSnp7
lyžovanie	lyžovanie	SSns1
lyžovanie	lyžovanie	SSns4
lyžovanie	lyžovanie	SSns5
lyžovanie	lyžovaniu	SSns3
lyžovanie	lyžovaní	SSns6
lyžovanie	lyžovaní	SSnp2
lyžovanie	lyžovaním	SSns7
lyžovačka	lyžovačiek	SSfp2
lyžovačka	lyžovačka	SSfs1
lyžovačka	lyžovačka	SSfs5
lyžovačka	lyžovačkami	SSfp7
lyžovačka	lyžovačke	SSfs3
lyžovačka	lyžovačke	SSfs6
lyžovačka	lyžovačkou	SSfs7
lyžovačka	lyžovačku	SSfs4
lyžovačka	lyžovačky	SSfs2
lyžovačka	lyžovačky	SSfp1
lyžovačka	lyžovačky	SSfp4
lyžovačka	lyžovačky	SSfp5
lyžovačka	lyžovačkách	SSfp6
lyžovačka	lyžovačkám	SSfp3
lyžovať	lyžovať	VIe+
lyža	lyžu	SSfs4
lyžovať	lyžuj	VMesb+
lyžovať	lyžuje	VKesc+
lyžovať	lyžujem	VKesa+
lyžovať	lyžujeme	VKepa+
lyžovať	lyžujete	VKepb+
lyžovať	lyžuješ	VKesb+
lyžovať	lyžujme	VMepa+
lyžovať	lyžujte	VMepb+
lyžovať	lyžujú	VKepc+
lyžovať	lyžujúc	VHe+
lyža	lyží	SSfp2
lyžica	lyžíc	SSfp2
lýceum	lýcea	SSns2
lýceum	lýceami	SSnp7
lýcejný	lýcejnej	AAfs2x
lýcejný	lýcejnej	AAfs3x
lýcejný	lýcejnej	AAfs6x
lýcejný	lýcejnom	AAms6x
lýcejný	lýcejnom	AAis6x
lýcejný	lýcejnom	AAns6x
lýcejný	lýcejnou	AAfs7x
lýcejný	lýcejná	AAfs1x
lýcejný	lýcejná	AAfs5x
lýcejný	lýcejné	AAip1x
lýcejný	lýcejné	AAip4x
lýcejný	lýcejné	AAip5x
lýcejný	lýcejné	AAfp1x
lýcejný	lýcejné	AAfp4x
lýcejný	lýcejné	AAfp5x
lýcejný	lýcejné	AAns1x
lýcejný	lýcejné	AAns4x
lýcejný	lýcejné	AAns5x
lýcejný	lýcejné	AAnp1x
lýcejný	lýcejné	AAnp4x
lýcejný	lýcejné	AAnp5x
lýcejný	lýcejného	AAms2x
lýcejný	lýcejného	AAms4x
lýcejný	lýcejného	AAis2x
lýcejný	lýcejného	AAns2x
lýcejný	lýcejnému	AAms3x
lýcejný	lýcejnému	AAis3x
lýcejný	lýcejnému	AAns3x
lýcejný	lýcejní	AAmp1x
lýcejný	lýcejní	AAmp5x
lýcejný	lýcejnú	AAfs4x
lýcejný	lýcejný	AAms1x
lýcejný	lýcejný	AAms5x
lýcejný	lýcejný	AAis1x
lýcejný	lýcejný	AAis4x
lýcejný	lýcejný	AAis5x
lýcejný	lýcejných	AAmp2x
lýcejný	lýcejných	AAmp4x
lýcejný	lýcejných	AAmp6x
lýcejný	lýcejných	AAip2x
lýcejný	lýcejných	AAip6x
lýcejný	lýcejných	AAfp2x
lýcejný	lýcejných	AAfp6x
lýcejný	lýcejných	AAnp2x
lýcejný	lýcejných	AAnp6x
lýcejný	lýcejným	AAms7x
lýcejný	lýcejným	AAmp3x
lýcejný	lýcejným	AAis7x
lýcejný	lýcejným	AAip3x
lýcejný	lýcejným	AAfp3x
lýcejný	lýcejným	AAns7x
lýcejný	lýcejným	AAnp3x
lýcejný	lýcejnými	AAmp7x
lýcejný	lýcejnými	AAip7x
lýcejný	lýcejnými	AAfp7x
lýcejný	lýcejnými	AAnp7x
lýceum	lýceom	SSns7
lýceum	lýceu	SSns3
lýceum	lýceu	SSns6
lýceum	lýceum	SSns1
lýceum	lýceum	SSns4
lýceum	lýceum	SSns5
lýceum	lýceá	SSnp1
lýceum	lýceá	SSnp4
lýceum	lýceá	SSnp5
lýceum	lýceách	SSnp6
lýceum	lýceám	SSnp3
lýceum	lýceí	SSnp2
lyko	lýk	SSnp2
lymfa	lýmf	SSfp2
lýra	lýr	SSfp2
lýra	lýra	SSfs1
lýra	lýra	SSfs5
lýra	lýrach	SSfp6
lýra	lýram	SSfp3
lýra	lýrami	SSfp7
lýra	lýre	SSfs3
lýra	lýre	SSfs6
lýra	lýrou	SSfs7
lýra	lýru	SSfs4
lýra	lýry	SSfs2
lýra	lýry	SSfp1
lýra	lýry	SSfp4
lýra	lýry	SSfp5
lýtko	lýtka	SSns2
lýtko	lýtka	SSnp1
lýtko	lýtka	SSnp4
lýtko	lýtka	SSnp5
lýtko	lýtkach	SSnp6
lýtko	lýtkam	SSnp3
lýtko	lýtkami	SSnp7
lýtko	lýtko	SSns1
lýtko	lýtko	SSns4
lýtko	lýtko	SSns5
lýtko	lýtkom	SSns7
lýtkový	lýtkovej	AAfs2x
lýtkový	lýtkovej	AAfs3x
lýtkový	lýtkovej	AAfs6x
lýtkový	lýtkovom	AAms6x
lýtkový	lýtkovom	AAis6x
lýtkový	lýtkovom	AAns6x
lýtkový	lýtkovou	AAfs7x
lýtkový	lýtková	AAfs1x
lýtkový	lýtková	AAfs5x
lýtkový	lýtkové	AAip1x
lýtkový	lýtkové	AAip4x
lýtkový	lýtkové	AAip5x
lýtkový	lýtkové	AAfp1x
lýtkový	lýtkové	AAfp4x
lýtkový	lýtkové	AAfp5x
lýtkový	lýtkové	AAns1x
lýtkový	lýtkové	AAns4x
lýtkový	lýtkové	AAns5x
lýtkový	lýtkové	AAnp1x
lýtkový	lýtkové	AAnp4x
lýtkový	lýtkové	AAnp5x
lýtkový	lýtkového	AAms2x
lýtkový	lýtkového	AAms4x
lýtkový	lýtkového	AAis2x
lýtkový	lýtkového	AAns2x
lýtkový	lýtkovému	AAms3x
lýtkový	lýtkovému	AAis3x
lýtkový	lýtkovému	AAns3x
lýtkový	lýtkoví	AAmp1x
lýtkový	lýtkoví	AAmp5x
lýtkový	lýtkovú	AAfs4x
lýtkový	lýtkový	AAms1x
lýtkový	lýtkový	AAms5x
lýtkový	lýtkový	AAis1x
lýtkový	lýtkový	AAis4x
lýtkový	lýtkový	AAis5x
lýtkový	lýtkových	AAmp2x
lýtkový	lýtkových	AAmp4x
lýtkový	lýtkových	AAmp6x
lýtkový	lýtkových	AAip2x
lýtkový	lýtkových	AAip6x
lýtkový	lýtkových	AAfp2x
lýtkový	lýtkových	AAfp6x
lýtkový	lýtkových	AAnp2x
lýtkový	lýtkových	AAnp6x
lýtkový	lýtkovým	AAms7x
lýtkový	lýtkovým	AAmp3x
lýtkový	lýtkovým	AAis7x
lýtkový	lýtkovým	AAip3x
lýtkový	lýtkovým	AAfp3x
lýtkový	lýtkovým	AAns7x
lýtkový	lýtkovým	AAnp3x
lýtkový	lýtkovými	AAmp7x
lýtkový	lýtkovými	AAip7x
lýtkový	lýtkovými	AAfp7x
lýtkový	lýtkovými	AAnp7x
lýtko	lýtku	SSns3
lýtko	lýtku	SSns6
lýtko	lýtok	SSnp2
