VD	VD	W
vdrať	vder	VMdsb+
vdrať	vderie	VKdsc+
vdrať	vderiem	VKdsa+
vdrať	vderieme	VKdpa+
vdrať	vderiete	VKdpb+
vdrať	vderieš	VKdsb+
vdrať	vderme	VMdpa+
vdrať	vderte	VMdpb+
vdrať	vderú	VKdpc+
vdrať	vderúc	VHd+
vďaka	vdiak	SSfp2
vdova	vdov	SSfp2
vdova	vdova	SSfs1
vdova	vdova	SSfs5
vdova	vdovami	SSfp7
vdovec	vdovca	SSms2
vdovec	vdovca	SSms4
vdovec	vdovcami	SSmp7
vdovec	vdovci	SSmp1
vdovec	vdovci	SSmp5
vdovec	vdovcoch	SSmp6
vdovec	vdovcom	SSms7
vdovec	vdovcom	SSmp3
vdovec	vdovcov	SSmp2
vdovec	vdovcov	SSmp4
vdovec	vdovcovi	SSms3
vdovec	vdovcovi	SSms6
vdova	vdove	SSfs3
vdova	vdove	SSfs6
vdovec	vdovec	SSms1
vdovec	vdovec	SSms5
vdovecký	vdoveckej	AAfs2x
vdovecký	vdoveckej	AAfs3x
vdovecký	vdoveckej	AAfs6x
vdovecký	vdoveckom	AAms6x
vdovecký	vdoveckom	AAis6x
vdovecký	vdoveckom	AAns6x
vdovecký	vdoveckou	AAfs7x
vdovecký	vdovecká	AAfs1x
vdovecký	vdovecká	AAfs5x
vdovecký	vdovecké	AAip1x
vdovecký	vdovecké	AAip4x
vdovecký	vdovecké	AAip5x
vdovecký	vdovecké	AAfp1x
vdovecký	vdovecké	AAfp4x
vdovecký	vdovecké	AAfp5x
vdovecký	vdovecké	AAns1x
vdovecký	vdovecké	AAns4x
vdovecký	vdovecké	AAns5x
vdovecký	vdovecké	AAnp1x
vdovecký	vdovecké	AAnp4x
vdovecký	vdovecké	AAnp5x
vdovecký	vdoveckého	AAms2x
vdovecký	vdoveckého	AAms4x
vdovecký	vdoveckého	AAis2x
vdovecký	vdoveckého	AAns2x
vdovecký	vdoveckému	AAms3x
vdovecký	vdoveckému	AAis3x
vdovecký	vdoveckému	AAns3x
vdovecký	vdoveckí	AAmp1x
vdovecký	vdoveckí	AAmp5x
vdovecký	vdoveckú	AAfs4x
vdovecký	vdovecký	AAms1x
vdovecký	vdovecký	AAms5x
vdovecký	vdovecký	AAis1x
vdovecký	vdovecký	AAis4x
vdovecký	vdovecký	AAis5x
vdovecký	vdoveckých	AAmp2x
vdovecký	vdoveckých	AAmp4x
vdovecký	vdoveckých	AAmp6x
vdovecký	vdoveckých	AAip2x
vdovecký	vdoveckých	AAip6x
vdovecký	vdoveckých	AAfp2x
vdovecký	vdoveckých	AAfp6x
vdovecký	vdoveckých	AAnp2x
vdovecký	vdoveckých	AAnp6x
vdovecký	vdoveckým	AAms7x
vdovecký	vdoveckým	AAmp3x
vdovecký	vdoveckým	AAis7x
vdovecký	vdoveckým	AAip3x
vdovecký	vdoveckým	AAfp3x
vdovecký	vdoveckým	AAns7x
vdovecký	vdoveckým	AAnp3x
vdovecký	vdoveckými	AAmp7x
vdovecký	vdoveckými	AAip7x
vdovecký	vdoveckými	AAfp7x
vdovecký	vdoveckými	AAnp7x
vdovica	vdovica	SSfs1
vdovica	vdovica	SSfs5
vdovica	vdovicami	SSfp7
vdovica	vdovice	SSfs2
vdovica	vdovice	SSfp1
vdovica	vdovice	SSfp4
vdovica	vdovice	SSfp5
vdovica	vdovici	SSfs3
vdovica	vdovici	SSfs6
vdovica	vdoviciach	SSfp6
vdovica	vdoviciam	SSfp3
vdovica	vdovicou	SSfs7
vdovica	vdovicu	SSfs4
vdovička	vdovičiek	SSfp2
vdovička	vdovička	SSfs1
vdovička	vdovička	SSfs5
vdovička	vdovičkami	SSfp7
vdovička	vdovičke	SSfs3
vdovička	vdovičke	SSfs6
vdovička	vdovičkou	SSfs7
vdovička	vdovičku	SSfs4
vdovička	vdovičky	SSfs2
vdovička	vdovičky	SSfp1
vdovička	vdovičky	SSfp4
vdovička	vdovičky	SSfp5
vdovička	vdovičkách	SSfp6
vdovička	vdovičkám	SSfp3
vdova	vdovou	SSfs7
vdovský	vdovskej	AAfs2x
vdovský	vdovskej	AAfs3x
vdovský	vdovskej	AAfs6x
vdovský	vdovskom	AAms6x
vdovský	vdovskom	AAis6x
vdovský	vdovskom	AAns6x
vdovský	vdovskou	AAfs7x
vdovský	vdovská	AAfs1x
vdovský	vdovská	AAfs5x
vdovský	vdovské	AAip1x
vdovský	vdovské	AAip4x
vdovský	vdovské	AAip5x
vdovský	vdovské	AAfp1x
vdovský	vdovské	AAfp4x
vdovský	vdovské	AAfp5x
vdovský	vdovské	AAns1x
vdovský	vdovské	AAns4x
vdovský	vdovské	AAns5x
vdovský	vdovské	AAnp1x
vdovský	vdovské	AAnp4x
vdovský	vdovské	AAnp5x
vdovský	vdovského	AAms2x
vdovský	vdovského	AAms4x
vdovský	vdovského	AAis2x
vdovský	vdovského	AAns2x
vdovský	vdovskému	AAms3x
vdovský	vdovskému	AAis3x
vdovský	vdovskému	AAns3x
vdovský	vdovskí	AAmp1x
vdovský	vdovskí	AAmp5x
vdovský	vdovskú	AAfs4x
vdovský	vdovský	AAms1x
vdovský	vdovský	AAms5x
vdovský	vdovský	AAis1x
vdovský	vdovský	AAis4x
vdovský	vdovský	AAis5x
vdovský	vdovských	AAmp2x
vdovský	vdovských	AAmp4x
vdovský	vdovských	AAmp6x
vdovský	vdovských	AAip2x
vdovský	vdovských	AAip6x
vdovský	vdovských	AAfp2x
vdovský	vdovských	AAfp6x
vdovský	vdovských	AAnp2x
vdovský	vdovských	AAnp6x
vdovský	vdovským	AAms7x
vdovský	vdovským	AAmp3x
vdovský	vdovským	AAis7x
vdovský	vdovským	AAip3x
vdovský	vdovským	AAfp3x
vdovský	vdovským	AAns7x
vdovský	vdovským	AAnp3x
vdovský	vdovskými	AAmp7x
vdovský	vdovskými	AAip7x
vdovský	vdovskými	AAfp7x
vdovský	vdovskými	AAnp7x
vdovstvo	vdovstiev	SSnp2
vdovstvo	vdovstva	SSns2
vdovstvo	vdovstvami	SSnp7
vdovstvo	vdovstve	SSns6
vdovstvo	vdovstvo	SSns1
vdovstvo	vdovstvo	SSns4
vdovstvo	vdovstvo	SSns5
vdovstvo	vdovstvom	SSns7
vdovstvo	vdovstvu	SSns3
vdovstvo	vdovstvá	SSnp1
vdovstvo	vdovstvá	SSnp4
vdovstvo	vdovstvá	SSnp5
vdovstvo	vdovstvách	SSnp6
vdovstvo	vdovstvám	SSnp3
vdova	vdovu	SSfs4
vdova	vdovy	SSfs2
vdova	vdovy	SSfp1
vdova	vdovy	SSfp4
vdova	vdovy	SSfp5
vdova	vdovách	SSfp6
vdova	vdovám	SSfp3
vdovica	vdovíc	SSfp2
vdrať	vdral	VLdsam+
vdrať	vdral	VLdsai+
vdrať	vdral	VLdsbm+
vdrať	vdral	VLdsbi+
vdrať	vdral	VLdscm+
vdrať	vdral	VLdsci+
vdrať	vdrala	VLdsaf+
vdrať	vdrala	VLdsbf+
vdrať	vdrala	VLdscf+
vdrať	vdrali	VLdpah+
vdrať	vdrali	VLdpbh+
vdrať	vdrali	VLdpcm+
vdrať	vdrali	VLdpci+
vdrať	vdrali	VLdpcf+
vdrať	vdrali	VLdpcn+
vdrať	vdrali	VLdpco+
vdrať	vdralo	VLdsan+
vdrať	vdralo	VLdsbn+
vdrať	vdralo	VLdscn+
vdrať	vdrať	VId+
vdrobčiť	vdrobči	VMdsb+
vdrobčiť	vdrobčia	VKdpc+
vdrobčiť	vdrobčiac	VHd+
vdrobčiť	vdrobčil	VLdsam+
vdrobčiť	vdrobčil	VLdsai+
vdrobčiť	vdrobčil	VLdsbm+
vdrobčiť	vdrobčil	VLdsbi+
vdrobčiť	vdrobčil	VLdscm+
vdrobčiť	vdrobčil	VLdsci+
vdrobčiť	vdrobčila	VLdsaf+
vdrobčiť	vdrobčila	VLdsbf+
vdrobčiť	vdrobčila	VLdscf+
vdrobčiť	vdrobčili	VLdpah+
vdrobčiť	vdrobčili	VLdpbh+
vdrobčiť	vdrobčili	VLdpcm+
vdrobčiť	vdrobčili	VLdpci+
vdrobčiť	vdrobčili	VLdpcf+
vdrobčiť	vdrobčili	VLdpcn+
vdrobčiť	vdrobčili	VLdpco+
vdrobčiť	vdrobčilo	VLdsan+
vdrobčiť	vdrobčilo	VLdsbn+
vdrobčiť	vdrobčilo	VLdscn+
vdrobčiť	vdrobčime	VMdpa+
vdrobčiť	vdrobčite	VMdpb+
vdrobčiť	vdrobčiť	VId+
vdrobčiť	vdrobčí	VKdsc+
vdrobčiť	vdrobčím	VKdsa+
vdrobčiť	vdrobčíme	VKdpa+
vdrobčiť	vdrobčíte	VKdpb+
vdrobčiť	vdrobčíš	VKdsb+
vdutý	vdutej	AAfs2x
vdutý	vdutej	AAfs3x
vdutý	vdutej	AAfs6x
vduto	vdutejšie	Dy
vduto	vduto	Dx
vdutý	vdutom	AAms6x
vdutý	vdutom	AAis6x
vdutý	vdutom	AAns6x
vdutý	vdutou	AAfs7x
vdutý	vdutá	AAfs1x
vdutý	vdutá	AAfs5x
vdutý	vduté	AAip1x
vdutý	vduté	AAip4x
vdutý	vduté	AAip5x
vdutý	vduté	AAfp1x
vdutý	vduté	AAfp4x
vdutý	vduté	AAfp5x
vdutý	vduté	AAns1x
vdutý	vduté	AAns4x
vdutý	vduté	AAns5x
vdutý	vduté	AAnp1x
vdutý	vduté	AAnp4x
vdutý	vduté	AAnp5x
vdutý	vdutého	AAms2x
vdutý	vdutého	AAms4x
vdutý	vdutého	AAis2x
vdutý	vdutého	AAns2x
vdutý	vdutému	AAms3x
vdutý	vdutému	AAis3x
vdutý	vdutému	AAns3x
vdutý	vdutí	AAmp1x
vdutý	vdutí	AAmp5x
vdutý	vdutú	AAfs4x
vdutý	vdutý	AAms1x
vdutý	vdutý	AAms5x
vdutý	vdutý	AAis1x
vdutý	vdutý	AAis4x
vdutý	vdutý	AAis5x
vdutý	vdutých	AAmp2x
vdutý	vdutých	AAmp4x
vdutý	vdutých	AAmp6x
vdutý	vdutých	AAip2x
vdutý	vdutých	AAip6x
vdutý	vdutých	AAfp2x
vdutý	vdutých	AAfp6x
vdutý	vdutých	AAnp2x
vdutý	vdutých	AAnp6x
vdutý	vdutým	AAms7x
vdutý	vdutým	AAmp3x
vdutý	vdutým	AAis7x
vdutý	vdutým	AAip3x
vdutý	vdutým	AAfp3x
vdutý	vdutým	AAns7x
vdutý	vdutým	AAnp3x
vdutý	vdutými	AAmp7x
vdutý	vdutými	AAip7x
vdutý	vdutými	AAfp7x
vdutý	vdutými	AAnp7x
vdych	vdych	SSis1
vdych	vdych	SSis4
vdych	vdych	SSis5
vdych	vdychmi	SSip7
vdych	vdychoch	SSip6
vdych	vdychom	SSis7
vdych	vdychom	SSip3
vdych	vdychov	SSip2
vdychovať	vdychoval	VLesam+
vdychovať	vdychoval	VLesai+
vdychovať	vdychoval	VLesbm+
vdychovať	vdychoval	VLesbi+
vdychovať	vdychoval	VLescm+
vdychovať	vdychoval	VLesci+
vdychovať	vdychovala	VLesaf+
vdychovať	vdychovala	VLesbf+
vdychovať	vdychovala	VLescf+
vdychovať	vdychovali	VLepah+
vdychovať	vdychovali	VLepbh+
vdychovať	vdychovali	VLepcm+
vdychovať	vdychovali	VLepci+
vdychovať	vdychovali	VLepcf+
vdychovať	vdychovali	VLepcn+
vdychovať	vdychovali	VLepco+
vdychovať	vdychovalo	VLesan+
vdychovať	vdychovalo	VLesbn+
vdychovať	vdychovalo	VLescn+
vdychovať	vdychovať	VIe+
vdychový	vdychovej	AAfs2x
vdychový	vdychovej	AAfs3x
vdychový	vdychovej	AAfs6x
vdychový	vdychovom	AAms6x
vdychový	vdychovom	AAis6x
vdychový	vdychovom	AAns6x
vdychový	vdychovou	AAfs7x
vdychový	vdychová	AAfs1x
vdychový	vdychová	AAfs5x
vdychový	vdychové	AAip1x
vdychový	vdychové	AAip4x
vdychový	vdychové	AAip5x
vdychový	vdychové	AAfp1x
vdychový	vdychové	AAfp4x
vdychový	vdychové	AAfp5x
vdychový	vdychové	AAns1x
vdychový	vdychové	AAns4x
vdychový	vdychové	AAns5x
vdychový	vdychové	AAnp1x
vdychový	vdychové	AAnp4x
vdychový	vdychové	AAnp5x
vdychový	vdychového	AAms2x
vdychový	vdychového	AAms4x
vdychový	vdychového	AAis2x
vdychový	vdychového	AAns2x
vdychový	vdychovému	AAms3x
vdychový	vdychovému	AAis3x
vdychový	vdychovému	AAns3x
vdychový	vdychoví	AAmp1x
vdychový	vdychoví	AAmp5x
vdychový	vdychovú	AAfs4x
vdychový	vdychový	AAms1x
vdychový	vdychový	AAms5x
vdychový	vdychový	AAis1x
vdychový	vdychový	AAis4x
vdychový	vdychový	AAis5x
vdychový	vdychových	AAmp2x
vdychový	vdychových	AAmp4x
vdychový	vdychových	AAmp6x
vdychový	vdychových	AAip2x
vdychový	vdychových	AAip6x
vdychový	vdychových	AAfp2x
vdychový	vdychových	AAfp6x
vdychový	vdychových	AAnp2x
vdychový	vdychových	AAnp6x
vdychový	vdychovým	AAms7x
vdychový	vdychovým	AAmp3x
vdychový	vdychovým	AAis7x
vdychový	vdychovým	AAip3x
vdychový	vdychovým	AAfp3x
vdychový	vdychovým	AAns7x
vdychový	vdychovým	AAnp3x
vdychový	vdychovými	AAmp7x
vdychový	vdychovými	AAip7x
vdychový	vdychovými	AAfp7x
vdychový	vdychovými	AAnp7x
vdych	vdychu	SSis2
vdych	vdychu	SSis3
vdych	vdychu	SSis6
vdychovať	vdychuj	VMesb+
vdychovať	vdychuje	VKesc+
vdychovať	vdychujem	VKesa+
vdychovať	vdychujeme	VKepa+
vdychovať	vdychujete	VKepb+
vdychovať	vdychuješ	VKesb+
vdychovať	vdychujme	VMepa+
vdychovať	vdychujte	VMepb+
vdychovať	vdychujú	VKepc+
vdychovať	vdychujúc	VHe+
vdych	vdychy	SSip1
vdych	vdychy	SSip4
vdych	vdychy	SSip5
vdýchnuť	vdýchla	VLdsaf+
vdýchnuť	vdýchla	VLdsbf+
vdýchnuť	vdýchla	VLdscf+
vdýchnuť	vdýchli	VLdpah+
vdýchnuť	vdýchli	VLdpbh+
vdýchnuť	vdýchli	VLdpcm+
vdýchnuť	vdýchli	VLdpci+
vdýchnuť	vdýchli	VLdpcf+
vdýchnuť	vdýchli	VLdpcn+
vdýchnuť	vdýchli	VLdpco+
vdýchnuť	vdýchlo	VLdsan+
vdýchnuť	vdýchlo	VLdsbn+
vdýchnuť	vdýchlo	VLdscn+
vdýchnuť	vdýchne	VKdsc+
vdýchnuť	vdýchnem	VKdsa+
vdýchnuť	vdýchneme	VKdpa+
vdýchnuť	vdýchnete	VKdpb+
vdýchnuť	vdýchneš	VKdsb+
vdýchnuť	vdýchni	VMdsb+
vdýchnuť	vdýchnime	VMdpa+
vdýchnuť	vdýchnite	VMdpb+
vdýchnuť	vdýchnu	VKdpc+
vdýchnuť	vdýchnuc	VHd+
vdýchnuť	vdýchnuť	VId+
vdýchnuť	vdýchol	VLdsam+
vdýchnuť	vdýchol	VLdsai+
vdýchnuť	vdýchol	VLdsbm+
vdýchnuť	vdýchol	VLdsbi+
vdýchnuť	vdýchol	VLdscm+
vdýchnuť	vdýchol	VLdsci+
vďaka	vďaka	Eu3
vďaka	vďaka	SSfs1
vďaka	vďaka	SSfs5
vďaka	vďakami	SSfp7
vďaka	vďake	SSfs3
vďaka	vďake	SSfs6
vďaka	vďakou	SSfs7
vďaka	vďaku	SSfs4
vďaka	vďaky	SSfs2
vďaka	vďaky	SSfp1
vďaka	vďaky	SSfp4
vďaka	vďaky	SSfp5
vďakyvzdanie	vďakyvzdania	SSns2
vďakyvzdanie	vďakyvzdania	SSnp1
vďakyvzdanie	vďakyvzdania	SSnp4
vďakyvzdanie	vďakyvzdania	SSnp5
vďakyvzdanie	vďakyvzdaniach	SSnp6
vďakyvzdanie	vďakyvzdaniam	SSnp3
vďakyvzdanie	vďakyvzdaniami	SSnp7
vďakyvzdanie	vďakyvzdanie	SSns1
vďakyvzdanie	vďakyvzdanie	SSns4
vďakyvzdanie	vďakyvzdanie	SSns5
vďakyvzdanie	vďakyvzdaniu	SSns3
vďakyvzdanie	vďakyvzdaní	SSns6
vďakyvzdanie	vďakyvzdaní	SSnp2
vďakyvzdanie	vďakyvzdaním	SSns7
vďaka	vďakách	SSfp6
vďaka	vďakám	SSfp3
vďačiť	vďač	VMesb+
vďačiť	vďačia	VKepc+
vďačiť	vďačiac	VHe+
vďačiť	vďačil	VLesam+
vďačiť	vďačil	VLesai+
vďačiť	vďačil	VLesbm+
vďačiť	vďačil	VLesbi+
vďačiť	vďačil	VLescm+
vďačiť	vďačil	VLesci+
vďačiť	vďačila	VLesaf+
vďačiť	vďačila	VLesbf+
vďačiť	vďačila	VLescf+
vďačiť	vďačili	VLepah+
vďačiť	vďačili	VLepbh+
vďačiť	vďačili	VLepcm+
vďačiť	vďačili	VLepci+
vďačiť	vďačili	VLepcf+
vďačiť	vďačili	VLepcn+
vďačiť	vďačili	VLepco+
vďačiť	vďačilo	VLesan+
vďačiť	vďačilo	VLesbn+
vďačiť	vďačilo	VLescn+
vďačiť	vďačiť	VIe+
vďačiť	vďačme	VMepa+
vďačne	vďačne	Dx
vďačný	vďačnej	AAfs2x
vďačný	vďačnej	AAfs3x
vďačný	vďačnej	AAfs6x
vďačný	vďačnejšej	AAfs2y
vďačný	vďačnejšej	AAfs3y
vďačný	vďačnejšej	AAfs6y
vďačný	vďačnejšia	AAfs1y
vďačný	vďačnejšia	AAfs5y
vďačne	vďačnejšie	Dy
vďačný	vďačnejšie	AAip1y
vďačný	vďačnejšie	AAip4y
vďačný	vďačnejšie	AAip5y
vďačný	vďačnejšie	AAfp1y
vďačný	vďačnejšie	AAfp4y
vďačný	vďačnejšie	AAfp5y
vďačný	vďačnejšie	AAns1y
vďačný	vďačnejšie	AAns4y
vďačný	vďačnejšie	AAns5y
vďačný	vďačnejšie	AAnp1y
vďačný	vďačnejšie	AAnp4y
vďačný	vďačnejšie	AAnp5y
vďačný	vďačnejšieho	AAms2y
vďačný	vďačnejšieho	AAms4y
vďačný	vďačnejšieho	AAis2y
vďačný	vďačnejšieho	AAns2y
vďačný	vďačnejšiemu	AAms3y
vďačný	vďačnejšiemu	AAis3y
vďačný	vďačnejšiemu	AAns3y
vďačný	vďačnejšiu	AAfs4y
vďačný	vďačnejšom	AAms6y
vďačný	vďačnejšom	AAis6y
vďačný	vďačnejšom	AAns6y
vďačný	vďačnejšou	AAfs7y
vďačný	vďačnejší	AAms1y
vďačný	vďačnejší	AAms5y
vďačný	vďačnejší	AAmp1y
vďačný	vďačnejší	AAmp5y
vďačný	vďačnejší	AAis1y
vďačný	vďačnejší	AAis4y
vďačný	vďačnejší	AAis5y
vďačný	vďačnejších	AAmp2y
vďačný	vďačnejších	AAmp4y
vďačný	vďačnejších	AAmp6y
vďačný	vďačnejších	AAip2y
vďačný	vďačnejších	AAip6y
vďačný	vďačnejších	AAfp2y
vďačný	vďačnejších	AAfp6y
vďačný	vďačnejších	AAnp2y
vďačný	vďačnejších	AAnp6y
vďačný	vďačnejším	AAms7y
vďačný	vďačnejším	AAmp3y
vďačný	vďačnejším	AAis7y
vďačný	vďačnejším	AAip3y
vďačný	vďačnejším	AAfp3y
vďačný	vďačnejším	AAns7y
vďačný	vďačnejším	AAnp3y
vďačný	vďačnejšími	AAmp7y
vďačný	vďačnejšími	AAip7y
vďačný	vďačnejšími	AAfp7y
vďačný	vďačnejšími	AAnp7y
vďačný	vďačnom	AAms6x
vďačný	vďačnom	AAis6x
vďačný	vďačnom	AAns6x
vďačnosť	vďačnosti	SSfs2
vďačnosť	vďačnosti	SSfs3
vďačnosť	vďačnosti	SSfs6
vďačnosť	vďačnosti	SSfp1
vďačnosť	vďačnosti	SSfp4
vďačnosť	vďačnosti	SSfp5
vďačnosť	vďačnostiach	SSfp6
vďačnosť	vďačnostiam	SSfp3
vďačnosť	vďačností	SSfp2
vďačnosť	vďačnosť	SSfs1
vďačnosť	vďačnosť	SSfs4
vďačnosť	vďačnosť	SSfs5
vďačnosť	vďačnosťami	SSfp7
vďačnosť	vďačnosťou	SSfs7
vďačný	vďačnou	AAfs7x
vďačný	vďačná	AAfs1x
vďačný	vďačná	AAfs5x
vďačný	vďačné	AAip1x
vďačný	vďačné	AAip4x
vďačný	vďačné	AAip5x
vďačný	vďačné	AAfp1x
vďačný	vďačné	AAfp4x
vďačný	vďačné	AAfp5x
vďačný	vďačné	AAns1x
vďačný	vďačné	AAns4x
vďačný	vďačné	AAns5x
vďačný	vďačné	AAnp1x
vďačný	vďačné	AAnp4x
vďačný	vďačné	AAnp5x
vďačný	vďačného	AAms2x
vďačný	vďačného	AAms4x
vďačný	vďačného	AAis2x
vďačný	vďačného	AAns2x
vďačný	vďačnému	AAms3x
vďačný	vďačnému	AAis3x
vďačný	vďačnému	AAns3x
vďačný	vďační	AAmp1x
vďačný	vďační	AAmp5x
vďačný	vďačnú	AAfs4x
vďačný	vďačný	AAms1x
vďačný	vďačný	AAms5x
vďačný	vďačný	AAis1x
vďačný	vďačný	AAis4x
vďačný	vďačný	AAis5x
vďačný	vďačných	AAmp2x
vďačný	vďačných	AAmp4x
vďačný	vďačných	AAmp6x
vďačný	vďačných	AAip2x
vďačný	vďačných	AAip6x
vďačný	vďačných	AAfp2x
vďačný	vďačných	AAfp6x
vďačný	vďačných	AAnp2x
vďačný	vďačných	AAnp6x
vďačný	vďačným	AAms7x
vďačný	vďačným	AAmp3x
vďačný	vďačným	AAis7x
vďačný	vďačným	AAip3x
vďačný	vďačným	AAfp3x
vďačný	vďačným	AAns7x
vďačný	vďačným	AAnp3x
vďačný	vďačnými	AAmp7x
vďačný	vďačnými	AAip7x
vďačný	vďačnými	AAfp7x
vďačný	vďačnými	AAnp7x
vďačiť	vďačte	VMepb+
vďačiť	vďačí	VKesc+
vďačiť	vďačím	VKesa+
vďačiť	vďačíme	VKepa+
vďačiť	vďačíte	VKepb+
vďačiť	vďačíš	VKesb+
