vjazd	vjazd	SSis1
vjazd	vjazd	SSis4
vjazd	vjazd	SSis5
vjazd	vjazde	SSis6
vjazd	vjazdmi	SSip7
vjazd	vjazdoch	SSip6
vjazd	vjazdom	SSis7
vjazd	vjazdom	SSip3
vjazd	vjazdov	SSip2
vjazdový	vjazdovej	AAfs2x
vjazdový	vjazdovej	AAfs3x
vjazdový	vjazdovej	AAfs6x
vjazdový	vjazdovom	AAms6x
vjazdový	vjazdovom	AAis6x
vjazdový	vjazdovom	AAns6x
vjazdový	vjazdovou	AAfs7x
vjazdový	vjazdová	AAfs1x
vjazdový	vjazdová	AAfs5x
vjazdový	vjazdové	AAip1x
vjazdový	vjazdové	AAip4x
vjazdový	vjazdové	AAip5x
vjazdový	vjazdové	AAfp1x
vjazdový	vjazdové	AAfp4x
vjazdový	vjazdové	AAfp5x
vjazdový	vjazdové	AAns1x
vjazdový	vjazdové	AAns4x
vjazdový	vjazdové	AAns5x
vjazdový	vjazdové	AAnp1x
vjazdový	vjazdové	AAnp4x
vjazdový	vjazdové	AAnp5x
vjazdový	vjazdového	AAms2x
vjazdový	vjazdového	AAms4x
vjazdový	vjazdového	AAis2x
vjazdový	vjazdového	AAns2x
vjazdový	vjazdovému	AAms3x
vjazdový	vjazdovému	AAis3x
vjazdový	vjazdovému	AAns3x
vjazdový	vjazdoví	AAmp1x
vjazdový	vjazdoví	AAmp5x
vjazdový	vjazdovú	AAfs4x
vjazdový	vjazdový	AAms1x
vjazdový	vjazdový	AAms5x
vjazdový	vjazdový	AAis1x
vjazdový	vjazdový	AAis4x
vjazdový	vjazdový	AAis5x
vjazdový	vjazdových	AAmp2x
vjazdový	vjazdových	AAmp4x
vjazdový	vjazdových	AAmp6x
vjazdový	vjazdových	AAip2x
vjazdový	vjazdových	AAip6x
vjazdový	vjazdových	AAfp2x
vjazdový	vjazdových	AAfp6x
vjazdový	vjazdových	AAnp2x
vjazdový	vjazdových	AAnp6x
vjazdový	vjazdovým	AAms7x
vjazdový	vjazdovým	AAmp3x
vjazdový	vjazdovým	AAis7x
vjazdový	vjazdovým	AAip3x
vjazdový	vjazdovým	AAfp3x
vjazdový	vjazdovým	AAns7x
vjazdový	vjazdovým	AAnp3x
vjazdový	vjazdovými	AAmp7x
vjazdový	vjazdovými	AAip7x
vjazdový	vjazdovými	AAfp7x
vjazdový	vjazdovými	AAnp7x
vjazd	vjazdu	SSis2
vjazd	vjazdu	SSis3
vjazd	vjazdy	SSip1
vjazd	vjazdy	SSip4
vjazd	vjazdy	SSip5
