XY	XY	W
xylofonista	xylofonista	SSms1
xylofonista	xylofonista	SSms5
xylofonista	xylofonistami	SSmp7
xylofonista	xylofonisti	SSmp1
xylofonista	xylofonisti	SSmp5
xylofonistka	xylofonistiek	SSfp2
xylofonistka	xylofonistka	SSfs1
xylofonistka	xylofonistka	SSfs5
xylofonistka	xylofonistkami	SSfp7
xylofonistka	xylofonistke	SSfs3
xylofonistka	xylofonistke	SSfs6
xylofonistka	xylofonistkou	SSfs7
xylofonistka	xylofonistku	SSfs4
xylofonistka	xylofonistky	SSfs2
xylofonistka	xylofonistky	SSfp1
xylofonistka	xylofonistky	SSfp4
xylofonistka	xylofonistky	SSfp5
xylofonistka	xylofonistkách	SSfp6
xylofonistka	xylofonistkám	SSfp3
xylofonista	xylofonistoch	SSmp6
xylofonista	xylofonistom	SSms7
xylofonista	xylofonistom	SSmp3
xylofonista	xylofonistov	SSmp2
xylofonista	xylofonistov	SSmp4
xylofonista	xylofonistovi	SSms3
xylofonista	xylofonistovi	SSms6
xylofonista	xylofonistu	SSms2
xylofonista	xylofonistu	SSms4
xylofón	xylofón	SSis1
xylofón	xylofón	SSis4
xylofón	xylofón	SSis5
xylofón	xylofóne	SSis6
xylofón	xylofónmi	SSip7
xylofón	xylofónoch	SSip6
xylofón	xylofónom	SSis7
xylofón	xylofónom	SSip3
xylofón	xylofónov	SSip2
xylofónový	xylofónovej	AAfs2x
xylofónový	xylofónovej	AAfs3x
xylofónový	xylofónovej	AAfs6x
xylofónový	xylofónovom	AAms6x
xylofónový	xylofónovom	AAis6x
xylofónový	xylofónovom	AAns6x
xylofónový	xylofónovou	AAfs7x
xylofónový	xylofónová	AAfs1x
xylofónový	xylofónová	AAfs5x
xylofónový	xylofónové	AAip1x
xylofónový	xylofónové	AAip4x
xylofónový	xylofónové	AAip5x
xylofónový	xylofónové	AAfp1x
xylofónový	xylofónové	AAfp4x
xylofónový	xylofónové	AAfp5x
xylofónový	xylofónové	AAns1x
xylofónový	xylofónové	AAns4x
xylofónový	xylofónové	AAns5x
xylofónový	xylofónové	AAnp1x
xylofónový	xylofónové	AAnp4x
xylofónový	xylofónové	AAnp5x
xylofónový	xylofónového	AAms2x
xylofónový	xylofónového	AAms4x
xylofónový	xylofónového	AAis2x
xylofónový	xylofónového	AAns2x
xylofónový	xylofónovému	AAms3x
xylofónový	xylofónovému	AAis3x
xylofónový	xylofónovému	AAns3x
xylofónový	xylofónoví	AAmp1x
xylofónový	xylofónoví	AAmp5x
xylofónový	xylofónovú	AAfs4x
xylofónový	xylofónový	AAms1x
xylofónový	xylofónový	AAms5x
xylofónový	xylofónový	AAis1x
xylofónový	xylofónový	AAis4x
xylofónový	xylofónový	AAis5x
xylofónový	xylofónových	AAmp2x
xylofónový	xylofónových	AAmp4x
xylofónový	xylofónových	AAmp6x
xylofónový	xylofónových	AAip2x
xylofónový	xylofónových	AAip6x
xylofónový	xylofónových	AAfp2x
xylofónový	xylofónových	AAfp6x
xylofónový	xylofónových	AAnp2x
xylofónový	xylofónových	AAnp6x
xylofónový	xylofónovým	AAms7x
xylofónový	xylofónovým	AAmp3x
xylofónový	xylofónovým	AAis7x
xylofónový	xylofónovým	AAip3x
xylofónový	xylofónovým	AAfp3x
xylofónový	xylofónovým	AAns7x
xylofónový	xylofónovým	AAnp3x
xylofónový	xylofónovými	AAmp7x
xylofónový	xylofónovými	AAip7x
xylofónový	xylofónovými	AAfp7x
xylofónový	xylofónovými	AAnp7x
xylofón	xylofónu	SSis2
xylofón	xylofónu	SSis3
xylofón	xylofóny	SSip1
xylofón	xylofóny	SSip4
xylofón	xylofóny	SSip5
xylolit	xylolit	SSis1
xylolit	xylolit	SSis4
xylolit	xylolit	SSis5
xylolit	xylolite	SSis6
xylolit	xylolitmi	SSip7
xylolit	xylolitoch	SSip6
xylolit	xylolitom	SSis7
xylolit	xylolitom	SSip3
xylolit	xylolitov	SSip2
xylolitový	xylolitovej	AAfs2x
xylolitový	xylolitovej	AAfs3x
xylolitový	xylolitovej	AAfs6x
xylolitový	xylolitovom	AAms6x
xylolitový	xylolitovom	AAis6x
xylolitový	xylolitovom	AAns6x
xylolitový	xylolitovou	AAfs7x
xylolitový	xylolitová	AAfs1x
xylolitový	xylolitová	AAfs5x
xylolitový	xylolitové	AAip1x
xylolitový	xylolitové	AAip4x
xylolitový	xylolitové	AAip5x
xylolitový	xylolitové	AAfp1x
xylolitový	xylolitové	AAfp4x
xylolitový	xylolitové	AAfp5x
xylolitový	xylolitové	AAns1x
xylolitový	xylolitové	AAns4x
xylolitový	xylolitové	AAns5x
xylolitový	xylolitové	AAnp1x
xylolitový	xylolitové	AAnp4x
xylolitový	xylolitové	AAnp5x
xylolitový	xylolitového	AAms2x
xylolitový	xylolitového	AAms4x
xylolitový	xylolitového	AAis2x
xylolitový	xylolitového	AAns2x
xylolitový	xylolitovému	AAms3x
xylolitový	xylolitovému	AAis3x
xylolitový	xylolitovému	AAns3x
xylolitový	xylolitoví	AAmp1x
xylolitový	xylolitoví	AAmp5x
xylolitový	xylolitovú	AAfs4x
xylolitový	xylolitový	AAms1x
xylolitový	xylolitový	AAms5x
xylolitový	xylolitový	AAis1x
xylolitový	xylolitový	AAis4x
xylolitový	xylolitový	AAis5x
xylolitový	xylolitových	AAmp2x
xylolitový	xylolitových	AAmp4x
xylolitový	xylolitových	AAmp6x
xylolitový	xylolitových	AAip2x
xylolitový	xylolitových	AAip6x
xylolitový	xylolitových	AAfp2x
xylolitový	xylolitových	AAfp6x
xylolitový	xylolitových	AAnp2x
xylolitový	xylolitových	AAnp6x
xylolitový	xylolitovým	AAms7x
xylolitový	xylolitovým	AAmp3x
xylolitový	xylolitovým	AAis7x
xylolitový	xylolitovým	AAip3x
xylolitový	xylolitovým	AAfp3x
xylolitový	xylolitovým	AAns7x
xylolitový	xylolitovým	AAnp3x
xylolitový	xylolitovými	AAmp7x
xylolitový	xylolitovými	AAip7x
xylolitový	xylolitovými	AAfp7x
xylolitový	xylolitovými	AAnp7x
xylolit	xylolitu	SSis2
xylolit	xylolitu	SSis3
xylolit	xylolity	SSip1
xylolit	xylolity	SSip4
xylolit	xylolity	SSip5
xylén	xylén	SSis1
xylén	xylén	SSis4
xylén	xylén	SSis5
xylén	xyléne	SSis6
xylén	xylénmi	SSip7
xylén	xylénoch	SSip6
xylén	xylénom	SSis7
xylén	xylénom	SSip3
xylén	xylénov	SSip2
xylénový	xylénovej	AAfs2x
xylénový	xylénovej	AAfs3x
xylénový	xylénovej	AAfs6x
xylénový	xylénovom	AAms6x
xylénový	xylénovom	AAis6x
xylénový	xylénovom	AAns6x
xylénový	xylénovou	AAfs7x
xylénový	xylénová	AAfs1x
xylénový	xylénová	AAfs5x
xylénový	xylénové	AAip1x
xylénový	xylénové	AAip4x
xylénový	xylénové	AAip5x
xylénový	xylénové	AAfp1x
xylénový	xylénové	AAfp4x
xylénový	xylénové	AAfp5x
xylénový	xylénové	AAns1x
xylénový	xylénové	AAns4x
xylénový	xylénové	AAns5x
xylénový	xylénové	AAnp1x
xylénový	xylénové	AAnp4x
xylénový	xylénové	AAnp5x
xylénový	xylénového	AAms2x
xylénový	xylénového	AAms4x
xylénový	xylénového	AAis2x
xylénový	xylénového	AAns2x
xylénový	xylénovému	AAms3x
xylénový	xylénovému	AAis3x
xylénový	xylénovému	AAns3x
xylénový	xylénoví	AAmp1x
xylénový	xylénoví	AAmp5x
xylénový	xylénovú	AAfs4x
xylénový	xylénový	AAms1x
xylénový	xylénový	AAms5x
xylénový	xylénový	AAis1x
xylénový	xylénový	AAis4x
xylénový	xylénový	AAis5x
xylénový	xylénových	AAmp2x
xylénový	xylénových	AAmp4x
xylénový	xylénových	AAmp6x
xylénový	xylénových	AAip2x
xylénový	xylénových	AAip6x
xylénový	xylénových	AAfp2x
xylénový	xylénových	AAfp6x
xylénový	xylénových	AAnp2x
xylénový	xylénových	AAnp6x
xylénový	xylénovým	AAms7x
xylénový	xylénovým	AAmp3x
xylénový	xylénovým	AAis7x
xylénový	xylénovým	AAip3x
xylénový	xylénovým	AAfp3x
xylénový	xylénovým	AAns7x
xylénový	xylénovým	AAnp3x
xylénový	xylénovými	AAmp7x
xylénový	xylénovými	AAip7x
xylénový	xylénovými	AAfp7x
xylénový	xylénovými	AAnp7x
xylén	xylénu	SSis2
xylén	xylénu	SSis3
xylén	xylény	SSip1
xylén	xylény	SSip4
xylén	xylény	SSip5
xylóza	xylóz	SSfp2
xylóza	xylóza	SSfs1
xylóza	xylóza	SSfs5
xylóza	xylózach	SSfp6
xylóza	xylózam	SSfp3
xylóza	xylózami	SSfp7
xylóza	xylóze	SSfs3
xylóza	xylóze	SSfs6
xylóza	xylózou	SSfs7
xylózový	xylózovej	AAfs2x
xylózový	xylózovej	AAfs3x
xylózový	xylózovej	AAfs6x
xylózový	xylózovom	AAms6x
xylózový	xylózovom	AAis6x
xylózový	xylózovom	AAns6x
xylózový	xylózovou	AAfs7x
xylózový	xylózová	AAfs1x
xylózový	xylózová	AAfs5x
xylózový	xylózové	AAip1x
xylózový	xylózové	AAip4x
xylózový	xylózové	AAip5x
xylózový	xylózové	AAfp1x
xylózový	xylózové	AAfp4x
xylózový	xylózové	AAfp5x
xylózový	xylózové	AAns1x
xylózový	xylózové	AAns4x
xylózový	xylózové	AAns5x
xylózový	xylózové	AAnp1x
xylózový	xylózové	AAnp4x
xylózový	xylózové	AAnp5x
xylózový	xylózového	AAms2x
xylózový	xylózového	AAms4x
xylózový	xylózového	AAis2x
xylózový	xylózového	AAns2x
xylózový	xylózovému	AAms3x
xylózový	xylózovému	AAis3x
xylózový	xylózovému	AAns3x
xylózový	xylózoví	AAmp1x
xylózový	xylózoví	AAmp5x
xylózový	xylózovú	AAfs4x
xylózový	xylózový	AAms1x
xylózový	xylózový	AAms5x
xylózový	xylózový	AAis1x
xylózový	xylózový	AAis4x
xylózový	xylózový	AAis5x
xylózový	xylózových	AAmp2x
xylózový	xylózových	AAmp4x
xylózový	xylózových	AAmp6x
xylózový	xylózových	AAip2x
xylózový	xylózových	AAip6x
xylózový	xylózových	AAfp2x
xylózový	xylózových	AAfp6x
xylózový	xylózových	AAnp2x
xylózový	xylózových	AAnp6x
xylózový	xylózovým	AAms7x
xylózový	xylózovým	AAmp3x
xylózový	xylózovým	AAis7x
xylózový	xylózovým	AAip3x
xylózový	xylózovým	AAfp3x
xylózový	xylózovým	AAns7x
xylózový	xylózovým	AAnp3x
xylózový	xylózovými	AAmp7x
xylózový	xylózovými	AAip7x
xylózový	xylózovými	AAfp7x
xylózový	xylózovými	AAnp7x
xylóza	xylózu	SSfs4
xylóza	xylózy	SSfs2
xylóza	xylózy	SSfp1
xylóza	xylózy	SSfp4
xylóza	xylózy	SSfp5
