ZS	ZS	W
ZSFZ	ZSFZ	W
ZSNP	ZSNP	W
ZSS	ZSS	W
ZSSR	ZSSR	W
ZŠ	ZŠ	W
zšvárovať	zšvároval	VLesam+
zšvárovať	zšvároval	VLesai+
zšvárovať	zšvároval	VLesbm+
zšvárovať	zšvároval	VLesbi+
zšvárovať	zšvároval	VLescm+
zšvárovať	zšvároval	VLesci+
zšvárovať	zšvárovala	VLesaf+
zšvárovať	zšvárovala	VLesbf+
zšvárovať	zšvárovala	VLescf+
zšvárovať	zšvárovali	VLepah+
zšvárovať	zšvárovali	VLepbh+
zšvárovať	zšvárovali	VLepcm+
zšvárovať	zšvárovali	VLepci+
zšvárovať	zšvárovali	VLepcf+
zšvárovať	zšvárovali	VLepcn+
zšvárovať	zšvárovali	VLepco+
zšvárovať	zšvárovalo	VLesan+
zšvárovať	zšvárovalo	VLesbn+
zšvárovať	zšvárovalo	VLescn+
zšvárovať	zšvárovať	VIe+
zšvárovať	zšváruj	VMesb+
zšvárovať	zšváruje	VKesc+
zšvárovať	zšvárujem	VKesa+
zšvárovať	zšvárujeme	VKepa+
zšvárovať	zšvárujete	VKepb+
zšvárovať	zšváruješ	VKesb+
zšvárovať	zšvárujme	VMepa+
zšvárovať	zšvárujte	VMepb+
zšvárovať	zšvárujú	VKepc+
zšvárovať	zšvárujúc	VHe+
ŽSR	ŽSR	W
