c	c	SUnp1
c	c	SUnp2
c	c	SUnp3
c	c	SUnp4
c	c	SUnp5
c	c	SUnp6
c	c	SUnp7
c	c	SUns1
c	c	SUns2
c	c	SUns3
c	c	SUns4
c	c	SUns5
c	c	SUns6
c	c	SUns7
c	c	W
č	č	SUnp1
č	č	SUnp2
č	č	SUnp3
č	č	SUnp4
č	č	SUnp5
č	č	SUnp6
č	č	SUnp7
č	č	SUns1
č	č	SUns2
č	č	SUns3
č	č	SUns4
č	č	SUns5
č	č	SUns6
č	č	SUns7
č	č	W
