equalizér	equalizér	SSis1
equalizér	equalizéru	SSis2
equalizér	equalizéru	SSis3
equalizér	equalizér	SSis4
equalizér	equalizér	SSis5
equalizér	equalizéri	SSis6
equalizér	equalizérom	SSis7
equalizér	equalizéry	SSip1
equalizér	equalizérov	SSip2
equalizér	equalizérom	SSip3
equalizér	equalizéry	SSip4
equalizér	equalizéry	SSip5
equalizér	equalizéroch	SSip6
equalizér	equalizérmi	SSip7
