Eva	Eva	SSfs1
Eva	Evy	SSfs2
Eva	Eve	SSfs3
Eva	Evu	SSfs4
Eva	Eva	SSfs5
Eva	Eve	SSfs6
Eva	Evou	SSfs7
Eva	Evy	SSfp1
Eva	Ev	SSfp2
Eva	Evám	SSfp3
Eva	Evy	SSfp4
Eva	Evy	SSfp5
Eva	Evách	SSfp6
Eva	Evami	SSfp7
ev	ev	W
evakuant	evakuant	SSms1
evakuant	evakuanta	SSms2
evakuant	evakuantovi	SSms3
evakuant	evakuanta	SSms4
evakuant	evakuant	SSms5
evakuant	evakuantovi	SSms6
evakuant	evakuantom	SSms7
evakuant	evakuanti	SSmp1
evakuant	evakuantov	SSmp2
evakuant	evakuantom	SSmp3
evakuant	evakuantov	SSmp4
evakuant	evakuanti	SSmp5
evakuant	evakuantoch	SSmp6
evakuant	evakuantmi	SSmp7
evakuantka	evakuantka	SSfs1
evakuantka	evakuantky	SSfs2
evakuantka	evakuantke	SSfs3
evakuantka	evakuantku	SSfs4
evakuantka	evakuantka	SSfs5
evakuantka	evakuantke	SSfs6
evakuantka	evakuantkou	SSfs7
evakuantka	evakuantky	SSfp1
evakuantka	evakuantiek	SSfp2
evakuantka	evakuantkám	SSfp3
evakuantka	evakuantky	SSfp4
evakuantka	evakuantky	SSfp5
evakuantka	evakuantkách	SSfp6
evakuantka	evakuantkami	SSfp7
evakuantský	evakuantský	AAms1x
evakuantský	evakuantského	AAms2x
evakuantský	evakuantskému	AAms3x
evakuantský	evakuantského	AAms4x
evakuantský	evakuantský	AAms5x
evakuantský	evakuantskom	AAms6x
evakuantský	evakuantským	AAms7x
evakuantský	evakuantskí	AAmp1x
evakuantský	evakuantských	AAmp2x
evakuantský	evakuantským	AAmp3x
evakuantský	evakuantských	AAmp4x
evakuantský	evakuantskí	AAmp5x
evakuantský	evakuantských	AAmp6x
evakuantský	evakuantskými	AAmp7x
evakuantský	evakuantský	AAis1x
evakuantský	evakuantského	AAis2x
evakuantský	evakuantskému	AAis3x
evakuantský	evakuantský	AAis4x
evakuantský	evakuantský	AAis5x
evakuantský	evakuantskom	AAis6x
evakuantský	evakuantským	AAis7x
evakuantský	evakuantské	AAip1x
evakuantský	evakuantských	AAip2x
evakuantský	evakuantským	AAip3x
evakuantský	evakuantské	AAip4x
evakuantský	evakuantské	AAip5x
evakuantský	evakuantských	AAip6x
evakuantský	evakuantskými	AAip7x
evakuantský	evakuantská	AAfs1x
evakuantský	evakuantskej	AAfs2x
evakuantský	evakuantskej	AAfs3x
evakuantský	evakuantskú	AAfs4x
evakuantský	evakuantská	AAfs5x
evakuantský	evakuantskej	AAfs6x
evakuantský	evakuantskou	AAfs7x
evakuantský	evakuantské	AAfp1x
evakuantský	evakuantských	AAfp2x
evakuantský	evakuantským	AAfp3x
evakuantský	evakuantské	AAfp4x
evakuantský	evakuantské	AAfp5x
evakuantský	evakuantských	AAfp6x
evakuantský	evakuantskými	AAfp7x
evakuantský	evakuantské	AAns1x
evakuantský	evakuantského	AAns2x
evakuantský	evakuantskému	AAns3x
evakuantský	evakuantské	AAns4x
evakuantský	evakuantské	AAns5x
evakuantský	evakuantskom	AAns6x
evakuantský	evakuantským	AAns7x
evakuantský	evakuantské	AAnp1x
evakuantský	evakuantských	AAnp2x
evakuantský	evakuantským	AAnp3x
evakuantský	evakuantské	AAnp4x
evakuantský	evakuantské	AAnp5x
evakuantský	evakuantských	AAnp6x
evakuantský	evakuantskými	AAnp7x
evakuačný	evakuačný	AAms1x
evakuačný	evakuačného	AAms2x
evakuačný	evakuačnému	AAms3x
evakuačný	evakuačného	AAms4x
evakuačný	evakuačný	AAms5x
evakuačný	evakuačnom	AAms6x
evakuačný	evakuačným	AAms7x
evakuačný	evakuační	AAmp1x
evakuačný	evakuačných	AAmp2x
evakuačný	evakuačným	AAmp3x
evakuačný	evakuačných	AAmp4x
evakuačný	evakuační	AAmp5x
evakuačný	evakuačných	AAmp6x
evakuačný	evakuačnými	AAmp7x
evakuačný	evakuačný	AAis1x
evakuačný	evakuačného	AAis2x
evakuačný	evakuačnému	AAis3x
evakuačný	evakuačný	AAis4x
evakuačný	evakuačný	AAis5x
evakuačný	evakuačnom	AAis6x
evakuačný	evakuačným	AAis7x
evakuačný	evakuačné	AAip1x
evakuačný	evakuačných	AAip2x
evakuačný	evakuačným	AAip3x
evakuačný	evakuačné	AAip4x
evakuačný	evakuačné	AAip5x
evakuačný	evakuačných	AAip6x
evakuačný	evakuačnými	AAip7x
evakuačný	evakuačná	AAfs1x
evakuačný	evakuačnej	AAfs2x
evakuačný	evakuačnej	AAfs3x
evakuačný	evakuačnú	AAfs4x
evakuačný	evakuačná	AAfs5x
evakuačný	evakuačnej	AAfs6x
evakuačný	evakuačnou	AAfs7x
evakuačný	evakuačné	AAfp1x
evakuačný	evakuačných	AAfp2x
evakuačný	evakuačným	AAfp3x
evakuačný	evakuačné	AAfp4x
evakuačný	evakuačné	AAfp5x
evakuačný	evakuačných	AAfp6x
evakuačný	evakuačnými	AAfp7x
evakuačný	evakuačné	AAns1x
evakuačný	evakuačného	AAns2x
evakuačný	evakuačnému	AAns3x
evakuačný	evakuačné	AAns4x
evakuačný	evakuačné	AAns5x
evakuačný	evakuačnom	AAns6x
evakuačný	evakuačným	AAns7x
evakuačný	evakuačné	AAnp1x
evakuačný	evakuačných	AAnp2x
evakuačný	evakuačným	AAnp3x
evakuačný	evakuačné	AAnp4x
evakuačný	evakuačné	AAnp5x
evakuačný	evakuačných	AAnp6x
evakuačný	evakuačnými	AAnp7x
evakuovať	evakuovať	VIj+
evakuovať	evakuujem	VKjsa+
evakuovať	evakuuješ	VKjsb+
evakuovať	evakuuje	VKjsc+
evakuovať	evakuujeme	VKjpa+
evakuovať	evakuujete	VKjpb+
evakuovať	evakuujú	VKjpc+
evakuovať	evakuuj	VMjsb+
evakuovať	evakuujme	VMjpa+
evakuovať	evakuujte	VMjpb+
evakuovať	evakuujúc	VHj+
evakuovať	evakuoval	VLjsam+
evakuovať	evakuoval	VLjsai+
evakuovať	evakuoval	VLjsbm+
evakuovať	evakuoval	VLjsbi+
evakuovať	evakuoval	VLjscm+
evakuovať	evakuoval	VLjsci+
evakuovať	evakuovala	VLjsaf+
evakuovať	evakuovala	VLjsbf+
evakuovať	evakuovala	VLjscf+
evakuovať	evakuovalo	VLjsan+
evakuovať	evakuovalo	VLjsbn+
evakuovať	evakuovalo	VLjscn+
evakuovať	evakuovali	VLjpah+
evakuovať	evakuovali	VLjpbh+
evakuovať	evakuovali	VLjpcm+
evakuovať	evakuovali	VLjpci+
evakuovať	evakuovali	VLjpcf+
evakuovať	evakuovali	VLjpcn+
evakuovať	evakuovali	VLjpco+
evakuácia	evakuácia	SSfs1
evakuácia	evakuácie	SSfs2
evakuácia	evakuácii	SSfs3
evakuácia	evakuáciu	SSfs4
evakuácia	evakuácia	SSfs5
evakuácia	evakuácii	SSfs6
evakuácia	evakuáciou	SSfs7
evakuácia	evakuácie	SSfp1
evakuácia	evakuácií	SSfp2
evakuácia	evakuáciám	SSfp3
evakuácia	evakuácie	SSfp4
evakuácia	evakuácie	SSfp5
evakuácia	evakuáciách	SSfp6
evakuácia	evakuáciami	SSfp7
evaluačný	evaluačný	AAms1x
evaluačný	evaluačného	AAms2x
evaluačný	evaluačnému	AAms3x
evaluačný	evaluačného	AAms4x
evaluačný	evaluačný	AAms5x
evaluačný	evaluačnom	AAms6x
evaluačný	evaluačným	AAms7x
evaluačný	evaluační	AAmp1x
evaluačný	evaluačných	AAmp2x
evaluačný	evaluačným	AAmp3x
evaluačný	evaluačných	AAmp4x
evaluačný	evaluační	AAmp5x
evaluačný	evaluačných	AAmp6x
evaluačný	evaluačnými	AAmp7x
evaluačný	evaluačný	AAis1x
evaluačný	evaluačného	AAis2x
evaluačný	evaluačnému	AAis3x
evaluačný	evaluačný	AAis4x
evaluačný	evaluačný	AAis5x
evaluačný	evaluačnom	AAis6x
evaluačný	evaluačným	AAis7x
evaluačný	evaluačné	AAip1x
evaluačný	evaluačných	AAip2x
evaluačný	evaluačným	AAip3x
evaluačný	evaluačné	AAip4x
evaluačný	evaluačné	AAip5x
evaluačný	evaluačných	AAip6x
evaluačný	evaluačnými	AAip7x
evaluačný	evaluačná	AAfs1x
evaluačný	evaluačnej	AAfs2x
evaluačný	evaluačnej	AAfs3x
evaluačný	evaluačnú	AAfs4x
evaluačný	evaluačná	AAfs5x
evaluačný	evaluačnej	AAfs6x
evaluačný	evaluačnou	AAfs7x
evaluačný	evaluačné	AAfp1x
evaluačný	evaluačných	AAfp2x
evaluačný	evaluačným	AAfp3x
evaluačný	evaluačné	AAfp4x
evaluačný	evaluačné	AAfp5x
evaluačný	evaluačných	AAfp6x
evaluačný	evaluačnými	AAfp7x
evaluačný	evaluačné	AAns1x
evaluačný	evaluačného	AAns2x
evaluačný	evaluačnému	AAns3x
evaluačný	evaluačné	AAns4x
evaluačný	evaluačné	AAns5x
evaluačný	evaluačnom	AAns6x
evaluačný	evaluačným	AAns7x
evaluačný	evaluačné	AAnp1x
evaluačný	evaluačných	AAnp2x
evaluačný	evaluačným	AAnp3x
evaluačný	evaluačné	AAnp4x
evaluačný	evaluačné	AAnp5x
evaluačný	evaluačných	AAnp6x
evaluačný	evaluačnými	AAnp7x
evaluovať	evaluovať	VIe+
evaluovať	evaluujem	VKesa+
evaluovať	evaluuješ	VKesb+
evaluovať	evaluuje	VKesc+
evaluovať	evaluujeme	VKepa+
evaluovať	evaluujete	VKepb+
evaluovať	evaluujú	VKepc+
evaluovať	evaluuj	VMesb+
evaluovať	evaluujme	VMepa+
evaluovať	evaluujte	VMepb+
evaluovať	evaluujúc	VHe+
evaluovať	evaluoval	VLesam+
evaluovať	evaluoval	VLesai+
evaluovať	evaluoval	VLesbm+
evaluovať	evaluoval	VLesbi+
evaluovať	evaluoval	VLescm+
evaluovať	evaluoval	VLesci+
evaluovať	evaluovala	VLesaf+
evaluovať	evaluovala	VLesbf+
evaluovať	evaluovala	VLescf+
evaluovať	evaluovalo	VLesan+
evaluovať	evaluovalo	VLesbn+
evaluovať	evaluovalo	VLescn+
evaluovať	evaluovali	VLepah+
evaluovať	evaluovali	VLepbh+
evaluovať	evaluovali	VLepcm+
evaluovať	evaluovali	VLepci+
evaluovať	evaluovali	VLepcf+
evaluovať	evaluovali	VLepcn+
evaluovať	evaluovali	VLepco+
evaluácia	evaluácia	SSfs1
evaluácia	evaluácie	SSfs2
evaluácia	evaluácii	SSfs3
evaluácia	evaluáciu	SSfs4
evaluácia	evaluácia	SSfs5
evaluácia	evaluácii	SSfs6
evaluácia	evaluáciou	SSfs7
evaluácia	evaluácie	SSfp1
evaluácia	evaluácií	SSfp2
evaluácia	evaluáciám	SSfp3
evaluácia	evaluácie	SSfp4
evaluácia	evaluácie	SSfp5
evaluácia	evaluáciách	SSfp6
evaluácia	evaluáciami	SSfp7
evalvačný	evalvačný	AAms1x
evalvačný	evalvačného	AAms2x
evalvačný	evalvačnému	AAms3x
evalvačný	evalvačného	AAms4x
evalvačný	evalvačný	AAms5x
evalvačný	evalvačnom	AAms6x
evalvačný	evalvačným	AAms7x
evalvačný	evalvační	AAmp1x
evalvačný	evalvačných	AAmp2x
evalvačný	evalvačným	AAmp3x
evalvačný	evalvačných	AAmp4x
evalvačný	evalvační	AAmp5x
evalvačný	evalvačných	AAmp6x
evalvačný	evalvačnými	AAmp7x
evalvačný	evalvačný	AAis1x
evalvačný	evalvačného	AAis2x
evalvačný	evalvačnému	AAis3x
evalvačný	evalvačný	AAis4x
evalvačný	evalvačný	AAis5x
evalvačný	evalvačnom	AAis6x
evalvačný	evalvačným	AAis7x
evalvačný	evalvačné	AAip1x
evalvačný	evalvačných	AAip2x
evalvačný	evalvačným	AAip3x
evalvačný	evalvačné	AAip4x
evalvačný	evalvačné	AAip5x
evalvačný	evalvačných	AAip6x
evalvačný	evalvačnými	AAip7x
evalvačný	evalvačná	AAfs1x
evalvačný	evalvačnej	AAfs2x
evalvačný	evalvačnej	AAfs3x
evalvačný	evalvačnú	AAfs4x
evalvačný	evalvačná	AAfs5x
evalvačný	evalvačnej	AAfs6x
evalvačný	evalvačnou	AAfs7x
evalvačný	evalvačné	AAfp1x
evalvačný	evalvačných	AAfp2x
evalvačný	evalvačným	AAfp3x
evalvačný	evalvačné	AAfp4x
evalvačný	evalvačné	AAfp5x
evalvačný	evalvačných	AAfp6x
evalvačný	evalvačnými	AAfp7x
evalvačný	evalvačné	AAns1x
evalvačný	evalvačného	AAns2x
evalvačný	evalvačnému	AAns3x
evalvačný	evalvačné	AAns4x
evalvačný	evalvačné	AAns5x
evalvačný	evalvačnom	AAns6x
evalvačný	evalvačným	AAns7x
evalvačný	evalvačné	AAnp1x
evalvačný	evalvačných	AAnp2x
evalvačný	evalvačným	AAnp3x
evalvačný	evalvačné	AAnp4x
evalvačný	evalvačné	AAnp5x
evalvačný	evalvačných	AAnp6x
evalvačný	evalvačnými	AAnp7x
evalvovať	evalvovať	VIe+
evalvovať	evalvujem	VKesa+
evalvovať	evalvuješ	VKesb+
evalvovať	evalvuje	VKesc+
evalvovať	evalvujeme	VKepa+
evalvovať	evalvujete	VKepb+
evalvovať	evalvujú	VKepc+
evalvovať	evalvuj	VMesb+
evalvovať	evalvujme	VMepa+
evalvovať	evalvujte	VMepb+
evalvovať	evalvujúc	VHe+
evalvovať	evalvoval	VLesam+
evalvovať	evalvoval	VLesai+
evalvovať	evalvoval	VLesbm+
evalvovať	evalvoval	VLesbi+
evalvovať	evalvoval	VLescm+
evalvovať	evalvoval	VLesci+
evalvovať	evalvovala	VLesaf+
evalvovať	evalvovala	VLesbf+
evalvovať	evalvovala	VLescf+
evalvovať	evalvovalo	VLesan+
evalvovať	evalvovalo	VLesbn+
evalvovať	evalvovalo	VLescn+
evalvovať	evalvovali	VLepah+
evalvovať	evalvovali	VLepbh+
evalvovať	evalvovali	VLepcm+
evalvovať	evalvovali	VLepci+
evalvovať	evalvovali	VLepcf+
evalvovať	evalvovali	VLepcn+
evalvovať	evalvovali	VLepco+
evalvácia	evalvácia	SSfs1
evalvácia	evalvácie	SSfs2
evalvácia	evalvácii	SSfs3
evalvácia	evalváciu	SSfs4
evalvácia	evalvácia	SSfs5
evalvácia	evalvácii	SSfs6
evalvácia	evalváciou	SSfs7
evalvácia	evalvácie	SSfp1
evalvácia	evalvácií	SSfp2
evalvácia	evalváciám	SSfp3
evalvácia	evalvácie	SSfp4
evalvácia	evalvácie	SSfp5
evalvácia	evalváciách	SSfp6
evalvácia	evalváciami	SSfp7
evanjelickosť	evanjelickosť	SSfs1
evanjelickosť	evanjelickosti	SSfs2
evanjelickosť	evanjelickosti	SSfs3
evanjelickosť	evanjelickosť	SSfs4
evanjelickosť	evanjelickosť	SSfs5
evanjelickosť	evanjelickosti	SSfs6
evanjelickosť	evanjelickosťou	SSfs7
evanjelickosť	evanjelickosti	SSfp1
evanjelickosť	evanjelickostí	SSfp2
evanjelickosť	evanjelickostiam	SSfp3
evanjelickosť	evanjelickosti	SSfp4
evanjelickosť	evanjelickosti	SSfp5
evanjelickosť	evanjelickostiach	SSfp6
evanjelickosť	evanjelickosťami	SSfp7
evanjelicky	evanjelicky	Dx
evanjelický	evanjelický	AAms1x
evanjelický	evanjelického	AAms2x
evanjelický	evanjelickému	AAms3x
evanjelický	evanjelického	AAms4x
evanjelický	evanjelický	AAms5x
evanjelický	evanjelickom	AAms6x
evanjelický	evanjelickým	AAms7x
evanjelický	evanjelickí	AAmp1x
evanjelický	evanjelických	AAmp2x
evanjelický	evanjelickým	AAmp3x
evanjelický	evanjelických	AAmp4x
evanjelický	evanjelickí	AAmp5x
evanjelický	evanjelických	AAmp6x
evanjelický	evanjelickými	AAmp7x
evanjelický	evanjelický	AAis1x
evanjelický	evanjelického	AAis2x
evanjelický	evanjelickému	AAis3x
evanjelický	evanjelický	AAis4x
evanjelický	evanjelický	AAis5x
evanjelický	evanjelickom	AAis6x
evanjelický	evanjelickým	AAis7x
evanjelický	evanjelické	AAip1x
evanjelický	evanjelických	AAip2x
evanjelický	evanjelickým	AAip3x
evanjelický	evanjelické	AAip4x
evanjelický	evanjelické	AAip5x
evanjelický	evanjelických	AAip6x
evanjelický	evanjelickými	AAip7x
evanjelický	evanjelická	AAfs1x
evanjelický	evanjelickej	AAfs2x
evanjelický	evanjelickej	AAfs3x
evanjelický	evanjelickú	AAfs4x
evanjelický	evanjelická	AAfs5x
evanjelický	evanjelickej	AAfs6x
evanjelický	evanjelickou	AAfs7x
evanjelický	evanjelické	AAfp1x
evanjelický	evanjelických	AAfp2x
evanjelický	evanjelickým	AAfp3x
evanjelický	evanjelické	AAfp4x
evanjelický	evanjelické	AAfp5x
evanjelický	evanjelických	AAfp6x
evanjelický	evanjelickými	AAfp7x
evanjelický	evanjelické	AAns1x
evanjelický	evanjelického	AAns2x
evanjelický	evanjelickému	AAns3x
evanjelický	evanjelické	AAns4x
evanjelický	evanjelické	AAns5x
evanjelický	evanjelickom	AAns6x
evanjelický	evanjelickým	AAns7x
evanjelický	evanjelické	AAnp1x
evanjelický	evanjelických	AAnp2x
evanjelický	evanjelickým	AAnp3x
evanjelický	evanjelické	AAnp4x
evanjelický	evanjelické	AAnp5x
evanjelický	evanjelických	AAnp6x
evanjelický	evanjelickými	AAnp7x
evanjelický	evanjelickejší	AAms1y
evanjelický	evanjelickejšieho	AAms2y
evanjelický	evanjelickejšiemu	AAms3y
evanjelický	evanjelickejšieho	AAms4y
evanjelický	evanjelickejší	AAms5y
evanjelický	evanjelickejšom	AAms6y
evanjelický	evanjelickejším	AAms7y
evanjelický	evanjelickejší	AAmp1y
evanjelický	evanjelickejších	AAmp2y
evanjelický	evanjelickejším	AAmp3y
evanjelický	evanjelickejších	AAmp4y
evanjelický	evanjelickejší	AAmp5y
evanjelický	evanjelickejších	AAmp6y
evanjelický	evanjelickejšími	AAmp7y
evanjelický	evanjelickejší	AAis1y
evanjelický	evanjelickejšieho	AAis2y
evanjelický	evanjelickejšiemu	AAis3y
evanjelický	evanjelickejší	AAis4y
evanjelický	evanjelickejší	AAis5y
evanjelický	evanjelickejšom	AAis6y
evanjelický	evanjelickejším	AAis7y
evanjelický	evanjelickejšie	AAip1y
evanjelický	evanjelickejších	AAip2y
evanjelický	evanjelickejším	AAip3y
evanjelický	evanjelickejšie	AAip4y
evanjelický	evanjelickejšie	AAip5y
evanjelický	evanjelickejších	AAip6y
evanjelický	evanjelickejšími	AAip7y
evanjelický	evanjelickejšia	AAfs1y
evanjelický	evanjelickejšej	AAfs2y
evanjelický	evanjelickejšej	AAfs3y
evanjelický	evanjelickejšiu	AAfs4y
evanjelický	evanjelickejšia	AAfs5y
evanjelický	evanjelickejšej	AAfs6y
evanjelický	evanjelickejšou	AAfs7y
evanjelický	evanjelickejšie	AAfp1y
evanjelický	evanjelickejších	AAfp2y
evanjelický	evanjelickejším	AAfp3y
evanjelický	evanjelickejšie	AAfp4y
evanjelický	evanjelickejšie	AAfp5y
evanjelický	evanjelickejších	AAfp6y
evanjelický	evanjelickejšími	AAfp7y
evanjelický	evanjelickejšie	AAns1y
evanjelický	evanjelickejšieho	AAns2y
evanjelický	evanjelickejšiemu	AAns3y
evanjelický	evanjelickejšie	AAns4y
evanjelický	evanjelickejšie	AAns5y
evanjelický	evanjelickejšom	AAns6y
evanjelický	evanjelickejším	AAns7y
evanjelický	evanjelickejšie	AAnp1y
evanjelický	evanjelickejších	AAnp2y
evanjelický	evanjelickejším	AAnp3y
evanjelický	evanjelickejšie	AAnp4y
evanjelický	evanjelickejšie	AAnp5y
evanjelický	evanjelickejších	AAnp6y
evanjelický	evanjelickejšími	AAnp7y
evanjelický	najevanjelickejší	AAms1z
evanjelický	najevanjelickejšieho	AAms2z
evanjelický	najevanjelickejšiemu	AAms3z
evanjelický	najevanjelickejšieho	AAms4z
evanjelický	najevanjelickejší	AAms5z
evanjelický	najevanjelickejšom	AAms6z
evanjelický	najevanjelickejším	AAms7z
evanjelický	najevanjelickejší	AAmp1z
evanjelický	najevanjelickejších	AAmp2z
evanjelický	najevanjelickejším	AAmp3z
evanjelický	najevanjelickejších	AAmp4z
evanjelický	najevanjelickejší	AAmp5z
evanjelický	najevanjelickejších	AAmp6z
evanjelický	najevanjelickejšími	AAmp7z
evanjelický	najevanjelickejší	AAis1z
evanjelický	najevanjelickejšieho	AAis2z
evanjelický	najevanjelickejšiemu	AAis3z
evanjelický	najevanjelickejší	AAis4z
evanjelický	najevanjelickejší	AAis5z
evanjelický	najevanjelickejšom	AAis6z
evanjelický	najevanjelickejším	AAis7z
evanjelický	najevanjelickejšie	AAip1z
evanjelický	najevanjelickejších	AAip2z
evanjelický	najevanjelickejším	AAip3z
evanjelický	najevanjelickejšie	AAip4z
evanjelický	najevanjelickejšie	AAip5z
evanjelický	najevanjelickejších	AAip6z
evanjelický	najevanjelickejšími	AAip7z
evanjelický	najevanjelickejšia	AAfs1z
evanjelický	najevanjelickejšej	AAfs2z
evanjelický	najevanjelickejšej	AAfs3z
evanjelický	najevanjelickejšiu	AAfs4z
evanjelický	najevanjelickejšia	AAfs5z
evanjelický	najevanjelickejšej	AAfs6z
evanjelický	najevanjelickejšou	AAfs7z
evanjelický	najevanjelickejšie	AAfp1z
evanjelický	najevanjelickejších	AAfp2z
evanjelický	najevanjelickejším	AAfp3z
evanjelický	najevanjelickejšie	AAfp4z
evanjelický	najevanjelickejšie	AAfp5z
evanjelický	najevanjelickejších	AAfp6z
evanjelický	najevanjelickejšími	AAfp7z
evanjelický	najevanjelickejšie	AAns1z
evanjelický	najevanjelickejšieho	AAns2z
evanjelický	najevanjelickejšiemu	AAns3z
evanjelický	najevanjelickejšie	AAns4z
evanjelický	najevanjelickejšie	AAns5z
evanjelický	najevanjelickejšom	AAns6z
evanjelický	najevanjelickejším	AAns7z
evanjelický	najevanjelickejšie	AAnp1z
evanjelický	najevanjelickejších	AAnp2z
evanjelický	najevanjelickejším	AAnp3z
evanjelický	najevanjelickejšie	AAnp4z
evanjelický	najevanjelickejšie	AAnp5z
evanjelický	najevanjelickejších	AAnp6z
evanjelický	najevanjelickejšími	AAnp7z
evanjelictvo	evanjelictvo	SSns1
evanjelictvo	evanjelictva	SSns2
evanjelictvo	evanjelictvu	SSns3
evanjelictvo	evanjelictvo	SSns4
evanjelictvo	evanjelictvo	SSns5
evanjelictvo	evanjelictve	SSns6
evanjelictvo	evanjelictvom	SSns7
evanjelictvo	evanjelictvá	SSnp1
evanjelictvo	evanjelictiev	SSnp2
evanjelictvo	evanjelictvám	SSnp3
evanjelictvo	evanjelictvá	SSnp4
evanjelictvo	evanjelictvá	SSnp5
evanjelictvo	evanjelictvách	SSnp6
evanjelictvo	evanjelictvami	SSnp7
evanjelik	evanjelik	SSms1
evanjelik	evanjelika	SSms2
evanjelik	evanjelikovi	SSms3
evanjelik	evanjelika	SSms4
evanjelik	evanjelik	SSms5
evanjelik	evanjelikovi	SSms6
evanjelik	evanjelikom	SSms7
evanjelik	evanjelici	SSmp1
evanjelik	evanjelikov	SSmp2
evanjelik	evanjelikom	SSmp3
evanjelik	evanjelikov	SSmp4
evanjelik	evanjelici	SSmp5
evanjelik	evanjelikoch	SSmp6
evanjelik	evanjelikmi	SSmp7
evanjelikál	evanjelikál	SSms1
evanjelikál	evanjelikála	SSms2
evanjelikál	evanjelikálovi	SSms3
evanjelikál	evanjelikála	SSms4
evanjelikál	evanjelikál	SSms5
evanjelikál	evanjelikálovi	SSms6
evanjelikál	evanjelikálom	SSms7
evanjelikál	evanjelikáli	SSmp1
evanjelikál	evanjelikálov	SSmp2
evanjelikál	evanjelikálom	SSmp3
evanjelikál	evanjelikálov	SSmp4
evanjelikál	evanjelikáli	SSmp5
evanjelikál	evanjelikáloch	SSmp6
evanjelikál	evanjelikálmi	SSmp7
evanjelikálny	evanjelikálny	AAms1x
evanjelikálny	evanjelikálneho	AAms2x
evanjelikálny	evanjelikálnemu	AAms3x
evanjelikálny	evanjelikálneho	AAms4x
evanjelikálny	evanjelikálny	AAms5x
evanjelikálny	evanjelikálnom	AAms6x
evanjelikálny	evanjelikálnym	AAms7x
evanjelikálny	evanjelikálni	AAmp1x
evanjelikálny	evanjelikálnych	AAmp2x
evanjelikálny	evanjelikálnym	AAmp3x
evanjelikálny	evanjelikálnych	AAmp4x
evanjelikálny	evanjelikálni	AAmp5x
evanjelikálny	evanjelikálnych	AAmp6x
evanjelikálny	evanjelikálnymi	AAmp7x
evanjelikálny	evanjelikálny	AAis1x
evanjelikálny	evanjelikálneho	AAis2x
evanjelikálny	evanjelikálnemu	AAis3x
evanjelikálny	evanjelikálny	AAis4x
evanjelikálny	evanjelikálny	AAis5x
evanjelikálny	evanjelikálnom	AAis6x
evanjelikálny	evanjelikálnym	AAis7x
evanjelikálny	evanjelikálne	AAip1x
evanjelikálny	evanjelikálnych	AAip2x
evanjelikálny	evanjelikálnym	AAip3x
evanjelikálny	evanjelikálne	AAip4x
evanjelikálny	evanjelikálne	AAip5x
evanjelikálny	evanjelikálnych	AAip6x
evanjelikálny	evanjelikálnymi	AAip7x
evanjelikálny	evanjelikálna	AAfs1x
evanjelikálny	evanjelikálnej	AAfs2x
evanjelikálny	evanjelikálnej	AAfs3x
evanjelikálny	evanjelikálnu	AAfs4x
evanjelikálny	evanjelikálna	AAfs5x
evanjelikálny	evanjelikálnej	AAfs6x
evanjelikálny	evanjelikálnou	AAfs7x
evanjelikálny	evanjelikálne	AAfp1x
evanjelikálny	evanjelikálnych	AAfp2x
evanjelikálny	evanjelikálnym	AAfp3x
evanjelikálny	evanjelikálne	AAfp4x
evanjelikálny	evanjelikálne	AAfp5x
evanjelikálny	evanjelikálnych	AAfp6x
evanjelikálny	evanjelikálnymi	AAfp7x
evanjelikálny	evanjelikálne	AAns1x
evanjelikálny	evanjelikálneho	AAns2x
evanjelikálny	evanjelikálnemu	AAns3x
evanjelikálny	evanjelikálne	AAns4x
evanjelikálny	evanjelikálne	AAns5x
evanjelikálny	evanjelikálnom	AAns6x
evanjelikálny	evanjelikálnym	AAns7x
evanjelikálny	evanjelikálne	AAnp1x
evanjelikálny	evanjelikálnych	AAnp2x
evanjelikálny	evanjelikálnym	AAnp3x
evanjelikálny	evanjelikálne	AAnp4x
evanjelikálny	evanjelikálne	AAnp5x
evanjelikálny	evanjelikálnych	AAnp6x
evanjelikálny	evanjelikálnymi	AAnp7x
evanjeliovo	evanjeliovo	Dx
evanjeliový	evanjeliový	AAms1x
evanjeliový	evanjeliového	AAms2x
evanjeliový	evanjeliovému	AAms3x
evanjeliový	evanjeliového	AAms4x
evanjeliový	evanjeliový	AAms5x
evanjeliový	evanjeliovom	AAms6x
evanjeliový	evanjeliovým	AAms7x
evanjeliový	evanjelioví	AAmp1x
evanjeliový	evanjeliových	AAmp2x
evanjeliový	evanjeliovým	AAmp3x
evanjeliový	evanjeliových	AAmp4x
evanjeliový	evanjelioví	AAmp5x
evanjeliový	evanjeliových	AAmp6x
evanjeliový	evanjeliovými	AAmp7x
evanjeliový	evanjeliový	AAis1x
evanjeliový	evanjeliového	AAis2x
evanjeliový	evanjeliovému	AAis3x
evanjeliový	evanjeliový	AAis4x
evanjeliový	evanjeliový	AAis5x
evanjeliový	evanjeliovom	AAis6x
evanjeliový	evanjeliovým	AAis7x
evanjeliový	evanjeliové	AAip1x
evanjeliový	evanjeliových	AAip2x
evanjeliový	evanjeliovým	AAip3x
evanjeliový	evanjeliové	AAip4x
evanjeliový	evanjeliové	AAip5x
evanjeliový	evanjeliových	AAip6x
evanjeliový	evanjeliovými	AAip7x
evanjeliový	evanjeliová	AAfs1x
evanjeliový	evanjeliovej	AAfs2x
evanjeliový	evanjeliovej	AAfs3x
evanjeliový	evanjeliovú	AAfs4x
evanjeliový	evanjeliová	AAfs5x
evanjeliový	evanjeliovej	AAfs6x
evanjeliový	evanjeliovou	AAfs7x
evanjeliový	evanjeliové	AAfp1x
evanjeliový	evanjeliových	AAfp2x
evanjeliový	evanjeliovým	AAfp3x
evanjeliový	evanjeliové	AAfp4x
evanjeliový	evanjeliové	AAfp5x
evanjeliový	evanjeliových	AAfp6x
evanjeliový	evanjeliovými	AAfp7x
evanjeliový	evanjeliové	AAns1x
evanjeliový	evanjeliového	AAns2x
evanjeliový	evanjeliovému	AAns3x
evanjeliový	evanjeliové	AAns4x
evanjeliový	evanjeliové	AAns5x
evanjeliový	evanjeliovom	AAns6x
evanjeliový	evanjeliovým	AAns7x
evanjeliový	evanjeliové	AAnp1x
evanjeliový	evanjeliových	AAnp2x
evanjeliový	evanjeliovým	AAnp3x
evanjeliový	evanjeliové	AAnp4x
evanjeliový	evanjeliové	AAnp5x
evanjeliový	evanjeliových	AAnp6x
evanjeliový	evanjeliovými	AAnp7x
evanjelista	evanjelista	SSms1
evanjelista	evanjelistu	SSms2
evanjelista	evanjelistovi	SSms3
evanjelista	evanjelistu	SSms4
evanjelista	evanjelista	SSms5
evanjelista	evanjelistovi	SSms6
evanjelista	evanjelistom	SSms7
evanjelista	evanjelisti	SSmp1
evanjelista	evanjelistov	SSmp2
evanjelista	evanjelistom	SSmp3
evanjelista	evanjelistov	SSmp4
evanjelista	evanjelisti	SSmp5
evanjelista	evanjelistoch	SSmp6
evanjelista	evanjelistami	SSmp7
evanjelium	evanjelium	SSns1
evanjelium	evanjelia	SSns2
evanjelium	evanjeliu	SSns3
evanjelium	evanjelium	SSns4
evanjelium	evanjelium	SSns5
evanjelium	evanjeliu	SSns6
evanjelium	evanjeliom	SSns7
evanjelium	evanjeliá	SSnp1
evanjelium	evanjelií	SSnp2
evanjelium	evanjeliám	SSnp3
evanjelium	evanjeliá	SSnp4
evanjelium	evanjeliá	SSnp5
evanjelium	evanjeliách	SSnp6
evanjelium	evanjeliami	SSnp7
evanjelizačný	evanjelizačný	AAms1x
evanjelizačný	evanjelizačného	AAms2x
evanjelizačný	evanjelizačnému	AAms3x
evanjelizačný	evanjelizačného	AAms4x
evanjelizačný	evanjelizačný	AAms5x
evanjelizačný	evanjelizačnom	AAms6x
evanjelizačný	evanjelizačným	AAms7x
evanjelizačný	evanjelizační	AAmp1x
evanjelizačný	evanjelizačných	AAmp2x
evanjelizačný	evanjelizačným	AAmp3x
evanjelizačný	evanjelizačných	AAmp4x
evanjelizačný	evanjelizační	AAmp5x
evanjelizačný	evanjelizačných	AAmp6x
evanjelizačný	evanjelizačnými	AAmp7x
evanjelizačný	evanjelizačný	AAis1x
evanjelizačný	evanjelizačného	AAis2x
evanjelizačný	evanjelizačnému	AAis3x
evanjelizačný	evanjelizačný	AAis4x
evanjelizačný	evanjelizačný	AAis5x
evanjelizačný	evanjelizačnom	AAis6x
evanjelizačný	evanjelizačným	AAis7x
evanjelizačný	evanjelizačné	AAip1x
evanjelizačný	evanjelizačných	AAip2x
evanjelizačný	evanjelizačným	AAip3x
evanjelizačný	evanjelizačné	AAip4x
evanjelizačný	evanjelizačné	AAip5x
evanjelizačný	evanjelizačných	AAip6x
evanjelizačný	evanjelizačnými	AAip7x
evanjelizačný	evanjelizačná	AAfs1x
evanjelizačný	evanjelizačnej	AAfs2x
evanjelizačný	evanjelizačnej	AAfs3x
evanjelizačný	evanjelizačnú	AAfs4x
evanjelizačný	evanjelizačná	AAfs5x
evanjelizačný	evanjelizačnej	AAfs6x
evanjelizačný	evanjelizačnou	AAfs7x
evanjelizačný	evanjelizačné	AAfp1x
evanjelizačný	evanjelizačných	AAfp2x
evanjelizačný	evanjelizačným	AAfp3x
evanjelizačný	evanjelizačné	AAfp4x
evanjelizačný	evanjelizačné	AAfp5x
evanjelizačný	evanjelizačných	AAfp6x
evanjelizačný	evanjelizačnými	AAfp7x
evanjelizačný	evanjelizačné	AAns1x
evanjelizačný	evanjelizačného	AAns2x
evanjelizačný	evanjelizačnému	AAns3x
evanjelizačný	evanjelizačné	AAns4x
evanjelizačný	evanjelizačné	AAns5x
evanjelizačný	evanjelizačnom	AAns6x
evanjelizačný	evanjelizačným	AAns7x
evanjelizačný	evanjelizačné	AAnp1x
evanjelizačný	evanjelizačných	AAnp2x
evanjelizačný	evanjelizačným	AAnp3x
evanjelizačný	evanjelizačné	AAnp4x
evanjelizačný	evanjelizačné	AAnp5x
evanjelizačný	evanjelizačných	AAnp6x
evanjelizačný	evanjelizačnými	AAnp7x
evanjelizovať	evanjelizovať	VIe+
evanjelizovať	evanjelizujem	VKesa+
evanjelizovať	evanjelizuješ	VKesb+
evanjelizovať	evanjelizuje	VKesc+
evanjelizovať	evanjelizujeme	VKepa+
evanjelizovať	evanjelizujete	VKepb+
evanjelizovať	evanjelizujú	VKepc+
evanjelizovať	evanjelizuj	VMesb+
evanjelizovať	evanjelizujme	VMepa+
evanjelizovať	evanjelizujte	VMepb+
evanjelizovať	evanjelizujúc	VHe+
evanjelizovať	evanjelizoval	VLesam+
evanjelizovať	evanjelizoval	VLesai+
evanjelizovať	evanjelizoval	VLesbm+
evanjelizovať	evanjelizoval	VLesbi+
evanjelizovať	evanjelizoval	VLescm+
evanjelizovať	evanjelizoval	VLesci+
evanjelizovať	evanjelizovala	VLesaf+
evanjelizovať	evanjelizovala	VLesbf+
evanjelizovať	evanjelizovala	VLescf+
evanjelizovať	evanjelizovalo	VLesan+
evanjelizovať	evanjelizovalo	VLesbn+
evanjelizovať	evanjelizovalo	VLescn+
evanjelizovať	evanjelizovali	VLepah+
evanjelizovať	evanjelizovali	VLepbh+
evanjelizovať	evanjelizovali	VLepcm+
evanjelizovať	evanjelizovali	VLepci+
evanjelizovať	evanjelizovali	VLepcf+
evanjelizovať	evanjelizovali	VLepcn+
evanjelizovať	evanjelizovali	VLepco+
evanjelizácia	evanjelizácia	SSfs1
evanjelizácia	evanjelizácie	SSfs2
evanjelizácia	evanjelizácii	SSfs3
evanjelizácia	evanjelizáciu	SSfs4
evanjelizácia	evanjelizácia	SSfs5
evanjelizácia	evanjelizácii	SSfs6
evanjelizácia	evanjelizáciou	SSfs7
evanjelizácia	evanjelizácie	SSfp1
evanjelizácia	evanjelizácií	SSfp2
evanjelizácia	evanjelizáciám	SSfp3
evanjelizácia	evanjelizácie	SSfp4
evanjelizácia	evanjelizácie	SSfp5
evanjelizácia	evanjelizáciách	SSfp6
evanjelizácia	evanjelizáciami	SSfp7
evanjelizátor	evanjelizátor	SSms1
evanjelizátor	evanjelizátora	SSms2
evanjelizátor	evanjelizátorovi	SSms3
evanjelizátor	evanjelizátora	SSms4
evanjelizátor	evanjelizátor	SSms5
evanjelizátor	evanjelizátorovi	SSms6
evanjelizátor	evanjelizátorom	SSms7
evanjelizátor	evanjelizátori	SSmp1
evanjelizátor	evanjelizátorov	SSmp2
evanjelizátor	evanjelizátorom	SSmp3
evanjelizátor	evanjelizátorov	SSmp4
evanjelizátor	evanjelizátori	SSmp5
evanjelizátor	evanjelizátoroch	SSmp6
evanjelizátor	evanjelizátormi	SSmp7
evanjelizátorka	evanjelizátorka	SSfs1
evanjelizátorka	evanjelizátorky	SSfs2
evanjelizátorka	evanjelizátorke	SSfs3
evanjelizátorka	evanjelizátorku	SSfs4
evanjelizátorka	evanjelizátorka	SSfs5
evanjelizátorka	evanjelizátorke	SSfs6
evanjelizátorka	evanjelizátorkou	SSfs7
evanjelizátorka	evanjelizátorky	SSfp1
evanjelizátorka	evanjelizátoriek	SSfp2
evanjelizátorka	evanjelizátorkám	SSfp3
evanjelizátorka	evanjelizátorky	SSfp4
evanjelizátorka	evanjelizátorky	SSfp5
evanjelizátorka	evanjelizátorkách	SSfp6
evanjelizátorka	evanjelizátorkami	SSfp7
evanjeliár	evanjeliár	SSis1
evanjeliár	evanjeliára	SSis2
evanjeliár	evanjeliáru	SSis3
evanjeliár	evanjeliár	SSis4
evanjeliár	evanjeliár	SSis5
evanjeliár	evanjeliári	SSis6
evanjeliár	evanjeliárom	SSis7
evanjeliár	evanjeliáre	SSip1
evanjeliár	evanjeliárov	SSip2
evanjeliár	evanjeliárom	SSip3
evanjeliár	evanjeliáre	SSip4
evanjeliár	evanjeliáre	SSip5
evanjeliár	evanjeliároch	SSip6
evanjeliár	evanjeliármi	SSip7
evanjelička	evanjelička	SSfs1
evanjelička	evanjeličky	SSfs2
evanjelička	evanjeličke	SSfs3
evanjelička	evanjeličku	SSfs4
evanjelička	evanjelička	SSfs5
evanjelička	evanjeličke	SSfs6
evanjelička	evanjeličkou	SSfs7
evanjelička	evanjeličky	SSfp1
evanjelička	evanjeličiek	SSfp2
evanjelička	evanjeličkám	SSfp3
evanjelička	evanjeličky	SSfp4
evanjelička	evanjeličky	SSfp5
evanjelička	evanjeličkách	SSfp6
evanjelička	evanjeličkami	SSfp7
evenkovsky	evenkovsky	Dx
evenkovský	evenkovský	AAms1x
evenkovský	evenkovského	AAms2x
evenkovský	evenkovskému	AAms3x
evenkovský	evenkovského	AAms4x
evenkovský	evenkovský	AAms5x
evenkovský	evenkovskom	AAms6x
evenkovský	evenkovským	AAms7x
evenkovský	evenkovskí	AAmp1x
evenkovský	evenkovských	AAmp2x
evenkovský	evenkovským	AAmp3x
evenkovský	evenkovských	AAmp4x
evenkovský	evenkovskí	AAmp5x
evenkovský	evenkovských	AAmp6x
evenkovský	evenkovskými	AAmp7x
evenkovský	evenkovský	AAis1x
evenkovský	evenkovského	AAis2x
evenkovský	evenkovskému	AAis3x
evenkovský	evenkovský	AAis4x
evenkovský	evenkovský	AAis5x
evenkovský	evenkovskom	AAis6x
evenkovský	evenkovským	AAis7x
evenkovský	evenkovské	AAip1x
evenkovský	evenkovských	AAip2x
evenkovský	evenkovským	AAip3x
evenkovský	evenkovské	AAip4x
evenkovský	evenkovské	AAip5x
evenkovský	evenkovských	AAip6x
evenkovský	evenkovskými	AAip7x
evenkovský	evenkovská	AAfs1x
evenkovský	evenkovskej	AAfs2x
evenkovský	evenkovskej	AAfs3x
evenkovský	evenkovskú	AAfs4x
evenkovský	evenkovská	AAfs5x
evenkovský	evenkovskej	AAfs6x
evenkovský	evenkovskou	AAfs7x
evenkovský	evenkovské	AAfp1x
evenkovský	evenkovských	AAfp2x
evenkovský	evenkovským	AAfp3x
evenkovský	evenkovské	AAfp4x
evenkovský	evenkovské	AAfp5x
evenkovský	evenkovských	AAfp6x
evenkovský	evenkovskými	AAfp7x
evenkovský	evenkovské	AAns1x
evenkovský	evenkovského	AAns2x
evenkovský	evenkovskému	AAns3x
evenkovský	evenkovské	AAns4x
evenkovský	evenkovské	AAns5x
evenkovský	evenkovskom	AAns6x
evenkovský	evenkovským	AAns7x
evenkovský	evenkovské	AAnp1x
evenkovský	evenkovských	AAnp2x
evenkovský	evenkovským	AAnp3x
evenkovský	evenkovské	AAnp4x
evenkovský	evenkovské	AAnp5x
evenkovský	evenkovských	AAnp6x
evenkovský	evenkovskými	AAnp7x
evenkovčina	evenkovčina	SSfs1
evenkovčina	evenkovčiny	SSfs2
evenkovčina	evenkovčine	SSfs3
evenkovčina	evenkovčinu	SSfs4
evenkovčina	evenkovčina	SSfs5
evenkovčina	evenkovčine	SSfs6
evenkovčina	evenkovčinou	SSfs7
evenkovčina	evenkovčiny	SSfp1
evenkovčina	evenkovčín	SSfp2
evenkovčina	evenkovčinám	SSfp3
evenkovčina	evenkovčiny	SSfp4
evenkovčina	evenkovčiny	SSfp5
evenkovčina	evenkovčinách	SSfp6
evenkovčina	evenkovčinami	SSfp7
evensky	evensky	Dx
evenský	evenský	AAms1x
evenský	evenského	AAms2x
evenský	evenskému	AAms3x
evenský	evenského	AAms4x
evenský	evenský	AAms5x
evenský	evenskom	AAms6x
evenský	evenským	AAms7x
evenský	evenskí	AAmp1x
evenský	evenských	AAmp2x
evenský	evenským	AAmp3x
evenský	evenských	AAmp4x
evenský	evenskí	AAmp5x
evenský	evenských	AAmp6x
evenský	evenskými	AAmp7x
evenský	evenský	AAis1x
evenský	evenského	AAis2x
evenský	evenskému	AAis3x
evenský	evenský	AAis4x
evenský	evenský	AAis5x
evenský	evenskom	AAis6x
evenský	evenským	AAis7x
evenský	evenské	AAip1x
evenský	evenských	AAip2x
evenský	evenským	AAip3x
evenský	evenské	AAip4x
evenský	evenské	AAip5x
evenský	evenských	AAip6x
evenský	evenskými	AAip7x
evenský	evenská	AAfs1x
evenský	evenskej	AAfs2x
evenský	evenskej	AAfs3x
evenský	evenskú	AAfs4x
evenský	evenská	AAfs5x
evenský	evenskej	AAfs6x
evenský	evenskou	AAfs7x
evenský	evenské	AAfp1x
evenský	evenských	AAfp2x
evenský	evenským	AAfp3x
evenský	evenské	AAfp4x
evenský	evenské	AAfp5x
evenský	evenských	AAfp6x
evenský	evenskými	AAfp7x
evenský	evenské	AAns1x
evenský	evenského	AAns2x
evenský	evenskému	AAns3x
evenský	evenské	AAns4x
evenský	evenské	AAns5x
evenský	evenskom	AAns6x
evenský	evenským	AAns7x
evenský	evenské	AAnp1x
evenský	evenských	AAnp2x
evenský	evenským	AAnp3x
evenský	evenské	AAnp4x
evenský	evenské	AAnp5x
evenský	evenských	AAnp6x
evenský	evenskými	AAnp7x
event	event	W
eventualita	eventualita	SSfs1
eventualita	eventuality	SSfs2
eventualita	eventualite	SSfs3
eventualita	eventualitu	SSfs4
eventualita	eventualita	SSfs5
eventualita	eventualite	SSfs6
eventualita	eventualitou	SSfs7
eventualita	eventuality	SSfp1
eventualita	eventualít	SSfp2
eventualita	eventualitám	SSfp3
eventualita	eventuality	SSfp4
eventualita	eventuality	SSfp5
eventualita	eventualitách	SSfp6
eventualita	eventualitami	SSfp7
eventuálne	eventuálne	Dx
eventuálne	eventuálne	T
eventuálnosť	eventuálnosť	SSfs1
eventuálnosť	eventuálnosti	SSfs2
eventuálnosť	eventuálnosti	SSfs3
eventuálnosť	eventuálnosť	SSfs4
eventuálnosť	eventuálnosť	SSfs5
eventuálnosť	eventuálnosti	SSfs6
eventuálnosť	eventuálnosťou	SSfs7
eventuálnosť	eventuálnosti	SSfp1
eventuálnosť	eventuálností	SSfp2
eventuálnosť	eventuálnostiam	SSfp3
eventuálnosť	eventuálnosti	SSfp4
eventuálnosť	eventuálnosti	SSfp5
eventuálnosť	eventuálnostiach	SSfp6
eventuálnosť	eventuálnosťami	SSfp7
eventuálny	eventuálny	AAms1x
eventuálny	eventuálneho	AAms2x
eventuálny	eventuálnemu	AAms3x
eventuálny	eventuálneho	AAms4x
eventuálny	eventuálny	AAms5x
eventuálny	eventuálnom	AAms6x
eventuálny	eventuálnym	AAms7x
eventuálny	eventuálni	AAmp1x
eventuálny	eventuálnych	AAmp2x
eventuálny	eventuálnym	AAmp3x
eventuálny	eventuálnych	AAmp4x
eventuálny	eventuálni	AAmp5x
eventuálny	eventuálnych	AAmp6x
eventuálny	eventuálnymi	AAmp7x
eventuálny	eventuálny	AAis1x
eventuálny	eventuálneho	AAis2x
eventuálny	eventuálnemu	AAis3x
eventuálny	eventuálny	AAis4x
eventuálny	eventuálny	AAis5x
eventuálny	eventuálnom	AAis6x
eventuálny	eventuálnym	AAis7x
eventuálny	eventuálne	AAip1x
eventuálny	eventuálnych	AAip2x
eventuálny	eventuálnym	AAip3x
eventuálny	eventuálne	AAip4x
eventuálny	eventuálne	AAip5x
eventuálny	eventuálnych	AAip6x
eventuálny	eventuálnymi	AAip7x
eventuálny	eventuálna	AAfs1x
eventuálny	eventuálnej	AAfs2x
eventuálny	eventuálnej	AAfs3x
eventuálny	eventuálnu	AAfs4x
eventuálny	eventuálna	AAfs5x
eventuálny	eventuálnej	AAfs6x
eventuálny	eventuálnou	AAfs7x
eventuálny	eventuálne	AAfp1x
eventuálny	eventuálnych	AAfp2x
eventuálny	eventuálnym	AAfp3x
eventuálny	eventuálne	AAfp4x
eventuálny	eventuálne	AAfp5x
eventuálny	eventuálnych	AAfp6x
eventuálny	eventuálnymi	AAfp7x
eventuálny	eventuálne	AAns1x
eventuálny	eventuálneho	AAns2x
eventuálny	eventuálnemu	AAns3x
eventuálny	eventuálne	AAns4x
eventuálny	eventuálne	AAns5x
eventuálny	eventuálnom	AAns6x
eventuálny	eventuálnym	AAns7x
eventuálny	eventuálne	AAnp1x
eventuálny	eventuálnych	AAnp2x
eventuálny	eventuálnym	AAnp3x
eventuálny	eventuálne	AAnp4x
eventuálny	eventuálne	AAnp5x
eventuálny	eventuálnych	AAnp6x
eventuálny	eventuálnymi	AAnp7x
evenčina	evenčina	SSfs1
evenčina	evenčiny	SSfs2
evenčina	evenčine	SSfs3
evenčina	evenčinu	SSfs4
evenčina	evenčina	SSfs5
evenčina	evenčine	SSfs6
evenčina	evenčinou	SSfs7
evenčina	evenčiny	SSfp1
evenčina	evenčín	SSfp2
evenčina	evenčinám	SSfp3
evenčina	evenčiny	SSfp4
evenčina	evenčiny	SSfp5
evenčina	evenčinách	SSfp6
evenčina	evenčinami	SSfp7
everest	everest	SSis1
everest	everestu	SSis2
everest	everestu	SSis3
everest	everest	SSis4
everest	everest	SSis5
everest	evereste	SSis6
everest	everestom	SSis7
everest	everesty	SSip1
everest	everestov	SSip2
everest	everestom	SSip3
everest	everesty	SSip4
everest	everesty	SSip5
everest	everestoch	SSip6
everest	everestmi	SSip7
everestský	everestský	AAms1x
everestský	everestského	AAms2x
everestský	everestskému	AAms3x
everestský	everestského	AAms4x
everestský	everestský	AAms5x
everestský	everestskom	AAms6x
everestský	everestským	AAms7x
everestský	everestskí	AAmp1x
everestský	everestských	AAmp2x
everestský	everestským	AAmp3x
everestský	everestských	AAmp4x
everestský	everestskí	AAmp5x
everestský	everestských	AAmp6x
everestský	everestskými	AAmp7x
everestský	everestský	AAis1x
everestský	everestského	AAis2x
everestský	everestskému	AAis3x
everestský	everestský	AAis4x
everestský	everestský	AAis5x
everestský	everestskom	AAis6x
everestský	everestským	AAis7x
everestský	everestské	AAip1x
everestský	everestských	AAip2x
everestský	everestským	AAip3x
everestský	everestské	AAip4x
everestský	everestské	AAip5x
everestský	everestských	AAip6x
everestský	everestskými	AAip7x
everestský	everestská	AAfs1x
everestský	everestskej	AAfs2x
everestský	everestskej	AAfs3x
everestský	everestskú	AAfs4x
everestský	everestská	AAfs5x
everestský	everestskej	AAfs6x
everestský	everestskou	AAfs7x
everestský	everestské	AAfp1x
everestský	everestských	AAfp2x
everestský	everestským	AAfp3x
everestský	everestské	AAfp4x
everestský	everestské	AAfp5x
everestský	everestských	AAfp6x
everestský	everestskými	AAfp7x
everestský	everestské	AAns1x
everestský	everestského	AAns2x
everestský	everestskému	AAns3x
everestský	everestské	AAns4x
everestský	everestské	AAns5x
everestský	everestskom	AAns6x
everestský	everestským	AAns7x
everestský	everestské	AAnp1x
everestský	everestských	AAnp2x
everestský	everestským	AAnp3x
everestský	everestské	AAnp4x
everestský	everestské	AAnp5x
everestský	everestských	AAnp6x
everestský	everestskými	AAnp7x
evergreen	evergreen	SSis1
evergreen	evergreenu	SSis2
evergreen	evergreenu	SSis3
evergreen	evergreen	SSis4
evergreen	evergreen	SSis5
evergreen	evergreene	SSis6
evergreen	evergreenom	SSis7
evergreen	evergreeny	SSip1
evergreen	evergreenov	SSip2
evergreen	evergreenom	SSip3
evergreen	evergreeny	SSip4
evergreen	evergreeny	SSip5
evergreen	evergreenoch	SSip6
evergreen	evergreenmi	SSip7
evergreenový	evergreenový	AAms1x
evergreenový	evergreenového	AAms2x
evergreenový	evergreenovému	AAms3x
evergreenový	evergreenového	AAms4x
evergreenový	evergreenový	AAms5x
evergreenový	evergreenovom	AAms6x
evergreenový	evergreenovým	AAms7x
evergreenový	evergreenoví	AAmp1x
evergreenový	evergreenových	AAmp2x
evergreenový	evergreenovým	AAmp3x
evergreenový	evergreenových	AAmp4x
evergreenový	evergreenoví	AAmp5x
evergreenový	evergreenových	AAmp6x
evergreenový	evergreenovými	AAmp7x
evergreenový	evergreenový	AAis1x
evergreenový	evergreenového	AAis2x
evergreenový	evergreenovému	AAis3x
evergreenový	evergreenový	AAis4x
evergreenový	evergreenový	AAis5x
evergreenový	evergreenovom	AAis6x
evergreenový	evergreenovým	AAis7x
evergreenový	evergreenové	AAip1x
evergreenový	evergreenových	AAip2x
evergreenový	evergreenovým	AAip3x
evergreenový	evergreenové	AAip4x
evergreenový	evergreenové	AAip5x
evergreenový	evergreenových	AAip6x
evergreenový	evergreenovými	AAip7x
evergreenový	evergreenová	AAfs1x
evergreenový	evergreenovej	AAfs2x
evergreenový	evergreenovej	AAfs3x
evergreenový	evergreenovú	AAfs4x
evergreenový	evergreenová	AAfs5x
evergreenový	evergreenovej	AAfs6x
evergreenový	evergreenovou	AAfs7x
evergreenový	evergreenové	AAfp1x
evergreenový	evergreenových	AAfp2x
evergreenový	evergreenovým	AAfp3x
evergreenový	evergreenové	AAfp4x
evergreenový	evergreenové	AAfp5x
evergreenový	evergreenových	AAfp6x
evergreenový	evergreenovými	AAfp7x
evergreenový	evergreenové	AAns1x
evergreenový	evergreenového	AAns2x
evergreenový	evergreenovému	AAns3x
evergreenový	evergreenové	AAns4x
evergreenový	evergreenové	AAns5x
evergreenový	evergreenovom	AAns6x
evergreenový	evergreenovým	AAns7x
evergreenový	evergreenové	AAnp1x
evergreenový	evergreenových	AAnp2x
evergreenový	evergreenovým	AAnp3x
evergreenový	evergreenové	AAnp4x
evergreenový	evergreenové	AAnp5x
evergreenový	evergreenových	AAnp6x
evergreenový	evergreenovými	AAnp7x
evergrín	evergrín	SSis1
evergrín	evergrínu	SSis2
evergrín	evergrínu	SSis3
evergrín	evergrín	SSis4
evergrín	evergrín	SSis5
evergrín	evergríne	SSis6
evergrín	evergrínom	SSis7
evergrín	evergríny	SSip1
evergrín	evergrínov	SSip2
evergrín	evergrínom	SSip3
evergrín	evergríny	SSip4
evergrín	evergríny	SSip5
evergrín	evergrínoch	SSip6
evergrín	evergrínmi	SSip7
evergrínový	evergrínový	AAms1x
evergrínový	evergrínového	AAms2x
evergrínový	evergrínovému	AAms3x
evergrínový	evergrínového	AAms4x
evergrínový	evergrínový	AAms5x
evergrínový	evergrínovom	AAms6x
evergrínový	evergrínovým	AAms7x
evergrínový	evergrínoví	AAmp1x
evergrínový	evergrínových	AAmp2x
evergrínový	evergrínovým	AAmp3x
evergrínový	evergrínových	AAmp4x
evergrínový	evergrínoví	AAmp5x
evergrínový	evergrínových	AAmp6x
evergrínový	evergrínovými	AAmp7x
evergrínový	evergrínový	AAis1x
evergrínový	evergrínového	AAis2x
evergrínový	evergrínovému	AAis3x
evergrínový	evergrínový	AAis4x
evergrínový	evergrínový	AAis5x
evergrínový	evergrínovom	AAis6x
evergrínový	evergrínovým	AAis7x
evergrínový	evergrínové	AAip1x
evergrínový	evergrínových	AAip2x
evergrínový	evergrínovým	AAip3x
evergrínový	evergrínové	AAip4x
evergrínový	evergrínové	AAip5x
evergrínový	evergrínových	AAip6x
evergrínový	evergrínovými	AAip7x
evergrínový	evergrínová	AAfs1x
evergrínový	evergrínovej	AAfs2x
evergrínový	evergrínovej	AAfs3x
evergrínový	evergrínovú	AAfs4x
evergrínový	evergrínová	AAfs5x
evergrínový	evergrínovej	AAfs6x
evergrínový	evergrínovou	AAfs7x
evergrínový	evergrínové	AAfp1x
evergrínový	evergrínových	AAfp2x
evergrínový	evergrínovým	AAfp3x
evergrínový	evergrínové	AAfp4x
evergrínový	evergrínové	AAfp5x
evergrínový	evergrínových	AAfp6x
evergrínový	evergrínovými	AAfp7x
evergrínový	evergrínové	AAns1x
evergrínový	evergrínového	AAns2x
evergrínový	evergrínovému	AAns3x
evergrínový	evergrínové	AAns4x
evergrínový	evergrínové	AAns5x
evergrínový	evergrínovom	AAns6x
evergrínový	evergrínovým	AAns7x
evergrínový	evergrínové	AAnp1x
evergrínový	evergrínových	AAnp2x
evergrínový	evergrínovým	AAnp3x
evergrínový	evergrínové	AAnp4x
evergrínový	evergrínové	AAnp5x
evergrínový	evergrínových	AAnp6x
evergrínový	evergrínovými	AAnp7x
evidencia	evidencia	SSfs1
evidencia	evidencie	SSfs2
evidencia	evidencii	SSfs3
evidencia	evidenciu	SSfs4
evidencia	evidencia	SSfs5
evidencia	evidencii	SSfs6
evidencia	evidenciou	SSfs7
evidencia	evidencie	SSfp1
evidencia	evidencií	SSfp2
evidencia	evidenciám	SSfp3
evidencia	evidencie	SSfp4
evidencia	evidencie	SSfp5
evidencia	evidenciách	SSfp6
evidencia	evidenciami	SSfp7
evidentne	evidentne	Dx
evidentne	evidentnejšie	Dy
evidentne	najevidentnejšie	Dz
evidentnosť	evidentnosť	SSfs1
evidentnosť	evidentnosti	SSfs2
evidentnosť	evidentnosti	SSfs3
evidentnosť	evidentnosť	SSfs4
evidentnosť	evidentnosť	SSfs5
evidentnosť	evidentnosti	SSfs6
evidentnosť	evidentnosťou	SSfs7
evidentnosť	evidentnosti	SSfp1
evidentnosť	evidentností	SSfp2
evidentnosť	evidentnostiam	SSfp3
evidentnosť	evidentnosti	SSfp4
evidentnosť	evidentnosti	SSfp5
evidentnosť	evidentnostiach	SSfp6
evidentnosť	evidentnosťami	SSfp7
evidentný	evidentný	AAms1x
evidentný	evidentného	AAms2x
evidentný	evidentnému	AAms3x
evidentný	evidentného	AAms4x
evidentný	evidentný	AAms5x
evidentný	evidentnom	AAms6x
evidentný	evidentným	AAms7x
evidentný	evidentní	AAmp1x
evidentný	evidentných	AAmp2x
evidentný	evidentným	AAmp3x
evidentný	evidentných	AAmp4x
evidentný	evidentní	AAmp5x
evidentný	evidentných	AAmp6x
evidentný	evidentnými	AAmp7x
evidentný	evidentný	AAis1x
evidentný	evidentného	AAis2x
evidentný	evidentnému	AAis3x
evidentný	evidentný	AAis4x
evidentný	evidentný	AAis5x
evidentný	evidentnom	AAis6x
evidentný	evidentným	AAis7x
evidentný	evidentné	AAip1x
evidentný	evidentných	AAip2x
evidentný	evidentným	AAip3x
evidentný	evidentné	AAip4x
evidentný	evidentné	AAip5x
evidentný	evidentných	AAip6x
evidentný	evidentnými	AAip7x
evidentný	evidentná	AAfs1x
evidentný	evidentnej	AAfs2x
evidentný	evidentnej	AAfs3x
evidentný	evidentnú	AAfs4x
evidentný	evidentná	AAfs5x
evidentný	evidentnej	AAfs6x
evidentný	evidentnou	AAfs7x
evidentný	evidentné	AAfp1x
evidentný	evidentných	AAfp2x
evidentný	evidentným	AAfp3x
evidentný	evidentné	AAfp4x
evidentný	evidentné	AAfp5x
evidentný	evidentných	AAfp6x
evidentný	evidentnými	AAfp7x
evidentný	evidentné	AAns1x
evidentný	evidentného	AAns2x
evidentný	evidentnému	AAns3x
evidentný	evidentné	AAns4x
evidentný	evidentné	AAns5x
evidentný	evidentnom	AAns6x
evidentný	evidentným	AAns7x
evidentný	evidentné	AAnp1x
evidentný	evidentných	AAnp2x
evidentný	evidentným	AAnp3x
evidentný	evidentné	AAnp4x
evidentný	evidentné	AAnp5x
evidentný	evidentných	AAnp6x
evidentný	evidentnými	AAnp7x
evidentný	evidentnejší	AAms1y
evidentný	evidentnejšieho	AAms2y
evidentný	evidentnejšiemu	AAms3y
evidentný	evidentnejšieho	AAms4y
evidentný	evidentnejší	AAms5y
evidentný	evidentnejšom	AAms6y
evidentný	evidentnejším	AAms7y
evidentný	evidentnejší	AAmp1y
evidentný	evidentnejších	AAmp2y
evidentný	evidentnejším	AAmp3y
evidentný	evidentnejších	AAmp4y
evidentný	evidentnejší	AAmp5y
evidentný	evidentnejších	AAmp6y
evidentný	evidentnejšími	AAmp7y
evidentný	evidentnejší	AAis1y
evidentný	evidentnejšieho	AAis2y
evidentný	evidentnejšiemu	AAis3y
evidentný	evidentnejší	AAis4y
evidentný	evidentnejší	AAis5y
evidentný	evidentnejšom	AAis6y
evidentný	evidentnejším	AAis7y
evidentný	evidentnejšie	AAip1y
evidentný	evidentnejších	AAip2y
evidentný	evidentnejším	AAip3y
evidentný	evidentnejšie	AAip4y
evidentný	evidentnejšie	AAip5y
evidentný	evidentnejších	AAip6y
evidentný	evidentnejšími	AAip7y
evidentný	evidentnejšia	AAfs1y
evidentný	evidentnejšej	AAfs2y
evidentný	evidentnejšej	AAfs3y
evidentný	evidentnejšiu	AAfs4y
evidentný	evidentnejšia	AAfs5y
evidentný	evidentnejšej	AAfs6y
evidentný	evidentnejšou	AAfs7y
evidentný	evidentnejšie	AAfp1y
evidentný	evidentnejších	AAfp2y
evidentný	evidentnejším	AAfp3y
evidentný	evidentnejšie	AAfp4y
evidentný	evidentnejšie	AAfp5y
evidentný	evidentnejších	AAfp6y
evidentný	evidentnejšími	AAfp7y
evidentný	evidentnejšie	AAns1y
evidentný	evidentnejšieho	AAns2y
evidentný	evidentnejšiemu	AAns3y
evidentný	evidentnejšie	AAns4y
evidentný	evidentnejšie	AAns5y
evidentný	evidentnejšom	AAns6y
evidentný	evidentnejším	AAns7y
evidentný	evidentnejšie	AAnp1y
evidentný	evidentnejších	AAnp2y
evidentný	evidentnejším	AAnp3y
evidentný	evidentnejšie	AAnp4y
evidentný	evidentnejšie	AAnp5y
evidentný	evidentnejších	AAnp6y
evidentný	evidentnejšími	AAnp7y
evidentný	najevidentnejší	AAms1z
evidentný	najevidentnejšieho	AAms2z
evidentný	najevidentnejšiemu	AAms3z
evidentný	najevidentnejšieho	AAms4z
evidentný	najevidentnejší	AAms5z
evidentný	najevidentnejšom	AAms6z
evidentný	najevidentnejším	AAms7z
evidentný	najevidentnejší	AAmp1z
evidentný	najevidentnejších	AAmp2z
evidentný	najevidentnejším	AAmp3z
evidentný	najevidentnejších	AAmp4z
evidentný	najevidentnejší	AAmp5z
evidentný	najevidentnejších	AAmp6z
evidentný	najevidentnejšími	AAmp7z
evidentný	najevidentnejší	AAis1z
evidentný	najevidentnejšieho	AAis2z
evidentný	najevidentnejšiemu	AAis3z
evidentný	najevidentnejší	AAis4z
evidentný	najevidentnejší	AAis5z
evidentný	najevidentnejšom	AAis6z
evidentný	najevidentnejším	AAis7z
evidentný	najevidentnejšie	AAip1z
evidentný	najevidentnejších	AAip2z
evidentný	najevidentnejším	AAip3z
evidentný	najevidentnejšie	AAip4z
evidentný	najevidentnejšie	AAip5z
evidentný	najevidentnejších	AAip6z
evidentný	najevidentnejšími	AAip7z
evidentný	najevidentnejšia	AAfs1z
evidentný	najevidentnejšej	AAfs2z
evidentný	najevidentnejšej	AAfs3z
evidentný	najevidentnejšiu	AAfs4z
evidentný	najevidentnejšia	AAfs5z
evidentný	najevidentnejšej	AAfs6z
evidentný	najevidentnejšou	AAfs7z
evidentný	najevidentnejšie	AAfp1z
evidentný	najevidentnejších	AAfp2z
evidentný	najevidentnejším	AAfp3z
evidentný	najevidentnejšie	AAfp4z
evidentný	najevidentnejšie	AAfp5z
evidentný	najevidentnejších	AAfp6z
evidentný	najevidentnejšími	AAfp7z
evidentný	najevidentnejšie	AAns1z
evidentný	najevidentnejšieho	AAns2z
evidentný	najevidentnejšiemu	AAns3z
evidentný	najevidentnejšie	AAns4z
evidentný	najevidentnejšie	AAns5z
evidentný	najevidentnejšom	AAns6z
evidentný	najevidentnejším	AAns7z
evidentný	najevidentnejšie	AAnp1z
evidentný	najevidentnejších	AAnp2z
evidentný	najevidentnejším	AAnp3z
evidentný	najevidentnejšie	AAnp4z
evidentný	najevidentnejšie	AAnp5z
evidentný	najevidentnejších	AAnp6z
evidentný	najevidentnejšími	AAnp7z
evidenčne	evidenčne	Dx
evidenčný	evidenčný	AAms1x
evidenčný	evidenčného	AAms2x
evidenčný	evidenčnému	AAms3x
evidenčný	evidenčného	AAms4x
evidenčný	evidenčný	AAms5x
evidenčný	evidenčnom	AAms6x
evidenčný	evidenčným	AAms7x
evidenčný	evidenční	AAmp1x
evidenčný	evidenčných	AAmp2x
evidenčný	evidenčným	AAmp3x
evidenčný	evidenčných	AAmp4x
evidenčný	evidenční	AAmp5x
evidenčný	evidenčných	AAmp6x
evidenčný	evidenčnými	AAmp7x
evidenčný	evidenčný	AAis1x
evidenčný	evidenčného	AAis2x
evidenčný	evidenčnému	AAis3x
evidenčný	evidenčný	AAis4x
evidenčný	evidenčný	AAis5x
evidenčný	evidenčnom	AAis6x
evidenčný	evidenčným	AAis7x
evidenčný	evidenčné	AAip1x
evidenčný	evidenčných	AAip2x
evidenčný	evidenčným	AAip3x
evidenčný	evidenčné	AAip4x
evidenčný	evidenčné	AAip5x
evidenčný	evidenčných	AAip6x
evidenčný	evidenčnými	AAip7x
evidenčný	evidenčná	AAfs1x
evidenčný	evidenčnej	AAfs2x
evidenčný	evidenčnej	AAfs3x
evidenčný	evidenčnú	AAfs4x
evidenčný	evidenčná	AAfs5x
evidenčný	evidenčnej	AAfs6x
evidenčný	evidenčnou	AAfs7x
evidenčný	evidenčné	AAfp1x
evidenčný	evidenčných	AAfp2x
evidenčný	evidenčným	AAfp3x
evidenčný	evidenčné	AAfp4x
evidenčný	evidenčné	AAfp5x
evidenčný	evidenčných	AAfp6x
evidenčný	evidenčnými	AAfp7x
evidenčný	evidenčné	AAns1x
evidenčný	evidenčného	AAns2x
evidenčný	evidenčnému	AAns3x
evidenčný	evidenčné	AAns4x
evidenčný	evidenčné	AAns5x
evidenčný	evidenčnom	AAns6x
evidenčný	evidenčným	AAns7x
evidenčný	evidenčné	AAnp1x
evidenčný	evidenčných	AAnp2x
evidenčný	evidenčným	AAnp3x
evidenčný	evidenčné	AAnp4x
evidenčný	evidenčné	AAnp5x
evidenčný	evidenčných	AAnp6x
evidenčný	evidenčnými	AAnp7x
evidovaný	evidované	Gtfp1x
evidovaný	evidovaných	Gtfp2x
evidovaný	evidovaným	Gtfp3x
evidovaný	evidované	Gtfp4x
evidovaný	evidované	Gtfp5x
evidovaný	evidovaných	Gtfp6x
evidovaný	evidovanými	Gtfp7x
evidovaný	evidovaná	Gtfs1x
evidovaný	evidovanej	Gtfs2x
evidovaný	evidovanej	Gtfs3x
evidovaný	evidovanú	Gtfs4x
evidovaný	evidovaná	Gtfs5x
evidovaný	evidovanej	Gtfs6x
evidovaný	evidovanou	Gtfs7x
evidovaný	evidované	Gtip1x
evidovaný	evidovaných	Gtip2x
evidovaný	evidovaným	Gtip3x
evidovaný	evidované	Gtip4x
evidovaný	evidované	Gtip5x
evidovaný	evidovaných	Gtip6x
evidovaný	evidovanými	Gtip7x
evidovaný	evidovaný	Gtis1x
evidovaný	evidovaného	Gtis2x
evidovaný	evidovanému	Gtis3x
evidovaný	evidovaný	Gtis4x
evidovaný	evidovaný	Gtis5x
evidovaný	evidovanom	Gtis6x
evidovaný	evidovaným	Gtis7x
evidovaný	evidovaní	Gtmp1x
evidovaný	evidovaných	Gtmp2x
evidovaný	evidovaným	Gtmp3x
evidovaný	evidovaných	Gtmp4x
evidovaný	evidovaní	Gtmp5x
evidovaný	evidovaných	Gtmp6x
evidovaný	evidovanými	Gtmp7x
evidovaný	evidovaný	Gtms1x
evidovaný	evidovaného	Gtms2x
evidovaný	evidovanému	Gtms3x
evidovaný	evidovaného	Gtms4x
evidovaný	evidovaný	Gtms5x
evidovaný	evidovanom	Gtms6x
evidovaný	evidovaným	Gtms7x
evidovaný	evidované	Gtnp1x
evidovaný	evidovaných	Gtnp2x
evidovaný	evidovaným	Gtnp3x
evidovaný	evidované	Gtnp4x
evidovaný	evidované	Gtnp5x
evidovaný	evidovaných	Gtnp6x
evidovaný	evidovanými	Gtnp7x
evidovaný	evidované	Gtns1x
evidovaný	evidovaného	Gtns2x
evidovaný	evidovanému	Gtns3x
evidovaný	evidované	Gtns4x
evidovaný	evidované	Gtns5x
evidovaný	evidovanom	Gtns6x
evidovaný	evidovaným	Gtns7x
evidovať	evidovať	VIe+
evidovať	evidujem	VKesa+
evidovať	eviduješ	VKesb+
evidovať	eviduje	VKesc+
evidovať	evidujeme	VKepa+
evidovať	evidujete	VKepb+
evidovať	evidujú	VKepc+
evidovať	eviduj	VMesb+
evidovať	evidujme	VMepa+
evidovať	evidujte	VMepb+
evidovať	evidujúc	VHe+
evidovať	evidoval	VLesam+
evidovať	evidoval	VLesai+
evidovať	evidoval	VLesbm+
evidovať	evidoval	VLesbi+
evidovať	evidoval	VLescm+
evidovať	evidoval	VLesci+
evidovať	evidovala	VLesaf+
evidovať	evidovala	VLesbf+
evidovať	evidovala	VLescf+
evidovať	evidovalo	VLesan+
evidovať	evidovalo	VLesbn+
evidovať	evidovalo	VLescn+
evidovať	evidovali	VLepah+
evidovať	evidovali	VLepbh+
evidovať	evidovali	VLepcm+
evidovať	evidovali	VLepci+
evidovať	evidovali	VLepcf+
evidovať	evidovali	VLepcn+
evidovať	evidovali	VLepco+
evokačný	evokačný	AAms1x
evokačný	evokačného	AAms2x
evokačný	evokačnému	AAms3x
evokačný	evokačného	AAms4x
evokačný	evokačný	AAms5x
evokačný	evokačnom	AAms6x
evokačný	evokačným	AAms7x
evokačný	evokační	AAmp1x
evokačný	evokačných	AAmp2x
evokačný	evokačným	AAmp3x
evokačný	evokačných	AAmp4x
evokačný	evokační	AAmp5x
evokačný	evokačných	AAmp6x
evokačný	evokačnými	AAmp7x
evokačný	evokačný	AAis1x
evokačný	evokačného	AAis2x
evokačný	evokačnému	AAis3x
evokačný	evokačný	AAis4x
evokačný	evokačný	AAis5x
evokačný	evokačnom	AAis6x
evokačný	evokačným	AAis7x
evokačný	evokačné	AAip1x
evokačný	evokačných	AAip2x
evokačný	evokačným	AAip3x
evokačný	evokačné	AAip4x
evokačný	evokačné	AAip5x
evokačný	evokačných	AAip6x
evokačný	evokačnými	AAip7x
evokačný	evokačná	AAfs1x
evokačný	evokačnej	AAfs2x
evokačný	evokačnej	AAfs3x
evokačný	evokačnú	AAfs4x
evokačný	evokačná	AAfs5x
evokačný	evokačnej	AAfs6x
evokačný	evokačnou	AAfs7x
evokačný	evokačné	AAfp1x
evokačný	evokačných	AAfp2x
evokačný	evokačným	AAfp3x
evokačný	evokačné	AAfp4x
evokačný	evokačné	AAfp5x
evokačný	evokačných	AAfp6x
evokačný	evokačnými	AAfp7x
evokačný	evokačné	AAns1x
evokačný	evokačného	AAns2x
evokačný	evokačnému	AAns3x
evokačný	evokačné	AAns4x
evokačný	evokačné	AAns5x
evokačný	evokačnom	AAns6x
evokačný	evokačným	AAns7x
evokačný	evokačné	AAnp1x
evokačný	evokačných	AAnp2x
evokačný	evokačným	AAnp3x
evokačný	evokačné	AAnp4x
evokačný	evokačné	AAnp5x
evokačný	evokačných	AAnp6x
evokačný	evokačnými	AAnp7x
evokovať	evokovať	VIj+
evokovať	evokujem	VKjsa+
evokovať	evokuješ	VKjsb+
evokovať	evokuje	VKjsc+
evokovať	evokujeme	VKjpa+
evokovať	evokujete	VKjpb+
evokovať	evokujú	VKjpc+
evokovať	evokuj	VMjsb+
evokovať	evokujme	VMjpa+
evokovať	evokujte	VMjpb+
evokovať	evokujúc	VHj+
evokovať	evokoval	VLjsam+
evokovať	evokoval	VLjsai+
evokovať	evokoval	VLjsbm+
evokovať	evokoval	VLjsbi+
evokovať	evokoval	VLjscm+
evokovať	evokoval	VLjsci+
evokovať	evokovala	VLjsaf+
evokovať	evokovala	VLjsbf+
evokovať	evokovala	VLjscf+
evokovať	evokovalo	VLjsan+
evokovať	evokovalo	VLjsbn+
evokovať	evokovalo	VLjscn+
evokovať	evokovali	VLjpah+
evokovať	evokovali	VLjpbh+
evokovať	evokovali	VLjpcm+
evokovať	evokovali	VLjpci+
evokovať	evokovali	VLjpcf+
evokovať	evokovali	VLjpcn+
evokovať	evokovali	VLjpco+
evokácia	evokácia	SSfs1
evokácia	evokácie	SSfs2
evokácia	evokácii	SSfs3
evokácia	evokáciu	SSfs4
evokácia	evokácia	SSfs5
evokácia	evokácii	SSfs6
evokácia	evokáciou	SSfs7
evokácia	evokácie	SSfp1
evokácia	evokácií	SSfp2
evokácia	evokáciám	SSfp3
evokácia	evokácie	SSfp4
evokácia	evokácie	SSfp5
evokácia	evokáciách	SSfp6
evokácia	evokáciami	SSfp7
evolucionista	evolucionista	SSms1
evolucionista	evolucionistu	SSms2
evolucionista	evolucionistovi	SSms3
evolucionista	evolucionistu	SSms4
evolucionista	evolucionista	SSms5
evolucionista	evolucionistovi	SSms6
evolucionista	evolucionistom	SSms7
evolucionista	evolucionisti	SSmp1
evolucionista	evolucionistov	SSmp2
evolucionista	evolucionistom	SSmp3
evolucionista	evolucionistov	SSmp4
evolucionista	evolucionisti	SSmp5
evolucionista	evolucionistoch	SSmp6
evolucionista	evolucionistami	SSmp7
evolucionisticky	evolucionisticky	Dx
evolucionistický	evolucionistický	AAms1x
evolucionistický	evolucionistického	AAms2x
evolucionistický	evolucionistickému	AAms3x
evolucionistický	evolucionistického	AAms4x
evolucionistický	evolucionistický	AAms5x
evolucionistický	evolucionistickom	AAms6x
evolucionistický	evolucionistickým	AAms7x
evolucionistický	evolucionistickí	AAmp1x
evolucionistický	evolucionistických	AAmp2x
evolucionistický	evolucionistickým	AAmp3x
evolucionistický	evolucionistických	AAmp4x
evolucionistický	evolucionistickí	AAmp5x
evolucionistický	evolucionistických	AAmp6x
evolucionistický	evolucionistickými	AAmp7x
evolucionistický	evolucionistický	AAis1x
evolucionistický	evolucionistického	AAis2x
evolucionistický	evolucionistickému	AAis3x
evolucionistický	evolucionistický	AAis4x
evolucionistický	evolucionistický	AAis5x
evolucionistický	evolucionistickom	AAis6x
evolucionistický	evolucionistickým	AAis7x
evolucionistický	evolucionistické	AAip1x
evolucionistický	evolucionistických	AAip2x
evolucionistický	evolucionistickým	AAip3x
evolucionistický	evolucionistické	AAip4x
evolucionistický	evolucionistické	AAip5x
evolucionistický	evolucionistických	AAip6x
evolucionistický	evolucionistickými	AAip7x
evolucionistický	evolucionistická	AAfs1x
evolucionistický	evolucionistickej	AAfs2x
evolucionistický	evolucionistickej	AAfs3x
evolucionistický	evolucionistickú	AAfs4x
evolucionistický	evolucionistická	AAfs5x
evolucionistický	evolucionistickej	AAfs6x
evolucionistický	evolucionistickou	AAfs7x
evolucionistický	evolucionistické	AAfp1x
evolucionistický	evolucionistických	AAfp2x
evolucionistický	evolucionistickým	AAfp3x
evolucionistický	evolucionistické	AAfp4x
evolucionistický	evolucionistické	AAfp5x
evolucionistický	evolucionistických	AAfp6x
evolucionistický	evolucionistickými	AAfp7x
evolucionistický	evolucionistické	AAns1x
evolucionistický	evolucionistického	AAns2x
evolucionistický	evolucionistickému	AAns3x
evolucionistický	evolucionistické	AAns4x
evolucionistický	evolucionistické	AAns5x
evolucionistický	evolucionistickom	AAns6x
evolucionistický	evolucionistickým	AAns7x
evolucionistický	evolucionistické	AAnp1x
evolucionistický	evolucionistických	AAnp2x
evolucionistický	evolucionistickým	AAnp3x
evolucionistický	evolucionistické	AAnp4x
evolucionistický	evolucionistické	AAnp5x
evolucionistický	evolucionistických	AAnp6x
evolucionistický	evolucionistickými	AAnp7x
evolucionizmus	evolucionizmus	SSis1
evolucionizmus	evolucionizmu	SSis2
evolucionizmus	evolucionizmu	SSis3
evolucionizmus	evolucionizmus	SSis4
evolucionizmus	evolucionizmus	SSis5
evolucionizmus	evolucionizme	SSis6
evolucionizmus	evolucionizmom	SSis7
evolucionizmus	evolucionizmy	SSip1
evolucionizmus	evolucionizmov	SSip2
evolucionizmus	evolucionizmom	SSip3
evolucionizmus	evolucionizmy	SSip4
evolucionizmus	evolucionizmy	SSip5
evolucionizmus	evolucionizmoch	SSip6
evolucionizmus	evolucionizmami	SSip7
evolučne	evolučne	Dx
evolučný	evolučný	AAms1x
evolučný	evolučného	AAms2x
evolučný	evolučnému	AAms3x
evolučný	evolučného	AAms4x
evolučný	evolučný	AAms5x
evolučný	evolučnom	AAms6x
evolučný	evolučným	AAms7x
evolučný	evoluční	AAmp1x
evolučný	evolučných	AAmp2x
evolučný	evolučným	AAmp3x
evolučný	evolučných	AAmp4x
evolučný	evoluční	AAmp5x
evolučný	evolučných	AAmp6x
evolučný	evolučnými	AAmp7x
evolučný	evolučný	AAis1x
evolučný	evolučného	AAis2x
evolučný	evolučnému	AAis3x
evolučný	evolučný	AAis4x
evolučný	evolučný	AAis5x
evolučný	evolučnom	AAis6x
evolučný	evolučným	AAis7x
evolučný	evolučné	AAip1x
evolučný	evolučných	AAip2x
evolučný	evolučným	AAip3x
evolučný	evolučné	AAip4x
evolučný	evolučné	AAip5x
evolučný	evolučných	AAip6x
evolučný	evolučnými	AAip7x
evolučný	evolučná	AAfs1x
evolučný	evolučnej	AAfs2x
evolučný	evolučnej	AAfs3x
evolučný	evolučnú	AAfs4x
evolučný	evolučná	AAfs5x
evolučný	evolučnej	AAfs6x
evolučný	evolučnou	AAfs7x
evolučný	evolučné	AAfp1x
evolučný	evolučných	AAfp2x
evolučný	evolučným	AAfp3x
evolučný	evolučné	AAfp4x
evolučný	evolučné	AAfp5x
evolučný	evolučných	AAfp6x
evolučný	evolučnými	AAfp7x
evolučný	evolučné	AAns1x
evolučný	evolučného	AAns2x
evolučný	evolučnému	AAns3x
evolučný	evolučné	AAns4x
evolučný	evolučné	AAns5x
evolučný	evolučnom	AAns6x
evolučný	evolučným	AAns7x
evolučný	evolučné	AAnp1x
evolučný	evolučných	AAnp2x
evolučný	evolučným	AAnp3x
evolučný	evolučné	AAnp4x
evolučný	evolučné	AAnp5x
evolučný	evolučných	AAnp6x
evolučný	evolučnými	AAnp7x
evolúcia	evolúcia	SSfs1
evolúcia	evolúcie	SSfs2
evolúcia	evolúcii	SSfs3
evolúcia	evolúciu	SSfs4
evolúcia	evolúcia	SSfs5
evolúcia	evolúcii	SSfs6
evolúcia	evolúciou	SSfs7
evolúcia	evolúcie	SSfp1
evolúcia	evolúcií	SSfp2
evolúcia	evolúciám	SSfp3
evolúcia	evolúcie	SSfp4
evolúcia	evolúcie	SSfp5
evolúcia	evolúciách	SSfp6
evolúcia	evolúciami	SSfp7
