GHz	GHz	W
Ghana	Ghana	SSfs1
Ghana	Ghany	SSfs2
Ghana	Ghane	SSfs3
Ghana	Ghanu	SSfs4
Ghana	Ghana	SSfs5
Ghana	Ghane	SSfs6
Ghana	Ghanou	SSfs7
ghanský	ghanský	AAms1x
ghanský	ghanského	AAms2x
ghanský	ghanskému	AAms3x
ghanský	ghanského	AAms4x
ghanský	ghanský	AAms5x
ghanský	ghanskom	AAms6x
ghanský	ghanským	AAms7x
ghanský	ghanskí	AAmp1x
ghanský	ghanských	AAmp2x
ghanský	ghanským	AAmp3x
ghanský	ghanských	AAmp4x
ghanský	ghanskí	AAmp5x
ghanský	ghanských	AAmp6x
ghanský	ghanskými	AAmp7x
ghanský	ghanský	AAis1x
ghanský	ghanského	AAis2x
ghanský	ghanskému	AAis3x
ghanský	ghanský	AAis4x
ghanský	ghanský	AAis5x
ghanský	ghanskom	AAis6x
ghanský	ghanským	AAis7x
ghanský	ghanské	AAip1x
ghanský	ghanských	AAip2x
ghanský	ghanským	AAip3x
ghanský	ghanské	AAip4x
ghanský	ghanské	AAip5x
ghanský	ghanských	AAip6x
ghanský	ghanskými	AAip7x
ghanský	ghanská	AAfs1x
ghanský	ghanskej	AAfs2x
ghanský	ghanskej	AAfs3x
ghanský	ghanskú	AAfs4x
ghanský	ghanská	AAfs5x
ghanský	ghanskej	AAfs6x
ghanský	ghanskou	AAfs7x
ghanský	ghanské	AAfp1x
ghanský	ghanských	AAfp2x
ghanský	ghanským	AAfp3x
ghanský	ghanské	AAfp4x
ghanský	ghanské	AAfp5x
ghanský	ghanských	AAfp6x
ghanský	ghanskými	AAfp7x
ghanský	ghanské	AAns1x
ghanský	ghanského	AAns2x
ghanský	ghanskému	AAns3x
ghanský	ghanské	AAns4x
ghanský	ghanské	AAns5x
ghanský	ghanskom	AAns6x
ghanský	ghanským	AAns7x
ghanský	ghanské	AAnp1x
ghanský	ghanských	AAnp2x
ghanský	ghanským	AAnp3x
ghanský	ghanské	AAnp4x
ghanský	ghanské	AAnp5x
ghanský	ghanských	AAnp6x
ghanský	ghanskými	AAnp7x
