ILS	ILS	W
Ilona	Ilona	SSfs1
Ilona	Ilony	SSfs2
Ilona	Ilone	SSfs3
Ilona	Ilonu	SSfs4
Ilona	Ilona	SSfs5
Ilona	Ilone	SSfs6
Ilona	Ilonou	SSfs7
Ilona	Ilony	SSfp1
Ilona	Ilon	SSfp2
Ilona	Ilonám	SSfp3
Ilona	Ilony	SSfp4
Ilona	Ilony	SSfp5
Ilona	Ilonách	SSfp6
Ilona	Ilonami	SSfp7
Ilonka	Ilonka	SSfs1
Ilonka	Ilonky	SSfs2
Ilonka	Ilonke	SSfs3
Ilonka	Ilonku	SSfs4
Ilonka	Ilonka	SSfs5
Ilonka	Ilonke	SSfs6
Ilonka	Ilonkou	SSfs7
Ilonka	Ilonky	SSfp1
Ilonka	Iloniek	SSfp2
Ilonka	Ilonkám	SSfp3
Ilonka	Ilonky	SSfp4
Ilonka	Ilonky	SSfp5
Ilonka	Ilonkách	SSfp6
Ilonka	Ilonkami	SSfp7
Iľja	Iľja	SSms1
Iľja	Iľju	SSms2
Iľja	Iľjovi	SSms3
Iľja	Iľju	SSms4
Iľja	Iľja	SSms5
Iľja	Iľjovi	SSms6
Iľja	Iľjom	SSms7
Iľja	Iľjovia	SSmp1
Iľja	Iľjov	SSmp2
Iľja	Iľjom	SSmp3
Iľja	Iľjov	SSmp4
Iľja	Iľjovia	SSmp5
Iľja	Iľjoch	SSmp6
Iľja	Iľjami	SSmp7
ilavský	ilavský	AAms1x
ilavský	ilavského	AAms2x
ilavský	ilavskému	AAms3x
ilavský	ilavského	AAms4x
ilavský	ilavský	AAms5x
ilavský	ilavskom	AAms6x
ilavský	ilavským	AAms7x
ilavský	ilavskí	AAmp1x
ilavský	ilavských	AAmp2x
ilavský	ilavským	AAmp3x
ilavský	ilavských	AAmp4x
ilavský	ilavskí	AAmp5x
ilavský	ilavských	AAmp6x
ilavský	ilavskými	AAmp7x
ilavský	ilavský	AAis1x
ilavský	ilavského	AAis2x
ilavský	ilavskému	AAis3x
ilavský	ilavský	AAis4x
ilavský	ilavský	AAis5x
ilavský	ilavskom	AAis6x
ilavský	ilavským	AAis7x
ilavský	ilavské	AAip1x
ilavský	ilavských	AAip2x
ilavský	ilavským	AAip3x
ilavský	ilavské	AAip4x
ilavský	ilavské	AAip5x
ilavský	ilavských	AAip6x
ilavský	ilavskými	AAip7x
ilavský	ilavská	AAfs1x
ilavský	ilavskej	AAfs2x
ilavský	ilavskej	AAfs3x
ilavský	ilavskú	AAfs4x
ilavský	ilavská	AAfs5x
ilavský	ilavskej	AAfs6x
ilavský	ilavskou	AAfs7x
ilavský	ilavské	AAfp1x
ilavský	ilavských	AAfp2x
ilavský	ilavským	AAfp3x
ilavský	ilavské	AAfp4x
ilavský	ilavské	AAfp5x
ilavský	ilavských	AAfp6x
ilavský	ilavskými	AAfp7x
ilavský	ilavské	AAns1x
ilavský	ilavského	AAns2x
ilavský	ilavskému	AAns3x
ilavský	ilavské	AAns4x
ilavský	ilavské	AAns5x
ilavský	ilavskom	AAns6x
ilavský	ilavským	AAns7x
ilavský	ilavské	AAnp1x
ilavský	ilavských	AAnp2x
ilavský	ilavským	AAnp3x
ilavský	ilavské	AAnp4x
ilavský	ilavské	AAnp5x
ilavský	ilavských	AAnp6x
ilavský	ilavskými	AAnp7x
ilegalita	ilegalita	SSfs1
ilegalita	ilegality	SSfs2
ilegalita	ilegalite	SSfs3
ilegalita	ilegalitu	SSfs4
ilegalita	ilegalita	SSfs5
ilegalita	ilegalite	SSfs6
ilegalita	ilegalitou	SSfs7
ilegalita	ilegality	SSfp1
ilegalita	ilegalít	SSfp2
ilegalita	ilegalitám	SSfp3
ilegalita	ilegality	SSfp4
ilegalita	ilegality	SSfp5
ilegalita	ilegalitách	SSfp6
ilegalita	ilegalitami	SSfp7
ilegálne	ilegálne	Dx
ilegálnosť	ilegálnosť	SSfs1
ilegálnosť	ilegálnosti	SSfs2
ilegálnosť	ilegálnosti	SSfs3
ilegálnosť	ilegálnosť	SSfs4
ilegálnosť	ilegálnosť	SSfs5
ilegálnosť	ilegálnosti	SSfs6
ilegálnosť	ilegálnosťou	SSfs7
ilegálnosť	ilegálnosti	SSfp1
ilegálnosť	ilegálností	SSfp2
ilegálnosť	ilegálnostiam	SSfp3
ilegálnosť	ilegálnosti	SSfp4
ilegálnosť	ilegálnosti	SSfp5
ilegálnosť	ilegálnostiach	SSfp6
ilegálnosť	ilegálnosťami	SSfp7
ilegálny	ilegálny	AAms1x
ilegálny	ilegálneho	AAms2x
ilegálny	ilegálnemu	AAms3x
ilegálny	ilegálneho	AAms4x
ilegálny	ilegálny	AAms5x
ilegálny	ilegálnom	AAms6x
ilegálny	ilegálnym	AAms7x
ilegálny	ilegálni	AAmp1x
ilegálny	ilegálnych	AAmp2x
ilegálny	ilegálnym	AAmp3x
ilegálny	ilegálnych	AAmp4x
ilegálny	ilegálni	AAmp5x
ilegálny	ilegálnych	AAmp6x
ilegálny	ilegálnymi	AAmp7x
ilegálny	ilegálny	AAis1x
ilegálny	ilegálneho	AAis2x
ilegálny	ilegálnemu	AAis3x
ilegálny	ilegálny	AAis4x
ilegálny	ilegálny	AAis5x
ilegálny	ilegálnom	AAis6x
ilegálny	ilegálnym	AAis7x
ilegálny	ilegálne	AAip1x
ilegálny	ilegálnych	AAip2x
ilegálny	ilegálnym	AAip3x
ilegálny	ilegálne	AAip4x
ilegálny	ilegálne	AAip5x
ilegálny	ilegálnych	AAip6x
ilegálny	ilegálnymi	AAip7x
ilegálny	ilegálna	AAfs1x
ilegálny	ilegálnej	AAfs2x
ilegálny	ilegálnej	AAfs3x
ilegálny	ilegálnu	AAfs4x
ilegálny	ilegálna	AAfs5x
ilegálny	ilegálnej	AAfs6x
ilegálny	ilegálnou	AAfs7x
ilegálny	ilegálne	AAfp1x
ilegálny	ilegálnych	AAfp2x
ilegálny	ilegálnym	AAfp3x
ilegálny	ilegálne	AAfp4x
ilegálny	ilegálne	AAfp5x
ilegálny	ilegálnych	AAfp6x
ilegálny	ilegálnymi	AAfp7x
ilegálny	ilegálne	AAns1x
ilegálny	ilegálneho	AAns2x
ilegálny	ilegálnemu	AAns3x
ilegálny	ilegálne	AAns4x
ilegálny	ilegálne	AAns5x
ilegálny	ilegálnom	AAns6x
ilegálny	ilegálnym	AAns7x
ilegálny	ilegálne	AAnp1x
ilegálny	ilegálnych	AAnp2x
ilegálny	ilegálnym	AAnp3x
ilegálny	ilegálne	AAnp4x
ilegálny	ilegálne	AAnp5x
ilegálny	ilegálnych	AAnp6x
ilegálny	ilegálnymi	AAnp7x
iliašovský	iliašovský	AAms1x
iliašovský	iliašovského	AAms2x
iliašovský	iliašovskému	AAms3x
iliašovský	iliašovského	AAms4x
iliašovský	iliašovský	AAms5x
iliašovský	iliašovskom	AAms6x
iliašovský	iliašovským	AAms7x
iliašovský	iliašovskí	AAmp1x
iliašovský	iliašovských	AAmp2x
iliašovský	iliašovským	AAmp3x
iliašovský	iliašovských	AAmp4x
iliašovský	iliašovskí	AAmp5x
iliašovský	iliašovských	AAmp6x
iliašovský	iliašovskými	AAmp7x
iliašovský	iliašovský	AAis1x
iliašovský	iliašovského	AAis2x
iliašovský	iliašovskému	AAis3x
iliašovský	iliašovský	AAis4x
iliašovský	iliašovský	AAis5x
iliašovský	iliašovskom	AAis6x
iliašovský	iliašovským	AAis7x
iliašovský	iliašovské	AAip1x
iliašovský	iliašovských	AAip2x
iliašovský	iliašovským	AAip3x
iliašovský	iliašovské	AAip4x
iliašovský	iliašovské	AAip5x
iliašovský	iliašovských	AAip6x
iliašovský	iliašovskými	AAip7x
iliašovský	iliašovská	AAfs1x
iliašovský	iliašovskej	AAfs2x
iliašovský	iliašovskej	AAfs3x
iliašovský	iliašovskú	AAfs4x
iliašovský	iliašovská	AAfs5x
iliašovský	iliašovskej	AAfs6x
iliašovský	iliašovskou	AAfs7x
iliašovský	iliašovské	AAfp1x
iliašovský	iliašovských	AAfp2x
iliašovský	iliašovským	AAfp3x
iliašovský	iliašovské	AAfp4x
iliašovský	iliašovské	AAfp5x
iliašovský	iliašovských	AAfp6x
iliašovský	iliašovskými	AAfp7x
iliašovský	iliašovské	AAns1x
iliašovský	iliašovského	AAns2x
iliašovský	iliašovskému	AAns3x
iliašovský	iliašovské	AAns4x
iliašovský	iliašovské	AAns5x
iliašovský	iliašovskom	AAns6x
iliašovský	iliašovským	AAns7x
iliašovský	iliašovské	AAnp1x
iliašovský	iliašovských	AAnp2x
iliašovský	iliašovským	AAnp3x
iliašovský	iliašovské	AAnp4x
iliašovský	iliašovské	AAnp5x
iliašovský	iliašovských	AAnp6x
iliašovský	iliašovskými	AAnp7x
ilijský	ilijský	AAms1x
ilijský	ilijského	AAms2x
ilijský	ilijskému	AAms3x
ilijský	ilijského	AAms4x
ilijský	ilijský	AAms5x
ilijský	ilijskom	AAms6x
ilijský	ilijským	AAms7x
ilijský	ilijskí	AAmp1x
ilijský	ilijských	AAmp2x
ilijský	ilijským	AAmp3x
ilijský	ilijských	AAmp4x
ilijský	ilijskí	AAmp5x
ilijský	ilijských	AAmp6x
ilijský	ilijskými	AAmp7x
ilijský	ilijský	AAis1x
ilijský	ilijského	AAis2x
ilijský	ilijskému	AAis3x
ilijský	ilijský	AAis4x
ilijský	ilijský	AAis5x
ilijský	ilijskom	AAis6x
ilijský	ilijským	AAis7x
ilijský	ilijské	AAip1x
ilijský	ilijských	AAip2x
ilijský	ilijským	AAip3x
ilijský	ilijské	AAip4x
ilijský	ilijské	AAip5x
ilijský	ilijských	AAip6x
ilijský	ilijskými	AAip7x
ilijský	ilijská	AAfs1x
ilijský	ilijskej	AAfs2x
ilijský	ilijskej	AAfs3x
ilijský	ilijskú	AAfs4x
ilijský	ilijská	AAfs5x
ilijský	ilijskej	AAfs6x
ilijský	ilijskou	AAfs7x
ilijský	ilijské	AAfp1x
ilijský	ilijských	AAfp2x
ilijský	ilijským	AAfp3x
ilijský	ilijské	AAfp4x
ilijský	ilijské	AAfp5x
ilijský	ilijských	AAfp6x
ilijský	ilijskými	AAfp7x
ilijský	ilijské	AAns1x
ilijský	ilijského	AAns2x
ilijský	ilijskému	AAns3x
ilijský	ilijské	AAns4x
ilijský	ilijské	AAns5x
ilijský	ilijskom	AAns6x
ilijský	ilijským	AAns7x
ilijský	ilijské	AAnp1x
ilijský	ilijských	AAnp2x
ilijský	ilijským	AAnp3x
ilijský	ilijské	AAnp4x
ilijský	ilijské	AAnp5x
ilijský	ilijských	AAnp6x
ilijský	ilijskými	AAnp7x
iluminačný	iluminačný	AAms1x
iluminačný	iluminačného	AAms2x
iluminačný	iluminačnému	AAms3x
iluminačný	iluminačného	AAms4x
iluminačný	iluminačný	AAms5x
iluminačný	iluminačnom	AAms6x
iluminačný	iluminačným	AAms7x
iluminačný	iluminační	AAmp1x
iluminačný	iluminačných	AAmp2x
iluminačný	iluminačným	AAmp3x
iluminačný	iluminačných	AAmp4x
iluminačný	iluminační	AAmp5x
iluminačný	iluminačných	AAmp6x
iluminačný	iluminačnými	AAmp7x
iluminačný	iluminačný	AAis1x
iluminačný	iluminačného	AAis2x
iluminačný	iluminačnému	AAis3x
iluminačný	iluminačný	AAis4x
iluminačný	iluminačný	AAis5x
iluminačný	iluminačnom	AAis6x
iluminačný	iluminačným	AAis7x
iluminačný	iluminačné	AAip1x
iluminačný	iluminačných	AAip2x
iluminačný	iluminačným	AAip3x
iluminačný	iluminačné	AAip4x
iluminačný	iluminačné	AAip5x
iluminačný	iluminačných	AAip6x
iluminačný	iluminačnými	AAip7x
iluminačný	iluminačná	AAfs1x
iluminačný	iluminačnej	AAfs2x
iluminačný	iluminačnej	AAfs3x
iluminačný	iluminačnú	AAfs4x
iluminačný	iluminačná	AAfs5x
iluminačný	iluminačnej	AAfs6x
iluminačný	iluminačnou	AAfs7x
iluminačný	iluminačné	AAfp1x
iluminačný	iluminačných	AAfp2x
iluminačný	iluminačným	AAfp3x
iluminačný	iluminačné	AAfp4x
iluminačný	iluminačné	AAfp5x
iluminačný	iluminačných	AAfp6x
iluminačný	iluminačnými	AAfp7x
iluminačný	iluminačné	AAns1x
iluminačný	iluminačného	AAns2x
iluminačný	iluminačnému	AAns3x
iluminačný	iluminačné	AAns4x
iluminačný	iluminačné	AAns5x
iluminačný	iluminačnom	AAns6x
iluminačný	iluminačným	AAns7x
iluminačný	iluminačné	AAnp1x
iluminačný	iluminačných	AAnp2x
iluminačný	iluminačným	AAnp3x
iluminačný	iluminačné	AAnp4x
iluminačný	iluminačné	AAnp5x
iluminačný	iluminačných	AAnp6x
iluminačný	iluminačnými	AAnp7x
iluminácia	iluminácia	SSfs1
iluminácia	iluminácie	SSfs2
iluminácia	iluminácii	SSfs3
iluminácia	ilumináciu	SSfs4
iluminácia	iluminácia	SSfs5
iluminácia	iluminácii	SSfs6
iluminácia	ilumináciou	SSfs7
iluminácia	iluminácie	SSfp1
iluminácia	iluminácií	SSfp2
iluminácia	ilumináciám	SSfp3
iluminácia	iluminácie	SSfp4
iluminácia	iluminácie	SSfp5
iluminácia	ilumináciách	SSfp6
iluminácia	ilumináciami	SSfp7
iluminátor	iluminátor	SSis1
iluminátor	iluminátora	SSis2
iluminátor	iluminátoru	SSis3
iluminátor	iluminátor	SSis4
iluminátor	iluminátor	SSis5
iluminátor	iluminátore	SSis6
iluminátor	iluminátorom	SSis7
iluminátor	iluminátory	SSip1
iluminátor	iluminátorov	SSip2
iluminátor	iluminátorom	SSip3
iluminátor	iluminátory	SSip4
iluminátor	iluminátory	SSip5
iluminátor	iluminátoroch	SSip6
iluminátor	iluminátormi	SSip7
iluminátor	iluminátor	SSms1
iluminátor	iluminátora	SSms2
iluminátor	iluminátorovi	SSms3
iluminátor	iluminátora	SSms4
iluminátor	iluminátor	SSms5
iluminátor	iluminátorovi	SSms6
iluminátor	iluminátorom	SSms7
iluminátor	iluminátori	SSmp1
iluminátor	iluminátorov	SSmp2
iluminátor	iluminátorom	SSmp3
iluminátor	iluminátorov	SSmp4
iluminátor	iluminátori	SSmp5
iluminátor	iluminátoroch	SSmp6
iluminátor	iluminátormi	SSmp7
ilustratívne	ilustratívne	Dx
ilustratívne	ilustratívnejšie	Dy
ilustratívne	najilustratívnejšie	Dz
ilustratívnosť	ilustratívnosť	SSfs1
ilustratívnosť	ilustratívnosti	SSfs2
ilustratívnosť	ilustratívnosti	SSfs3
ilustratívnosť	ilustratívnosť	SSfs4
ilustratívnosť	ilustratívnosť	SSfs5
ilustratívnosť	ilustratívnosti	SSfs6
ilustratívnosť	ilustratívnosťou	SSfs7
ilustratívnosť	ilustratívnosti	SSfp1
ilustratívnosť	ilustratívností	SSfp2
ilustratívnosť	ilustratívnostiam	SSfp3
ilustratívnosť	ilustratívnosti	SSfp4
ilustratívnosť	ilustratívnosti	SSfp5
ilustratívnosť	ilustratívnostiach	SSfp6
ilustratívnosť	ilustratívnosťami	SSfp7
ilustratívny	ilustratívny	AAms1x
ilustratívny	ilustratívneho	AAms2x
ilustratívny	ilustratívnemu	AAms3x
ilustratívny	ilustratívneho	AAms4x
ilustratívny	ilustratívny	AAms5x
ilustratívny	ilustratívnom	AAms6x
ilustratívny	ilustratívnym	AAms7x
ilustratívny	ilustratívni	AAmp1x
ilustratívny	ilustratívnych	AAmp2x
ilustratívny	ilustratívnym	AAmp3x
ilustratívny	ilustratívnych	AAmp4x
ilustratívny	ilustratívni	AAmp5x
ilustratívny	ilustratívnych	AAmp6x
ilustratívny	ilustratívnymi	AAmp7x
ilustratívny	ilustratívny	AAis1x
ilustratívny	ilustratívneho	AAis2x
ilustratívny	ilustratívnemu	AAis3x
ilustratívny	ilustratívny	AAis4x
ilustratívny	ilustratívny	AAis5x
ilustratívny	ilustratívnom	AAis6x
ilustratívny	ilustratívnym	AAis7x
ilustratívny	ilustratívne	AAip1x
ilustratívny	ilustratívnych	AAip2x
ilustratívny	ilustratívnym	AAip3x
ilustratívny	ilustratívne	AAip4x
ilustratívny	ilustratívne	AAip5x
ilustratívny	ilustratívnych	AAip6x
ilustratívny	ilustratívnymi	AAip7x
ilustratívny	ilustratívna	AAfs1x
ilustratívny	ilustratívnej	AAfs2x
ilustratívny	ilustratívnej	AAfs3x
ilustratívny	ilustratívnu	AAfs4x
ilustratívny	ilustratívna	AAfs5x
ilustratívny	ilustratívnej	AAfs6x
ilustratívny	ilustratívnou	AAfs7x
ilustratívny	ilustratívne	AAfp1x
ilustratívny	ilustratívnych	AAfp2x
ilustratívny	ilustratívnym	AAfp3x
ilustratívny	ilustratívne	AAfp4x
ilustratívny	ilustratívne	AAfp5x
ilustratívny	ilustratívnych	AAfp6x
ilustratívny	ilustratívnymi	AAfp7x
ilustratívny	ilustratívne	AAns1x
ilustratívny	ilustratívneho	AAns2x
ilustratívny	ilustratívnemu	AAns3x
ilustratívny	ilustratívne	AAns4x
ilustratívny	ilustratívne	AAns5x
ilustratívny	ilustratívnom	AAns6x
ilustratívny	ilustratívnym	AAns7x
ilustratívny	ilustratívne	AAnp1x
ilustratívny	ilustratívnych	AAnp2x
ilustratívny	ilustratívnym	AAnp3x
ilustratívny	ilustratívne	AAnp4x
ilustratívny	ilustratívne	AAnp5x
ilustratívny	ilustratívnych	AAnp6x
ilustratívny	ilustratívnymi	AAnp7x
ilustratívny	ilustratívnejší	AAms1y
ilustratívny	ilustratívnejšieho	AAms2y
ilustratívny	ilustratívnejšiemu	AAms3y
ilustratívny	ilustratívnejšieho	AAms4y
ilustratívny	ilustratívnejší	AAms5y
ilustratívny	ilustratívnejšom	AAms6y
ilustratívny	ilustratívnejším	AAms7y
ilustratívny	ilustratívnejší	AAmp1y
ilustratívny	ilustratívnejších	AAmp2y
ilustratívny	ilustratívnejším	AAmp3y
ilustratívny	ilustratívnejších	AAmp4y
ilustratívny	ilustratívnejší	AAmp5y
ilustratívny	ilustratívnejších	AAmp6y
ilustratívny	ilustratívnejšími	AAmp7y
ilustratívny	ilustratívnejší	AAis1y
ilustratívny	ilustratívnejšieho	AAis2y
ilustratívny	ilustratívnejšiemu	AAis3y
ilustratívny	ilustratívnejší	AAis4y
ilustratívny	ilustratívnejší	AAis5y
ilustratívny	ilustratívnejšom	AAis6y
ilustratívny	ilustratívnejším	AAis7y
ilustratívny	ilustratívnejšie	AAip1y
ilustratívny	ilustratívnejších	AAip2y
ilustratívny	ilustratívnejším	AAip3y
ilustratívny	ilustratívnejšie	AAip4y
ilustratívny	ilustratívnejšie	AAip5y
ilustratívny	ilustratívnejších	AAip6y
ilustratívny	ilustratívnejšími	AAip7y
ilustratívny	ilustratívnejšia	AAfs1y
ilustratívny	ilustratívnejšej	AAfs2y
ilustratívny	ilustratívnejšej	AAfs3y
ilustratívny	ilustratívnejšiu	AAfs4y
ilustratívny	ilustratívnejšia	AAfs5y
ilustratívny	ilustratívnejšej	AAfs6y
ilustratívny	ilustratívnejšou	AAfs7y
ilustratívny	ilustratívnejšie	AAfp1y
ilustratívny	ilustratívnejších	AAfp2y
ilustratívny	ilustratívnejším	AAfp3y
ilustratívny	ilustratívnejšie	AAfp4y
ilustratívny	ilustratívnejšie	AAfp5y
ilustratívny	ilustratívnejších	AAfp6y
ilustratívny	ilustratívnejšími	AAfp7y
ilustratívny	ilustratívnejšie	AAns1y
ilustratívny	ilustratívnejšieho	AAns2y
ilustratívny	ilustratívnejšiemu	AAns3y
ilustratívny	ilustratívnejšie	AAns4y
ilustratívny	ilustratívnejšie	AAns5y
ilustratívny	ilustratívnejšom	AAns6y
ilustratívny	ilustratívnejším	AAns7y
ilustratívny	ilustratívnejšie	AAnp1y
ilustratívny	ilustratívnejších	AAnp2y
ilustratívny	ilustratívnejším	AAnp3y
ilustratívny	ilustratívnejšie	AAnp4y
ilustratívny	ilustratívnejšie	AAnp5y
ilustratívny	ilustratívnejších	AAnp6y
ilustratívny	ilustratívnejšími	AAnp7y
ilustratívny	najilustratívnejší	AAms1z
ilustratívny	najilustratívnejšieho	AAms2z
ilustratívny	najilustratívnejšiemu	AAms3z
ilustratívny	najilustratívnejšieho	AAms4z
ilustratívny	najilustratívnejší	AAms5z
ilustratívny	najilustratívnejšom	AAms6z
ilustratívny	najilustratívnejším	AAms7z
ilustratívny	najilustratívnejší	AAmp1z
ilustratívny	najilustratívnejších	AAmp2z
ilustratívny	najilustratívnejším	AAmp3z
ilustratívny	najilustratívnejších	AAmp4z
ilustratívny	najilustratívnejší	AAmp5z
ilustratívny	najilustratívnejších	AAmp6z
ilustratívny	najilustratívnejšími	AAmp7z
ilustratívny	najilustratívnejší	AAis1z
ilustratívny	najilustratívnejšieho	AAis2z
ilustratívny	najilustratívnejšiemu	AAis3z
ilustratívny	najilustratívnejší	AAis4z
ilustratívny	najilustratívnejší	AAis5z
ilustratívny	najilustratívnejšom	AAis6z
ilustratívny	najilustratívnejším	AAis7z
ilustratívny	najilustratívnejšie	AAip1z
ilustratívny	najilustratívnejších	AAip2z
ilustratívny	najilustratívnejším	AAip3z
ilustratívny	najilustratívnejšie	AAip4z
ilustratívny	najilustratívnejšie	AAip5z
ilustratívny	najilustratívnejších	AAip6z
ilustratívny	najilustratívnejšími	AAip7z
ilustratívny	najilustratívnejšia	AAfs1z
ilustratívny	najilustratívnejšej	AAfs2z
ilustratívny	najilustratívnejšej	AAfs3z
ilustratívny	najilustratívnejšiu	AAfs4z
ilustratívny	najilustratívnejšia	AAfs5z
ilustratívny	najilustratívnejšej	AAfs6z
ilustratívny	najilustratívnejšou	AAfs7z
ilustratívny	najilustratívnejšie	AAfp1z
ilustratívny	najilustratívnejších	AAfp2z
ilustratívny	najilustratívnejším	AAfp3z
ilustratívny	najilustratívnejšie	AAfp4z
ilustratívny	najilustratívnejšie	AAfp5z
ilustratívny	najilustratívnejších	AAfp6z
ilustratívny	najilustratívnejšími	AAfp7z
ilustratívny	najilustratívnejšie	AAns1z
ilustratívny	najilustratívnejšieho	AAns2z
ilustratívny	najilustratívnejšiemu	AAns3z
ilustratívny	najilustratívnejšie	AAns4z
ilustratívny	najilustratívnejšie	AAns5z
ilustratívny	najilustratívnejšom	AAns6z
ilustratívny	najilustratívnejším	AAns7z
ilustratívny	najilustratívnejšie	AAnp1z
ilustratívny	najilustratívnejších	AAnp2z
ilustratívny	najilustratívnejším	AAnp3z
ilustratívny	najilustratívnejšie	AAnp4z
ilustratívny	najilustratívnejšie	AAnp5z
ilustratívny	najilustratívnejších	AAnp6z
ilustratívny	najilustratívnejšími	AAnp7z
ilustračný	ilustračný	AAms1x
ilustračný	ilustračného	AAms2x
ilustračný	ilustračnému	AAms3x
ilustračný	ilustračného	AAms4x
ilustračný	ilustračný	AAms5x
ilustračný	ilustračnom	AAms6x
ilustračný	ilustračným	AAms7x
ilustračný	ilustrační	AAmp1x
ilustračný	ilustračných	AAmp2x
ilustračný	ilustračným	AAmp3x
ilustračný	ilustračných	AAmp4x
ilustračný	ilustrační	AAmp5x
ilustračný	ilustračných	AAmp6x
ilustračný	ilustračnými	AAmp7x
ilustračný	ilustračný	AAis1x
ilustračný	ilustračného	AAis2x
ilustračný	ilustračnému	AAis3x
ilustračný	ilustračný	AAis4x
ilustračný	ilustračný	AAis5x
ilustračný	ilustračnom	AAis6x
ilustračný	ilustračným	AAis7x
ilustračný	ilustračné	AAip1x
ilustračný	ilustračných	AAip2x
ilustračný	ilustračným	AAip3x
ilustračný	ilustračné	AAip4x
ilustračný	ilustračné	AAip5x
ilustračný	ilustračných	AAip6x
ilustračný	ilustračnými	AAip7x
ilustračný	ilustračná	AAfs1x
ilustračný	ilustračnej	AAfs2x
ilustračný	ilustračnej	AAfs3x
ilustračný	ilustračnú	AAfs4x
ilustračný	ilustračná	AAfs5x
ilustračný	ilustračnej	AAfs6x
ilustračný	ilustračnou	AAfs7x
ilustračný	ilustračné	AAfp1x
ilustračný	ilustračných	AAfp2x
ilustračný	ilustračným	AAfp3x
ilustračný	ilustračné	AAfp4x
ilustračný	ilustračné	AAfp5x
ilustračný	ilustračných	AAfp6x
ilustračný	ilustračnými	AAfp7x
ilustračný	ilustračné	AAns1x
ilustračný	ilustračného	AAns2x
ilustračný	ilustračnému	AAns3x
ilustračný	ilustračné	AAns4x
ilustračný	ilustračné	AAns5x
ilustračný	ilustračnom	AAns6x
ilustračný	ilustračným	AAns7x
ilustračný	ilustračné	AAnp1x
ilustračný	ilustračných	AAnp2x
ilustračný	ilustračným	AAnp3x
ilustračný	ilustračné	AAnp4x
ilustračný	ilustračné	AAnp5x
ilustračný	ilustračných	AAnp6x
ilustračný	ilustračnými	AAnp7x
ilustrovať	ilustrovať	VIj+
ilustrovať	ilustrujem	VKjsa+
ilustrovať	ilustruješ	VKjsb+
ilustrovať	ilustruje	VKjsc+
ilustrovať	ilustrujeme	VKjpa+
ilustrovať	ilustrujete	VKjpb+
ilustrovať	ilustrujú	VKjpc+
ilustrovať	ilustruj	VMjsb+
ilustrovať	ilustrujme	VMjpa+
ilustrovať	ilustrujte	VMjpb+
ilustrovať	ilustrujúc	VHj+
ilustrovať	ilustroval	VLjsam+
ilustrovať	ilustroval	VLjsai+
ilustrovať	ilustroval	VLjsbm+
ilustrovať	ilustroval	VLjsbi+
ilustrovať	ilustroval	VLjscm+
ilustrovať	ilustroval	VLjsci+
ilustrovať	ilustrovala	VLjsaf+
ilustrovať	ilustrovala	VLjsbf+
ilustrovať	ilustrovala	VLjscf+
ilustrovať	ilustrovalo	VLjsan+
ilustrovať	ilustrovalo	VLjsbn+
ilustrovať	ilustrovalo	VLjscn+
ilustrovať	ilustrovali	VLjpah+
ilustrovať	ilustrovali	VLjpbh+
ilustrovať	ilustrovali	VLjpcm+
ilustrovať	ilustrovali	VLjpci+
ilustrovať	ilustrovali	VLjpcf+
ilustrovať	ilustrovali	VLjpcn+
ilustrovať	ilustrovali	VLjpco+
ilustrácia	ilustrácia	SSfs1
ilustrácia	ilustrácie	SSfs2
ilustrácia	ilustrácii	SSfs3
ilustrácia	ilustráciu	SSfs4
ilustrácia	ilustrácia	SSfs5
ilustrácia	ilustrácii	SSfs6
ilustrácia	ilustráciou	SSfs7
ilustrácia	ilustrácie	SSfp1
ilustrácia	ilustrácií	SSfp2
ilustrácia	ilustráciám	SSfp3
ilustrácia	ilustrácie	SSfp4
ilustrácia	ilustrácie	SSfp5
ilustrácia	ilustráciách	SSfp6
ilustrácia	ilustráciami	SSfp7
ilustrátor	ilustrátor	SSms1
ilustrátor	ilustrátora	SSms2
ilustrátor	ilustrátorovi	SSms3
ilustrátor	ilustrátora	SSms4
ilustrátor	ilustrátor	SSms5
ilustrátor	ilustrátorovi	SSms6
ilustrátor	ilustrátorom	SSms7
ilustrátor	ilustrátori	SSmp1
ilustrátor	ilustrátorov	SSmp2
ilustrátor	ilustrátorom	SSmp3
ilustrátor	ilustrátorov	SSmp4
ilustrátor	ilustrátori	SSmp5
ilustrátor	ilustrátoroch	SSmp6
ilustrátor	ilustrátormi	SSmp7
ilustrátorka	ilustrátorka	SSfs1
ilustrátorka	ilustrátorky	SSfs2
ilustrátorka	ilustrátorke	SSfs3
ilustrátorka	ilustrátorku	SSfs4
ilustrátorka	ilustrátorka	SSfs5
ilustrátorka	ilustrátorke	SSfs6
ilustrátorka	ilustrátorkou	SSfs7
ilustrátorka	ilustrátorky	SSfp1
ilustrátorka	ilustrátoriek	SSfp2
ilustrátorka	ilustrátorkám	SSfp3
ilustrátorka	ilustrátorky	SSfp4
ilustrátorka	ilustrátorky	SSfp5
ilustrátorka	ilustrátorkách	SSfp6
ilustrátorka	ilustrátorkami	SSfp7
ilustrátorský	ilustrátorský	AAms1x
ilustrátorský	ilustrátorského	AAms2x
ilustrátorský	ilustrátorskému	AAms3x
ilustrátorský	ilustrátorského	AAms4x
ilustrátorský	ilustrátorský	AAms5x
ilustrátorský	ilustrátorskom	AAms6x
ilustrátorský	ilustrátorským	AAms7x
ilustrátorský	ilustrátorskí	AAmp1x
ilustrátorský	ilustrátorských	AAmp2x
ilustrátorský	ilustrátorským	AAmp3x
ilustrátorský	ilustrátorských	AAmp4x
ilustrátorský	ilustrátorskí	AAmp5x
ilustrátorský	ilustrátorských	AAmp6x
ilustrátorský	ilustrátorskými	AAmp7x
ilustrátorský	ilustrátorský	AAis1x
ilustrátorský	ilustrátorského	AAis2x
ilustrátorský	ilustrátorskému	AAis3x
ilustrátorský	ilustrátorský	AAis4x
ilustrátorský	ilustrátorský	AAis5x
ilustrátorský	ilustrátorskom	AAis6x
ilustrátorský	ilustrátorským	AAis7x
ilustrátorský	ilustrátorské	AAip1x
ilustrátorský	ilustrátorských	AAip2x
ilustrátorský	ilustrátorským	AAip3x
ilustrátorský	ilustrátorské	AAip4x
ilustrátorský	ilustrátorské	AAip5x
ilustrátorský	ilustrátorských	AAip6x
ilustrátorský	ilustrátorskými	AAip7x
ilustrátorský	ilustrátorská	AAfs1x
ilustrátorský	ilustrátorskej	AAfs2x
ilustrátorský	ilustrátorskej	AAfs3x
ilustrátorský	ilustrátorskú	AAfs4x
ilustrátorský	ilustrátorská	AAfs5x
ilustrátorský	ilustrátorskej	AAfs6x
ilustrátorský	ilustrátorskou	AAfs7x
ilustrátorský	ilustrátorské	AAfp1x
ilustrátorský	ilustrátorských	AAfp2x
ilustrátorský	ilustrátorským	AAfp3x
ilustrátorský	ilustrátorské	AAfp4x
ilustrátorský	ilustrátorské	AAfp5x
ilustrátorský	ilustrátorských	AAfp6x
ilustrátorský	ilustrátorskými	AAfp7x
ilustrátorský	ilustrátorské	AAns1x
ilustrátorský	ilustrátorského	AAns2x
ilustrátorský	ilustrátorskému	AAns3x
ilustrátorský	ilustrátorské	AAns4x
ilustrátorský	ilustrátorské	AAns5x
ilustrátorský	ilustrátorskom	AAns6x
ilustrátorský	ilustrátorským	AAns7x
ilustrátorský	ilustrátorské	AAnp1x
ilustrátorský	ilustrátorských	AAnp2x
ilustrátorský	ilustrátorským	AAnp3x
ilustrátorský	ilustrátorské	AAnp4x
ilustrátorský	ilustrátorské	AAnp5x
ilustrátorský	ilustrátorských	AAnp6x
ilustrátorský	ilustrátorskými	AAnp7x
ilustrátorstvo	ilustrátorstvo	SSns1
ilustrátorstvo	ilustrátorstva	SSns2
ilustrátorstvo	ilustrátorstvu	SSns3
ilustrátorstvo	ilustrátorstvo	SSns4
ilustrátorstvo	ilustrátorstvo	SSns5
ilustrátorstvo	ilustrátorstve	SSns6
ilustrátorstvo	ilustrátorstvom	SSns7
ilustrátorstvo	ilustrátorstvá	SSnp1
ilustrátorstvo	ilustrátorstiev	SSnp2
ilustrátorstvo	ilustrátorstvám	SSnp3
ilustrátorstvo	ilustrátorstvá	SSnp4
ilustrátorstvo	ilustrátorstvá	SSnp5
ilustrátorstvo	ilustrátorstvách	SSnp6
ilustrátorstvo	ilustrátorstvami	SSnp7
iluzionista	iluzionista	SSms1
iluzionista	iluzionistu	SSms2
iluzionista	iluzionistovi	SSms3
iluzionista	iluzionistu	SSms4
iluzionista	iluzionista	SSms5
iluzionista	iluzionistovi	SSms6
iluzionista	iluzionistom	SSms7
iluzionista	iluzionisti	SSmp1
iluzionista	iluzionistov	SSmp2
iluzionista	iluzionistom	SSmp3
iluzionista	iluzionistov	SSmp4
iluzionista	iluzionisti	SSmp5
iluzionista	iluzionistoch	SSmp6
iluzionista	iluzionistami	SSmp7
iluzionisticky	iluzionisticky	Dx
iluzionistický	iluzionistický	AAms1x
iluzionistický	iluzionistického	AAms2x
iluzionistický	iluzionistickému	AAms3x
iluzionistický	iluzionistického	AAms4x
iluzionistický	iluzionistický	AAms5x
iluzionistický	iluzionistickom	AAms6x
iluzionistický	iluzionistickým	AAms7x
iluzionistický	iluzionistickí	AAmp1x
iluzionistický	iluzionistických	AAmp2x
iluzionistický	iluzionistickým	AAmp3x
iluzionistický	iluzionistických	AAmp4x
iluzionistický	iluzionistickí	AAmp5x
iluzionistický	iluzionistických	AAmp6x
iluzionistický	iluzionistickými	AAmp7x
iluzionistický	iluzionistický	AAis1x
iluzionistický	iluzionistického	AAis2x
iluzionistický	iluzionistickému	AAis3x
iluzionistický	iluzionistický	AAis4x
iluzionistický	iluzionistický	AAis5x
iluzionistický	iluzionistickom	AAis6x
iluzionistický	iluzionistickým	AAis7x
iluzionistický	iluzionistické	AAip1x
iluzionistický	iluzionistických	AAip2x
iluzionistický	iluzionistickým	AAip3x
iluzionistický	iluzionistické	AAip4x
iluzionistický	iluzionistické	AAip5x
iluzionistický	iluzionistických	AAip6x
iluzionistický	iluzionistickými	AAip7x
iluzionistický	iluzionistická	AAfs1x
iluzionistický	iluzionistickej	AAfs2x
iluzionistický	iluzionistickej	AAfs3x
iluzionistický	iluzionistickú	AAfs4x
iluzionistický	iluzionistická	AAfs5x
iluzionistický	iluzionistickej	AAfs6x
iluzionistický	iluzionistickou	AAfs7x
iluzionistický	iluzionistické	AAfp1x
iluzionistický	iluzionistických	AAfp2x
iluzionistický	iluzionistickým	AAfp3x
iluzionistický	iluzionistické	AAfp4x
iluzionistický	iluzionistické	AAfp5x
iluzionistický	iluzionistických	AAfp6x
iluzionistický	iluzionistickými	AAfp7x
iluzionistický	iluzionistické	AAns1x
iluzionistický	iluzionistického	AAns2x
iluzionistický	iluzionistickému	AAns3x
iluzionistický	iluzionistické	AAns4x
iluzionistický	iluzionistické	AAns5x
iluzionistický	iluzionistickom	AAns6x
iluzionistický	iluzionistickým	AAns7x
iluzionistický	iluzionistické	AAnp1x
iluzionistický	iluzionistických	AAnp2x
iluzionistický	iluzionistickým	AAnp3x
iluzionistický	iluzionistické	AAnp4x
iluzionistický	iluzionistické	AAnp5x
iluzionistický	iluzionistických	AAnp6x
iluzionistický	iluzionistickými	AAnp7x
iluzionistka	iluzionistka	SSfs1
iluzionistka	iluzionistky	SSfs2
iluzionistka	iluzionistke	SSfs3
iluzionistka	iluzionistku	SSfs4
iluzionistka	iluzionistka	SSfs5
iluzionistka	iluzionistke	SSfs6
iluzionistka	iluzionistkou	SSfs7
iluzionistka	iluzionistky	SSfp1
iluzionistka	iluzionistiek	SSfp2
iluzionistka	iluzionistkám	SSfp3
iluzionistka	iluzionistky	SSfp4
iluzionistka	iluzionistky	SSfp5
iluzionistka	iluzionistkách	SSfp6
iluzionistka	iluzionistkami	SSfp7
iluzionizmus	iluzionizmus	SSis1
iluzionizmus	iluzionizmu	SSis2
iluzionizmus	iluzionizmu	SSis3
iluzionizmus	iluzionizmus	SSis4
iluzionizmus	iluzionizmus	SSis5
iluzionizmus	iluzionizme	SSis6
iluzionizmus	iluzionizmom	SSis7
iluzionizmus	iluzionizmy	SSip1
iluzionizmus	iluzionizmov	SSip2
iluzionizmus	iluzionizmom	SSip3
iluzionizmus	iluzionizmy	SSip4
iluzionizmus	iluzionizmy	SSip5
iluzionizmus	iluzionizmoch	SSip6
iluzionizmus	iluzionizmami	SSip7
iluzívne	iluzívne	Dx
iluzívne	iluzívnejšie	Dy
iluzívne	najiluzívnejšie	Dz
iluzívnosť	iluzívnosť	SSfs1
iluzívnosť	iluzívnosti	SSfs2
iluzívnosť	iluzívnosti	SSfs3
iluzívnosť	iluzívnosť	SSfs4
iluzívnosť	iluzívnosť	SSfs5
iluzívnosť	iluzívnosti	SSfs6
iluzívnosť	iluzívnosťou	SSfs7
iluzívnosť	iluzívnosti	SSfp1
iluzívnosť	iluzívností	SSfp2
iluzívnosť	iluzívnostiam	SSfp3
iluzívnosť	iluzívnosti	SSfp4
iluzívnosť	iluzívnosti	SSfp5
iluzívnosť	iluzívnostiach	SSfp6
iluzívnosť	iluzívnosťami	SSfp7
iluzívny	iluzívny	AAms1x
iluzívny	iluzívneho	AAms2x
iluzívny	iluzívnemu	AAms3x
iluzívny	iluzívneho	AAms4x
iluzívny	iluzívny	AAms5x
iluzívny	iluzívnom	AAms6x
iluzívny	iluzívnym	AAms7x
iluzívny	iluzívni	AAmp1x
iluzívny	iluzívnych	AAmp2x
iluzívny	iluzívnym	AAmp3x
iluzívny	iluzívnych	AAmp4x
iluzívny	iluzívni	AAmp5x
iluzívny	iluzívnych	AAmp6x
iluzívny	iluzívnymi	AAmp7x
iluzívny	iluzívny	AAis1x
iluzívny	iluzívneho	AAis2x
iluzívny	iluzívnemu	AAis3x
iluzívny	iluzívny	AAis4x
iluzívny	iluzívny	AAis5x
iluzívny	iluzívnom	AAis6x
iluzívny	iluzívnym	AAis7x
iluzívny	iluzívne	AAip1x
iluzívny	iluzívnych	AAip2x
iluzívny	iluzívnym	AAip3x
iluzívny	iluzívne	AAip4x
iluzívny	iluzívne	AAip5x
iluzívny	iluzívnych	AAip6x
iluzívny	iluzívnymi	AAip7x
iluzívny	iluzívna	AAfs1x
iluzívny	iluzívnej	AAfs2x
iluzívny	iluzívnej	AAfs3x
iluzívny	iluzívnu	AAfs4x
iluzívny	iluzívna	AAfs5x
iluzívny	iluzívnej	AAfs6x
iluzívny	iluzívnou	AAfs7x
iluzívny	iluzívne	AAfp1x
iluzívny	iluzívnych	AAfp2x
iluzívny	iluzívnym	AAfp3x
iluzívny	iluzívne	AAfp4x
iluzívny	iluzívne	AAfp5x
iluzívny	iluzívnych	AAfp6x
iluzívny	iluzívnymi	AAfp7x
iluzívny	iluzívne	AAns1x
iluzívny	iluzívneho	AAns2x
iluzívny	iluzívnemu	AAns3x
iluzívny	iluzívne	AAns4x
iluzívny	iluzívne	AAns5x
iluzívny	iluzívnom	AAns6x
iluzívny	iluzívnym	AAns7x
iluzívny	iluzívne	AAnp1x
iluzívny	iluzívnych	AAnp2x
iluzívny	iluzívnym	AAnp3x
iluzívny	iluzívne	AAnp4x
iluzívny	iluzívne	AAnp5x
iluzívny	iluzívnych	AAnp6x
iluzívny	iluzívnymi	AAnp7x
iluzórne	iluzórne	Dx
iluzórne	iluzórnejšie	Dy
iluzórne	najiluzórnejšie	Dz
iluzórnosť	iluzórnosť	SSfs1
iluzórnosť	iluzórnosti	SSfs2
iluzórnosť	iluzórnosti	SSfs3
iluzórnosť	iluzórnosť	SSfs4
iluzórnosť	iluzórnosť	SSfs5
iluzórnosť	iluzórnosti	SSfs6
iluzórnosť	iluzórnosťou	SSfs7
iluzórnosť	iluzórnosti	SSfp1
iluzórnosť	iluzórností	SSfp2
iluzórnosť	iluzórnostiam	SSfp3
iluzórnosť	iluzórnosti	SSfp4
iluzórnosť	iluzórnosti	SSfp5
iluzórnosť	iluzórnostiach	SSfp6
iluzórnosť	iluzórnosťami	SSfp7
iluzórny	iluzórny	AAms1x
iluzórny	iluzórneho	AAms2x
iluzórny	iluzórnemu	AAms3x
iluzórny	iluzórneho	AAms4x
iluzórny	iluzórny	AAms5x
iluzórny	iluzórnom	AAms6x
iluzórny	iluzórnym	AAms7x
iluzórny	iluzórni	AAmp1x
iluzórny	iluzórnych	AAmp2x
iluzórny	iluzórnym	AAmp3x
iluzórny	iluzórnych	AAmp4x
iluzórny	iluzórni	AAmp5x
iluzórny	iluzórnych	AAmp6x
iluzórny	iluzórnymi	AAmp7x
iluzórny	iluzórny	AAis1x
iluzórny	iluzórneho	AAis2x
iluzórny	iluzórnemu	AAis3x
iluzórny	iluzórny	AAis4x
iluzórny	iluzórny	AAis5x
iluzórny	iluzórnom	AAis6x
iluzórny	iluzórnym	AAis7x
iluzórny	iluzórne	AAip1x
iluzórny	iluzórnych	AAip2x
iluzórny	iluzórnym	AAip3x
iluzórny	iluzórne	AAip4x
iluzórny	iluzórne	AAip5x
iluzórny	iluzórnych	AAip6x
iluzórny	iluzórnymi	AAip7x
iluzórny	iluzórna	AAfs1x
iluzórny	iluzórnej	AAfs2x
iluzórny	iluzórnej	AAfs3x
iluzórny	iluzórnu	AAfs4x
iluzórny	iluzórna	AAfs5x
iluzórny	iluzórnej	AAfs6x
iluzórny	iluzórnou	AAfs7x
iluzórny	iluzórne	AAfp1x
iluzórny	iluzórnych	AAfp2x
iluzórny	iluzórnym	AAfp3x
iluzórny	iluzórne	AAfp4x
iluzórny	iluzórne	AAfp5x
iluzórny	iluzórnych	AAfp6x
iluzórny	iluzórnymi	AAfp7x
iluzórny	iluzórne	AAns1x
iluzórny	iluzórneho	AAns2x
iluzórny	iluzórnemu	AAns3x
iluzórny	iluzórne	AAns4x
iluzórny	iluzórne	AAns5x
iluzórny	iluzórnom	AAns6x
iluzórny	iluzórnym	AAns7x
iluzórny	iluzórne	AAnp1x
iluzórny	iluzórnych	AAnp2x
iluzórny	iluzórnym	AAnp3x
iluzórny	iluzórne	AAnp4x
iluzórny	iluzórne	AAnp5x
iluzórny	iluzórnych	AAnp6x
iluzórny	iluzórnymi	AAnp7x
iluzórny	iluzórnejší	AAms1y
iluzórny	iluzórnejšieho	AAms2y
iluzórny	iluzórnejšiemu	AAms3y
iluzórny	iluzórnejšieho	AAms4y
iluzórny	iluzórnejší	AAms5y
iluzórny	iluzórnejšom	AAms6y
iluzórny	iluzórnejším	AAms7y
iluzórny	iluzórnejší	AAmp1y
iluzórny	iluzórnejších	AAmp2y
iluzórny	iluzórnejším	AAmp3y
iluzórny	iluzórnejších	AAmp4y
iluzórny	iluzórnejší	AAmp5y
iluzórny	iluzórnejších	AAmp6y
iluzórny	iluzórnejšími	AAmp7y
iluzórny	iluzórnejší	AAis1y
iluzórny	iluzórnejšieho	AAis2y
iluzórny	iluzórnejšiemu	AAis3y
iluzórny	iluzórnejší	AAis4y
iluzórny	iluzórnejší	AAis5y
iluzórny	iluzórnejšom	AAis6y
iluzórny	iluzórnejším	AAis7y
iluzórny	iluzórnejšie	AAip1y
iluzórny	iluzórnejších	AAip2y
iluzórny	iluzórnejším	AAip3y
iluzórny	iluzórnejšie	AAip4y
iluzórny	iluzórnejšie	AAip5y
iluzórny	iluzórnejších	AAip6y
iluzórny	iluzórnejšími	AAip7y
iluzórny	iluzórnejšia	AAfs1y
iluzórny	iluzórnejšej	AAfs2y
iluzórny	iluzórnejšej	AAfs3y
iluzórny	iluzórnejšiu	AAfs4y
iluzórny	iluzórnejšia	AAfs5y
iluzórny	iluzórnejšej	AAfs6y
iluzórny	iluzórnejšou	AAfs7y
iluzórny	iluzórnejšie	AAfp1y
iluzórny	iluzórnejších	AAfp2y
iluzórny	iluzórnejším	AAfp3y
iluzórny	iluzórnejšie	AAfp4y
iluzórny	iluzórnejšie	AAfp5y
iluzórny	iluzórnejších	AAfp6y
iluzórny	iluzórnejšími	AAfp7y
iluzórny	iluzórnejšie	AAns1y
iluzórny	iluzórnejšieho	AAns2y
iluzórny	iluzórnejšiemu	AAns3y
iluzórny	iluzórnejšie	AAns4y
iluzórny	iluzórnejšie	AAns5y
iluzórny	iluzórnejšom	AAns6y
iluzórny	iluzórnejším	AAns7y
iluzórny	iluzórnejšie	AAnp1y
iluzórny	iluzórnejších	AAnp2y
iluzórny	iluzórnejším	AAnp3y
iluzórny	iluzórnejšie	AAnp4y
iluzórny	iluzórnejšie	AAnp5y
iluzórny	iluzórnejších	AAnp6y
iluzórny	iluzórnejšími	AAnp7y
iluzórny	najiluzórnejší	AAms1z
iluzórny	najiluzórnejšieho	AAms2z
iluzórny	najiluzórnejšiemu	AAms3z
iluzórny	najiluzórnejšieho	AAms4z
iluzórny	najiluzórnejší	AAms5z
iluzórny	najiluzórnejšom	AAms6z
iluzórny	najiluzórnejším	AAms7z
iluzórny	najiluzórnejší	AAmp1z
iluzórny	najiluzórnejších	AAmp2z
iluzórny	najiluzórnejším	AAmp3z
iluzórny	najiluzórnejších	AAmp4z
iluzórny	najiluzórnejší	AAmp5z
iluzórny	najiluzórnejších	AAmp6z
iluzórny	najiluzórnejšími	AAmp7z
iluzórny	najiluzórnejší	AAis1z
iluzórny	najiluzórnejšieho	AAis2z
iluzórny	najiluzórnejšiemu	AAis3z
iluzórny	najiluzórnejší	AAis4z
iluzórny	najiluzórnejší	AAis5z
iluzórny	najiluzórnejšom	AAis6z
iluzórny	najiluzórnejším	AAis7z
iluzórny	najiluzórnejšie	AAip1z
iluzórny	najiluzórnejších	AAip2z
iluzórny	najiluzórnejším	AAip3z
iluzórny	najiluzórnejšie	AAip4z
iluzórny	najiluzórnejšie	AAip5z
iluzórny	najiluzórnejších	AAip6z
iluzórny	najiluzórnejšími	AAip7z
iluzórny	najiluzórnejšia	AAfs1z
iluzórny	najiluzórnejšej	AAfs2z
iluzórny	najiluzórnejšej	AAfs3z
iluzórny	najiluzórnejšiu	AAfs4z
iluzórny	najiluzórnejšia	AAfs5z
iluzórny	najiluzórnejšej	AAfs6z
iluzórny	najiluzórnejšou	AAfs7z
iluzórny	najiluzórnejšie	AAfp1z
iluzórny	najiluzórnejších	AAfp2z
iluzórny	najiluzórnejším	AAfp3z
iluzórny	najiluzórnejšie	AAfp4z
iluzórny	najiluzórnejšie	AAfp5z
iluzórny	najiluzórnejších	AAfp6z
iluzórny	najiluzórnejšími	AAfp7z
iluzórny	najiluzórnejšie	AAns1z
iluzórny	najiluzórnejšieho	AAns2z
iluzórny	najiluzórnejšiemu	AAns3z
iluzórny	najiluzórnejšie	AAns4z
iluzórny	najiluzórnejšie	AAns5z
iluzórny	najiluzórnejšom	AAns6z
iluzórny	najiluzórnejším	AAns7z
iluzórny	najiluzórnejšie	AAnp1z
iluzórny	najiluzórnejších	AAnp2z
iluzórny	najiluzórnejším	AAnp3z
iluzórny	najiluzórnejšie	AAnp4z
iluzórny	najiluzórnejšie	AAnp5z
iluzórny	najiluzórnejších	AAnp6z
iluzórny	najiluzórnejšími	AAnp7z
ilúzia	ilúzia	SSfs1
ilúzia	ilúzie	SSfs2
ilúzia	ilúzii	SSfs3
ilúzia	ilúziu	SSfs4
ilúzia	ilúzia	SSfs5
ilúzia	ilúzii	SSfs6
ilúzia	ilúziou	SSfs7
ilúzia	ilúzie	SSfp1
ilúzia	ilúzií	SSfp2
ilúzia	ilúziám	SSfp3
ilúzia	ilúzie	SSfp4
ilúzia	ilúzie	SSfp5
ilúzia	ilúziách	SSfp6
ilúzia	ilúziami	SSfp7
ilýr	ilýr	W
ilýrsky	ilýrsky	Dx
iľjušin	iľjušin	SSis1
iľjušin	iľjušina	SSis2
iľjušin	iľjušinu	SSis3
iľjušin	iľjušin	SSis4
iľjušin	iľjušin	SSis5
iľjušin	iľjušine	SSis6
iľjušin	iľjušinom	SSis7
iľjušin	iľjušiny	SSip1
iľjušin	iľjušinov	SSip2
iľjušin	iľjušinom	SSip3
iľjušin	iľjušiny	SSip4
iľjušin	iľjušiny	SSip5
iľjušin	iľjušinoch	SSip6
iľjušin	iľjušinmi	SSip7
íl	íl	SSis1
íl	ílu	SSis2
íl	ílu	SSis3
íl	íl	SSis4
íl	íl	SSis5
íl	íle	SSis6
íl	ílom	SSis7
íl	íly	SSip1
íl	ílov	SSip2
íl	ílom	SSip3
íl	íly	SSip4
íl	íly	SSip5
íl	íloch	SSip6
íl	ílmi	SSip7
ílovitý	ílovitý	AAms1x
ílovitý	ílovitého	AAms2x
ílovitý	ílovitému	AAms3x
ílovitý	ílovitého	AAms4x
ílovitý	ílovitý	AAms5x
ílovitý	ílovitom	AAms6x
ílovitý	ílovitým	AAms7x
ílovitý	ílovití	AAmp1x
ílovitý	ílovitých	AAmp2x
ílovitý	ílovitým	AAmp3x
ílovitý	ílovitých	AAmp4x
ílovitý	ílovití	AAmp5x
ílovitý	ílovitých	AAmp6x
ílovitý	ílovitými	AAmp7x
ílovitý	ílovitý	AAis1x
ílovitý	ílovitého	AAis2x
ílovitý	ílovitému	AAis3x
ílovitý	ílovitý	AAis4x
ílovitý	ílovitý	AAis5x
ílovitý	ílovitom	AAis6x
ílovitý	ílovitým	AAis7x
ílovitý	ílovité	AAip1x
ílovitý	ílovitých	AAip2x
ílovitý	ílovitým	AAip3x
ílovitý	ílovité	AAip4x
ílovitý	ílovité	AAip5x
ílovitý	ílovitých	AAip6x
ílovitý	ílovitými	AAip7x
ílovitý	ílovitá	AAfs1x
ílovitý	ílovitej	AAfs2x
ílovitý	ílovitej	AAfs3x
ílovitý	ílovitú	AAfs4x
ílovitý	ílovitá	AAfs5x
ílovitý	ílovitej	AAfs6x
ílovitý	ílovitou	AAfs7x
ílovitý	ílovité	AAfp1x
ílovitý	ílovitých	AAfp2x
ílovitý	ílovitým	AAfp3x
ílovitý	ílovité	AAfp4x
ílovitý	ílovité	AAfp5x
ílovitý	ílovitých	AAfp6x
ílovitý	ílovitými	AAfp7x
ílovitý	ílovité	AAns1x
ílovitý	ílovitého	AAns2x
ílovitý	ílovitému	AAns3x
ílovitý	ílovité	AAns4x
ílovitý	ílovité	AAns5x
ílovitý	ílovitom	AAns6x
ílovitý	ílovitým	AAns7x
ílovitý	ílovité	AAnp1x
ílovitý	ílovitých	AAnp2x
ílovitý	ílovitým	AAnp3x
ílovitý	ílovité	AAnp4x
ílovitý	ílovité	AAnp5x
ílovitý	ílovitých	AAnp6x
ílovitý	ílovitými	AAnp7x
ílovitý	ílovitejší	AAms1y
ílovitý	ílovitejšieho	AAms2y
ílovitý	ílovitejšiemu	AAms3y
ílovitý	ílovitejšieho	AAms4y
ílovitý	ílovitejší	AAms5y
ílovitý	ílovitejšom	AAms6y
ílovitý	ílovitejším	AAms7y
ílovitý	ílovitejší	AAmp1y
ílovitý	ílovitejších	AAmp2y
ílovitý	ílovitejším	AAmp3y
ílovitý	ílovitejších	AAmp4y
ílovitý	ílovitejší	AAmp5y
ílovitý	ílovitejších	AAmp6y
ílovitý	ílovitejšími	AAmp7y
ílovitý	ílovitejší	AAis1y
ílovitý	ílovitejšieho	AAis2y
ílovitý	ílovitejšiemu	AAis3y
ílovitý	ílovitejší	AAis4y
ílovitý	ílovitejší	AAis5y
ílovitý	ílovitejšom	AAis6y
ílovitý	ílovitejším	AAis7y
ílovitý	ílovitejšie	AAip1y
ílovitý	ílovitejších	AAip2y
ílovitý	ílovitejším	AAip3y
ílovitý	ílovitejšie	AAip4y
ílovitý	ílovitejšie	AAip5y
ílovitý	ílovitejších	AAip6y
ílovitý	ílovitejšími	AAip7y
ílovitý	ílovitejšia	AAfs1y
ílovitý	ílovitejšej	AAfs2y
ílovitý	ílovitejšej	AAfs3y
ílovitý	ílovitejšiu	AAfs4y
ílovitý	ílovitejšia	AAfs5y
ílovitý	ílovitejšej	AAfs6y
ílovitý	ílovitejšou	AAfs7y
ílovitý	ílovitejšie	AAfp1y
ílovitý	ílovitejších	AAfp2y
ílovitý	ílovitejším	AAfp3y
ílovitý	ílovitejšie	AAfp4y
ílovitý	ílovitejšie	AAfp5y
ílovitý	ílovitejších	AAfp6y
ílovitý	ílovitejšími	AAfp7y
ílovitý	ílovitejšie	AAns1y
ílovitý	ílovitejšieho	AAns2y
ílovitý	ílovitejšiemu	AAns3y
ílovitý	ílovitejšie	AAns4y
ílovitý	ílovitejšie	AAns5y
ílovitý	ílovitejšom	AAns6y
ílovitý	ílovitejším	AAns7y
ílovitý	ílovitejšie	AAnp1y
ílovitý	ílovitejších	AAnp2y
ílovitý	ílovitejším	AAnp3y
ílovitý	ílovitejšie	AAnp4y
ílovitý	ílovitejšie	AAnp5y
ílovitý	ílovitejších	AAnp6y
ílovitý	ílovitejšími	AAnp7y
ílovitý	najílovitejší	AAms1z
ílovitý	najílovitejšieho	AAms2z
ílovitý	najílovitejšiemu	AAms3z
ílovitý	najílovitejšieho	AAms4z
ílovitý	najílovitejší	AAms5z
ílovitý	najílovitejšom	AAms6z
ílovitý	najílovitejším	AAms7z
ílovitý	najílovitejší	AAmp1z
ílovitý	najílovitejších	AAmp2z
ílovitý	najílovitejším	AAmp3z
ílovitý	najílovitejších	AAmp4z
ílovitý	najílovitejší	AAmp5z
ílovitý	najílovitejších	AAmp6z
ílovitý	najílovitejšími	AAmp7z
ílovitý	najílovitejší	AAis1z
ílovitý	najílovitejšieho	AAis2z
ílovitý	najílovitejšiemu	AAis3z
ílovitý	najílovitejší	AAis4z
ílovitý	najílovitejší	AAis5z
ílovitý	najílovitejšom	AAis6z
ílovitý	najílovitejším	AAis7z
ílovitý	najílovitejšie	AAip1z
ílovitý	najílovitejších	AAip2z
ílovitý	najílovitejším	AAip3z
ílovitý	najílovitejšie	AAip4z
ílovitý	najílovitejšie	AAip5z
ílovitý	najílovitejších	AAip6z
ílovitý	najílovitejšími	AAip7z
ílovitý	najílovitejšia	AAfs1z
ílovitý	najílovitejšej	AAfs2z
ílovitý	najílovitejšej	AAfs3z
ílovitý	najílovitejšiu	AAfs4z
ílovitý	najílovitejšia	AAfs5z
ílovitý	najílovitejšej	AAfs6z
ílovitý	najílovitejšou	AAfs7z
ílovitý	najílovitejšie	AAfp1z
ílovitý	najílovitejších	AAfp2z
ílovitý	najílovitejším	AAfp3z
ílovitý	najílovitejšie	AAfp4z
ílovitý	najílovitejšie	AAfp5z
ílovitý	najílovitejších	AAfp6z
ílovitý	najílovitejšími	AAfp7z
ílovitý	najílovitejšie	AAns1z
ílovitý	najílovitejšieho	AAns2z
ílovitý	najílovitejšiemu	AAns3z
ílovitý	najílovitejšie	AAns4z
ílovitý	najílovitejšie	AAns5z
ílovitý	najílovitejšom	AAns6z
ílovitý	najílovitejším	AAns7z
ílovitý	najílovitejšie	AAnp1z
ílovitý	najílovitejších	AAnp2z
ílovitý	najílovitejším	AAnp3z
ílovitý	najílovitejšie	AAnp4z
ílovitý	najílovitejšie	AAnp5z
ílovitý	najílovitejších	AAnp6z
ílovitý	najílovitejšími	AAnp7z
ílový	ílový	AAms1x
ílový	ílového	AAms2x
ílový	ílovému	AAms3x
ílový	ílového	AAms4x
ílový	ílový	AAms5x
ílový	ílovom	AAms6x
ílový	ílovým	AAms7x
ílový	íloví	AAmp1x
ílový	ílových	AAmp2x
ílový	ílovým	AAmp3x
ílový	ílových	AAmp4x
ílový	íloví	AAmp5x
ílový	ílových	AAmp6x
ílový	ílovými	AAmp7x
ílový	ílový	AAis1x
ílový	ílového	AAis2x
ílový	ílovému	AAis3x
ílový	ílový	AAis4x
ílový	ílový	AAis5x
ílový	ílovom	AAis6x
ílový	ílovým	AAis7x
ílový	ílové	AAip1x
ílový	ílových	AAip2x
ílový	ílovým	AAip3x
ílový	ílové	AAip4x
ílový	ílové	AAip5x
ílový	ílových	AAip6x
ílový	ílovými	AAip7x
ílový	ílová	AAfs1x
ílový	ílovej	AAfs2x
ílový	ílovej	AAfs3x
ílový	ílovú	AAfs4x
ílový	ílová	AAfs5x
ílový	ílovej	AAfs6x
ílový	ílovou	AAfs7x
ílový	ílové	AAfp1x
ílový	ílových	AAfp2x
ílový	ílovým	AAfp3x
ílový	ílové	AAfp4x
ílový	ílové	AAfp5x
ílový	ílových	AAfp6x
ílový	ílovými	AAfp7x
ílový	ílové	AAns1x
ílový	ílového	AAns2x
ílový	ílovému	AAns3x
ílový	ílové	AAns4x
ílový	ílové	AAns5x
ílový	ílovom	AAns6x
ílový	ílovým	AAns7x
ílový	ílové	AAnp1x
ílový	ílových	AAnp2x
ílový	ílovým	AAnp3x
ílový	ílové	AAnp4x
ílový	ílové	AAnp5x
ílový	ílových	AAnp6x
ílový	ílovými	AAnp7x
