ionizačný	ionizačný	AAms1x
ionizačný	ionizačného	AAms2x
ionizačný	ionizačnému	AAms3x
ionizačný	ionizačného	AAms4x
ionizačný	ionizačný	AAms5x
ionizačný	ionizačnom	AAms6x
ionizačný	ionizačným	AAms7x
ionizačný	ionizační	AAmp1x
ionizačný	ionizačných	AAmp2x
ionizačný	ionizačným	AAmp3x
ionizačný	ionizačných	AAmp4x
ionizačný	ionizační	AAmp5x
ionizačný	ionizačných	AAmp6x
ionizačný	ionizačnými	AAmp7x
ionizačný	ionizačný	AAis1x
ionizačný	ionizačného	AAis2x
ionizačný	ionizačnému	AAis3x
ionizačný	ionizačný	AAis4x
ionizačný	ionizačný	AAis5x
ionizačný	ionizačnom	AAis6x
ionizačný	ionizačným	AAis7x
ionizačný	ionizačné	AAip1x
ionizačný	ionizačných	AAip2x
ionizačný	ionizačným	AAip3x
ionizačný	ionizačné	AAip4x
ionizačný	ionizačné	AAip5x
ionizačný	ionizačných	AAip6x
ionizačný	ionizačnými	AAip7x
ionizačný	ionizačná	AAfs1x
ionizačný	ionizačnej	AAfs2x
ionizačný	ionizačnej	AAfs3x
ionizačný	ionizačnú	AAfs4x
ionizačný	ionizačná	AAfs5x
ionizačný	ionizačnej	AAfs6x
ionizačný	ionizačnou	AAfs7x
ionizačný	ionizačné	AAfp1x
ionizačný	ionizačných	AAfp2x
ionizačný	ionizačným	AAfp3x
ionizačný	ionizačné	AAfp4x
ionizačný	ionizačné	AAfp5x
ionizačný	ionizačných	AAfp6x
ionizačný	ionizačnými	AAfp7x
ionizačný	ionizačné	AAns1x
ionizačný	ionizačného	AAns2x
ionizačný	ionizačnému	AAns3x
ionizačný	ionizačné	AAns4x
ionizačný	ionizačné	AAns5x
ionizačný	ionizačnom	AAns6x
ionizačný	ionizačným	AAns7x
ionizačný	ionizačné	AAnp1x
ionizačný	ionizačných	AAnp2x
ionizačný	ionizačným	AAnp3x
ionizačný	ionizačné	AAnp4x
ionizačný	ionizačné	AAnp5x
ionizačný	ionizačných	AAnp6x
ionizačný	ionizačnými	AAnp7x
ionizovať	ionizovať	VIj+
ionizovať	ionizujem	VKjsa+
ionizovať	ionizuješ	VKjsb+
ionizovať	ionizuje	VKjsc+
ionizovať	ionizujeme	VKjpa+
ionizovať	ionizujete	VKjpb+
ionizovať	ionizujú	VKjpc+
ionizovať	ionizuj	VMjsb+
ionizovať	ionizujme	VMjpa+
ionizovať	ionizujte	VMjpb+
ionizovať	ionizujúc	VHj+
ionizovať	ionizoval	VLjsam+
ionizovať	ionizoval	VLjsai+
ionizovať	ionizoval	VLjsbm+
ionizovať	ionizoval	VLjsbi+
ionizovať	ionizoval	VLjscm+
ionizovať	ionizoval	VLjsci+
ionizovať	ionizovala	VLjsaf+
ionizovať	ionizovala	VLjsbf+
ionizovať	ionizovala	VLjscf+
ionizovať	ionizovalo	VLjsan+
ionizovať	ionizovalo	VLjsbn+
ionizovať	ionizovalo	VLjscn+
ionizovať	ionizovali	VLjpah+
ionizovať	ionizovali	VLjpbh+
ionizovať	ionizovali	VLjpcm+
ionizovať	ionizovali	VLjpci+
ionizovať	ionizovali	VLjpcf+
ionizovať	ionizovali	VLjpcn+
ionizovať	ionizovali	VLjpco+
ionizácia	ionizácia	SSfs1
ionizácia	ionizácie	SSfs2
ionizácia	ionizácii	SSfs3
ionizácia	ionizáciu	SSfs4
ionizácia	ionizácia	SSfs5
ionizácia	ionizácii	SSfs6
ionizácia	ionizáciou	SSfs7
ionizácia	ionizácie	SSfp1
ionizácia	ionizácií	SSfp2
ionizácia	ionizáciám	SSfp3
ionizácia	ionizácie	SSfp4
ionizácia	ionizácie	SSfp5
ionizácia	ionizáciách	SSfp6
ionizácia	ionizáciami	SSfp7
ionizátor	ionizátor	SSis1
ionizátor	ionizátora	SSis2
ionizátor	ionizátoru	SSis3
ionizátor	ionizátor	SSis4
ionizátor	ionizátor	SSis5
ionizátor	ionizátore	SSis6
ionizátor	ionizátorom	SSis7
ionizátor	ionizátory	SSip1
ionizátor	ionizátorov	SSip2
ionizátor	ionizátorom	SSip3
ionizátor	ionizátory	SSip4
ionizátor	ionizátory	SSip5
ionizátor	ionizátoroch	SSip6
ionizátor	ionizátormi	SSip7
ionoforéza	ionoforéza	SSfs1
ionoforéza	ionoforézy	SSfs2
ionoforéza	ionoforéze	SSfs3
ionoforéza	ionoforézu	SSfs4
ionoforéza	ionoforéza	SSfs5
ionoforéza	ionoforéze	SSfs6
ionoforéza	ionoforézou	SSfs7
ionoforéza	ionoforézy	SSfp1
ionoforéza	ionoforéz	SSfp2
ionoforéza	ionoforézam	SSfp3
ionoforéza	ionoforézy	SSfp4
ionoforéza	ionoforézy	SSfp5
ionoforéza	ionoforézach	SSfp6
ionoforéza	ionoforézami	SSfp7
ionometria	ionometria	SSfs1
ionometria	ionometrie	SSfs2
ionometria	ionometrii	SSfs3
ionometria	ionometriu	SSfs4
ionometria	ionometria	SSfs5
ionometria	ionometrii	SSfs6
ionometria	ionometriou	SSfs7
ionometria	ionometrie	SSfp1
ionometria	ionometrií	SSfp2
ionometria	ionometriám	SSfp3
ionometria	ionometrie	SSfp4
ionometria	ionometrie	SSfp5
ionometria	ionometriách	SSfp6
ionometria	ionometriami	SSfp7
ionometrický	ionometrický	AAms1x
ionometrický	ionometrického	AAms2x
ionometrický	ionometrickému	AAms3x
ionometrický	ionometrického	AAms4x
ionometrický	ionometrický	AAms5x
ionometrický	ionometrickom	AAms6x
ionometrický	ionometrickým	AAms7x
ionometrický	ionometrickí	AAmp1x
ionometrický	ionometrických	AAmp2x
ionometrický	ionometrickým	AAmp3x
ionometrický	ionometrických	AAmp4x
ionometrický	ionometrickí	AAmp5x
ionometrický	ionometrických	AAmp6x
ionometrický	ionometrickými	AAmp7x
ionometrický	ionometrický	AAis1x
ionometrický	ionometrického	AAis2x
ionometrický	ionometrickému	AAis3x
ionometrický	ionometrický	AAis4x
ionometrický	ionometrický	AAis5x
ionometrický	ionometrickom	AAis6x
ionometrický	ionometrickým	AAis7x
ionometrický	ionometrické	AAip1x
ionometrický	ionometrických	AAip2x
ionometrický	ionometrickým	AAip3x
ionometrický	ionometrické	AAip4x
ionometrický	ionometrické	AAip5x
ionometrický	ionometrických	AAip6x
ionometrický	ionometrickými	AAip7x
ionometrický	ionometrická	AAfs1x
ionometrický	ionometrickej	AAfs2x
ionometrický	ionometrickej	AAfs3x
ionometrický	ionometrickú	AAfs4x
ionometrický	ionometrická	AAfs5x
ionometrický	ionometrickej	AAfs6x
ionometrický	ionometrickou	AAfs7x
ionometrický	ionometrické	AAfp1x
ionometrický	ionometrických	AAfp2x
ionometrický	ionometrickým	AAfp3x
ionometrický	ionometrické	AAfp4x
ionometrický	ionometrické	AAfp5x
ionometrický	ionometrických	AAfp6x
ionometrický	ionometrickými	AAfp7x
ionometrický	ionometrické	AAns1x
ionometrický	ionometrického	AAns2x
ionometrický	ionometrickému	AAns3x
ionometrický	ionometrické	AAns4x
ionometrický	ionometrické	AAns5x
ionometrický	ionometrickom	AAns6x
ionometrický	ionometrickým	AAns7x
ionometrický	ionometrické	AAnp1x
ionometrický	ionometrických	AAnp2x
ionometrický	ionometrickým	AAnp3x
ionometrický	ionometrické	AAnp4x
ionometrický	ionometrické	AAnp5x
ionometrický	ionometrických	AAnp6x
ionometrický	ionometrickými	AAnp7x
ionosféra	ionosféra	SSfs1
ionosféra	ionosféry	SSfs2
ionosféra	ionosfére	SSfs3
ionosféra	ionosféru	SSfs4
ionosféra	ionosféra	SSfs5
ionosféra	ionosfére	SSfs6
ionosféra	ionosférou	SSfs7
ionosféra	ionosféry	SSfp1
ionosféra	ionosfér	SSfp2
ionosféra	ionosféram	SSfp3
ionosféra	ionosféry	SSfp4
ionosféra	ionosféry	SSfp5
ionosféra	ionosférach	SSfp6
ionosféra	ionosférami	SSfp7
ionosférický	ionosférický	AAms1x
ionosférický	ionosférického	AAms2x
ionosférický	ionosférickému	AAms3x
ionosférický	ionosférického	AAms4x
ionosférický	ionosférický	AAms5x
ionosférický	ionosférickom	AAms6x
ionosférický	ionosférickým	AAms7x
ionosférický	ionosférickí	AAmp1x
ionosférický	ionosférických	AAmp2x
ionosférický	ionosférickým	AAmp3x
ionosférický	ionosférických	AAmp4x
ionosférický	ionosférickí	AAmp5x
ionosférický	ionosférických	AAmp6x
ionosférický	ionosférickými	AAmp7x
ionosférický	ionosférický	AAis1x
ionosférický	ionosférického	AAis2x
ionosférický	ionosférickému	AAis3x
ionosférický	ionosférický	AAis4x
ionosférický	ionosférický	AAis5x
ionosférický	ionosférickom	AAis6x
ionosférický	ionosférickým	AAis7x
ionosférický	ionosférické	AAip1x
ionosférický	ionosférických	AAip2x
ionosférický	ionosférickým	AAip3x
ionosférický	ionosférické	AAip4x
ionosférický	ionosférické	AAip5x
ionosférický	ionosférických	AAip6x
ionosférický	ionosférickými	AAip7x
ionosférický	ionosférická	AAfs1x
ionosférický	ionosférickej	AAfs2x
ionosférický	ionosférickej	AAfs3x
ionosférický	ionosférickú	AAfs4x
ionosférický	ionosférická	AAfs5x
ionosférický	ionosférickej	AAfs6x
ionosférický	ionosférickou	AAfs7x
ionosférický	ionosférické	AAfp1x
ionosférický	ionosférických	AAfp2x
ionosférický	ionosférickým	AAfp3x
ionosférický	ionosférické	AAfp4x
ionosférický	ionosférické	AAfp5x
ionosférický	ionosférických	AAfp6x
ionosférický	ionosférickými	AAfp7x
ionosférický	ionosférické	AAns1x
ionosférický	ionosférického	AAns2x
ionosférický	ionosférickému	AAns3x
ionosférický	ionosférické	AAns4x
ionosférický	ionosférické	AAns5x
ionosférický	ionosférickom	AAns6x
ionosférický	ionosférickým	AAns7x
ionosférický	ionosférické	AAnp1x
ionosférický	ionosférických	AAnp2x
ionosférický	ionosférickým	AAnp3x
ionosférický	ionosférické	AAnp4x
ionosférický	ionosférické	AAnp5x
ionosférický	ionosférických	AAnp6x
ionosférický	ionosférickými	AAnp7x
ión	ión	SSis1
ión	ióna	SSis2
ión	iónu	SSis2
ión	iónu	SSis3
ión	ión	SSis4
ión	ión	SSis5
ión	ióne	SSis6
ión	iónom	SSis7
ión	ióny	SSip1
ión	iónov	SSip2
ión	iónom	SSip3
ión	ióny	SSip4
ión	ióny	SSip5
ión	iónoch	SSip6
ión	iónmi	SSip7
iónový	iónový	AAms1x
iónový	iónového	AAms2x
iónový	iónovému	AAms3x
iónový	iónového	AAms4x
iónový	iónový	AAms5x
iónový	iónovom	AAms6x
iónový	iónovým	AAms7x
iónový	iónoví	AAmp1x
iónový	iónových	AAmp2x
iónový	iónovým	AAmp3x
iónový	iónových	AAmp4x
iónový	iónoví	AAmp5x
iónový	iónových	AAmp6x
iónový	iónovými	AAmp7x
iónový	iónový	AAis1x
iónový	iónového	AAis2x
iónový	iónovému	AAis3x
iónový	iónový	AAis4x
iónový	iónový	AAis5x
iónový	iónovom	AAis6x
iónový	iónovým	AAis7x
iónový	iónové	AAip1x
iónový	iónových	AAip2x
iónový	iónovým	AAip3x
iónový	iónové	AAip4x
iónový	iónové	AAip5x
iónový	iónových	AAip6x
iónový	iónovými	AAip7x
iónový	iónová	AAfs1x
iónový	iónovej	AAfs2x
iónový	iónovej	AAfs3x
iónový	iónovú	AAfs4x
iónový	iónová	AAfs5x
iónový	iónovej	AAfs6x
iónový	iónovou	AAfs7x
iónový	iónové	AAfp1x
iónový	iónových	AAfp2x
iónový	iónovým	AAfp3x
iónový	iónové	AAfp4x
iónový	iónové	AAfp5x
iónový	iónových	AAfp6x
iónový	iónovými	AAfp7x
iónový	iónové	AAns1x
iónový	iónového	AAns2x
iónový	iónovému	AAns3x
iónový	iónové	AAns4x
iónový	iónové	AAns5x
iónový	iónovom	AAns6x
iónový	iónovým	AAns7x
iónový	iónové	AAnp1x
iónový	iónových	AAnp2x
iónový	iónovým	AAnp3x
iónový	iónové	AAnp4x
iónový	iónové	AAnp5x
iónový	iónových	AAnp6x
iónový	iónovými	AAnp7x
iónsky	iónsky	AAms1x
iónsky	iónskeho	AAms2x
iónsky	iónskemu	AAms3x
iónsky	iónskeho	AAms4x
iónsky	iónsky	AAms5x
iónsky	iónskom	AAms6x
iónsky	iónskym	AAms7x
iónsky	iónski	AAmp1x
iónsky	iónskych	AAmp2x
iónsky	iónskym	AAmp3x
iónsky	iónskych	AAmp4x
iónsky	iónski	AAmp5x
iónsky	iónskych	AAmp6x
iónsky	iónskymi	AAmp7x
iónsky	iónsky	AAis1x
iónsky	iónskeho	AAis2x
iónsky	iónskemu	AAis3x
iónsky	iónsky	AAis4x
iónsky	iónsky	AAis5x
iónsky	iónskom	AAis6x
iónsky	iónskym	AAis7x
iónsky	iónske	AAip1x
iónsky	iónskych	AAip2x
iónsky	iónskym	AAip3x
iónsky	iónske	AAip4x
iónsky	iónske	AAip5x
iónsky	iónskych	AAip6x
iónsky	iónskymi	AAip7x
iónsky	iónska	AAfs1x
iónsky	iónskej	AAfs2x
iónsky	iónskej	AAfs3x
iónsky	iónsku	AAfs4x
iónsky	iónska	AAfs5x
iónsky	iónskej	AAfs6x
iónsky	iónskou	AAfs7x
iónsky	iónske	AAfp1x
iónsky	iónskych	AAfp2x
iónsky	iónskym	AAfp3x
iónsky	iónske	AAfp4x
iónsky	iónske	AAfp5x
iónsky	iónskych	AAfp6x
iónsky	iónskymi	AAfp7x
iónsky	iónske	AAns1x
iónsky	iónskeho	AAns2x
iónsky	iónskemu	AAns3x
iónsky	iónske	AAns4x
iónsky	iónske	AAns5x
iónsky	iónskom	AAns6x
iónsky	iónskym	AAns7x
iónsky	iónske	AAnp1x
iónsky	iónskych	AAnp2x
iónsky	iónskym	AAnp3x
iónsky	iónske	AAnp4x
iónsky	iónske	AAnp5x
iónsky	iónskych	AAnp6x
iónsky	iónskymi	AAnp7x
iónsky	iónskejší	AAms1y
iónsky	iónskejšieho	AAms2y
iónsky	iónskejšiemu	AAms3y
iónsky	iónskejšieho	AAms4y
iónsky	iónskejší	AAms5y
iónsky	iónskejšom	AAms6y
iónsky	iónskejším	AAms7y
iónsky	iónskejší	AAmp1y
iónsky	iónskejších	AAmp2y
iónsky	iónskejším	AAmp3y
iónsky	iónskejších	AAmp4y
iónsky	iónskejší	AAmp5y
iónsky	iónskejších	AAmp6y
iónsky	iónskejšími	AAmp7y
iónsky	iónskejší	AAis1y
iónsky	iónskejšieho	AAis2y
iónsky	iónskejšiemu	AAis3y
iónsky	iónskejší	AAis4y
iónsky	iónskejší	AAis5y
iónsky	iónskejšom	AAis6y
iónsky	iónskejším	AAis7y
iónsky	iónskejšie	AAip1y
iónsky	iónskejších	AAip2y
iónsky	iónskejším	AAip3y
iónsky	iónskejšie	AAip4y
iónsky	iónskejšie	AAip5y
iónsky	iónskejších	AAip6y
iónsky	iónskejšími	AAip7y
iónsky	iónskejšia	AAfs1y
iónsky	iónskejšej	AAfs2y
iónsky	iónskejšej	AAfs3y
iónsky	iónskejšiu	AAfs4y
iónsky	iónskejšia	AAfs5y
iónsky	iónskejšej	AAfs6y
iónsky	iónskejšou	AAfs7y
iónsky	iónskejšie	AAfp1y
iónsky	iónskejších	AAfp2y
iónsky	iónskejším	AAfp3y
iónsky	iónskejšie	AAfp4y
iónsky	iónskejšie	AAfp5y
iónsky	iónskejších	AAfp6y
iónsky	iónskejšími	AAfp7y
iónsky	iónskejšie	AAns1y
iónsky	iónskejšieho	AAns2y
iónsky	iónskejšiemu	AAns3y
iónsky	iónskejšie	AAns4y
iónsky	iónskejšie	AAns5y
iónsky	iónskejšom	AAns6y
iónsky	iónskejším	AAns7y
iónsky	iónskejšie	AAnp1y
iónsky	iónskejších	AAnp2y
iónsky	iónskejším	AAnp3y
iónsky	iónskejšie	AAnp4y
iónsky	iónskejšie	AAnp5y
iónsky	iónskejších	AAnp6y
iónsky	iónskejšími	AAnp7y
iónsky	najiónskejší	AAms1z
iónsky	najiónskejšieho	AAms2z
iónsky	najiónskejšiemu	AAms3z
iónsky	najiónskejšieho	AAms4z
iónsky	najiónskejší	AAms5z
iónsky	najiónskejšom	AAms6z
iónsky	najiónskejším	AAms7z
iónsky	najiónskejší	AAmp1z
iónsky	najiónskejších	AAmp2z
iónsky	najiónskejším	AAmp3z
iónsky	najiónskejších	AAmp4z
iónsky	najiónskejší	AAmp5z
iónsky	najiónskejších	AAmp6z
iónsky	najiónskejšími	AAmp7z
iónsky	najiónskejší	AAis1z
iónsky	najiónskejšieho	AAis2z
iónsky	najiónskejšiemu	AAis3z
iónsky	najiónskejší	AAis4z
iónsky	najiónskejší	AAis5z
iónsky	najiónskejšom	AAis6z
iónsky	najiónskejším	AAis7z
iónsky	najiónskejšie	AAip1z
iónsky	najiónskejších	AAip2z
iónsky	najiónskejším	AAip3z
iónsky	najiónskejšie	AAip4z
iónsky	najiónskejšie	AAip5z
iónsky	najiónskejších	AAip6z
iónsky	najiónskejšími	AAip7z
iónsky	najiónskejšia	AAfs1z
iónsky	najiónskejšej	AAfs2z
iónsky	najiónskejšej	AAfs3z
iónsky	najiónskejšiu	AAfs4z
iónsky	najiónskejšia	AAfs5z
iónsky	najiónskejšej	AAfs6z
iónsky	najiónskejšou	AAfs7z
iónsky	najiónskejšie	AAfp1z
iónsky	najiónskejších	AAfp2z
iónsky	najiónskejším	AAfp3z
iónsky	najiónskejšie	AAfp4z
iónsky	najiónskejšie	AAfp5z
iónsky	najiónskejších	AAfp6z
iónsky	najiónskejšími	AAfp7z
iónsky	najiónskejšie	AAns1z
iónsky	najiónskejšieho	AAns2z
iónsky	najiónskejšiemu	AAns3z
iónsky	najiónskejšie	AAns4z
iónsky	najiónskejšie	AAns5z
iónsky	najiónskejšom	AAns6z
iónsky	najiónskejším	AAns7z
iónsky	najiónskejšie	AAnp1z
iónsky	najiónskejších	AAnp2z
iónsky	najiónskejším	AAnp3z
iónsky	najiónskejšie	AAnp4z
iónsky	najiónskejšie	AAnp5z
iónsky	najiónskejších	AAnp6z
iónsky	najiónskejšími	AAnp7z
ióta	ióta	SSfs1
ióta	ióty	SSfs2
ióta	ióte	SSfs3
ióta	iótu	SSfs4
ióta	ióta	SSfs5
ióta	ióte	SSfs6
ióta	iótou	SSfs7
ióta	ióty	SSfp1
ióta	iót	SSfp2
ióta	iótam	SSfp3
ióta	ióty	SSfp4
ióta	ióty	SSfp5
ióta	iótach	SSfp6
ióta	iótami	SSfp7
