IRA	IRA	W
IRB	IRB	W
Irak	Irak	SSis1
Irak	Iraku	SSis2
Irak	Iraku	SSis3
Irak	Irak	SSis4
Irak	Irak	SSis5
Irak	Iraku	SSis6
Irak	Irakom	SSis7
Irena	Irena	SSfs1
Irena	Ireny	SSfs2
Irena	Irene	SSfs3
Irena	Irenu	SSfs4
Irena	Irena	SSfs5
Irena	Irene	SSfs6
Irena	Irenou	SSfs7
Irena	Ireny	SSfp1
Irena	Irien	SSfp2
Irena	Irenám	SSfp3
Irena	Ireny	SSfp4
Irena	Ireny	SSfp5
Irena	Irenách	SSfp6
Irena	Irenami	SSfp7
Irenka	Irenka	SSfs1
Irenka	Irenky	SSfs2
Irenka	Irenke	SSfs3
Irenka	Irenku	SSfs4
Irenka	Irenka	SSfs5
Irenka	Irenke	SSfs6
Irenka	Irenkou	SSfs7
Irenka	Irenky	SSfp1
Irenka	Ireniek	SSfp2
Irenka	Irenkám	SSfp3
Irenka	Irenky	SSfp4
Irenka	Irenky	SSfp5
Irenka	Irenkách	SSfp6
Irenka	Irenkami	SSfp7
Irma	Irma	SSfs1
Irma	Irmy	SSfs2
Irma	Irme	SSfs3
Irma	Irmu	SSfs4
Irma	Irma	SSfs5
Irma	Irme	SSfs6
Irma	Irmou	SSfs7
Irma	Irmy	SSfp1
Irma	Iriem	SSfp2
Irma	Irmám	SSfp3
Irma	Irmy	SSfp4
Irma	Irmy	SSfp5
Irma	Irmách	SSfp6
Irma	Irmami	SSfp7
Irán	Irán	SSis1
Irán	Iránu	SSis2
Irán	Iránu	SSis3
Irán	Irán	SSis4
Irán	Irán	SSis5
Irán	Iráne	SSis6
Irán	Iránom	SSis7
iracionalista	iracionalista	SSms1
iracionalista	iracionalistu	SSms2
iracionalista	iracionalistovi	SSms3
iracionalista	iracionalistu	SSms4
iracionalista	iracionalista	SSms5
iracionalista	iracionalistovi	SSms6
iracionalista	iracionalistom	SSms7
iracionalista	iracionalisti	SSmp1
iracionalista	iracionalistov	SSmp2
iracionalista	iracionalistom	SSmp3
iracionalista	iracionalistov	SSmp4
iracionalista	iracionalisti	SSmp5
iracionalista	iracionalistoch	SSmp6
iracionalista	iracionalistami	SSmp7
iracionalistický	iracionalistický	AAms1x
iracionalistický	iracionalistického	AAms2x
iracionalistický	iracionalistickému	AAms3x
iracionalistický	iracionalistického	AAms4x
iracionalistický	iracionalistický	AAms5x
iracionalistický	iracionalistickom	AAms6x
iracionalistický	iracionalistickým	AAms7x
iracionalistický	iracionalistickí	AAmp1x
iracionalistický	iracionalistických	AAmp2x
iracionalistický	iracionalistickým	AAmp3x
iracionalistický	iracionalistických	AAmp4x
iracionalistický	iracionalistickí	AAmp5x
iracionalistický	iracionalistických	AAmp6x
iracionalistický	iracionalistickými	AAmp7x
iracionalistický	iracionalistický	AAis1x
iracionalistický	iracionalistického	AAis2x
iracionalistický	iracionalistickému	AAis3x
iracionalistický	iracionalistický	AAis4x
iracionalistický	iracionalistický	AAis5x
iracionalistický	iracionalistickom	AAis6x
iracionalistický	iracionalistickým	AAis7x
iracionalistický	iracionalistické	AAip1x
iracionalistický	iracionalistických	AAip2x
iracionalistický	iracionalistickým	AAip3x
iracionalistický	iracionalistické	AAip4x
iracionalistický	iracionalistické	AAip5x
iracionalistický	iracionalistických	AAip6x
iracionalistický	iracionalistickými	AAip7x
iracionalistický	iracionalistická	AAfs1x
iracionalistický	iracionalistickej	AAfs2x
iracionalistický	iracionalistickej	AAfs3x
iracionalistický	iracionalistickú	AAfs4x
iracionalistický	iracionalistická	AAfs5x
iracionalistický	iracionalistickej	AAfs6x
iracionalistický	iracionalistickou	AAfs7x
iracionalistický	iracionalistické	AAfp1x
iracionalistický	iracionalistických	AAfp2x
iracionalistický	iracionalistickým	AAfp3x
iracionalistický	iracionalistické	AAfp4x
iracionalistický	iracionalistické	AAfp5x
iracionalistický	iracionalistických	AAfp6x
iracionalistický	iracionalistickými	AAfp7x
iracionalistický	iracionalistické	AAns1x
iracionalistický	iracionalistického	AAns2x
iracionalistický	iracionalistickému	AAns3x
iracionalistický	iracionalistické	AAns4x
iracionalistický	iracionalistické	AAns5x
iracionalistický	iracionalistickom	AAns6x
iracionalistický	iracionalistickým	AAns7x
iracionalistický	iracionalistické	AAnp1x
iracionalistický	iracionalistických	AAnp2x
iracionalistický	iracionalistickým	AAnp3x
iracionalistický	iracionalistické	AAnp4x
iracionalistický	iracionalistické	AAnp5x
iracionalistický	iracionalistických	AAnp6x
iracionalistický	iracionalistickými	AAnp7x
iracionalizmus	iracionalizmus	SSis1
iracionalizmus	iracionalizmu	SSis2
iracionalizmus	iracionalizmu	SSis3
iracionalizmus	iracionalizmus	SSis4
iracionalizmus	iracionalizmus	SSis5
iracionalizmus	iracionalizme	SSis6
iracionalizmus	iracionalizmom	SSis7
iracionalizmus	iracionalizmy	SSip1
iracionalizmus	iracionalizmov	SSip2
iracionalizmus	iracionalizmom	SSip3
iracionalizmus	iracionalizmy	SSip4
iracionalizmus	iracionalizmy	SSip5
iracionalizmus	iracionalizmoch	SSip6
iracionalizmus	iracionalizmami	SSip7
iracionálne	iracionálne	Dx
iracionálne	iracionálnejšie	Dy
iracionálne	najiracionálnejšie	Dz
iracionálnosť	iracionálnosť	SSfs1
iracionálnosť	iracionálnosti	SSfs2
iracionálnosť	iracionálnosti	SSfs3
iracionálnosť	iracionálnosť	SSfs4
iracionálnosť	iracionálnosť	SSfs5
iracionálnosť	iracionálnosti	SSfs6
iracionálnosť	iracionálnosťou	SSfs7
iracionálnosť	iracionálnosti	SSfp1
iracionálnosť	iracionálností	SSfp2
iracionálnosť	iracionálnostiam	SSfp3
iracionálnosť	iracionálnosti	SSfp4
iracionálnosť	iracionálnosti	SSfp5
iracionálnosť	iracionálnostiach	SSfp6
iracionálnosť	iracionálnosťami	SSfp7
iracionálny	iracionálny	AAms1x
iracionálny	iracionálneho	AAms2x
iracionálny	iracionálnemu	AAms3x
iracionálny	iracionálneho	AAms4x
iracionálny	iracionálny	AAms5x
iracionálny	iracionálnom	AAms6x
iracionálny	iracionálnym	AAms7x
iracionálny	iracionálni	AAmp1x
iracionálny	iracionálnych	AAmp2x
iracionálny	iracionálnym	AAmp3x
iracionálny	iracionálnych	AAmp4x
iracionálny	iracionálni	AAmp5x
iracionálny	iracionálnych	AAmp6x
iracionálny	iracionálnymi	AAmp7x
iracionálny	iracionálny	AAis1x
iracionálny	iracionálneho	AAis2x
iracionálny	iracionálnemu	AAis3x
iracionálny	iracionálny	AAis4x
iracionálny	iracionálny	AAis5x
iracionálny	iracionálnom	AAis6x
iracionálny	iracionálnym	AAis7x
iracionálny	iracionálne	AAip1x
iracionálny	iracionálnych	AAip2x
iracionálny	iracionálnym	AAip3x
iracionálny	iracionálne	AAip4x
iracionálny	iracionálne	AAip5x
iracionálny	iracionálnych	AAip6x
iracionálny	iracionálnymi	AAip7x
iracionálny	iracionálna	AAfs1x
iracionálny	iracionálnej	AAfs2x
iracionálny	iracionálnej	AAfs3x
iracionálny	iracionálnu	AAfs4x
iracionálny	iracionálna	AAfs5x
iracionálny	iracionálnej	AAfs6x
iracionálny	iracionálnou	AAfs7x
iracionálny	iracionálne	AAfp1x
iracionálny	iracionálnych	AAfp2x
iracionálny	iracionálnym	AAfp3x
iracionálny	iracionálne	AAfp4x
iracionálny	iracionálne	AAfp5x
iracionálny	iracionálnych	AAfp6x
iracionálny	iracionálnymi	AAfp7x
iracionálny	iracionálne	AAns1x
iracionálny	iracionálneho	AAns2x
iracionálny	iracionálnemu	AAns3x
iracionálny	iracionálne	AAns4x
iracionálny	iracionálne	AAns5x
iracionálny	iracionálnom	AAns6x
iracionálny	iracionálnym	AAns7x
iracionálny	iracionálne	AAnp1x
iracionálny	iracionálnych	AAnp2x
iracionálny	iracionálnym	AAnp3x
iracionálny	iracionálne	AAnp4x
iracionálny	iracionálne	AAnp5x
iracionálny	iracionálnych	AAnp6x
iracionálny	iracionálnymi	AAnp7x
iracionálny	iracionálnejší	AAms1y
iracionálny	iracionálnejšieho	AAms2y
iracionálny	iracionálnejšiemu	AAms3y
iracionálny	iracionálnejšieho	AAms4y
iracionálny	iracionálnejší	AAms5y
iracionálny	iracionálnejšom	AAms6y
iracionálny	iracionálnejším	AAms7y
iracionálny	iracionálnejší	AAmp1y
iracionálny	iracionálnejších	AAmp2y
iracionálny	iracionálnejším	AAmp3y
iracionálny	iracionálnejších	AAmp4y
iracionálny	iracionálnejší	AAmp5y
iracionálny	iracionálnejších	AAmp6y
iracionálny	iracionálnejšími	AAmp7y
iracionálny	iracionálnejší	AAis1y
iracionálny	iracionálnejšieho	AAis2y
iracionálny	iracionálnejšiemu	AAis3y
iracionálny	iracionálnejší	AAis4y
iracionálny	iracionálnejší	AAis5y
iracionálny	iracionálnejšom	AAis6y
iracionálny	iracionálnejším	AAis7y
iracionálny	iracionálnejšie	AAip1y
iracionálny	iracionálnejších	AAip2y
iracionálny	iracionálnejším	AAip3y
iracionálny	iracionálnejšie	AAip4y
iracionálny	iracionálnejšie	AAip5y
iracionálny	iracionálnejších	AAip6y
iracionálny	iracionálnejšími	AAip7y
iracionálny	iracionálnejšia	AAfs1y
iracionálny	iracionálnejšej	AAfs2y
iracionálny	iracionálnejšej	AAfs3y
iracionálny	iracionálnejšiu	AAfs4y
iracionálny	iracionálnejšia	AAfs5y
iracionálny	iracionálnejšej	AAfs6y
iracionálny	iracionálnejšou	AAfs7y
iracionálny	iracionálnejšie	AAfp1y
iracionálny	iracionálnejších	AAfp2y
iracionálny	iracionálnejším	AAfp3y
iracionálny	iracionálnejšie	AAfp4y
iracionálny	iracionálnejšie	AAfp5y
iracionálny	iracionálnejších	AAfp6y
iracionálny	iracionálnejšími	AAfp7y
iracionálny	iracionálnejšie	AAns1y
iracionálny	iracionálnejšieho	AAns2y
iracionálny	iracionálnejšiemu	AAns3y
iracionálny	iracionálnejšie	AAns4y
iracionálny	iracionálnejšie	AAns5y
iracionálny	iracionálnejšom	AAns6y
iracionálny	iracionálnejším	AAns7y
iracionálny	iracionálnejšie	AAnp1y
iracionálny	iracionálnejších	AAnp2y
iracionálny	iracionálnejším	AAnp3y
iracionálny	iracionálnejšie	AAnp4y
iracionálny	iracionálnejšie	AAnp5y
iracionálny	iracionálnejších	AAnp6y
iracionálny	iracionálnejšími	AAnp7y
iracionálny	najiracionálnejší	AAms1z
iracionálny	najiracionálnejšieho	AAms2z
iracionálny	najiracionálnejšiemu	AAms3z
iracionálny	najiracionálnejšieho	AAms4z
iracionálny	najiracionálnejší	AAms5z
iracionálny	najiracionálnejšom	AAms6z
iracionálny	najiracionálnejším	AAms7z
iracionálny	najiracionálnejší	AAmp1z
iracionálny	najiracionálnejších	AAmp2z
iracionálny	najiracionálnejším	AAmp3z
iracionálny	najiracionálnejších	AAmp4z
iracionálny	najiracionálnejší	AAmp5z
iracionálny	najiracionálnejších	AAmp6z
iracionálny	najiracionálnejšími	AAmp7z
iracionálny	najiracionálnejší	AAis1z
iracionálny	najiracionálnejšieho	AAis2z
iracionálny	najiracionálnejšiemu	AAis3z
iracionálny	najiracionálnejší	AAis4z
iracionálny	najiracionálnejší	AAis5z
iracionálny	najiracionálnejšom	AAis6z
iracionálny	najiracionálnejším	AAis7z
iracionálny	najiracionálnejšie	AAip1z
iracionálny	najiracionálnejších	AAip2z
iracionálny	najiracionálnejším	AAip3z
iracionálny	najiracionálnejšie	AAip4z
iracionálny	najiracionálnejšie	AAip5z
iracionálny	najiracionálnejších	AAip6z
iracionálny	najiracionálnejšími	AAip7z
iracionálny	najiracionálnejšia	AAfs1z
iracionálny	najiracionálnejšej	AAfs2z
iracionálny	najiracionálnejšej	AAfs3z
iracionálny	najiracionálnejšiu	AAfs4z
iracionálny	najiracionálnejšia	AAfs5z
iracionálny	najiracionálnejšej	AAfs6z
iracionálny	najiracionálnejšou	AAfs7z
iracionálny	najiracionálnejšie	AAfp1z
iracionálny	najiracionálnejších	AAfp2z
iracionálny	najiracionálnejším	AAfp3z
iracionálny	najiracionálnejšie	AAfp4z
iracionálny	najiracionálnejšie	AAfp5z
iracionálny	najiracionálnejších	AAfp6z
iracionálny	najiracionálnejšími	AAfp7z
iracionálny	najiracionálnejšie	AAns1z
iracionálny	najiracionálnejšieho	AAns2z
iracionálny	najiracionálnejšiemu	AAns3z
iracionálny	najiracionálnejšie	AAns4z
iracionálny	najiracionálnejšie	AAns5z
iracionálny	najiracionálnejšom	AAns6z
iracionálny	najiracionálnejším	AAns7z
iracionálny	najiracionálnejšie	AAnp1z
iracionálny	najiracionálnejších	AAnp2z
iracionálny	najiracionálnejším	AAnp3z
iracionálny	najiracionálnejšie	AAnp4z
iracionálny	najiracionálnejšie	AAnp5z
iracionálny	najiracionálnejších	AAnp6z
iracionálny	najiracionálnejšími	AAnp7z
iracky	iracky	Dx
iracký	iracký	AAms1x
iracký	irackého	AAms2x
iracký	irackému	AAms3x
iracký	irackého	AAms4x
iracký	iracký	AAms5x
iracký	irackom	AAms6x
iracký	irackým	AAms7x
iracký	irackí	AAmp1x
iracký	irackých	AAmp2x
iracký	irackým	AAmp3x
iracký	irackých	AAmp4x
iracký	irackí	AAmp5x
iracký	irackých	AAmp6x
iracký	irackými	AAmp7x
iracký	iracký	AAis1x
iracký	irackého	AAis2x
iracký	irackému	AAis3x
iracký	iracký	AAis4x
iracký	iracký	AAis5x
iracký	irackom	AAis6x
iracký	irackým	AAis7x
iracký	iracké	AAip1x
iracký	irackých	AAip2x
iracký	irackým	AAip3x
iracký	iracké	AAip4x
iracký	iracké	AAip5x
iracký	irackých	AAip6x
iracký	irackými	AAip7x
iracký	iracká	AAfs1x
iracký	irackej	AAfs2x
iracký	irackej	AAfs3x
iracký	irackú	AAfs4x
iracký	iracká	AAfs5x
iracký	irackej	AAfs6x
iracký	irackou	AAfs7x
iracký	iracké	AAfp1x
iracký	irackých	AAfp2x
iracký	irackým	AAfp3x
iracký	iracké	AAfp4x
iracký	iracké	AAfp5x
iracký	irackých	AAfp6x
iracký	irackými	AAfp7x
iracký	iracké	AAns1x
iracký	irackého	AAns2x
iracký	irackému	AAns3x
iracký	iracké	AAns4x
iracký	iracké	AAns5x
iracký	irackom	AAns6x
iracký	irackým	AAns7x
iracký	iracké	AAnp1x
iracký	irackých	AAnp2x
iracký	irackým	AAnp3x
iracký	iracké	AAnp4x
iracký	iracké	AAnp5x
iracký	irackých	AAnp6x
iracký	irackými	AAnp7x
iradiačný	iradiačný	AAms1x
iradiačný	iradiačného	AAms2x
iradiačný	iradiačnému	AAms3x
iradiačný	iradiačného	AAms4x
iradiačný	iradiačný	AAms5x
iradiačný	iradiačnom	AAms6x
iradiačný	iradiačným	AAms7x
iradiačný	iradiační	AAmp1x
iradiačný	iradiačných	AAmp2x
iradiačný	iradiačným	AAmp3x
iradiačný	iradiačných	AAmp4x
iradiačný	iradiační	AAmp5x
iradiačný	iradiačných	AAmp6x
iradiačný	iradiačnými	AAmp7x
iradiačný	iradiačný	AAis1x
iradiačný	iradiačného	AAis2x
iradiačný	iradiačnému	AAis3x
iradiačný	iradiačný	AAis4x
iradiačný	iradiačný	AAis5x
iradiačný	iradiačnom	AAis6x
iradiačný	iradiačným	AAis7x
iradiačný	iradiačné	AAip1x
iradiačný	iradiačných	AAip2x
iradiačný	iradiačným	AAip3x
iradiačný	iradiačné	AAip4x
iradiačný	iradiačné	AAip5x
iradiačný	iradiačných	AAip6x
iradiačný	iradiačnými	AAip7x
iradiačný	iradiačná	AAfs1x
iradiačný	iradiačnej	AAfs2x
iradiačný	iradiačnej	AAfs3x
iradiačný	iradiačnú	AAfs4x
iradiačný	iradiačná	AAfs5x
iradiačný	iradiačnej	AAfs6x
iradiačný	iradiačnou	AAfs7x
iradiačný	iradiačné	AAfp1x
iradiačný	iradiačných	AAfp2x
iradiačný	iradiačným	AAfp3x
iradiačný	iradiačné	AAfp4x
iradiačný	iradiačné	AAfp5x
iradiačný	iradiačných	AAfp6x
iradiačný	iradiačnými	AAfp7x
iradiačný	iradiačné	AAns1x
iradiačný	iradiačného	AAns2x
iradiačný	iradiačnému	AAns3x
iradiačný	iradiačné	AAns4x
iradiačný	iradiačné	AAns5x
iradiačný	iradiačnom	AAns6x
iradiačný	iradiačným	AAns7x
iradiačný	iradiačné	AAnp1x
iradiačný	iradiačných	AAnp2x
iradiačný	iradiačným	AAnp3x
iradiačný	iradiačné	AAnp4x
iradiačný	iradiačné	AAnp5x
iradiačný	iradiačných	AAnp6x
iradiačný	iradiačnými	AAnp7x
iradiácia	iradiácia	SSfs1
iradiácia	iradiácie	SSfs2
iradiácia	iradiácii	SSfs3
iradiácia	iradiáciu	SSfs4
iradiácia	iradiácia	SSfs5
iradiácia	iradiácii	SSfs6
iradiácia	iradiáciou	SSfs7
iradiácia	iradiácie	SSfp1
iradiácia	iradiácií	SSfp2
iradiácia	iradiáciám	SSfp3
iradiácia	iradiácie	SSfp4
iradiácia	iradiácie	SSfp5
iradiácia	iradiáciách	SSfp6
iradiácia	iradiáciami	SSfp7
ircha	ircha	SSfs1
ircha	irchy	SSfs2
ircha	irche	SSfs3
ircha	irchu	SSfs4
ircha	ircha	SSfs5
ircha	irche	SSfs6
ircha	irchou	SSfs7
ircha	irchy	SSfp1
ircha	írch	SSfp2
ircha	irchám	SSfp3
ircha	irchy	SSfp4
ircha	irchy	SSfp5
ircha	irchách	SSfp6
ircha	irchami	SSfp7
irchový	irchový	AAms1x
irchový	irchového	AAms2x
irchový	irchovému	AAms3x
irchový	irchového	AAms4x
irchový	irchový	AAms5x
irchový	irchovom	AAms6x
irchový	irchovým	AAms7x
irchový	irchoví	AAmp1x
irchový	irchových	AAmp2x
irchový	irchovým	AAmp3x
irchový	irchových	AAmp4x
irchový	irchoví	AAmp5x
irchový	irchových	AAmp6x
irchový	irchovými	AAmp7x
irchový	irchový	AAis1x
irchový	irchového	AAis2x
irchový	irchovému	AAis3x
irchový	irchový	AAis4x
irchový	irchový	AAis5x
irchový	irchovom	AAis6x
irchový	irchovým	AAis7x
irchový	irchové	AAip1x
irchový	irchových	AAip2x
irchový	irchovým	AAip3x
irchový	irchové	AAip4x
irchový	irchové	AAip5x
irchový	irchových	AAip6x
irchový	irchovými	AAip7x
irchový	irchová	AAfs1x
irchový	irchovej	AAfs2x
irchový	irchovej	AAfs3x
irchový	irchovú	AAfs4x
irchový	irchová	AAfs5x
irchový	irchovej	AAfs6x
irchový	irchovou	AAfs7x
irchový	irchové	AAfp1x
irchový	irchových	AAfp2x
irchový	irchovým	AAfp3x
irchový	irchové	AAfp4x
irchový	irchové	AAfp5x
irchový	irchových	AAfp6x
irchový	irchovými	AAfp7x
irchový	irchové	AAns1x
irchový	irchového	AAns2x
irchový	irchovému	AAns3x
irchový	irchové	AAns4x
irchový	irchové	AAns5x
irchový	irchovom	AAns6x
irchový	irchovým	AAns7x
irchový	irchové	AAnp1x
irchový	irchových	AAnp2x
irchový	irchovým	AAnp3x
irchový	irchové	AAnp4x
irchový	irchové	AAnp5x
irchový	irchových	AAnp6x
irchový	irchovými	AAnp7x
iredenta	iredenta	SSfs1
iredenta	iredenty	SSfs2
iredenta	iredente	SSfs3
iredenta	iredentu	SSfs4
iredenta	iredenta	SSfs5
iredenta	iredente	SSfs6
iredenta	iredentou	SSfs7
iredenta	iredenty	SSfp1
iredenta	iredent	SSfp2
iredenta	iredentám	SSfp3
iredenta	iredenty	SSfp4
iredenta	iredenty	SSfp5
iredenta	iredentách	SSfp6
iredenta	iredentami	SSfp7
iredentista	iredentista	SSms1
iredentista	iredentistu	SSms2
iredentista	iredentistovi	SSms3
iredentista	iredentistu	SSms4
iredentista	iredentista	SSms5
iredentista	iredentistovi	SSms6
iredentista	iredentistom	SSms7
iredentista	iredentisti	SSmp1
iredentista	iredentistov	SSmp2
iredentista	iredentistom	SSmp3
iredentista	iredentistov	SSmp4
iredentista	iredentisti	SSmp5
iredentista	iredentistoch	SSmp6
iredentista	iredentistami	SSmp7
iredentisticky	iredentisticky	Dx
iredentistický	iredentistický	AAms1x
iredentistický	iredentistického	AAms2x
iredentistický	iredentistickému	AAms3x
iredentistický	iredentistického	AAms4x
iredentistický	iredentistický	AAms5x
iredentistický	iredentistickom	AAms6x
iredentistický	iredentistickým	AAms7x
iredentistický	iredentistickí	AAmp1x
iredentistický	iredentistických	AAmp2x
iredentistický	iredentistickým	AAmp3x
iredentistický	iredentistických	AAmp4x
iredentistický	iredentistickí	AAmp5x
iredentistický	iredentistických	AAmp6x
iredentistický	iredentistickými	AAmp7x
iredentistický	iredentistický	AAis1x
iredentistický	iredentistického	AAis2x
iredentistický	iredentistickému	AAis3x
iredentistický	iredentistický	AAis4x
iredentistický	iredentistický	AAis5x
iredentistický	iredentistickom	AAis6x
iredentistický	iredentistickým	AAis7x
iredentistický	iredentistické	AAip1x
iredentistický	iredentistických	AAip2x
iredentistický	iredentistickým	AAip3x
iredentistický	iredentistické	AAip4x
iredentistický	iredentistické	AAip5x
iredentistický	iredentistických	AAip6x
iredentistický	iredentistickými	AAip7x
iredentistický	iredentistická	AAfs1x
iredentistický	iredentistickej	AAfs2x
iredentistický	iredentistickej	AAfs3x
iredentistický	iredentistickú	AAfs4x
iredentistický	iredentistická	AAfs5x
iredentistický	iredentistickej	AAfs6x
iredentistický	iredentistickou	AAfs7x
iredentistický	iredentistické	AAfp1x
iredentistický	iredentistických	AAfp2x
iredentistický	iredentistickým	AAfp3x
iredentistický	iredentistické	AAfp4x
iredentistický	iredentistické	AAfp5x
iredentistický	iredentistických	AAfp6x
iredentistický	iredentistickými	AAfp7x
iredentistický	iredentistické	AAns1x
iredentistický	iredentistického	AAns2x
iredentistický	iredentistickému	AAns3x
iredentistický	iredentistické	AAns4x
iredentistický	iredentistické	AAns5x
iredentistický	iredentistickom	AAns6x
iredentistický	iredentistickým	AAns7x
iredentistický	iredentistické	AAnp1x
iredentistický	iredentistických	AAnp2x
iredentistický	iredentistickým	AAnp3x
iredentistický	iredentistické	AAnp4x
iredentistický	iredentistické	AAnp5x
iredentistický	iredentistických	AAnp6x
iredentistický	iredentistickými	AAnp7x
iredentistka	iredentistka	SSfs1
iredentistka	iredentistky	SSfs2
iredentistka	iredentistke	SSfs3
iredentistka	iredentistku	SSfs4
iredentistka	iredentistka	SSfs5
iredentistka	iredentistke	SSfs6
iredentistka	iredentistkou	SSfs7
iredentistka	iredentistky	SSfp1
iredentistka	iredentistiek	SSfp2
iredentistka	iredentistkám	SSfp3
iredentistka	iredentistky	SSfp4
iredentistka	iredentistky	SSfp5
iredentistka	iredentistkách	SSfp6
iredentistka	iredentistkami	SSfp7
iredentizmus	iredentizmus	SSis1
iredentizmus	iredentizmu	SSis2
iredentizmus	iredentizmu	SSis3
iredentizmus	iredentizmus	SSis4
iredentizmus	iredentizmus	SSis5
iredentizmus	iredentizme	SSis6
iredentizmus	iredentizmom	SSis7
iredentizmus	iredentizmy	SSip1
iredentizmus	iredentizmov	SSip2
iredentizmus	iredentizmom	SSip3
iredentizmus	iredentizmy	SSip4
iredentizmus	iredentizmy	SSip5
iredentizmus	iredentizmoch	SSip6
iredentizmus	iredentizmami	SSip7
irelevantne	irelevantne	Dx
irelevantnosť	irelevantnosť	SSfs1
irelevantnosť	irelevantnosti	SSfs2
irelevantnosť	irelevantnosti	SSfs3
irelevantnosť	irelevantnosť	SSfs4
irelevantnosť	irelevantnosť	SSfs5
irelevantnosť	irelevantnosti	SSfs6
irelevantnosť	irelevantnosťou	SSfs7
irelevantnosť	irelevantnosti	SSfp1
irelevantnosť	irelevantností	SSfp2
irelevantnosť	irelevantnostiam	SSfp3
irelevantnosť	irelevantnosti	SSfp4
irelevantnosť	irelevantnosti	SSfp5
irelevantnosť	irelevantnostiach	SSfp6
irelevantnosť	irelevantnosťami	SSfp7
irelevantný	irelevantný	AAms1x
irelevantný	irelevantného	AAms2x
irelevantný	irelevantnému	AAms3x
irelevantný	irelevantného	AAms4x
irelevantný	irelevantný	AAms5x
irelevantný	irelevantnom	AAms6x
irelevantný	irelevantným	AAms7x
irelevantný	irelevantní	AAmp1x
irelevantný	irelevantných	AAmp2x
irelevantný	irelevantným	AAmp3x
irelevantný	irelevantných	AAmp4x
irelevantný	irelevantní	AAmp5x
irelevantný	irelevantných	AAmp6x
irelevantný	irelevantnými	AAmp7x
irelevantný	irelevantný	AAis1x
irelevantný	irelevantného	AAis2x
irelevantný	irelevantnému	AAis3x
irelevantný	irelevantný	AAis4x
irelevantný	irelevantný	AAis5x
irelevantný	irelevantnom	AAis6x
irelevantný	irelevantným	AAis7x
irelevantný	irelevantné	AAip1x
irelevantný	irelevantných	AAip2x
irelevantný	irelevantným	AAip3x
irelevantný	irelevantné	AAip4x
irelevantný	irelevantné	AAip5x
irelevantný	irelevantných	AAip6x
irelevantný	irelevantnými	AAip7x
irelevantný	irelevantná	AAfs1x
irelevantný	irelevantnej	AAfs2x
irelevantný	irelevantnej	AAfs3x
irelevantný	irelevantnú	AAfs4x
irelevantný	irelevantná	AAfs5x
irelevantný	irelevantnej	AAfs6x
irelevantný	irelevantnou	AAfs7x
irelevantný	irelevantné	AAfp1x
irelevantný	irelevantných	AAfp2x
irelevantný	irelevantným	AAfp3x
irelevantný	irelevantné	AAfp4x
irelevantný	irelevantné	AAfp5x
irelevantný	irelevantných	AAfp6x
irelevantný	irelevantnými	AAfp7x
irelevantný	irelevantné	AAns1x
irelevantný	irelevantného	AAns2x
irelevantný	irelevantnému	AAns3x
irelevantný	irelevantné	AAns4x
irelevantný	irelevantné	AAns5x
irelevantný	irelevantnom	AAns6x
irelevantný	irelevantným	AAns7x
irelevantný	irelevantné	AAnp1x
irelevantný	irelevantných	AAnp2x
irelevantný	irelevantným	AAnp3x
irelevantný	irelevantné	AAnp4x
irelevantný	irelevantné	AAnp5x
irelevantný	irelevantných	AAnp6x
irelevantný	irelevantnými	AAnp7x
irelevantný	irelevantnejší	AAms1y
irelevantný	irelevantnejšieho	AAms2y
irelevantný	irelevantnejšiemu	AAms3y
irelevantný	irelevantnejšieho	AAms4y
irelevantný	irelevantnejší	AAms5y
irelevantný	irelevantnejšom	AAms6y
irelevantný	irelevantnejším	AAms7y
irelevantný	irelevantnejší	AAmp1y
irelevantný	irelevantnejších	AAmp2y
irelevantný	irelevantnejším	AAmp3y
irelevantný	irelevantnejších	AAmp4y
irelevantný	irelevantnejší	AAmp5y
irelevantný	irelevantnejších	AAmp6y
irelevantný	irelevantnejšími	AAmp7y
irelevantný	irelevantnejší	AAis1y
irelevantný	irelevantnejšieho	AAis2y
irelevantný	irelevantnejšiemu	AAis3y
irelevantný	irelevantnejší	AAis4y
irelevantný	irelevantnejší	AAis5y
irelevantný	irelevantnejšom	AAis6y
irelevantný	irelevantnejším	AAis7y
irelevantný	irelevantnejšie	AAip1y
irelevantný	irelevantnejších	AAip2y
irelevantný	irelevantnejším	AAip3y
irelevantný	irelevantnejšie	AAip4y
irelevantný	irelevantnejšie	AAip5y
irelevantný	irelevantnejších	AAip6y
irelevantný	irelevantnejšími	AAip7y
irelevantný	irelevantnejšia	AAfs1y
irelevantný	irelevantnejšej	AAfs2y
irelevantný	irelevantnejšej	AAfs3y
irelevantný	irelevantnejšiu	AAfs4y
irelevantný	irelevantnejšia	AAfs5y
irelevantný	irelevantnejšej	AAfs6y
irelevantný	irelevantnejšou	AAfs7y
irelevantný	irelevantnejšie	AAfp1y
irelevantný	irelevantnejších	AAfp2y
irelevantný	irelevantnejším	AAfp3y
irelevantný	irelevantnejšie	AAfp4y
irelevantný	irelevantnejšie	AAfp5y
irelevantný	irelevantnejších	AAfp6y
irelevantný	irelevantnejšími	AAfp7y
irelevantný	irelevantnejšie	AAns1y
irelevantný	irelevantnejšieho	AAns2y
irelevantný	irelevantnejšiemu	AAns3y
irelevantný	irelevantnejšie	AAns4y
irelevantný	irelevantnejšie	AAns5y
irelevantný	irelevantnejšom	AAns6y
irelevantný	irelevantnejším	AAns7y
irelevantný	irelevantnejšie	AAnp1y
irelevantný	irelevantnejších	AAnp2y
irelevantný	irelevantnejším	AAnp3y
irelevantný	irelevantnejšie	AAnp4y
irelevantný	irelevantnejšie	AAnp5y
irelevantný	irelevantnejších	AAnp6y
irelevantný	irelevantnejšími	AAnp7y
irelevantný	najirelevantnejší	AAms1z
irelevantný	najirelevantnejšieho	AAms2z
irelevantný	najirelevantnejšiemu	AAms3z
irelevantný	najirelevantnejšieho	AAms4z
irelevantný	najirelevantnejší	AAms5z
irelevantný	najirelevantnejšom	AAms6z
irelevantný	najirelevantnejším	AAms7z
irelevantný	najirelevantnejší	AAmp1z
irelevantný	najirelevantnejších	AAmp2z
irelevantný	najirelevantnejším	AAmp3z
irelevantný	najirelevantnejších	AAmp4z
irelevantný	najirelevantnejší	AAmp5z
irelevantný	najirelevantnejších	AAmp6z
irelevantný	najirelevantnejšími	AAmp7z
irelevantný	najirelevantnejší	AAis1z
irelevantný	najirelevantnejšieho	AAis2z
irelevantný	najirelevantnejšiemu	AAis3z
irelevantný	najirelevantnejší	AAis4z
irelevantný	najirelevantnejší	AAis5z
irelevantný	najirelevantnejšom	AAis6z
irelevantný	najirelevantnejším	AAis7z
irelevantný	najirelevantnejšie	AAip1z
irelevantný	najirelevantnejších	AAip2z
irelevantný	najirelevantnejším	AAip3z
irelevantný	najirelevantnejšie	AAip4z
irelevantný	najirelevantnejšie	AAip5z
irelevantný	najirelevantnejších	AAip6z
irelevantný	najirelevantnejšími	AAip7z
irelevantný	najirelevantnejšia	AAfs1z
irelevantný	najirelevantnejšej	AAfs2z
irelevantný	najirelevantnejšej	AAfs3z
irelevantný	najirelevantnejšiu	AAfs4z
irelevantný	najirelevantnejšia	AAfs5z
irelevantný	najirelevantnejšej	AAfs6z
irelevantný	najirelevantnejšou	AAfs7z
irelevantný	najirelevantnejšie	AAfp1z
irelevantný	najirelevantnejších	AAfp2z
irelevantný	najirelevantnejším	AAfp3z
irelevantný	najirelevantnejšie	AAfp4z
irelevantný	najirelevantnejšie	AAfp5z
irelevantný	najirelevantnejších	AAfp6z
irelevantný	najirelevantnejšími	AAfp7z
irelevantný	najirelevantnejšie	AAns1z
irelevantný	najirelevantnejšieho	AAns2z
irelevantný	najirelevantnejšiemu	AAns3z
irelevantný	najirelevantnejšie	AAns4z
irelevantný	najirelevantnejšie	AAns5z
irelevantný	najirelevantnejšom	AAns6z
irelevantný	najirelevantnejším	AAns7z
irelevantný	najirelevantnejšie	AAnp1z
irelevantný	najirelevantnejších	AAnp2z
irelevantný	najirelevantnejším	AAnp3z
irelevantný	najirelevantnejšie	AAnp4z
irelevantný	najirelevantnejšie	AAnp5z
irelevantný	najirelevantnejších	AAnp6z
irelevantný	najirelevantnejšími	AAnp7z
ireálne	ireálne	Dx
ireálne	ireálnejšie	Dy
ireálne	najireálnejšie	Dz
ireálnosť	ireálnosť	SSfs1
ireálnosť	ireálnosti	SSfs2
ireálnosť	ireálnosti	SSfs3
ireálnosť	ireálnosť	SSfs4
ireálnosť	ireálnosť	SSfs5
ireálnosť	ireálnosti	SSfs6
ireálnosť	ireálnosťou	SSfs7
ireálnosť	ireálnosti	SSfp1
ireálnosť	ireálností	SSfp2
ireálnosť	ireálnostiam	SSfp3
ireálnosť	ireálnosti	SSfp4
ireálnosť	ireálnosti	SSfp5
ireálnosť	ireálnostiach	SSfp6
ireálnosť	ireálnosťami	SSfp7
ireálny	ireálny	AAms1x
ireálny	ireálneho	AAms2x
ireálny	ireálnemu	AAms3x
ireálny	ireálneho	AAms4x
ireálny	ireálny	AAms5x
ireálny	ireálnom	AAms6x
ireálny	ireálnym	AAms7x
ireálny	ireálni	AAmp1x
ireálny	ireálnych	AAmp2x
ireálny	ireálnym	AAmp3x
ireálny	ireálnych	AAmp4x
ireálny	ireálni	AAmp5x
ireálny	ireálnych	AAmp6x
ireálny	ireálnymi	AAmp7x
ireálny	ireálny	AAis1x
ireálny	ireálneho	AAis2x
ireálny	ireálnemu	AAis3x
ireálny	ireálny	AAis4x
ireálny	ireálny	AAis5x
ireálny	ireálnom	AAis6x
ireálny	ireálnym	AAis7x
ireálny	ireálne	AAip1x
ireálny	ireálnych	AAip2x
ireálny	ireálnym	AAip3x
ireálny	ireálne	AAip4x
ireálny	ireálne	AAip5x
ireálny	ireálnych	AAip6x
ireálny	ireálnymi	AAip7x
ireálny	ireálna	AAfs1x
ireálny	ireálnej	AAfs2x
ireálny	ireálnej	AAfs3x
ireálny	ireálnu	AAfs4x
ireálny	ireálna	AAfs5x
ireálny	ireálnej	AAfs6x
ireálny	ireálnou	AAfs7x
ireálny	ireálne	AAfp1x
ireálny	ireálnych	AAfp2x
ireálny	ireálnym	AAfp3x
ireálny	ireálne	AAfp4x
ireálny	ireálne	AAfp5x
ireálny	ireálnych	AAfp6x
ireálny	ireálnymi	AAfp7x
ireálny	ireálne	AAns1x
ireálny	ireálneho	AAns2x
ireálny	ireálnemu	AAns3x
ireálny	ireálne	AAns4x
ireálny	ireálne	AAns5x
ireálny	ireálnom	AAns6x
ireálny	ireálnym	AAns7x
ireálny	ireálne	AAnp1x
ireálny	ireálnych	AAnp2x
ireálny	ireálnym	AAnp3x
ireálny	ireálne	AAnp4x
ireálny	ireálne	AAnp5x
ireálny	ireálnych	AAnp6x
ireálny	ireálnymi	AAnp7x
ireálny	ireálnejší	AAms1y
ireálny	ireálnejšieho	AAms2y
ireálny	ireálnejšiemu	AAms3y
ireálny	ireálnejšieho	AAms4y
ireálny	ireálnejší	AAms5y
ireálny	ireálnejšom	AAms6y
ireálny	ireálnejším	AAms7y
ireálny	ireálnejší	AAmp1y
ireálny	ireálnejších	AAmp2y
ireálny	ireálnejším	AAmp3y
ireálny	ireálnejších	AAmp4y
ireálny	ireálnejší	AAmp5y
ireálny	ireálnejších	AAmp6y
ireálny	ireálnejšími	AAmp7y
ireálny	ireálnejší	AAis1y
ireálny	ireálnejšieho	AAis2y
ireálny	ireálnejšiemu	AAis3y
ireálny	ireálnejší	AAis4y
ireálny	ireálnejší	AAis5y
ireálny	ireálnejšom	AAis6y
ireálny	ireálnejším	AAis7y
ireálny	ireálnejšie	AAip1y
ireálny	ireálnejších	AAip2y
ireálny	ireálnejším	AAip3y
ireálny	ireálnejšie	AAip4y
ireálny	ireálnejšie	AAip5y
ireálny	ireálnejších	AAip6y
ireálny	ireálnejšími	AAip7y
ireálny	ireálnejšia	AAfs1y
ireálny	ireálnejšej	AAfs2y
ireálny	ireálnejšej	AAfs3y
ireálny	ireálnejšiu	AAfs4y
ireálny	ireálnejšia	AAfs5y
ireálny	ireálnejšej	AAfs6y
ireálny	ireálnejšou	AAfs7y
ireálny	ireálnejšie	AAfp1y
ireálny	ireálnejších	AAfp2y
ireálny	ireálnejším	AAfp3y
ireálny	ireálnejšie	AAfp4y
ireálny	ireálnejšie	AAfp5y
ireálny	ireálnejších	AAfp6y
ireálny	ireálnejšími	AAfp7y
ireálny	ireálnejšie	AAns1y
ireálny	ireálnejšieho	AAns2y
ireálny	ireálnejšiemu	AAns3y
ireálny	ireálnejšie	AAns4y
ireálny	ireálnejšie	AAns5y
ireálny	ireálnejšom	AAns6y
ireálny	ireálnejším	AAns7y
ireálny	ireálnejšie	AAnp1y
ireálny	ireálnejších	AAnp2y
ireálny	ireálnejším	AAnp3y
ireálny	ireálnejšie	AAnp4y
ireálny	ireálnejšie	AAnp5y
ireálny	ireálnejších	AAnp6y
ireálny	ireálnejšími	AAnp7y
ireálny	najireálnejší	AAms1z
ireálny	najireálnejšieho	AAms2z
ireálny	najireálnejšiemu	AAms3z
ireálny	najireálnejšieho	AAms4z
ireálny	najireálnejší	AAms5z
ireálny	najireálnejšom	AAms6z
ireálny	najireálnejším	AAms7z
ireálny	najireálnejší	AAmp1z
ireálny	najireálnejších	AAmp2z
ireálny	najireálnejším	AAmp3z
ireálny	najireálnejších	AAmp4z
ireálny	najireálnejší	AAmp5z
ireálny	najireálnejších	AAmp6z
ireálny	najireálnejšími	AAmp7z
ireálny	najireálnejší	AAis1z
ireálny	najireálnejšieho	AAis2z
ireálny	najireálnejšiemu	AAis3z
ireálny	najireálnejší	AAis4z
ireálny	najireálnejší	AAis5z
ireálny	najireálnejšom	AAis6z
ireálny	najireálnejším	AAis7z
ireálny	najireálnejšie	AAip1z
ireálny	najireálnejších	AAip2z
ireálny	najireálnejším	AAip3z
ireálny	najireálnejšie	AAip4z
ireálny	najireálnejšie	AAip5z
ireálny	najireálnejších	AAip6z
ireálny	najireálnejšími	AAip7z
ireálny	najireálnejšia	AAfs1z
ireálny	najireálnejšej	AAfs2z
ireálny	najireálnejšej	AAfs3z
ireálny	najireálnejšiu	AAfs4z
ireálny	najireálnejšia	AAfs5z
ireálny	najireálnejšej	AAfs6z
ireálny	najireálnejšou	AAfs7z
ireálny	najireálnejšie	AAfp1z
ireálny	najireálnejších	AAfp2z
ireálny	najireálnejším	AAfp3z
ireálny	najireálnejšie	AAfp4z
ireálny	najireálnejšie	AAfp5z
ireálny	najireálnejších	AAfp6z
ireálny	najireálnejšími	AAfp7z
ireálny	najireálnejšie	AAns1z
ireálny	najireálnejšieho	AAns2z
ireálny	najireálnejšiemu	AAns3z
ireálny	najireálnejšie	AAns4z
ireálny	najireálnejšie	AAns5z
ireálny	najireálnejšom	AAns6z
ireálny	najireálnejším	AAns7z
ireálny	najireálnejšie	AAnp1z
ireálny	najireálnejších	AAnp2z
ireálny	najireálnejším	AAnp3z
ireálny	najireálnejšie	AAnp4z
ireálny	najireálnejšie	AAnp5z
ireálny	najireálnejších	AAnp6z
ireálny	najireálnejšími	AAnp7z
irigačný	irigačný	AAms1x
irigačný	irigačného	AAms2x
irigačný	irigačnému	AAms3x
irigačný	irigačného	AAms4x
irigačný	irigačný	AAms5x
irigačný	irigačnom	AAms6x
irigačný	irigačným	AAms7x
irigačný	irigační	AAmp1x
irigačný	irigačných	AAmp2x
irigačný	irigačným	AAmp3x
irigačný	irigačných	AAmp4x
irigačný	irigační	AAmp5x
irigačný	irigačných	AAmp6x
irigačný	irigačnými	AAmp7x
irigačný	irigačný	AAis1x
irigačný	irigačného	AAis2x
irigačný	irigačnému	AAis3x
irigačný	irigačný	AAis4x
irigačný	irigačný	AAis5x
irigačný	irigačnom	AAis6x
irigačný	irigačným	AAis7x
irigačný	irigačné	AAip1x
irigačný	irigačných	AAip2x
irigačný	irigačným	AAip3x
irigačný	irigačné	AAip4x
irigačný	irigačné	AAip5x
irigačný	irigačných	AAip6x
irigačný	irigačnými	AAip7x
irigačný	irigačná	AAfs1x
irigačný	irigačnej	AAfs2x
irigačný	irigačnej	AAfs3x
irigačný	irigačnú	AAfs4x
irigačný	irigačná	AAfs5x
irigačný	irigačnej	AAfs6x
irigačný	irigačnou	AAfs7x
irigačný	irigačné	AAfp1x
irigačný	irigačných	AAfp2x
irigačný	irigačným	AAfp3x
irigačný	irigačné	AAfp4x
irigačný	irigačné	AAfp5x
irigačný	irigačných	AAfp6x
irigačný	irigačnými	AAfp7x
irigačný	irigačné	AAns1x
irigačný	irigačného	AAns2x
irigačný	irigačnému	AAns3x
irigačný	irigačné	AAns4x
irigačný	irigačné	AAns5x
irigačný	irigačnom	AAns6x
irigačný	irigačným	AAns7x
irigačný	irigačné	AAnp1x
irigačný	irigačných	AAnp2x
irigačný	irigačným	AAnp3x
irigačný	irigačné	AAnp4x
irigačný	irigačné	AAnp5x
irigačný	irigačných	AAnp6x
irigačný	irigačnými	AAnp7x
irigácia	irigácia	SSfs1
irigácia	irigácie	SSfs2
irigácia	irigácii	SSfs3
irigácia	irigáciu	SSfs4
irigácia	irigácia	SSfs5
irigácia	irigácii	SSfs6
irigácia	irigáciou	SSfs7
irigácia	irigácie	SSfp1
irigácia	irigácií	SSfp2
irigácia	irigáciám	SSfp3
irigácia	irigácie	SSfp4
irigácia	irigácie	SSfp5
irigácia	irigáciách	SSfp6
irigácia	irigáciami	SSfp7
iritačný	iritačný	AAms1x
iritačný	iritačného	AAms2x
iritačný	iritačnému	AAms3x
iritačný	iritačného	AAms4x
iritačný	iritačný	AAms5x
iritačný	iritačnom	AAms6x
iritačný	iritačným	AAms7x
iritačný	iritační	AAmp1x
iritačný	iritačných	AAmp2x
iritačný	iritačným	AAmp3x
iritačný	iritačných	AAmp4x
iritačný	iritační	AAmp5x
iritačný	iritačných	AAmp6x
iritačný	iritačnými	AAmp7x
iritačný	iritačný	AAis1x
iritačný	iritačného	AAis2x
iritačný	iritačnému	AAis3x
iritačný	iritačný	AAis4x
iritačný	iritačný	AAis5x
iritačný	iritačnom	AAis6x
iritačný	iritačným	AAis7x
iritačný	iritačné	AAip1x
iritačný	iritačných	AAip2x
iritačný	iritačným	AAip3x
iritačný	iritačné	AAip4x
iritačný	iritačné	AAip5x
iritačný	iritačných	AAip6x
iritačný	iritačnými	AAip7x
iritačný	iritačná	AAfs1x
iritačný	iritačnej	AAfs2x
iritačný	iritačnej	AAfs3x
iritačný	iritačnú	AAfs4x
iritačný	iritačná	AAfs5x
iritačný	iritačnej	AAfs6x
iritačný	iritačnou	AAfs7x
iritačný	iritačné	AAfp1x
iritačný	iritačných	AAfp2x
iritačný	iritačným	AAfp3x
iritačný	iritačné	AAfp4x
iritačný	iritačné	AAfp5x
iritačný	iritačných	AAfp6x
iritačný	iritačnými	AAfp7x
iritačný	iritačné	AAns1x
iritačný	iritačného	AAns2x
iritačný	iritačnému	AAns3x
iritačný	iritačné	AAns4x
iritačný	iritačné	AAns5x
iritačný	iritačnom	AAns6x
iritačný	iritačným	AAns7x
iritačný	iritačné	AAnp1x
iritačný	iritačných	AAnp2x
iritačný	iritačným	AAnp3x
iritačný	iritačné	AAnp4x
iritačný	iritačné	AAnp5x
iritačný	iritačných	AAnp6x
iritačný	iritačnými	AAnp7x
iritovať	iritovať	VIj+
iritovať	iritujem	VKjsa+
iritovať	irituješ	VKjsb+
iritovať	irituje	VKjsc+
iritovať	iritujeme	VKjpa+
iritovať	iritujete	VKjpb+
iritovať	iritujú	VKjpc+
iritovať	irituj	VMjsb+
iritovať	iritujme	VMjpa+
iritovať	iritujte	VMjpb+
iritovať	iritujúc	VHj+
iritovať	iritoval	VLjsam+
iritovať	iritoval	VLjsai+
iritovať	iritoval	VLjsbm+
iritovať	iritoval	VLjsbi+
iritovať	iritoval	VLjscm+
iritovať	iritoval	VLjsci+
iritovať	iritovala	VLjsaf+
iritovať	iritovala	VLjsbf+
iritovať	iritovala	VLjscf+
iritovať	iritovalo	VLjsan+
iritovať	iritovalo	VLjsbn+
iritovať	iritovalo	VLjscn+
iritovať	iritovali	VLjpah+
iritovať	iritovali	VLjpbh+
iritovať	iritovali	VLjpcm+
iritovať	iritovali	VLjpci+
iritovať	iritovali	VLjpcf+
iritovať	iritovali	VLjpcn+
iritovať	iritovali	VLjpco+
iritácia	iritácia	SSfs1
iritácia	iritácie	SSfs2
iritácia	iritácii	SSfs3
iritácia	iritáciu	SSfs4
iritácia	iritácia	SSfs5
iritácia	iritácii	SSfs6
iritácia	iritáciou	SSfs7
iritácia	iritácie	SSfp1
iritácia	iritácií	SSfp2
iritácia	iritáciám	SSfp3
iritácia	iritácie	SSfp4
iritácia	iritácie	SSfp5
iritácia	iritáciách	SSfp6
iritácia	iritáciami	SSfp7
iron	iron	W
ironickosť	ironickosť	SSfs1
ironickosť	ironickosti	SSfs2
ironickosť	ironickosti	SSfs3
ironickosť	ironickosť	SSfs4
ironickosť	ironickosť	SSfs5
ironickosť	ironickosti	SSfs6
ironickosť	ironickosťou	SSfs7
ironickosť	ironickosti	SSfp1
ironickosť	ironickostí	SSfp2
ironickosť	ironickostiam	SSfp3
ironickosť	ironickosti	SSfp4
ironickosť	ironickosti	SSfp5
ironickosť	ironickostiach	SSfp6
ironickosť	ironickosťami	SSfp7
ironicky	ironicky	Dx
ironicky	ironickejšie	Dy
ironicky	najironickejšie	Dz
ironický	ironický	AAms1x
ironický	ironického	AAms2x
ironický	ironickému	AAms3x
ironický	ironického	AAms4x
ironický	ironický	AAms5x
ironický	ironickom	AAms6x
ironický	ironickým	AAms7x
ironický	ironickí	AAmp1x
ironický	ironických	AAmp2x
ironický	ironickým	AAmp3x
ironický	ironických	AAmp4x
ironický	ironickí	AAmp5x
ironický	ironických	AAmp6x
ironický	ironickými	AAmp7x
ironický	ironický	AAis1x
ironický	ironického	AAis2x
ironický	ironickému	AAis3x
ironický	ironický	AAis4x
ironický	ironický	AAis5x
ironický	ironickom	AAis6x
ironický	ironickým	AAis7x
ironický	ironické	AAip1x
ironický	ironických	AAip2x
ironický	ironickým	AAip3x
ironický	ironické	AAip4x
ironický	ironické	AAip5x
ironický	ironických	AAip6x
ironický	ironickými	AAip7x
ironický	ironická	AAfs1x
ironický	ironickej	AAfs2x
ironický	ironickej	AAfs3x
ironický	ironickú	AAfs4x
ironický	ironická	AAfs5x
ironický	ironickej	AAfs6x
ironický	ironickou	AAfs7x
ironický	ironické	AAfp1x
ironický	ironických	AAfp2x
ironický	ironickým	AAfp3x
ironický	ironické	AAfp4x
ironický	ironické	AAfp5x
ironický	ironických	AAfp6x
ironický	ironickými	AAfp7x
ironický	ironické	AAns1x
ironický	ironického	AAns2x
ironický	ironickému	AAns3x
ironický	ironické	AAns4x
ironický	ironické	AAns5x
ironický	ironickom	AAns6x
ironický	ironickým	AAns7x
ironický	ironické	AAnp1x
ironický	ironických	AAnp2x
ironický	ironickým	AAnp3x
ironický	ironické	AAnp4x
ironický	ironické	AAnp5x
ironický	ironických	AAnp6x
ironický	ironickými	AAnp7x
ironický	ironickejší	AAms1y
ironický	ironickejšieho	AAms2y
ironický	ironickejšiemu	AAms3y
ironický	ironickejšieho	AAms4y
ironický	ironickejší	AAms5y
ironický	ironickejšom	AAms6y
ironický	ironickejším	AAms7y
ironický	ironickejší	AAmp1y
ironický	ironickejších	AAmp2y
ironický	ironickejším	AAmp3y
ironický	ironickejších	AAmp4y
ironický	ironickejší	AAmp5y
ironický	ironickejších	AAmp6y
ironický	ironickejšími	AAmp7y
ironický	ironickejší	AAis1y
ironický	ironickejšieho	AAis2y
ironický	ironickejšiemu	AAis3y
ironický	ironickejší	AAis4y
ironický	ironickejší	AAis5y
ironický	ironickejšom	AAis6y
ironický	ironickejším	AAis7y
ironický	ironickejšie	AAip1y
ironický	ironickejších	AAip2y
ironický	ironickejším	AAip3y
ironický	ironickejšie	AAip4y
ironický	ironickejšie	AAip5y
ironický	ironickejších	AAip6y
ironický	ironickejšími	AAip7y
ironický	ironickejšia	AAfs1y
ironický	ironickejšej	AAfs2y
ironický	ironickejšej	AAfs3y
ironický	ironickejšiu	AAfs4y
ironický	ironickejšia	AAfs5y
ironický	ironickejšej	AAfs6y
ironický	ironickejšou	AAfs7y
ironický	ironickejšie	AAfp1y
ironický	ironickejších	AAfp2y
ironický	ironickejším	AAfp3y
ironický	ironickejšie	AAfp4y
ironický	ironickejšie	AAfp5y
ironický	ironickejších	AAfp6y
ironický	ironickejšími	AAfp7y
ironický	ironickejšie	AAns1y
ironický	ironickejšieho	AAns2y
ironický	ironickejšiemu	AAns3y
ironický	ironickejšie	AAns4y
ironický	ironickejšie	AAns5y
ironický	ironickejšom	AAns6y
ironický	ironickejším	AAns7y
ironický	ironickejšie	AAnp1y
ironický	ironickejších	AAnp2y
ironický	ironickejším	AAnp3y
ironický	ironickejšie	AAnp4y
ironický	ironickejšie	AAnp5y
ironický	ironickejších	AAnp6y
ironický	ironickejšími	AAnp7y
ironický	najironickejší	AAms1z
ironický	najironickejšieho	AAms2z
ironický	najironickejšiemu	AAms3z
ironický	najironickejšieho	AAms4z
ironický	najironickejší	AAms5z
ironický	najironickejšom	AAms6z
ironický	najironickejším	AAms7z
ironický	najironickejší	AAmp1z
ironický	najironickejších	AAmp2z
ironický	najironickejším	AAmp3z
ironický	najironickejších	AAmp4z
ironický	najironickejší	AAmp5z
ironický	najironickejších	AAmp6z
ironický	najironickejšími	AAmp7z
ironický	najironickejší	AAis1z
ironický	najironickejšieho	AAis2z
ironický	najironickejšiemu	AAis3z
ironický	najironickejší	AAis4z
ironický	najironickejší	AAis5z
ironický	najironickejšom	AAis6z
ironický	najironickejším	AAis7z
ironický	najironickejšie	AAip1z
ironický	najironickejších	AAip2z
ironický	najironickejším	AAip3z
ironický	najironickejšie	AAip4z
ironický	najironickejšie	AAip5z
ironický	najironickejších	AAip6z
ironický	najironickejšími	AAip7z
ironický	najironickejšia	AAfs1z
ironický	najironickejšej	AAfs2z
ironický	najironickejšej	AAfs3z
ironický	najironickejšiu	AAfs4z
ironický	najironickejšia	AAfs5z
ironický	najironickejšej	AAfs6z
ironický	najironickejšou	AAfs7z
ironický	najironickejšie	AAfp1z
ironický	najironickejších	AAfp2z
ironický	najironickejším	AAfp3z
ironický	najironickejšie	AAfp4z
ironický	najironickejšie	AAfp5z
ironický	najironickejších	AAfp6z
ironický	najironickejšími	AAfp7z
ironický	najironickejšie	AAns1z
ironický	najironickejšieho	AAns2z
ironický	najironickejšiemu	AAns3z
ironický	najironickejšie	AAns4z
ironický	najironickejšie	AAns5z
ironický	najironickejšom	AAns6z
ironický	najironickejším	AAns7z
ironický	najironickejšie	AAnp1z
ironický	najironickejších	AAnp2z
ironický	najironickejším	AAnp3z
ironický	najironickejšie	AAnp4z
ironický	najironickejšie	AAnp5z
ironický	najironickejších	AAnp6z
ironický	najironickejšími	AAnp7z
ironik	ironik	SSms1
ironik	ironika	SSms2
ironik	ironikovi	SSms3
ironik	ironika	SSms4
ironik	ironik	SSms5
ironik	ironikovi	SSms6
ironik	ironikom	SSms7
ironik	ironici	SSmp1
ironik	ironikov	SSmp2
ironik	ironikom	SSmp3
ironik	ironikov	SSmp4
ironik	ironici	SSmp5
ironik	ironikoch	SSmp6
ironik	ironikmi	SSmp7
ironizovať	ironizovať	VIe+
ironizovať	ironizujem	VKesa+
ironizovať	ironizuješ	VKesb+
ironizovať	ironizuje	VKesc+
ironizovať	ironizujeme	VKepa+
ironizovať	ironizujete	VKepb+
ironizovať	ironizujú	VKepc+
ironizovať	ironizuj	VMesb+
ironizovať	ironizujme	VMepa+
ironizovať	ironizujte	VMepb+
ironizovať	ironizujúc	VHe+
ironizovať	ironizoval	VLesam+
ironizovať	ironizoval	VLesai+
ironizovať	ironizoval	VLesbm+
ironizovať	ironizoval	VLesbi+
ironizovať	ironizoval	VLescm+
ironizovať	ironizoval	VLesci+
ironizovať	ironizovala	VLesaf+
ironizovať	ironizovala	VLesbf+
ironizovať	ironizovala	VLescf+
ironizovať	ironizovalo	VLesan+
ironizovať	ironizovalo	VLesbn+
ironizovať	ironizovalo	VLescn+
ironizovať	ironizovali	VLepah+
ironizovať	ironizovali	VLepbh+
ironizovať	ironizovali	VLepcm+
ironizovať	ironizovali	VLepci+
ironizovať	ironizovali	VLepcf+
ironizovať	ironizovali	VLepcn+
ironizovať	ironizovali	VLepco+
ironička	ironička	SSfs1
ironička	ironičky	SSfs2
ironička	ironičke	SSfs3
ironička	ironičku	SSfs4
ironička	ironička	SSfs5
ironička	ironičke	SSfs6
ironička	ironičkou	SSfs7
ironička	ironičky	SSfp1
ironička	ironičiek	SSfp2
ironička	ironičkám	SSfp3
ironička	ironičky	SSfp4
ironička	ironičky	SSfp5
ironička	ironičkách	SSfp6
ironička	ironičkami	SSfp7
irtyšský	irtyšský	AAms1x
irtyšský	irtyšského	AAms2x
irtyšský	irtyšskému	AAms3x
irtyšský	irtyšského	AAms4x
irtyšský	irtyšský	AAms5x
irtyšský	irtyšskom	AAms6x
irtyšský	irtyšským	AAms7x
irtyšský	irtyšskí	AAmp1x
irtyšský	irtyšských	AAmp2x
irtyšský	irtyšským	AAmp3x
irtyšský	irtyšských	AAmp4x
irtyšský	irtyšskí	AAmp5x
irtyšský	irtyšských	AAmp6x
irtyšský	irtyšskými	AAmp7x
irtyšský	irtyšský	AAis1x
irtyšský	irtyšského	AAis2x
irtyšský	irtyšskému	AAis3x
irtyšský	irtyšský	AAis4x
irtyšský	irtyšský	AAis5x
irtyšský	irtyšskom	AAis6x
irtyšský	irtyšským	AAis7x
irtyšský	irtyšské	AAip1x
irtyšský	irtyšských	AAip2x
irtyšský	irtyšským	AAip3x
irtyšský	irtyšské	AAip4x
irtyšský	irtyšské	AAip5x
irtyšský	irtyšských	AAip6x
irtyšský	irtyšskými	AAip7x
irtyšský	irtyšská	AAfs1x
irtyšský	irtyšskej	AAfs2x
irtyšský	irtyšskej	AAfs3x
irtyšský	irtyšskú	AAfs4x
irtyšský	irtyšská	AAfs5x
irtyšský	irtyšskej	AAfs6x
irtyšský	irtyšskou	AAfs7x
irtyšský	irtyšské	AAfp1x
irtyšský	irtyšských	AAfp2x
irtyšský	irtyšským	AAfp3x
irtyšský	irtyšské	AAfp4x
irtyšský	irtyšské	AAfp5x
irtyšský	irtyšských	AAfp6x
irtyšský	irtyšskými	AAfp7x
irtyšský	irtyšské	AAns1x
irtyšský	irtyšského	AAns2x
irtyšský	irtyšskému	AAns3x
irtyšský	irtyšské	AAns4x
irtyšský	irtyšské	AAns5x
irtyšský	irtyšskom	AAns6x
irtyšský	irtyšským	AAns7x
irtyšský	irtyšské	AAnp1x
irtyšský	irtyšských	AAnp2x
irtyšský	irtyšským	AAnp3x
irtyšský	irtyšské	AAnp4x
irtyšský	irtyšské	AAnp5x
irtyšský	irtyšských	AAnp6x
irtyšský	irtyšskými	AAnp7x
irán	irán	W
iránsky	iránsky	AAms1x
iránsky	iránskeho	AAms2x
iránsky	iránskemu	AAms3x
iránsky	iránskeho	AAms4x
iránsky	iránsky	AAms5x
iránsky	iránskom	AAms6x
iránsky	iránskym	AAms7x
iránsky	iránski	AAmp1x
iránsky	iránskych	AAmp2x
iránsky	iránskym	AAmp3x
iránsky	iránskych	AAmp4x
iránsky	iránski	AAmp5x
iránsky	iránskych	AAmp6x
iránsky	iránskymi	AAmp7x
iránsky	iránsky	AAis1x
iránsky	iránskeho	AAis2x
iránsky	iránskemu	AAis3x
iránsky	iránsky	AAis4x
iránsky	iránsky	AAis5x
iránsky	iránskom	AAis6x
iránsky	iránskym	AAis7x
iránsky	iránske	AAip1x
iránsky	iránskych	AAip2x
iránsky	iránskym	AAip3x
iránsky	iránske	AAip4x
iránsky	iránske	AAip5x
iránsky	iránskych	AAip6x
iránsky	iránskymi	AAip7x
iránsky	iránska	AAfs1x
iránsky	iránskej	AAfs2x
iránsky	iránskej	AAfs3x
iránsky	iránsku	AAfs4x
iránsky	iránska	AAfs5x
iránsky	iránskej	AAfs6x
iránsky	iránskou	AAfs7x
iránsky	iránske	AAfp1x
iránsky	iránskych	AAfp2x
iránsky	iránskym	AAfp3x
iránsky	iránske	AAfp4x
iránsky	iránske	AAfp5x
iránsky	iránskych	AAfp6x
iránsky	iránskymi	AAfp7x
iránsky	iránske	AAns1x
iránsky	iránskeho	AAns2x
iránsky	iránskemu	AAns3x
iránsky	iránske	AAns4x
iránsky	iránske	AAns5x
iránsky	iránskom	AAns6x
iránsky	iránskym	AAns7x
iránsky	iránske	AAnp1x
iránsky	iránskych	AAnp2x
iránsky	iránskym	AAnp3x
iránsky	iránske	AAnp4x
iránsky	iránske	AAnp5x
iránsky	iránskych	AAnp6x
iránsky	iránskymi	AAnp7x
iránsky	iránsky	Dx
iránčina	iránčina	SSfs1
iránčina	iránčiny	SSfs2
iránčina	iránčine	SSfs3
iránčina	iránčinu	SSfs4
iránčina	iránčina	SSfs5
iránčina	iránčine	SSfs6
iránčina	iránčinou	SSfs7
iránčina	iránčiny	SSfp1
iránčina	iránčin	SSfp2
iránčina	iránčinám	SSfp3
iránčina	iránčiny	SSfp4
iránčina	iránčiny	SSfp5
iránčina	iránčinách	SSfp6
iránčina	iránčinami	SSfp7
irídiový	irídiový	AAms1x
irídiový	irídiového	AAms2x
irídiový	irídiovému	AAms3x
irídiový	irídiového	AAms4x
irídiový	irídiový	AAms5x
irídiový	irídiovom	AAms6x
irídiový	irídiovým	AAms7x
irídiový	irídioví	AAmp1x
irídiový	irídiových	AAmp2x
irídiový	irídiovým	AAmp3x
irídiový	irídiových	AAmp4x
irídiový	irídioví	AAmp5x
irídiový	irídiových	AAmp6x
irídiový	irídiovými	AAmp7x
irídiový	irídiový	AAis1x
irídiový	irídiového	AAis2x
irídiový	irídiovému	AAis3x
irídiový	irídiový	AAis4x
irídiový	irídiový	AAis5x
irídiový	irídiovom	AAis6x
irídiový	irídiovým	AAis7x
irídiový	irídiové	AAip1x
irídiový	irídiových	AAip2x
irídiový	irídiovým	AAip3x
irídiový	irídiové	AAip4x
irídiový	irídiové	AAip5x
irídiový	irídiových	AAip6x
irídiový	irídiovými	AAip7x
irídiový	irídiová	AAfs1x
irídiový	irídiovej	AAfs2x
irídiový	irídiovej	AAfs3x
irídiový	irídiovú	AAfs4x
irídiový	irídiová	AAfs5x
irídiový	irídiovej	AAfs6x
irídiový	irídiovou	AAfs7x
irídiový	irídiové	AAfp1x
irídiový	irídiových	AAfp2x
irídiový	irídiovým	AAfp3x
irídiový	irídiové	AAfp4x
irídiový	irídiové	AAfp5x
irídiový	irídiových	AAfp6x
irídiový	irídiovými	AAfp7x
irídiový	irídiové	AAns1x
irídiový	irídiového	AAns2x
irídiový	irídiovému	AAns3x
irídiový	irídiové	AAns4x
irídiový	irídiové	AAns5x
irídiový	irídiovom	AAns6x
irídiový	irídiovým	AAns7x
irídiový	irídiové	AAnp1x
irídiový	irídiových	AAnp2x
irídiový	irídiovým	AAnp3x
irídiový	irídiové	AAnp4x
irídiový	irídiové	AAnp5x
irídiový	irídiových	AAnp6x
irídiový	irídiovými	AAnp7x
irídium	irídium	SSns1
irídium	irídia	SSns2
irídium	irídiu	SSns3
irídium	irídium	SSns4
irídium	irídium	SSns5
irídium	irídiu	SSns6
irídium	irídiom	SSns7
irídium	irídiá	SSnp1
irídium	irídií	SSnp2
irídium	irídiám	SSnp3
irídium	irídiá	SSnp4
irídium	irídiá	SSnp5
irídium	irídiách	SSnp6
irídium	irídiami	SSnp7
irónia	irónia	SSfs1
irónia	irónie	SSfs2
irónia	irónii	SSfs3
irónia	iróniu	SSfs4
irónia	irónia	SSfs5
irónia	irónii	SSfs6
irónia	iróniou	SSfs7
irónia	irónie	SSfp1
irónia	irónií	SSfp2
irónia	iróniám	SSfp3
irónia	irónie	SSfp4
irónia	irónie	SSfp5
irónia	iróniách	SSfp6
irónia	iróniami	SSfp7
Írsko	Írsko	SSns1
Írsko	Írska	SSns2
Írsko	Írsku	SSns3
Írsko	Írsko	SSns4
Írsko	Írsko	SSns5
Írsko	Írsku	SSns6
Írsko	Írskom	SSns7
ír	ír	W
írečite	írečite	Dx
írečite	írečitejšie	Dy
írečite	najírečitejšie	Dz
írečito	írečito	Dx
írečito	írečitejšie	Dy
írečito	najírečitejšie	Dz
írečitosť	írečitosť	SSfs1
írečitosť	írečitosti	SSfs2
írečitosť	írečitosti	SSfs3
írečitosť	írečitosť	SSfs4
írečitosť	írečitosť	SSfs5
írečitosť	írečitosti	SSfs6
írečitosť	írečitosťou	SSfs7
írečitosť	írečitosti	SSfp1
írečitosť	írečitostí	SSfp2
írečitosť	írečitostiam	SSfp3
írečitosť	írečitosti	SSfp4
írečitosť	írečitosti	SSfp5
írečitosť	írečitostiach	SSfp6
írečitosť	írečitosťami	SSfp7
írečitý	írečitý	AAms1x
írečitý	írečitého	AAms2x
írečitý	írečitému	AAms3x
írečitý	írečitého	AAms4x
írečitý	írečitý	AAms5x
írečitý	írečitom	AAms6x
írečitý	írečitým	AAms7x
írečitý	írečití	AAmp1x
írečitý	írečitých	AAmp2x
írečitý	írečitým	AAmp3x
írečitý	írečitých	AAmp4x
írečitý	írečití	AAmp5x
írečitý	írečitých	AAmp6x
írečitý	írečitými	AAmp7x
írečitý	írečitý	AAis1x
írečitý	írečitého	AAis2x
írečitý	írečitému	AAis3x
írečitý	írečitý	AAis4x
írečitý	írečitý	AAis5x
írečitý	írečitom	AAis6x
írečitý	írečitým	AAis7x
írečitý	írečité	AAip1x
írečitý	írečitých	AAip2x
írečitý	írečitým	AAip3x
írečitý	írečité	AAip4x
írečitý	írečité	AAip5x
írečitý	írečitých	AAip6x
írečitý	írečitými	AAip7x
írečitý	írečitá	AAfs1x
írečitý	írečitej	AAfs2x
írečitý	írečitej	AAfs3x
írečitý	írečitú	AAfs4x
írečitý	írečitá	AAfs5x
írečitý	írečitej	AAfs6x
írečitý	írečitou	AAfs7x
írečitý	írečité	AAfp1x
írečitý	írečitých	AAfp2x
írečitý	írečitým	AAfp3x
írečitý	írečité	AAfp4x
írečitý	írečité	AAfp5x
írečitý	írečitých	AAfp6x
írečitý	írečitými	AAfp7x
írečitý	írečité	AAns1x
írečitý	írečitého	AAns2x
írečitý	írečitému	AAns3x
írečitý	írečité	AAns4x
írečitý	írečité	AAns5x
írečitý	írečitom	AAns6x
írečitý	írečitým	AAns7x
írečitý	írečité	AAnp1x
írečitý	írečitých	AAnp2x
írečitý	írečitým	AAnp3x
írečitý	írečité	AAnp4x
írečitý	írečité	AAnp5x
írečitý	írečitých	AAnp6x
írečitý	írečitými	AAnp7x
írečitý	írečitejší	AAms1y
írečitý	írečitejšieho	AAms2y
írečitý	írečitejšiemu	AAms3y
írečitý	írečitejšieho	AAms4y
írečitý	írečitejší	AAms5y
írečitý	írečitejšom	AAms6y
írečitý	írečitejším	AAms7y
írečitý	írečitejší	AAmp1y
írečitý	írečitejších	AAmp2y
írečitý	írečitejším	AAmp3y
írečitý	írečitejších	AAmp4y
írečitý	írečitejší	AAmp5y
írečitý	írečitejších	AAmp6y
írečitý	írečitejšími	AAmp7y
írečitý	írečitejší	AAis1y
írečitý	írečitejšieho	AAis2y
írečitý	írečitejšiemu	AAis3y
írečitý	írečitejší	AAis4y
írečitý	írečitejší	AAis5y
írečitý	írečitejšom	AAis6y
írečitý	írečitejším	AAis7y
írečitý	írečitejšie	AAip1y
írečitý	írečitejších	AAip2y
írečitý	írečitejším	AAip3y
írečitý	írečitejšie	AAip4y
írečitý	írečitejšie	AAip5y
írečitý	írečitejších	AAip6y
írečitý	írečitejšími	AAip7y
írečitý	írečitejšia	AAfs1y
írečitý	írečitejšej	AAfs2y
írečitý	írečitejšej	AAfs3y
írečitý	írečitejšiu	AAfs4y
írečitý	írečitejšia	AAfs5y
írečitý	írečitejšej	AAfs6y
írečitý	írečitejšou	AAfs7y
írečitý	írečitejšie	AAfp1y
írečitý	írečitejších	AAfp2y
írečitý	írečitejším	AAfp3y
írečitý	írečitejšie	AAfp4y
írečitý	írečitejšie	AAfp5y
írečitý	írečitejších	AAfp6y
írečitý	írečitejšími	AAfp7y
írečitý	írečitejšie	AAns1y
írečitý	írečitejšieho	AAns2y
írečitý	írečitejšiemu	AAns3y
írečitý	írečitejšie	AAns4y
írečitý	írečitejšie	AAns5y
írečitý	írečitejšom	AAns6y
írečitý	írečitejším	AAns7y
írečitý	írečitejšie	AAnp1y
írečitý	írečitejších	AAnp2y
írečitý	írečitejším	AAnp3y
írečitý	írečitejšie	AAnp4y
írečitý	írečitejšie	AAnp5y
írečitý	írečitejších	AAnp6y
írečitý	írečitejšími	AAnp7y
írečitý	najírečitejší	AAms1z
írečitý	najírečitejšieho	AAms2z
írečitý	najírečitejšiemu	AAms3z
írečitý	najírečitejšieho	AAms4z
írečitý	najírečitejší	AAms5z
írečitý	najírečitejšom	AAms6z
írečitý	najírečitejším	AAms7z
írečitý	najírečitejší	AAmp1z
írečitý	najírečitejších	AAmp2z
írečitý	najírečitejším	AAmp3z
írečitý	najírečitejších	AAmp4z
írečitý	najírečitejší	AAmp5z
írečitý	najírečitejších	AAmp6z
írečitý	najírečitejšími	AAmp7z
írečitý	najírečitejší	AAis1z
írečitý	najírečitejšieho	AAis2z
írečitý	najírečitejšiemu	AAis3z
írečitý	najírečitejší	AAis4z
írečitý	najírečitejší	AAis5z
írečitý	najírečitejšom	AAis6z
írečitý	najírečitejším	AAis7z
írečitý	najírečitejšie	AAip1z
írečitý	najírečitejších	AAip2z
írečitý	najírečitejším	AAip3z
írečitý	najírečitejšie	AAip4z
írečitý	najírečitejšie	AAip5z
írečitý	najírečitejších	AAip6z
írečitý	najírečitejšími	AAip7z
írečitý	najírečitejšia	AAfs1z
írečitý	najírečitejšej	AAfs2z
írečitý	najírečitejšej	AAfs3z
írečitý	najírečitejšiu	AAfs4z
írečitý	najírečitejšia	AAfs5z
írečitý	najírečitejšej	AAfs6z
írečitý	najírečitejšou	AAfs7z
írečitý	najírečitejšie	AAfp1z
írečitý	najírečitejších	AAfp2z
írečitý	najírečitejším	AAfp3z
írečitý	najírečitejšie	AAfp4z
írečitý	najírečitejšie	AAfp5z
írečitý	najírečitejších	AAfp6z
írečitý	najírečitejšími	AAfp7z
írečitý	najírečitejšie	AAns1z
írečitý	najírečitejšieho	AAns2z
írečitý	najírečitejšiemu	AAns3z
írečitý	najírečitejšie	AAns4z
írečitý	najírečitejšie	AAns5z
írečitý	najírečitejšom	AAns6z
írečitý	najírečitejším	AAns7z
írečitý	najírečitejšie	AAnp1z
írečitý	najírečitejších	AAnp2z
írečitý	najírečitejším	AAnp3z
írečitý	najírečitejšie	AAnp4z
írečitý	najírečitejšie	AAnp5z
írečitý	najírečitejších	AAnp6z
írečitý	najírečitejšími	AAnp7z
íris	íris	SSis1
íris	írisu	SSis2
íris	írisu	SSis3
íris	íris	SSis4
íris	íris	SSis5
íris	írise	SSis6
íris	írisom	SSis7
íris	írisy	SSip1
íris	írisov	SSip2
íris	írisom	SSip3
íris	írisy	SSip4
íris	írisy	SSip5
íris	írisoch	SSip6
íris	írismi	SSip7
írisový	írisový	AAms1x
írisový	írisového	AAms2x
írisový	írisovému	AAms3x
írisový	írisového	AAms4x
írisový	írisový	AAms5x
írisový	írisovom	AAms6x
írisový	írisovým	AAms7x
írisový	írisoví	AAmp1x
írisový	írisových	AAmp2x
írisový	írisovým	AAmp3x
írisový	írisových	AAmp4x
írisový	írisoví	AAmp5x
írisový	írisových	AAmp6x
írisový	írisovými	AAmp7x
írisový	írisový	AAis1x
írisový	írisového	AAis2x
írisový	írisovému	AAis3x
írisový	írisový	AAis4x
írisový	írisový	AAis5x
írisový	írisovom	AAis6x
írisový	írisovým	AAis7x
írisový	írisové	AAip1x
írisový	írisových	AAip2x
írisový	írisovým	AAip3x
írisový	írisové	AAip4x
írisový	írisové	AAip5x
írisový	írisových	AAip6x
írisový	írisovými	AAip7x
írisový	írisová	AAfs1x
írisový	írisovej	AAfs2x
írisový	írisovej	AAfs3x
írisový	írisovú	AAfs4x
írisový	írisová	AAfs5x
írisový	írisovej	AAfs6x
írisový	írisovou	AAfs7x
írisový	írisové	AAfp1x
írisový	írisových	AAfp2x
írisový	írisovým	AAfp3x
írisový	írisové	AAfp4x
írisový	írisové	AAfp5x
írisový	írisových	AAfp6x
írisový	írisovými	AAfp7x
írisový	írisové	AAns1x
írisový	írisového	AAns2x
írisový	írisovému	AAns3x
írisový	írisové	AAns4x
írisový	írisové	AAns5x
írisový	írisovom	AAns6x
írisový	írisovým	AAns7x
írisový	írisové	AAnp1x
írisový	írisových	AAnp2x
írisový	írisovým	AAnp3x
írisový	írisové	AAnp4x
írisový	írisové	AAnp5x
írisový	írisových	AAnp6x
írisový	írisovými	AAnp7x
írsky	írsky	AAms1x
írsky	írskeho	AAms2x
írsky	írskemu	AAms3x
írsky	írskeho	AAms4x
írsky	írsky	AAms5x
írsky	írskom	AAms6x
írsky	írskym	AAms7x
írsky	írski	AAmp1x
írsky	írskych	AAmp2x
írsky	írskym	AAmp3x
írsky	írskych	AAmp4x
írsky	írski	AAmp5x
írsky	írskych	AAmp6x
írsky	írskymi	AAmp7x
írsky	írsky	AAis1x
írsky	írskeho	AAis2x
írsky	írskemu	AAis3x
írsky	írsky	AAis4x
írsky	írsky	AAis5x
írsky	írskom	AAis6x
írsky	írskym	AAis7x
írsky	írske	AAip1x
írsky	írskych	AAip2x
írsky	írskym	AAip3x
írsky	írske	AAip4x
írsky	írske	AAip5x
írsky	írskych	AAip6x
írsky	írskymi	AAip7x
írsky	írska	AAfs1x
írsky	írskej	AAfs2x
írsky	írskej	AAfs3x
írsky	írsku	AAfs4x
írsky	írska	AAfs5x
írsky	írskej	AAfs6x
írsky	írskou	AAfs7x
írsky	írske	AAfp1x
írsky	írskych	AAfp2x
írsky	írskym	AAfp3x
írsky	írske	AAfp4x
írsky	írske	AAfp5x
írsky	írskych	AAfp6x
írsky	írskymi	AAfp7x
írsky	írske	AAns1x
írsky	írskeho	AAns2x
írsky	írskemu	AAns3x
írsky	írske	AAns4x
írsky	írske	AAns5x
írsky	írskom	AAns6x
írsky	írskym	AAns7x
írsky	írske	AAnp1x
írsky	írskych	AAnp2x
írsky	írskym	AAnp3x
írsky	írske	AAnp4x
írsky	írske	AAnp5x
írsky	írskych	AAnp6x
írsky	írskymi	AAnp7x
írsky	írskejší	AAms1y
írsky	írskejšieho	AAms2y
írsky	írskejšiemu	AAms3y
írsky	írskejšieho	AAms4y
írsky	írskejší	AAms5y
írsky	írskejšom	AAms6y
írsky	írskejším	AAms7y
írsky	írskejší	AAmp1y
írsky	írskejších	AAmp2y
írsky	írskejším	AAmp3y
írsky	írskejších	AAmp4y
írsky	írskejší	AAmp5y
írsky	írskejších	AAmp6y
írsky	írskejšími	AAmp7y
írsky	írskejší	AAis1y
írsky	írskejšieho	AAis2y
írsky	írskejšiemu	AAis3y
írsky	írskejší	AAis4y
írsky	írskejší	AAis5y
írsky	írskejšom	AAis6y
írsky	írskejším	AAis7y
írsky	írskejšie	AAip1y
írsky	írskejších	AAip2y
írsky	írskejším	AAip3y
írsky	írskejšie	AAip4y
írsky	írskejšie	AAip5y
írsky	írskejších	AAip6y
írsky	írskejšími	AAip7y
írsky	írskejšia	AAfs1y
írsky	írskejšej	AAfs2y
írsky	írskejšej	AAfs3y
írsky	írskejšiu	AAfs4y
írsky	írskejšia	AAfs5y
írsky	írskejšej	AAfs6y
írsky	írskejšou	AAfs7y
írsky	írskejšie	AAfp1y
írsky	írskejších	AAfp2y
írsky	írskejším	AAfp3y
írsky	írskejšie	AAfp4y
írsky	írskejšie	AAfp5y
írsky	írskejších	AAfp6y
írsky	írskejšími	AAfp7y
írsky	írskejšie	AAns1y
írsky	írskejšieho	AAns2y
írsky	írskejšiemu	AAns3y
írsky	írskejšie	AAns4y
írsky	írskejšie	AAns5y
írsky	írskejšom	AAns6y
írsky	írskejším	AAns7y
írsky	írskejšie	AAnp1y
írsky	írskejších	AAnp2y
írsky	írskejším	AAnp3y
írsky	írskejšie	AAnp4y
írsky	írskejšie	AAnp5y
írsky	írskejších	AAnp6y
írsky	írskejšími	AAnp7y
írsky	najírskejší	AAms1z
írsky	najírskejšieho	AAms2z
írsky	najírskejšiemu	AAms3z
írsky	najírskejšieho	AAms4z
írsky	najírskejší	AAms5z
írsky	najírskejšom	AAms6z
írsky	najírskejším	AAms7z
írsky	najírskejší	AAmp1z
írsky	najírskejších	AAmp2z
írsky	najírskejším	AAmp3z
írsky	najírskejších	AAmp4z
írsky	najírskejší	AAmp5z
írsky	najírskejších	AAmp6z
írsky	najírskejšími	AAmp7z
írsky	najírskejší	AAis1z
írsky	najírskejšieho	AAis2z
írsky	najírskejšiemu	AAis3z
írsky	najírskejší	AAis4z
írsky	najírskejší	AAis5z
írsky	najírskejšom	AAis6z
írsky	najírskejším	AAis7z
írsky	najírskejšie	AAip1z
írsky	najírskejších	AAip2z
írsky	najírskejším	AAip3z
írsky	najírskejšie	AAip4z
írsky	najírskejšie	AAip5z
írsky	najírskejších	AAip6z
írsky	najírskejšími	AAip7z
írsky	najírskejšia	AAfs1z
írsky	najírskejšej	AAfs2z
írsky	najírskejšej	AAfs3z
írsky	najírskejšiu	AAfs4z
írsky	najírskejšia	AAfs5z
írsky	najírskejšej	AAfs6z
írsky	najírskejšou	AAfs7z
írsky	najírskejšie	AAfp1z
írsky	najírskejších	AAfp2z
írsky	najírskejším	AAfp3z
írsky	najírskejšie	AAfp4z
írsky	najírskejšie	AAfp5z
írsky	najírskejších	AAfp6z
írsky	najírskejšími	AAfp7z
írsky	najírskejšie	AAns1z
írsky	najírskejšieho	AAns2z
írsky	najírskejšiemu	AAns3z
írsky	najírskejšie	AAns4z
írsky	najírskejšie	AAns5z
írsky	najírskejšom	AAns6z
írsky	najírskejším	AAns7z
írsky	najírskejšie	AAnp1z
írsky	najírskejších	AAnp2z
írsky	najírskejším	AAnp3z
írsky	najírskejšie	AAnp4z
írsky	najírskejšie	AAnp5z
írsky	najírskejších	AAnp6z
írsky	najírskejšími	AAnp7z
írčina	írčina	SSfs1
írčina	írčiny	SSfs2
írčina	írčine	SSfs3
írčina	írčinu	SSfs4
írčina	írčina	SSfs5
írčina	írčine	SSfs6
írčina	írčinou	SSfs7
írčina	írčiny	SSfp1
írčina	írčin	SSfp2
írčina	írčinám	SSfp3
írčina	írčiny	SSfp4
írčina	írčiny	SSfp5
írčina	írčinách	SSfp6
írčina	írčinami	SSfp7
