LS	LS	W
LSD	LSD	W
ĽS	ĽS	W
ľstivo	ľstivo	Dx
ľstivo	ľstivejšie	Dy
ľstivo	najľstivejšie	Dz
ľstivosť	ľstivosť	SSfs1
ľstivosť	ľstivosti	SSfs2
ľstivosť	ľstivosti	SSfs3
ľstivosť	ľstivosť	SSfs4
ľstivosť	ľstivosť	SSfs5
ľstivosť	ľstivosti	SSfs6
ľstivosť	ľstivosťou	SSfs7
ľstivosť	ľstivosti	SSfp1
ľstivosť	ľstivostí	SSfp2
ľstivosť	ľstivostiam	SSfp3
ľstivosť	ľstivosti	SSfp4
ľstivosť	ľstivosti	SSfp5
ľstivosť	ľstivostiach	SSfp6
ľstivosť	ľstivosťami	SSfp7
ľstivý	ľstivý	AAms1x
ľstivý	ľstivého	AAms2x
ľstivý	ľstivému	AAms3x
ľstivý	ľstivého	AAms4x
ľstivý	ľstivý	AAms5x
ľstivý	ľstivom	AAms6x
ľstivý	ľstivým	AAms7x
ľstivý	ľstiví	AAmp1x
ľstivý	ľstivých	AAmp2x
ľstivý	ľstivým	AAmp3x
ľstivý	ľstivých	AAmp4x
ľstivý	ľstiví	AAmp5x
ľstivý	ľstivých	AAmp6x
ľstivý	ľstivými	AAmp7x
ľstivý	ľstivý	AAis1x
ľstivý	ľstivého	AAis2x
ľstivý	ľstivému	AAis3x
ľstivý	ľstivý	AAis4x
ľstivý	ľstivý	AAis5x
ľstivý	ľstivom	AAis6x
ľstivý	ľstivým	AAis7x
ľstivý	ľstivé	AAip1x
ľstivý	ľstivých	AAip2x
ľstivý	ľstivým	AAip3x
ľstivý	ľstivé	AAip4x
ľstivý	ľstivé	AAip5x
ľstivý	ľstivých	AAip6x
ľstivý	ľstivými	AAip7x
ľstivý	ľstivá	AAfs1x
ľstivý	ľstivej	AAfs2x
ľstivý	ľstivej	AAfs3x
ľstivý	ľstivú	AAfs4x
ľstivý	ľstivá	AAfs5x
ľstivý	ľstivej	AAfs6x
ľstivý	ľstivou	AAfs7x
ľstivý	ľstivé	AAfp1x
ľstivý	ľstivých	AAfp2x
ľstivý	ľstivým	AAfp3x
ľstivý	ľstivé	AAfp4x
ľstivý	ľstivé	AAfp5x
ľstivý	ľstivých	AAfp6x
ľstivý	ľstivými	AAfp7x
ľstivý	ľstivé	AAns1x
ľstivý	ľstivého	AAns2x
ľstivý	ľstivému	AAns3x
ľstivý	ľstivé	AAns4x
ľstivý	ľstivé	AAns5x
ľstivý	ľstivom	AAns6x
ľstivý	ľstivým	AAns7x
ľstivý	ľstivé	AAnp1x
ľstivý	ľstivých	AAnp2x
ľstivý	ľstivým	AAnp3x
ľstivý	ľstivé	AAnp4x
ľstivý	ľstivé	AAnp5x
ľstivý	ľstivých	AAnp6x
ľstivý	ľstivými	AAnp7x
ľstivý	ľstivejší	AAms1y
ľstivý	ľstivejšieho	AAms2y
ľstivý	ľstivejšiemu	AAms3y
ľstivý	ľstivejšieho	AAms4y
ľstivý	ľstivejší	AAms5y
ľstivý	ľstivejšom	AAms6y
ľstivý	ľstivejším	AAms7y
ľstivý	ľstivejší	AAmp1y
ľstivý	ľstivejších	AAmp2y
ľstivý	ľstivejším	AAmp3y
ľstivý	ľstivejších	AAmp4y
ľstivý	ľstivejší	AAmp5y
ľstivý	ľstivejších	AAmp6y
ľstivý	ľstivejšími	AAmp7y
ľstivý	ľstivejší	AAis1y
ľstivý	ľstivejšieho	AAis2y
ľstivý	ľstivejšiemu	AAis3y
ľstivý	ľstivejší	AAis4y
ľstivý	ľstivejší	AAis5y
ľstivý	ľstivejšom	AAis6y
ľstivý	ľstivejším	AAis7y
ľstivý	ľstivejšie	AAip1y
ľstivý	ľstivejších	AAip2y
ľstivý	ľstivejším	AAip3y
ľstivý	ľstivejšie	AAip4y
ľstivý	ľstivejšie	AAip5y
ľstivý	ľstivejších	AAip6y
ľstivý	ľstivejšími	AAip7y
ľstivý	ľstivejšia	AAfs1y
ľstivý	ľstivejšej	AAfs2y
ľstivý	ľstivejšej	AAfs3y
ľstivý	ľstivejšiu	AAfs4y
ľstivý	ľstivejšia	AAfs5y
ľstivý	ľstivejšej	AAfs6y
ľstivý	ľstivejšou	AAfs7y
ľstivý	ľstivejšie	AAfp1y
ľstivý	ľstivejších	AAfp2y
ľstivý	ľstivejším	AAfp3y
ľstivý	ľstivejšie	AAfp4y
ľstivý	ľstivejšie	AAfp5y
ľstivý	ľstivejších	AAfp6y
ľstivý	ľstivejšími	AAfp7y
ľstivý	ľstivejšie	AAns1y
ľstivý	ľstivejšieho	AAns2y
ľstivý	ľstivejšiemu	AAns3y
ľstivý	ľstivejšie	AAns4y
ľstivý	ľstivejšie	AAns5y
ľstivý	ľstivejšom	AAns6y
ľstivý	ľstivejším	AAns7y
ľstivý	ľstivejšie	AAnp1y
ľstivý	ľstivejších	AAnp2y
ľstivý	ľstivejším	AAnp3y
ľstivý	ľstivejšie	AAnp4y
ľstivý	ľstivejšie	AAnp5y
ľstivý	ľstivejších	AAnp6y
ľstivý	ľstivejšími	AAnp7y
ľstivý	najľstivejší	AAms1z
ľstivý	najľstivejšieho	AAms2z
ľstivý	najľstivejšiemu	AAms3z
ľstivý	najľstivejšieho	AAms4z
ľstivý	najľstivejší	AAms5z
ľstivý	najľstivejšom	AAms6z
ľstivý	najľstivejším	AAms7z
ľstivý	najľstivejší	AAmp1z
ľstivý	najľstivejších	AAmp2z
ľstivý	najľstivejším	AAmp3z
ľstivý	najľstivejších	AAmp4z
ľstivý	najľstivejší	AAmp5z
ľstivý	najľstivejších	AAmp6z
ľstivý	najľstivejšími	AAmp7z
ľstivý	najľstivejší	AAis1z
ľstivý	najľstivejšieho	AAis2z
ľstivý	najľstivejšiemu	AAis3z
ľstivý	najľstivejší	AAis4z
ľstivý	najľstivejší	AAis5z
ľstivý	najľstivejšom	AAis6z
ľstivý	najľstivejším	AAis7z
ľstivý	najľstivejšie	AAip1z
ľstivý	najľstivejších	AAip2z
ľstivý	najľstivejším	AAip3z
ľstivý	najľstivejšie	AAip4z
ľstivý	najľstivejšie	AAip5z
ľstivý	najľstivejších	AAip6z
ľstivý	najľstivejšími	AAip7z
ľstivý	najľstivejšia	AAfs1z
ľstivý	najľstivejšej	AAfs2z
ľstivý	najľstivejšej	AAfs3z
ľstivý	najľstivejšiu	AAfs4z
ľstivý	najľstivejšia	AAfs5z
ľstivý	najľstivejšej	AAfs6z
ľstivý	najľstivejšou	AAfs7z
ľstivý	najľstivejšie	AAfp1z
ľstivý	najľstivejších	AAfp2z
ľstivý	najľstivejším	AAfp3z
ľstivý	najľstivejšie	AAfp4z
ľstivý	najľstivejšie	AAfp5z
ľstivý	najľstivejších	AAfp6z
ľstivý	najľstivejšími	AAfp7z
ľstivý	najľstivejšie	AAns1z
ľstivý	najľstivejšieho	AAns2z
ľstivý	najľstivejšiemu	AAns3z
ľstivý	najľstivejšie	AAns4z
ľstivý	najľstivejšie	AAns5z
ľstivý	najľstivejšom	AAns6z
ľstivý	najľstivejším	AAns7z
ľstivý	najľstivejšie	AAnp1z
ľstivý	najľstivejších	AAnp2z
ľstivý	najľstivejším	AAnp3z
ľstivý	najľstivejšie	AAnp4z
ľstivý	najľstivejšie	AAnp5z
ľstivý	najľstivejších	AAnp6z
ľstivý	najľstivejšími	AAnp7z
