MN	MN	W
mn	mn	W
mnemotechnický	mnemotechnický	AAms1x
mnemotechnický	mnemotechnického	AAms2x
mnemotechnický	mnemotechnickému	AAms3x
mnemotechnický	mnemotechnického	AAms4x
mnemotechnický	mnemotechnický	AAms5x
mnemotechnický	mnemotechnickom	AAms6x
mnemotechnický	mnemotechnickým	AAms7x
mnemotechnický	mnemotechnickí	AAmp1x
mnemotechnický	mnemotechnických	AAmp2x
mnemotechnický	mnemotechnickým	AAmp3x
mnemotechnický	mnemotechnických	AAmp4x
mnemotechnický	mnemotechnickí	AAmp5x
mnemotechnický	mnemotechnických	AAmp6x
mnemotechnický	mnemotechnickými	AAmp7x
mnemotechnický	mnemotechnický	AAis1x
mnemotechnický	mnemotechnického	AAis2x
mnemotechnický	mnemotechnickému	AAis3x
mnemotechnický	mnemotechnický	AAis4x
mnemotechnický	mnemotechnický	AAis5x
mnemotechnický	mnemotechnickom	AAis6x
mnemotechnický	mnemotechnickým	AAis7x
mnemotechnický	mnemotechnické	AAip1x
mnemotechnický	mnemotechnických	AAip2x
mnemotechnický	mnemotechnickým	AAip3x
mnemotechnický	mnemotechnické	AAip4x
mnemotechnický	mnemotechnické	AAip5x
mnemotechnický	mnemotechnických	AAip6x
mnemotechnický	mnemotechnickými	AAip7x
mnemotechnický	mnemotechnická	AAfs1x
mnemotechnický	mnemotechnickej	AAfs2x
mnemotechnický	mnemotechnickej	AAfs3x
mnemotechnický	mnemotechnickú	AAfs4x
mnemotechnický	mnemotechnická	AAfs5x
mnemotechnický	mnemotechnickej	AAfs6x
mnemotechnický	mnemotechnickou	AAfs7x
mnemotechnický	mnemotechnické	AAfp1x
mnemotechnický	mnemotechnických	AAfp2x
mnemotechnický	mnemotechnickým	AAfp3x
mnemotechnický	mnemotechnické	AAfp4x
mnemotechnický	mnemotechnické	AAfp5x
mnemotechnický	mnemotechnických	AAfp6x
mnemotechnický	mnemotechnickými	AAfp7x
mnemotechnický	mnemotechnické	AAns1x
mnemotechnický	mnemotechnického	AAns2x
mnemotechnický	mnemotechnickému	AAns3x
mnemotechnický	mnemotechnické	AAns4x
mnemotechnický	mnemotechnické	AAns5x
mnemotechnický	mnemotechnickom	AAns6x
mnemotechnický	mnemotechnickým	AAns7x
mnemotechnický	mnemotechnické	AAnp1x
mnemotechnický	mnemotechnických	AAnp2x
mnemotechnický	mnemotechnickým	AAnp3x
mnemotechnický	mnemotechnické	AAnp4x
mnemotechnický	mnemotechnické	AAnp5x
mnemotechnický	mnemotechnických	AAnp6x
mnemotechnický	mnemotechnickými	AAnp7x
mnemotechnik	mnemotechnik	SSms1
mnemotechnik	mnemotechnika	SSms2
mnemotechnik	mnemotechnikovi	SSms3
mnemotechnik	mnemotechnika	SSms4
mnemotechnik	mnemotechnik	SSms5
mnemotechnik	mnemotechnikovi	SSms6
mnemotechnik	mnemotechnikom	SSms7
mnemotechnik	mnemotechnici	SSmp1
mnemotechnik	mnemotechnikov	SSmp2
mnemotechnik	mnemotechnikom	SSmp3
mnemotechnik	mnemotechnikov	SSmp4
mnemotechnik	mnemotechnici	SSmp5
mnemotechnik	mnemotechnikoch	SSmp6
mnemotechnik	mnemotechnikmi	SSmp7
mnemotechnika	mnemotechnika	SSfs1
mnemotechnika	mnemotechniky	SSfs2
mnemotechnika	mnemotechnike	SSfs3
mnemotechnika	mnemotechniku	SSfs4
mnemotechnika	mnemotechnika	SSfs5
mnemotechnika	mnemotechnike	SSfs6
mnemotechnika	mnemotechnikou	SSfs7
mnemotechnika	mnemotechniky	SSfp1
mnemotechnika	mnemotechník	SSfp2
mnemotechnika	mnemotechnikám	SSfp3
mnemotechnika	mnemotechniky	SSfp4
mnemotechnika	mnemotechniky	SSfp5
mnemotechnika	mnemotechnikách	SSfp6
mnemotechnika	mnemotechnikami	SSfp7
mnemotechnička	mnemotechnička	SSfs1
mnemotechnička	mnemotechničky	SSfs2
mnemotechnička	mnemotechničke	SSfs3
mnemotechnička	mnemotechničku	SSfs4
mnemotechnička	mnemotechnička	SSfs5
mnemotechnička	mnemotechničke	SSfs6
mnemotechnička	mnemotechničkou	SSfs7
mnemotechnička	mnemotechničky	SSfp1
mnemotechnička	mnemotechničiek	SSfp2
mnemotechnička	mnemotechničkám	SSfp3
mnemotechnička	mnemotechničky	SSfp4
mnemotechnička	mnemotechničky	SSfp5
mnemotechnička	mnemotechničkách	SSfp6
mnemotechnička	mnemotechničkami	SSfp7
mnoho	mnoho	Dx
mnoho	viacej	Dy
mnoho	viac	Dy
mnoho	najviacej	Dz
mnoho	najviac	Dz
mnoho	mnoho	NUfp1
mnoho	mnoho	NUfp2
mnoho	mnoho	NUfp3
mnoho	mnoho	NUfp4
mnoho	mnoho	NUfp5
mnoho	mnoho	NUfp6
mnoho	mnoho	NUfp7
mnoho	mnoho	NUip1
mnoho	mnoho	NUip2
mnoho	mnoho	NUip3
mnoho	mnoho	NUip4
mnoho	mnoho	NUip5
mnoho	mnoho	NUip6
mnoho	mnoho	NUip7
mnoho	mnoho	NUmp1
mnoho	mnoho	NUmp2
mnoho	mnoho	NUmp3
mnoho	mnoho	NUmp4
mnoho	mnoho	NUmp5
mnoho	mnoho	NUmp6
mnoho	mnoho	NUmp7
mnoho	mnoho	NUnp1
mnoho	mnoho	NUnp2
mnoho	mnoho	NUnp3
mnoho	mnoho	NUnp4
mnoho	mnoho	NUnp5
mnoho	mnoho	NUnp6
mnoho	mnoho	NUnp7
mnoho	mnoho	NUns1
mnoho	mnoho	NUns4
mnohobožstvo	mnohobožstvo	SSns1
mnohobožstvo	mnohobožstva	SSns2
mnohobožstvo	mnohobožstvu	SSns3
mnohobožstvo	mnohobožstvo	SSns4
mnohobožstvo	mnohobožstvo	SSns5
mnohobožstvo	mnohobožstve	SSns6
mnohobožstvo	mnohobožstvom	SSns7
mnohobožstvo	mnohobožstvá	SSnp1
mnohobožstvo	mnohobožstiev	SSnp2
mnohobožstvo	mnohobožstvám	SSnp3
mnohobožstvo	mnohobožstvá	SSnp4
mnohobožstvo	mnohobožstvá	SSnp5
mnohobožstvo	mnohobožstvách	SSnp6
mnohobožstvo	mnohobožstvami	SSnp7
mnohobunečný	mnohobunečný	AAms1x
mnohobunečný	mnohobunečného	AAms2x
mnohobunečný	mnohobunečnému	AAms3x
mnohobunečný	mnohobunečného	AAms4x
mnohobunečný	mnohobunečný	AAms5x
mnohobunečný	mnohobunečnom	AAms6x
mnohobunečný	mnohobunečným	AAms7x
mnohobunečný	mnohobuneční	AAmp1x
mnohobunečný	mnohobunečných	AAmp2x
mnohobunečný	mnohobunečným	AAmp3x
mnohobunečný	mnohobunečných	AAmp4x
mnohobunečný	mnohobuneční	AAmp5x
mnohobunečný	mnohobunečných	AAmp6x
mnohobunečný	mnohobunečnými	AAmp7x
mnohobunečný	mnohobunečný	AAis1x
mnohobunečný	mnohobunečného	AAis2x
mnohobunečný	mnohobunečnému	AAis3x
mnohobunečný	mnohobunečný	AAis4x
mnohobunečný	mnohobunečný	AAis5x
mnohobunečný	mnohobunečnom	AAis6x
mnohobunečný	mnohobunečným	AAis7x
mnohobunečný	mnohobunečné	AAip1x
mnohobunečný	mnohobunečných	AAip2x
mnohobunečný	mnohobunečným	AAip3x
mnohobunečný	mnohobunečné	AAip4x
mnohobunečný	mnohobunečné	AAip5x
mnohobunečný	mnohobunečných	AAip6x
mnohobunečný	mnohobunečnými	AAip7x
mnohobunečný	mnohobunečná	AAfs1x
mnohobunečný	mnohobunečnej	AAfs2x
mnohobunečný	mnohobunečnej	AAfs3x
mnohobunečný	mnohobunečnú	AAfs4x
mnohobunečný	mnohobunečná	AAfs5x
mnohobunečný	mnohobunečnej	AAfs6x
mnohobunečný	mnohobunečnou	AAfs7x
mnohobunečný	mnohobunečné	AAfp1x
mnohobunečný	mnohobunečných	AAfp2x
mnohobunečný	mnohobunečným	AAfp3x
mnohobunečný	mnohobunečné	AAfp4x
mnohobunečný	mnohobunečné	AAfp5x
mnohobunečný	mnohobunečných	AAfp6x
mnohobunečný	mnohobunečnými	AAfp7x
mnohobunečný	mnohobunečné	AAns1x
mnohobunečný	mnohobunečného	AAns2x
mnohobunečný	mnohobunečnému	AAns3x
mnohobunečný	mnohobunečné	AAns4x
mnohobunečný	mnohobunečné	AAns5x
mnohobunečný	mnohobunečnom	AAns6x
mnohobunečný	mnohobunečným	AAns7x
mnohobunečný	mnohobunečné	AAnp1x
mnohobunečný	mnohobunečných	AAnp2x
mnohobunečný	mnohobunečným	AAnp3x
mnohobunečný	mnohobunečné	AAnp4x
mnohobunečný	mnohobunečné	AAnp5x
mnohobunečný	mnohobunečných	AAnp6x
mnohobunečný	mnohobunečnými	AAnp7x
mnohobunkový	mnohobunkový	AAms1x
mnohobunkový	mnohobunkového	AAms2x
mnohobunkový	mnohobunkovému	AAms3x
mnohobunkový	mnohobunkového	AAms4x
mnohobunkový	mnohobunkový	AAms5x
mnohobunkový	mnohobunkovom	AAms6x
mnohobunkový	mnohobunkovým	AAms7x
mnohobunkový	mnohobunkoví	AAmp1x
mnohobunkový	mnohobunkových	AAmp2x
mnohobunkový	mnohobunkovým	AAmp3x
mnohobunkový	mnohobunkových	AAmp4x
mnohobunkový	mnohobunkoví	AAmp5x
mnohobunkový	mnohobunkových	AAmp6x
mnohobunkový	mnohobunkovými	AAmp7x
mnohobunkový	mnohobunkový	AAis1x
mnohobunkový	mnohobunkového	AAis2x
mnohobunkový	mnohobunkovému	AAis3x
mnohobunkový	mnohobunkový	AAis4x
mnohobunkový	mnohobunkový	AAis5x
mnohobunkový	mnohobunkovom	AAis6x
mnohobunkový	mnohobunkovým	AAis7x
mnohobunkový	mnohobunkové	AAip1x
mnohobunkový	mnohobunkových	AAip2x
mnohobunkový	mnohobunkovým	AAip3x
mnohobunkový	mnohobunkové	AAip4x
mnohobunkový	mnohobunkové	AAip5x
mnohobunkový	mnohobunkových	AAip6x
mnohobunkový	mnohobunkovými	AAip7x
mnohobunkový	mnohobunková	AAfs1x
mnohobunkový	mnohobunkovej	AAfs2x
mnohobunkový	mnohobunkovej	AAfs3x
mnohobunkový	mnohobunkovú	AAfs4x
mnohobunkový	mnohobunková	AAfs5x
mnohobunkový	mnohobunkovej	AAfs6x
mnohobunkový	mnohobunkovou	AAfs7x
mnohobunkový	mnohobunkové	AAfp1x
mnohobunkový	mnohobunkových	AAfp2x
mnohobunkový	mnohobunkovým	AAfp3x
mnohobunkový	mnohobunkové	AAfp4x
mnohobunkový	mnohobunkové	AAfp5x
mnohobunkový	mnohobunkových	AAfp6x
mnohobunkový	mnohobunkovými	AAfp7x
mnohobunkový	mnohobunkové	AAns1x
mnohobunkový	mnohobunkového	AAns2x
mnohobunkový	mnohobunkovému	AAns3x
mnohobunkový	mnohobunkové	AAns4x
mnohobunkový	mnohobunkové	AAns5x
mnohobunkový	mnohobunkovom	AAns6x
mnohobunkový	mnohobunkovým	AAns7x
mnohobunkový	mnohobunkové	AAnp1x
mnohobunkový	mnohobunkových	AAnp2x
mnohobunkový	mnohobunkovým	AAnp3x
mnohobunkový	mnohobunkové	AAnp4x
mnohobunkový	mnohobunkové	AAnp5x
mnohobunkový	mnohobunkových	AAnp6x
mnohobunkový	mnohobunkovými	AAnp7x
mnohokrát	mnohokrát	ND
mnohonárodný	mnohonárodný	AAms1x
mnohonárodný	mnohonárodného	AAms2x
mnohonárodný	mnohonárodnému	AAms3x
mnohonárodný	mnohonárodného	AAms4x
mnohonárodný	mnohonárodný	AAms5x
mnohonárodný	mnohonárodnom	AAms6x
mnohonárodný	mnohonárodným	AAms7x
mnohonárodný	mnohonárodní	AAmp1x
mnohonárodný	mnohonárodných	AAmp2x
mnohonárodný	mnohonárodným	AAmp3x
mnohonárodný	mnohonárodných	AAmp4x
mnohonárodný	mnohonárodní	AAmp5x
mnohonárodný	mnohonárodných	AAmp6x
mnohonárodný	mnohonárodnými	AAmp7x
mnohonárodný	mnohonárodný	AAis1x
mnohonárodný	mnohonárodného	AAis2x
mnohonárodný	mnohonárodnému	AAis3x
mnohonárodný	mnohonárodný	AAis4x
mnohonárodný	mnohonárodný	AAis5x
mnohonárodný	mnohonárodnom	AAis6x
mnohonárodný	mnohonárodným	AAis7x
mnohonárodný	mnohonárodné	AAip1x
mnohonárodný	mnohonárodných	AAip2x
mnohonárodný	mnohonárodným	AAip3x
mnohonárodný	mnohonárodné	AAip4x
mnohonárodný	mnohonárodné	AAip5x
mnohonárodný	mnohonárodných	AAip6x
mnohonárodný	mnohonárodnými	AAip7x
mnohonárodný	mnohonárodná	AAfs1x
mnohonárodný	mnohonárodnej	AAfs2x
mnohonárodný	mnohonárodnej	AAfs3x
mnohonárodný	mnohonárodnú	AAfs4x
mnohonárodný	mnohonárodná	AAfs5x
mnohonárodný	mnohonárodnej	AAfs6x
mnohonárodný	mnohonárodnou	AAfs7x
mnohonárodný	mnohonárodné	AAfp1x
mnohonárodný	mnohonárodných	AAfp2x
mnohonárodný	mnohonárodným	AAfp3x
mnohonárodný	mnohonárodné	AAfp4x
mnohonárodný	mnohonárodné	AAfp5x
mnohonárodný	mnohonárodných	AAfp6x
mnohonárodný	mnohonárodnými	AAfp7x
mnohonárodný	mnohonárodné	AAns1x
mnohonárodný	mnohonárodného	AAns2x
mnohonárodný	mnohonárodnému	AAns3x
mnohonárodný	mnohonárodné	AAns4x
mnohonárodný	mnohonárodné	AAns5x
mnohonárodný	mnohonárodnom	AAns6x
mnohonárodný	mnohonárodným	AAns7x
mnohonárodný	mnohonárodné	AAnp1x
mnohonárodný	mnohonárodných	AAnp2x
mnohonárodný	mnohonárodným	AAnp3x
mnohonárodný	mnohonárodné	AAnp4x
mnohonárodný	mnohonárodné	AAnp5x
mnohonárodný	mnohonárodných	AAnp6x
mnohonárodný	mnohonárodnými	AAnp7x
mnohonásobne	mnohonásobne	ND
mnohonásobný	mnohonásobné	NAfp1
mnohonásobný	mnohonásobných	NAfp2
mnohonásobný	mnohonásobným	NAfp3
mnohonásobný	mnohonásobné	NAfp4
mnohonásobný	mnohonásobné	NAfp5
mnohonásobný	mnohonásobných	NAfp6
mnohonásobný	mnohonásobnými	NAfp7
mnohonásobný	mnohonásobná	NAfs1
mnohonásobný	mnohonásobnej	NAfs2
mnohonásobný	mnohonásobnej	NAfs3
mnohonásobný	mnohonásobnú	NAfs4
mnohonásobný	mnohonásobná	NAfs5
mnohonásobný	mnohonásobnej	NAfs6
mnohonásobný	mnohonásobnou	NAfs7
mnohonásobný	mnohonásobné	NAip1
mnohonásobný	mnohonásobných	NAip2
mnohonásobný	mnohonásobným	NAip3
mnohonásobný	mnohonásobné	NAip4
mnohonásobný	mnohonásobné	NAip5
mnohonásobný	mnohonásobných	NAip6
mnohonásobný	mnohonásobnými	NAip7
mnohonásobný	mnohonásobný	NAis1
mnohonásobný	mnohonásobného	NAis2
mnohonásobný	mnohonásobnému	NAis3
mnohonásobný	mnohonásobný	NAis4
mnohonásobný	mnohonásobný	NAis5
mnohonásobný	mnohonásobnom	NAis6
mnohonásobný	mnohonásobným	NAis7
mnohonásobný	mnohonásobní	NAmp1
mnohonásobný	mnohonásobných	NAmp2
mnohonásobný	mnohonásobným	NAmp3
mnohonásobný	mnohonásobných	NAmp4
mnohonásobný	mnohonásobní	NAmp5
mnohonásobný	mnohonásobných	NAmp6
mnohonásobný	mnohonásobnými	NAmp7
mnohonásobný	mnohonásobný	NAms1
mnohonásobný	mnohonásobného	NAms2
mnohonásobný	mnohonásobnému	NAms3
mnohonásobný	mnohonásobného	NAms4
mnohonásobný	mnohonásobný	NAms5
mnohonásobný	mnohonásobnom	NAms6
mnohonásobný	mnohonásobným	NAms7
mnohonásobný	mnohonásobné	NAnp1
mnohonásobný	mnohonásobných	NAnp2
mnohonásobný	mnohonásobným	NAnp3
mnohonásobný	mnohonásobné	NAnp4
mnohonásobný	mnohonásobné	NAnp5
mnohonásobný	mnohonásobných	NAnp6
mnohonásobný	mnohonásobnými	NAnp7
mnohonásobný	mnohonásobné	NAns1
mnohonásobný	mnohonásobného	NAns2
mnohonásobný	mnohonásobnému	NAns3
mnohonásobný	mnohonásobné	NAns4
mnohonásobný	mnohonásobné	NAns5
mnohonásobný	mnohonásobnom	NAns6
mnohonásobný	mnohonásobným	NAns7
mnohorako	mnohorako	ND
mnohorakosť	mnohorakosť	SSfs1
mnohorakosť	mnohorakosti	SSfs2
mnohorakosť	mnohorakosti	SSfs3
mnohorakosť	mnohorakosť	SSfs4
mnohorakosť	mnohorakosť	SSfs5
mnohorakosť	mnohorakosti	SSfs6
mnohorakosť	mnohorakosťou	SSfs7
mnohorakosť	mnohorakosti	SSfp1
mnohorakosť	mnohorakostí	SSfp2
mnohorakosť	mnohorakostiam	SSfp3
mnohorakosť	mnohorakosti	SSfp4
mnohorakosť	mnohorakosti	SSfp5
mnohorakosť	mnohorakostiach	SSfp6
mnohorakosť	mnohorakosťami	SSfp7
mnohoraký	mnohoraké	NAfp1
mnohoraký	mnohorakých	NAfp2
mnohoraký	mnohorakým	NAfp3
mnohoraký	mnohoraké	NAfp4
mnohoraký	mnohoraké	NAfp5
mnohoraký	mnohorakých	NAfp6
mnohoraký	mnohorakými	NAfp7
mnohoraký	mnohoraká	NAfs1
mnohoraký	mnohorakej	NAfs2
mnohoraký	mnohorakej	NAfs3
mnohoraký	mnohorakú	NAfs4
mnohoraký	mnohoraká	NAfs5
mnohoraký	mnohorakej	NAfs6
mnohoraký	mnohorakou	NAfs7
mnohoraký	mnohoraké	NAip1
mnohoraký	mnohorakých	NAip2
mnohoraký	mnohorakým	NAip3
mnohoraký	mnohoraké	NAip4
mnohoraký	mnohoraké	NAip5
mnohoraký	mnohorakých	NAip6
mnohoraký	mnohorakými	NAip7
mnohoraký	mnohoraký	NAis1
mnohoraký	mnohorakého	NAis2
mnohoraký	mnohorakému	NAis3
mnohoraký	mnohoraký	NAis4
mnohoraký	mnohoraký	NAis5
mnohoraký	mnohorakom	NAis6
mnohoraký	mnohorakým	NAis7
mnohoraký	mnohorakí	NAmp1
mnohoraký	mnohorakých	NAmp2
mnohoraký	mnohorakým	NAmp3
mnohoraký	mnohorakých	NAmp4
mnohoraký	mnohorakí	NAmp5
mnohoraký	mnohorakých	NAmp6
mnohoraký	mnohorakými	NAmp7
mnohoraký	mnohoraký	NAms1
mnohoraký	mnohorakého	NAms2
mnohoraký	mnohorakému	NAms3
mnohoraký	mnohorakého	NAms4
mnohoraký	mnohoraký	NAms5
mnohoraký	mnohorakom	NAms6
mnohoraký	mnohorakým	NAms7
mnohoraký	mnohoraké	NAnp1
mnohoraký	mnohorakých	NAnp2
mnohoraký	mnohorakým	NAnp3
mnohoraký	mnohoraké	NAnp4
mnohoraký	mnohoraké	NAnp5
mnohoraký	mnohorakých	NAnp6
mnohoraký	mnohorakými	NAnp7
mnohoraký	mnohoraké	NAns1
mnohoraký	mnohorakého	NAns2
mnohoraký	mnohorakému	NAns3
mnohoraký	mnohoraké	NAns4
mnohoraký	mnohoraké	NAns5
mnohoraký	mnohorakom	NAns6
mnohoraký	mnohorakým	NAns7
mnohorozmernosť	mnohorozmernosť	SSfs1
mnohorozmernosť	mnohorozmernosti	SSfs2
mnohorozmernosť	mnohorozmernosti	SSfs3
mnohorozmernosť	mnohorozmernosť	SSfs4
mnohorozmernosť	mnohorozmernosť	SSfs5
mnohorozmernosť	mnohorozmernosti	SSfs6
mnohorozmernosť	mnohorozmernosťou	SSfs7
mnohorozmernosť	mnohorozmernosti	SSfp1
mnohorozmernosť	mnohorozmerností	SSfp2
mnohorozmernosť	mnohorozmernostiam	SSfp3
mnohorozmernosť	mnohorozmernosti	SSfp4
mnohorozmernosť	mnohorozmernosti	SSfp5
mnohorozmernosť	mnohorozmernostiach	SSfp6
mnohorozmernosť	mnohorozmernosťami	SSfp7
mnohorozmerný	mnohorozmerný	AAms1x
mnohorozmerný	mnohorozmerného	AAms2x
mnohorozmerný	mnohorozmernému	AAms3x
mnohorozmerný	mnohorozmerného	AAms4x
mnohorozmerný	mnohorozmerný	AAms5x
mnohorozmerný	mnohorozmernom	AAms6x
mnohorozmerný	mnohorozmerným	AAms7x
mnohorozmerný	mnohorozmerní	AAmp1x
mnohorozmerný	mnohorozmerných	AAmp2x
mnohorozmerný	mnohorozmerným	AAmp3x
mnohorozmerný	mnohorozmerných	AAmp4x
mnohorozmerný	mnohorozmerní	AAmp5x
mnohorozmerný	mnohorozmerných	AAmp6x
mnohorozmerný	mnohorozmernými	AAmp7x
mnohorozmerný	mnohorozmerný	AAis1x
mnohorozmerný	mnohorozmerného	AAis2x
mnohorozmerný	mnohorozmernému	AAis3x
mnohorozmerný	mnohorozmerný	AAis4x
mnohorozmerný	mnohorozmerný	AAis5x
mnohorozmerný	mnohorozmernom	AAis6x
mnohorozmerný	mnohorozmerným	AAis7x
mnohorozmerný	mnohorozmerné	AAip1x
mnohorozmerný	mnohorozmerných	AAip2x
mnohorozmerný	mnohorozmerným	AAip3x
mnohorozmerný	mnohorozmerné	AAip4x
mnohorozmerný	mnohorozmerné	AAip5x
mnohorozmerný	mnohorozmerných	AAip6x
mnohorozmerný	mnohorozmernými	AAip7x
mnohorozmerný	mnohorozmerná	AAfs1x
mnohorozmerný	mnohorozmernej	AAfs2x
mnohorozmerný	mnohorozmernej	AAfs3x
mnohorozmerný	mnohorozmernú	AAfs4x
mnohorozmerný	mnohorozmerná	AAfs5x
mnohorozmerný	mnohorozmernej	AAfs6x
mnohorozmerný	mnohorozmernou	AAfs7x
mnohorozmerný	mnohorozmerné	AAfp1x
mnohorozmerný	mnohorozmerných	AAfp2x
mnohorozmerný	mnohorozmerným	AAfp3x
mnohorozmerný	mnohorozmerné	AAfp4x
mnohorozmerný	mnohorozmerné	AAfp5x
mnohorozmerný	mnohorozmerných	AAfp6x
mnohorozmerný	mnohorozmernými	AAfp7x
mnohorozmerný	mnohorozmerné	AAns1x
mnohorozmerný	mnohorozmerného	AAns2x
mnohorozmerný	mnohorozmernému	AAns3x
mnohorozmerný	mnohorozmerné	AAns4x
mnohorozmerný	mnohorozmerné	AAns5x
mnohorozmerný	mnohorozmernom	AAns6x
mnohorozmerný	mnohorozmerným	AAns7x
mnohorozmerný	mnohorozmerné	AAnp1x
mnohorozmerný	mnohorozmerných	AAnp2x
mnohorozmerný	mnohorozmerným	AAnp3x
mnohorozmerný	mnohorozmerné	AAnp4x
mnohorozmerný	mnohorozmerné	AAnp5x
mnohorozmerný	mnohorozmerných	AAnp6x
mnohorozmerný	mnohorozmernými	AAnp7x
mnohoročný	mnohoročný	AAms1x
mnohoročný	mnohoročného	AAms2x
mnohoročný	mnohoročnému	AAms3x
mnohoročný	mnohoročného	AAms4x
mnohoročný	mnohoročný	AAms5x
mnohoročný	mnohoročnom	AAms6x
mnohoročný	mnohoročným	AAms7x
mnohoročný	mnohoroční	AAmp1x
mnohoročný	mnohoročných	AAmp2x
mnohoročný	mnohoročným	AAmp3x
mnohoročný	mnohoročných	AAmp4x
mnohoročný	mnohoroční	AAmp5x
mnohoročný	mnohoročných	AAmp6x
mnohoročný	mnohoročnými	AAmp7x
mnohoročný	mnohoročný	AAis1x
mnohoročný	mnohoročného	AAis2x
mnohoročný	mnohoročnému	AAis3x
mnohoročný	mnohoročný	AAis4x
mnohoročný	mnohoročný	AAis5x
mnohoročný	mnohoročnom	AAis6x
mnohoročný	mnohoročným	AAis7x
mnohoročný	mnohoročné	AAip1x
mnohoročný	mnohoročných	AAip2x
mnohoročný	mnohoročným	AAip3x
mnohoročný	mnohoročné	AAip4x
mnohoročný	mnohoročné	AAip5x
mnohoročný	mnohoročných	AAip6x
mnohoročný	mnohoročnými	AAip7x
mnohoročný	mnohoročná	AAfs1x
mnohoročný	mnohoročnej	AAfs2x
mnohoročný	mnohoročnej	AAfs3x
mnohoročný	mnohoročnú	AAfs4x
mnohoročný	mnohoročná	AAfs5x
mnohoročný	mnohoročnej	AAfs6x
mnohoročný	mnohoročnou	AAfs7x
mnohoročný	mnohoročné	AAfp1x
mnohoročný	mnohoročných	AAfp2x
mnohoročný	mnohoročným	AAfp3x
mnohoročný	mnohoročné	AAfp4x
mnohoročný	mnohoročné	AAfp5x
mnohoročný	mnohoročných	AAfp6x
mnohoročný	mnohoročnými	AAfp7x
mnohoročný	mnohoročné	AAns1x
mnohoročný	mnohoročného	AAns2x
mnohoročný	mnohoročnému	AAns3x
mnohoročný	mnohoročné	AAns4x
mnohoročný	mnohoročné	AAns5x
mnohoročný	mnohoročnom	AAns6x
mnohoročný	mnohoročným	AAns7x
mnohoročný	mnohoročné	AAnp1x
mnohoročný	mnohoročných	AAnp2x
mnohoročný	mnohoročným	AAnp3x
mnohoročný	mnohoročné	AAnp4x
mnohoročný	mnohoročné	AAnp5x
mnohoročný	mnohoročných	AAnp6x
mnohoročný	mnohoročnými	AAnp7x
mnohosten	mnohosten	SSis1
mnohosten	mnohostena	SSis2
mnohosten	mnohostenu	SSis3
mnohosten	mnohosten	SSis4
mnohosten	mnohosten	SSis5
mnohosten	mnohostene	SSis6
mnohosten	mnohostenom	SSis7
mnohosten	mnohosteny	SSip1
mnohosten	mnohostenov	SSip2
mnohosten	mnohostenom	SSip3
mnohosten	mnohosteny	SSip4
mnohosten	mnohosteny	SSip5
mnohosten	mnohostenoch	SSip6
mnohosten	mnohostenmi	SSip7
mnohostranne	mnohostranne	Dx
mnohostranne	mnohostrannejšie	Dy
mnohostranne	najmnohostrannejšie	Dz
mnohostrannosť	mnohostrannosť	SSfs1
mnohostrannosť	mnohostrannosti	SSfs2
mnohostrannosť	mnohostrannosti	SSfs3
mnohostrannosť	mnohostrannosť	SSfs4
mnohostrannosť	mnohostrannosť	SSfs5
mnohostrannosť	mnohostrannosti	SSfs6
mnohostrannosť	mnohostrannosťou	SSfs7
mnohostrannosť	mnohostrannosti	SSfp1
mnohostrannosť	mnohostranností	SSfp2
mnohostrannosť	mnohostrannostiam	SSfp3
mnohostrannosť	mnohostrannosti	SSfp4
mnohostrannosť	mnohostrannosti	SSfp5
mnohostrannosť	mnohostrannostiach	SSfp6
mnohostrannosť	mnohostrannosťami	SSfp7
mnohostranný	mnohostranný	AAms1x
mnohostranný	mnohostranného	AAms2x
mnohostranný	mnohostrannému	AAms3x
mnohostranný	mnohostranného	AAms4x
mnohostranný	mnohostranný	AAms5x
mnohostranný	mnohostrannom	AAms6x
mnohostranný	mnohostranným	AAms7x
mnohostranný	mnohostranní	AAmp1x
mnohostranný	mnohostranných	AAmp2x
mnohostranný	mnohostranným	AAmp3x
mnohostranný	mnohostranných	AAmp4x
mnohostranný	mnohostranní	AAmp5x
mnohostranný	mnohostranných	AAmp6x
mnohostranný	mnohostrannými	AAmp7x
mnohostranný	mnohostranný	AAis1x
mnohostranný	mnohostranného	AAis2x
mnohostranný	mnohostrannému	AAis3x
mnohostranný	mnohostranný	AAis4x
mnohostranný	mnohostranný	AAis5x
mnohostranný	mnohostrannom	AAis6x
mnohostranný	mnohostranným	AAis7x
mnohostranný	mnohostranné	AAip1x
mnohostranný	mnohostranných	AAip2x
mnohostranný	mnohostranným	AAip3x
mnohostranný	mnohostranné	AAip4x
mnohostranný	mnohostranné	AAip5x
mnohostranný	mnohostranných	AAip6x
mnohostranný	mnohostrannými	AAip7x
mnohostranný	mnohostranná	AAfs1x
mnohostranný	mnohostrannej	AAfs2x
mnohostranný	mnohostrannej	AAfs3x
mnohostranný	mnohostrannú	AAfs4x
mnohostranný	mnohostranná	AAfs5x
mnohostranný	mnohostrannej	AAfs6x
mnohostranný	mnohostrannou	AAfs7x
mnohostranný	mnohostranné	AAfp1x
mnohostranný	mnohostranných	AAfp2x
mnohostranný	mnohostranným	AAfp3x
mnohostranný	mnohostranné	AAfp4x
mnohostranný	mnohostranné	AAfp5x
mnohostranný	mnohostranných	AAfp6x
mnohostranný	mnohostrannými	AAfp7x
mnohostranný	mnohostranné	AAns1x
mnohostranný	mnohostranného	AAns2x
mnohostranný	mnohostrannému	AAns3x
mnohostranný	mnohostranné	AAns4x
mnohostranný	mnohostranné	AAns5x
mnohostranný	mnohostrannom	AAns6x
mnohostranný	mnohostranným	AAns7x
mnohostranný	mnohostranné	AAnp1x
mnohostranný	mnohostranných	AAnp2x
mnohostranný	mnohostranným	AAnp3x
mnohostranný	mnohostranné	AAnp4x
mnohostranný	mnohostranné	AAnp5x
mnohostranný	mnohostranných	AAnp6x
mnohostranný	mnohostrannými	AAnp7x
mnohosť	mnohosť	SSfs1
mnohosť	mnohosti	SSfs2
mnohosť	mnohosti	SSfs3
mnohosť	mnohosť	SSfs4
mnohosť	mnohosť	SSfs5
mnohosť	mnohosti	SSfs6
mnohosť	mnohosťou	SSfs7
mnohosť	mnohosti	SSfp1
mnohosť	mnohostí	SSfp2
mnohosť	mnohostiam	SSfp3
mnohosť	mnohosti	SSfp4
mnohosť	mnohosti	SSfp5
mnohosť	mnohostiach	SSfp6
mnohosť	mnohosťami	SSfp7
mnohotvárne	mnohotvárne	Dx
mnohotvárne	mnohotvárnejšie	Dy
mnohotvárne	najmnohotvárnejšie	Dz
mnohotvárnosť	mnohotvárnosť	SSfs1
mnohotvárnosť	mnohotvárnosti	SSfs2
mnohotvárnosť	mnohotvárnosti	SSfs3
mnohotvárnosť	mnohotvárnosť	SSfs4
mnohotvárnosť	mnohotvárnosť	SSfs5
mnohotvárnosť	mnohotvárnosti	SSfs6
mnohotvárnosť	mnohotvárnosťou	SSfs7
mnohotvárnosť	mnohotvárnosti	SSfp1
mnohotvárnosť	mnohotvárností	SSfp2
mnohotvárnosť	mnohotvárnostiam	SSfp3
mnohotvárnosť	mnohotvárnosti	SSfp4
mnohotvárnosť	mnohotvárnosti	SSfp5
mnohotvárnosť	mnohotvárnostiach	SSfp6
mnohotvárnosť	mnohotvárnosťami	SSfp7
mnohotvárny	mnohotvárny	AAms1x
mnohotvárny	mnohotvárneho	AAms2x
mnohotvárny	mnohotvárnemu	AAms3x
mnohotvárny	mnohotvárneho	AAms4x
mnohotvárny	mnohotvárny	AAms5x
mnohotvárny	mnohotvárnom	AAms6x
mnohotvárny	mnohotvárnym	AAms7x
mnohotvárny	mnohotvárni	AAmp1x
mnohotvárny	mnohotvárnych	AAmp2x
mnohotvárny	mnohotvárnym	AAmp3x
mnohotvárny	mnohotvárnych	AAmp4x
mnohotvárny	mnohotvárni	AAmp5x
mnohotvárny	mnohotvárnych	AAmp6x
mnohotvárny	mnohotvárnymi	AAmp7x
mnohotvárny	mnohotvárny	AAis1x
mnohotvárny	mnohotvárneho	AAis2x
mnohotvárny	mnohotvárnemu	AAis3x
mnohotvárny	mnohotvárny	AAis4x
mnohotvárny	mnohotvárny	AAis5x
mnohotvárny	mnohotvárnom	AAis6x
mnohotvárny	mnohotvárnym	AAis7x
mnohotvárny	mnohotvárne	AAip1x
mnohotvárny	mnohotvárnych	AAip2x
mnohotvárny	mnohotvárnym	AAip3x
mnohotvárny	mnohotvárne	AAip4x
mnohotvárny	mnohotvárne	AAip5x
mnohotvárny	mnohotvárnych	AAip6x
mnohotvárny	mnohotvárnymi	AAip7x
mnohotvárny	mnohotvárna	AAfs1x
mnohotvárny	mnohotvárnej	AAfs2x
mnohotvárny	mnohotvárnej	AAfs3x
mnohotvárny	mnohotvárnu	AAfs4x
mnohotvárny	mnohotvárna	AAfs5x
mnohotvárny	mnohotvárnej	AAfs6x
mnohotvárny	mnohotvárnou	AAfs7x
mnohotvárny	mnohotvárne	AAfp1x
mnohotvárny	mnohotvárnych	AAfp2x
mnohotvárny	mnohotvárnym	AAfp3x
mnohotvárny	mnohotvárne	AAfp4x
mnohotvárny	mnohotvárne	AAfp5x
mnohotvárny	mnohotvárnych	AAfp6x
mnohotvárny	mnohotvárnymi	AAfp7x
mnohotvárny	mnohotvárne	AAns1x
mnohotvárny	mnohotvárneho	AAns2x
mnohotvárny	mnohotvárnemu	AAns3x
mnohotvárny	mnohotvárne	AAns4x
mnohotvárny	mnohotvárne	AAns5x
mnohotvárny	mnohotvárnom	AAns6x
mnohotvárny	mnohotvárnym	AAns7x
mnohotvárny	mnohotvárne	AAnp1x
mnohotvárny	mnohotvárnych	AAnp2x
mnohotvárny	mnohotvárnym	AAnp3x
mnohotvárny	mnohotvárne	AAnp4x
mnohotvárny	mnohotvárne	AAnp5x
mnohotvárny	mnohotvárnych	AAnp6x
mnohotvárny	mnohotvárnymi	AAnp7x
mnohotvárny	mnohotvárnejší	AAms1y
mnohotvárny	mnohotvárnejšieho	AAms2y
mnohotvárny	mnohotvárnejšiemu	AAms3y
mnohotvárny	mnohotvárnejšieho	AAms4y
mnohotvárny	mnohotvárnejší	AAms5y
mnohotvárny	mnohotvárnejšom	AAms6y
mnohotvárny	mnohotvárnejším	AAms7y
mnohotvárny	mnohotvárnejší	AAmp1y
mnohotvárny	mnohotvárnejších	AAmp2y
mnohotvárny	mnohotvárnejším	AAmp3y
mnohotvárny	mnohotvárnejších	AAmp4y
mnohotvárny	mnohotvárnejší	AAmp5y
mnohotvárny	mnohotvárnejších	AAmp6y
mnohotvárny	mnohotvárnejšími	AAmp7y
mnohotvárny	mnohotvárnejší	AAis1y
mnohotvárny	mnohotvárnejšieho	AAis2y
mnohotvárny	mnohotvárnejšiemu	AAis3y
mnohotvárny	mnohotvárnejší	AAis4y
mnohotvárny	mnohotvárnejší	AAis5y
mnohotvárny	mnohotvárnejšom	AAis6y
mnohotvárny	mnohotvárnejším	AAis7y
mnohotvárny	mnohotvárnejšie	AAip1y
mnohotvárny	mnohotvárnejších	AAip2y
mnohotvárny	mnohotvárnejším	AAip3y
mnohotvárny	mnohotvárnejšie	AAip4y
mnohotvárny	mnohotvárnejšie	AAip5y
mnohotvárny	mnohotvárnejších	AAip6y
mnohotvárny	mnohotvárnejšími	AAip7y
mnohotvárny	mnohotvárnejšia	AAfs1y
mnohotvárny	mnohotvárnejšej	AAfs2y
mnohotvárny	mnohotvárnejšej	AAfs3y
mnohotvárny	mnohotvárnejšiu	AAfs4y
mnohotvárny	mnohotvárnejšia	AAfs5y
mnohotvárny	mnohotvárnejšej	AAfs6y
mnohotvárny	mnohotvárnejšou	AAfs7y
mnohotvárny	mnohotvárnejšie	AAfp1y
mnohotvárny	mnohotvárnejších	AAfp2y
mnohotvárny	mnohotvárnejším	AAfp3y
mnohotvárny	mnohotvárnejšie	AAfp4y
mnohotvárny	mnohotvárnejšie	AAfp5y
mnohotvárny	mnohotvárnejších	AAfp6y
mnohotvárny	mnohotvárnejšími	AAfp7y
mnohotvárny	mnohotvárnejšie	AAns1y
mnohotvárny	mnohotvárnejšieho	AAns2y
mnohotvárny	mnohotvárnejšiemu	AAns3y
mnohotvárny	mnohotvárnejšie	AAns4y
mnohotvárny	mnohotvárnejšie	AAns5y
mnohotvárny	mnohotvárnejšom	AAns6y
mnohotvárny	mnohotvárnejším	AAns7y
mnohotvárny	mnohotvárnejšie	AAnp1y
mnohotvárny	mnohotvárnejších	AAnp2y
mnohotvárny	mnohotvárnejším	AAnp3y
mnohotvárny	mnohotvárnejšie	AAnp4y
mnohotvárny	mnohotvárnejšie	AAnp5y
mnohotvárny	mnohotvárnejších	AAnp6y
mnohotvárny	mnohotvárnejšími	AAnp7y
mnohotvárny	najmnohotvárnejší	AAms1z
mnohotvárny	najmnohotvárnejšieho	AAms2z
mnohotvárny	najmnohotvárnejšiemu	AAms3z
mnohotvárny	najmnohotvárnejšieho	AAms4z
mnohotvárny	najmnohotvárnejší	AAms5z
mnohotvárny	najmnohotvárnejšom	AAms6z
mnohotvárny	najmnohotvárnejším	AAms7z
mnohotvárny	najmnohotvárnejší	AAmp1z
mnohotvárny	najmnohotvárnejších	AAmp2z
mnohotvárny	najmnohotvárnejším	AAmp3z
mnohotvárny	najmnohotvárnejších	AAmp4z
mnohotvárny	najmnohotvárnejší	AAmp5z
mnohotvárny	najmnohotvárnejších	AAmp6z
mnohotvárny	najmnohotvárnejšími	AAmp7z
mnohotvárny	najmnohotvárnejší	AAis1z
mnohotvárny	najmnohotvárnejšieho	AAis2z
mnohotvárny	najmnohotvárnejšiemu	AAis3z
mnohotvárny	najmnohotvárnejší	AAis4z
mnohotvárny	najmnohotvárnejší	AAis5z
mnohotvárny	najmnohotvárnejšom	AAis6z
mnohotvárny	najmnohotvárnejším	AAis7z
mnohotvárny	najmnohotvárnejšie	AAip1z
mnohotvárny	najmnohotvárnejších	AAip2z
mnohotvárny	najmnohotvárnejším	AAip3z
mnohotvárny	najmnohotvárnejšie	AAip4z
mnohotvárny	najmnohotvárnejšie	AAip5z
mnohotvárny	najmnohotvárnejších	AAip6z
mnohotvárny	najmnohotvárnejšími	AAip7z
mnohotvárny	najmnohotvárnejšia	AAfs1z
mnohotvárny	najmnohotvárnejšej	AAfs2z
mnohotvárny	najmnohotvárnejšej	AAfs3z
mnohotvárny	najmnohotvárnejšiu	AAfs4z
mnohotvárny	najmnohotvárnejšia	AAfs5z
mnohotvárny	najmnohotvárnejšej	AAfs6z
mnohotvárny	najmnohotvárnejšou	AAfs7z
mnohotvárny	najmnohotvárnejšie	AAfp1z
mnohotvárny	najmnohotvárnejších	AAfp2z
mnohotvárny	najmnohotvárnejším	AAfp3z
mnohotvárny	najmnohotvárnejšie	AAfp4z
mnohotvárny	najmnohotvárnejšie	AAfp5z
mnohotvárny	najmnohotvárnejších	AAfp6z
mnohotvárny	najmnohotvárnejšími	AAfp7z
mnohotvárny	najmnohotvárnejšie	AAns1z
mnohotvárny	najmnohotvárnejšieho	AAns2z
mnohotvárny	najmnohotvárnejšiemu	AAns3z
mnohotvárny	najmnohotvárnejšie	AAns4z
mnohotvárny	najmnohotvárnejšie	AAns5z
mnohotvárny	najmnohotvárnejšom	AAns6z
mnohotvárny	najmnohotvárnejším	AAns7z
mnohotvárny	najmnohotvárnejšie	AAnp1z
mnohotvárny	najmnohotvárnejších	AAnp2z
mnohotvárny	najmnohotvárnejším	AAnp3z
mnohotvárny	najmnohotvárnejšie	AAnp4z
mnohotvárny	najmnohotvárnejšie	AAnp5z
mnohotvárny	najmnohotvárnejších	AAnp6z
mnohotvárny	najmnohotvárnejšími	AAnp7z
mnohouholník	mnohouholník	SSis1
mnohouholník	mnohouholníka	SSis2
mnohouholník	mnohouholníku	SSis3
mnohouholník	mnohouholník	SSis4
mnohouholník	mnohouholník	SSis5
mnohouholník	mnohouholníku	SSis6
mnohouholník	mnohouholníkom	SSis7
mnohouholník	mnohouholníky	SSip1
mnohouholník	mnohouholníkov	SSip2
mnohouholník	mnohouholníkom	SSip3
mnohouholník	mnohouholníky	SSip4
mnohouholník	mnohouholníky	SSip5
mnohouholník	mnohouholníkoch	SSip6
mnohouholník	mnohouholníkmi	SSip7
mnohovravne	mnohovravne	Dx
mnohovravne	mnohovravnejšie	Dy
mnohovravne	najmnohovravnejšie	Dz
mnohovravnosť	mnohovravnosť	SSfs1
mnohovravnosť	mnohovravnosti	SSfs2
mnohovravnosť	mnohovravnosti	SSfs3
mnohovravnosť	mnohovravnosť	SSfs4
mnohovravnosť	mnohovravnosť	SSfs5
mnohovravnosť	mnohovravnosti	SSfs6
mnohovravnosť	mnohovravnosťou	SSfs7
mnohovravnosť	mnohovravnosti	SSfp1
mnohovravnosť	mnohovravností	SSfp2
mnohovravnosť	mnohovravnostiam	SSfp3
mnohovravnosť	mnohovravnosti	SSfp4
mnohovravnosť	mnohovravnosti	SSfp5
mnohovravnosť	mnohovravnostiach	SSfp6
mnohovravnosť	mnohovravnosťami	SSfp7
mnohovravný	mnohovravný	AAms1x
mnohovravný	mnohovravného	AAms2x
mnohovravný	mnohovravnému	AAms3x
mnohovravný	mnohovravného	AAms4x
mnohovravný	mnohovravný	AAms5x
mnohovravný	mnohovravnom	AAms6x
mnohovravný	mnohovravným	AAms7x
mnohovravný	mnohovravní	AAmp1x
mnohovravný	mnohovravných	AAmp2x
mnohovravný	mnohovravným	AAmp3x
mnohovravný	mnohovravných	AAmp4x
mnohovravný	mnohovravní	AAmp5x
mnohovravný	mnohovravných	AAmp6x
mnohovravný	mnohovravnými	AAmp7x
mnohovravný	mnohovravný	AAis1x
mnohovravný	mnohovravného	AAis2x
mnohovravný	mnohovravnému	AAis3x
mnohovravný	mnohovravný	AAis4x
mnohovravný	mnohovravný	AAis5x
mnohovravný	mnohovravnom	AAis6x
mnohovravný	mnohovravným	AAis7x
mnohovravný	mnohovravné	AAip1x
mnohovravný	mnohovravných	AAip2x
mnohovravný	mnohovravným	AAip3x
mnohovravný	mnohovravné	AAip4x
mnohovravný	mnohovravné	AAip5x
mnohovravný	mnohovravných	AAip6x
mnohovravný	mnohovravnými	AAip7x
mnohovravný	mnohovravná	AAfs1x
mnohovravný	mnohovravnej	AAfs2x
mnohovravný	mnohovravnej	AAfs3x
mnohovravný	mnohovravnú	AAfs4x
mnohovravný	mnohovravná	AAfs5x
mnohovravný	mnohovravnej	AAfs6x
mnohovravný	mnohovravnou	AAfs7x
mnohovravný	mnohovravné	AAfp1x
mnohovravný	mnohovravných	AAfp2x
mnohovravný	mnohovravným	AAfp3x
mnohovravný	mnohovravné	AAfp4x
mnohovravný	mnohovravné	AAfp5x
mnohovravný	mnohovravných	AAfp6x
mnohovravný	mnohovravnými	AAfp7x
mnohovravný	mnohovravné	AAns1x
mnohovravný	mnohovravného	AAns2x
mnohovravný	mnohovravnému	AAns3x
mnohovravný	mnohovravné	AAns4x
mnohovravný	mnohovravné	AAns5x
mnohovravný	mnohovravnom	AAns6x
mnohovravný	mnohovravným	AAns7x
mnohovravný	mnohovravné	AAnp1x
mnohovravný	mnohovravných	AAnp2x
mnohovravný	mnohovravným	AAnp3x
mnohovravný	mnohovravné	AAnp4x
mnohovravný	mnohovravné	AAnp5x
mnohovravný	mnohovravných	AAnp6x
mnohovravný	mnohovravnými	AAnp7x
mnohovravný	mnohovravnejší	AAms1y
mnohovravný	mnohovravnejšieho	AAms2y
mnohovravný	mnohovravnejšiemu	AAms3y
mnohovravný	mnohovravnejšieho	AAms4y
mnohovravný	mnohovravnejší	AAms5y
mnohovravný	mnohovravnejšom	AAms6y
mnohovravný	mnohovravnejším	AAms7y
mnohovravný	mnohovravnejší	AAmp1y
mnohovravný	mnohovravnejších	AAmp2y
mnohovravný	mnohovravnejším	AAmp3y
mnohovravný	mnohovravnejších	AAmp4y
mnohovravný	mnohovravnejší	AAmp5y
mnohovravný	mnohovravnejších	AAmp6y
mnohovravný	mnohovravnejšími	AAmp7y
mnohovravný	mnohovravnejší	AAis1y
mnohovravný	mnohovravnejšieho	AAis2y
mnohovravný	mnohovravnejšiemu	AAis3y
mnohovravný	mnohovravnejší	AAis4y
mnohovravný	mnohovravnejší	AAis5y
mnohovravný	mnohovravnejšom	AAis6y
mnohovravný	mnohovravnejším	AAis7y
mnohovravný	mnohovravnejšie	AAip1y
mnohovravný	mnohovravnejších	AAip2y
mnohovravný	mnohovravnejším	AAip3y
mnohovravný	mnohovravnejšie	AAip4y
mnohovravný	mnohovravnejšie	AAip5y
mnohovravný	mnohovravnejších	AAip6y
mnohovravný	mnohovravnejšími	AAip7y
mnohovravný	mnohovravnejšia	AAfs1y
mnohovravný	mnohovravnejšej	AAfs2y
mnohovravný	mnohovravnejšej	AAfs3y
mnohovravný	mnohovravnejšiu	AAfs4y
mnohovravný	mnohovravnejšia	AAfs5y
mnohovravný	mnohovravnejšej	AAfs6y
mnohovravný	mnohovravnejšou	AAfs7y
mnohovravný	mnohovravnejšie	AAfp1y
mnohovravný	mnohovravnejších	AAfp2y
mnohovravný	mnohovravnejším	AAfp3y
mnohovravný	mnohovravnejšie	AAfp4y
mnohovravný	mnohovravnejšie	AAfp5y
mnohovravný	mnohovravnejších	AAfp6y
mnohovravný	mnohovravnejšími	AAfp7y
mnohovravný	mnohovravnejšie	AAns1y
mnohovravný	mnohovravnejšieho	AAns2y
mnohovravný	mnohovravnejšiemu	AAns3y
mnohovravný	mnohovravnejšie	AAns4y
mnohovravný	mnohovravnejšie	AAns5y
mnohovravný	mnohovravnejšom	AAns6y
mnohovravný	mnohovravnejším	AAns7y
mnohovravný	mnohovravnejšie	AAnp1y
mnohovravný	mnohovravnejších	AAnp2y
mnohovravný	mnohovravnejším	AAnp3y
mnohovravný	mnohovravnejšie	AAnp4y
mnohovravný	mnohovravnejšie	AAnp5y
mnohovravný	mnohovravnejších	AAnp6y
mnohovravný	mnohovravnejšími	AAnp7y
mnohovravný	najmnohovravnejší	AAms1z
mnohovravný	najmnohovravnejšieho	AAms2z
mnohovravný	najmnohovravnejšiemu	AAms3z
mnohovravný	najmnohovravnejšieho	AAms4z
mnohovravný	najmnohovravnejší	AAms5z
mnohovravný	najmnohovravnejšom	AAms6z
mnohovravný	najmnohovravnejším	AAms7z
mnohovravný	najmnohovravnejší	AAmp1z
mnohovravný	najmnohovravnejších	AAmp2z
mnohovravný	najmnohovravnejším	AAmp3z
mnohovravný	najmnohovravnejších	AAmp4z
mnohovravný	najmnohovravnejší	AAmp5z
mnohovravný	najmnohovravnejších	AAmp6z
mnohovravný	najmnohovravnejšími	AAmp7z
mnohovravný	najmnohovravnejší	AAis1z
mnohovravný	najmnohovravnejšieho	AAis2z
mnohovravný	najmnohovravnejšiemu	AAis3z
mnohovravný	najmnohovravnejší	AAis4z
mnohovravný	najmnohovravnejší	AAis5z
mnohovravný	najmnohovravnejšom	AAis6z
mnohovravný	najmnohovravnejším	AAis7z
mnohovravný	najmnohovravnejšie	AAip1z
mnohovravný	najmnohovravnejších	AAip2z
mnohovravný	najmnohovravnejším	AAip3z
mnohovravný	najmnohovravnejšie	AAip4z
mnohovravný	najmnohovravnejšie	AAip5z
mnohovravný	najmnohovravnejších	AAip6z
mnohovravný	najmnohovravnejšími	AAip7z
mnohovravný	najmnohovravnejšia	AAfs1z
mnohovravný	najmnohovravnejšej	AAfs2z
mnohovravný	najmnohovravnejšej	AAfs3z
mnohovravný	najmnohovravnejšiu	AAfs4z
mnohovravný	najmnohovravnejšia	AAfs5z
mnohovravný	najmnohovravnejšej	AAfs6z
mnohovravný	najmnohovravnejšou	AAfs7z
mnohovravný	najmnohovravnejšie	AAfp1z
mnohovravný	najmnohovravnejších	AAfp2z
mnohovravný	najmnohovravnejším	AAfp3z
mnohovravný	najmnohovravnejšie	AAfp4z
mnohovravný	najmnohovravnejšie	AAfp5z
mnohovravný	najmnohovravnejších	AAfp6z
mnohovravný	najmnohovravnejšími	AAfp7z
mnohovravný	najmnohovravnejšie	AAns1z
mnohovravný	najmnohovravnejšieho	AAns2z
mnohovravný	najmnohovravnejšiemu	AAns3z
mnohovravný	najmnohovravnejšie	AAns4z
mnohovravný	najmnohovravnejšie	AAns5z
mnohovravný	najmnohovravnejšom	AAns6z
mnohovravný	najmnohovravnejším	AAns7z
mnohovravný	najmnohovravnejšie	AAnp1z
mnohovravný	najmnohovravnejších	AAnp2z
mnohovravný	najmnohovravnejším	AAnp3z
mnohovravný	najmnohovravnejšie	AAnp4z
mnohovravný	najmnohovravnejšie	AAnp5z
mnohovravný	najmnohovravnejších	AAnp6z
mnohovravný	najmnohovravnejšími	AAnp7z
mnohovýznamne	mnohovýznamne	Dx
mnohovýznamnosť	mnohovýznamnosť	SSfs1
mnohovýznamnosť	mnohovýznamnosti	SSfs2
mnohovýznamnosť	mnohovýznamnosti	SSfs3
mnohovýznamnosť	mnohovýznamnosť	SSfs4
mnohovýznamnosť	mnohovýznamnosť	SSfs5
mnohovýznamnosť	mnohovýznamnosti	SSfs6
mnohovýznamnosť	mnohovýznamnosťou	SSfs7
mnohovýznamnosť	mnohovýznamnosti	SSfp1
mnohovýznamnosť	mnohovýznamností	SSfp2
mnohovýznamnosť	mnohovýznamnostiam	SSfp3
mnohovýznamnosť	mnohovýznamnosti	SSfp4
mnohovýznamnosť	mnohovýznamnosti	SSfp5
mnohovýznamnosť	mnohovýznamnostiach	SSfp6
mnohovýznamnosť	mnohovýznamnosťami	SSfp7
mnohovýznamný	mnohovýznamný	AAms1x
mnohovýznamný	mnohovýznamného	AAms2x
mnohovýznamný	mnohovýznamnému	AAms3x
mnohovýznamný	mnohovýznamného	AAms4x
mnohovýznamný	mnohovýznamný	AAms5x
mnohovýznamný	mnohovýznamnom	AAms6x
mnohovýznamný	mnohovýznamným	AAms7x
mnohovýznamný	mnohovýznamní	AAmp1x
mnohovýznamný	mnohovýznamných	AAmp2x
mnohovýznamný	mnohovýznamným	AAmp3x
mnohovýznamný	mnohovýznamných	AAmp4x
mnohovýznamný	mnohovýznamní	AAmp5x
mnohovýznamný	mnohovýznamných	AAmp6x
mnohovýznamný	mnohovýznamnými	AAmp7x
mnohovýznamný	mnohovýznamný	AAis1x
mnohovýznamný	mnohovýznamného	AAis2x
mnohovýznamný	mnohovýznamnému	AAis3x
mnohovýznamný	mnohovýznamný	AAis4x
mnohovýznamný	mnohovýznamný	AAis5x
mnohovýznamný	mnohovýznamnom	AAis6x
mnohovýznamný	mnohovýznamným	AAis7x
mnohovýznamný	mnohovýznamné	AAip1x
mnohovýznamný	mnohovýznamných	AAip2x
mnohovýznamný	mnohovýznamným	AAip3x
mnohovýznamný	mnohovýznamné	AAip4x
mnohovýznamný	mnohovýznamné	AAip5x
mnohovýznamný	mnohovýznamných	AAip6x
mnohovýznamný	mnohovýznamnými	AAip7x
mnohovýznamný	mnohovýznamná	AAfs1x
mnohovýznamný	mnohovýznamnej	AAfs2x
mnohovýznamný	mnohovýznamnej	AAfs3x
mnohovýznamný	mnohovýznamnú	AAfs4x
mnohovýznamný	mnohovýznamná	AAfs5x
mnohovýznamný	mnohovýznamnej	AAfs6x
mnohovýznamný	mnohovýznamnou	AAfs7x
mnohovýznamný	mnohovýznamné	AAfp1x
mnohovýznamný	mnohovýznamných	AAfp2x
mnohovýznamný	mnohovýznamným	AAfp3x
mnohovýznamný	mnohovýznamné	AAfp4x
mnohovýznamný	mnohovýznamné	AAfp5x
mnohovýznamný	mnohovýznamných	AAfp6x
mnohovýznamný	mnohovýznamnými	AAfp7x
mnohovýznamný	mnohovýznamné	AAns1x
mnohovýznamný	mnohovýznamného	AAns2x
mnohovýznamný	mnohovýznamnému	AAns3x
mnohovýznamný	mnohovýznamné	AAns4x
mnohovýznamný	mnohovýznamné	AAns5x
mnohovýznamný	mnohovýznamnom	AAns6x
mnohovýznamný	mnohovýznamným	AAns7x
mnohovýznamný	mnohovýznamné	AAnp1x
mnohovýznamný	mnohovýznamných	AAnp2x
mnohovýznamný	mnohovýznamným	AAnp3x
mnohovýznamný	mnohovýznamné	AAnp4x
mnohovýznamný	mnohovýznamné	AAnp5x
mnohovýznamný	mnohovýznamných	AAnp6x
mnohovýznamný	mnohovýznamnými	AAnp7x
mnohovýznamovosť	mnohovýznamovosť	SSfs1
mnohovýznamovosť	mnohovýznamovosti	SSfs2
mnohovýznamovosť	mnohovýznamovosti	SSfs3
mnohovýznamovosť	mnohovýznamovosť	SSfs4
mnohovýznamovosť	mnohovýznamovosť	SSfs5
mnohovýznamovosť	mnohovýznamovosti	SSfs6
mnohovýznamovosť	mnohovýznamovosťou	SSfs7
mnohovýznamovosť	mnohovýznamovosti	SSfp1
mnohovýznamovosť	mnohovýznamovostí	SSfp2
mnohovýznamovosť	mnohovýznamovostiam	SSfp3
mnohovýznamovosť	mnohovýznamovosti	SSfp4
mnohovýznamovosť	mnohovýznamovosti	SSfp5
mnohovýznamovosť	mnohovýznamovostiach	SSfp6
mnohovýznamovosť	mnohovýznamovosťami	SSfp7
mnohovýznamový	mnohovýznamový	AAms1x
mnohovýznamový	mnohovýznamového	AAms2x
mnohovýznamový	mnohovýznamovému	AAms3x
mnohovýznamový	mnohovýznamového	AAms4x
mnohovýznamový	mnohovýznamový	AAms5x
mnohovýznamový	mnohovýznamovom	AAms6x
mnohovýznamový	mnohovýznamovým	AAms7x
mnohovýznamový	mnohovýznamoví	AAmp1x
mnohovýznamový	mnohovýznamových	AAmp2x
mnohovýznamový	mnohovýznamovým	AAmp3x
mnohovýznamový	mnohovýznamových	AAmp4x
mnohovýznamový	mnohovýznamoví	AAmp5x
mnohovýznamový	mnohovýznamových	AAmp6x
mnohovýznamový	mnohovýznamovými	AAmp7x
mnohovýznamový	mnohovýznamový	AAis1x
mnohovýznamový	mnohovýznamového	AAis2x
mnohovýznamový	mnohovýznamovému	AAis3x
mnohovýznamový	mnohovýznamový	AAis4x
mnohovýznamový	mnohovýznamový	AAis5x
mnohovýznamový	mnohovýznamovom	AAis6x
mnohovýznamový	mnohovýznamovým	AAis7x
mnohovýznamový	mnohovýznamové	AAip1x
mnohovýznamový	mnohovýznamových	AAip2x
mnohovýznamový	mnohovýznamovým	AAip3x
mnohovýznamový	mnohovýznamové	AAip4x
mnohovýznamový	mnohovýznamové	AAip5x
mnohovýznamový	mnohovýznamových	AAip6x
mnohovýznamový	mnohovýznamovými	AAip7x
mnohovýznamový	mnohovýznamová	AAfs1x
mnohovýznamový	mnohovýznamovej	AAfs2x
mnohovýznamový	mnohovýznamovej	AAfs3x
mnohovýznamový	mnohovýznamovú	AAfs4x
mnohovýznamový	mnohovýznamová	AAfs5x
mnohovýznamový	mnohovýznamovej	AAfs6x
mnohovýznamový	mnohovýznamovou	AAfs7x
mnohovýznamový	mnohovýznamové	AAfp1x
mnohovýznamový	mnohovýznamových	AAfp2x
mnohovýznamový	mnohovýznamovým	AAfp3x
mnohovýznamový	mnohovýznamové	AAfp4x
mnohovýznamový	mnohovýznamové	AAfp5x
mnohovýznamový	mnohovýznamových	AAfp6x
mnohovýznamový	mnohovýznamovými	AAfp7x
mnohovýznamový	mnohovýznamové	AAns1x
mnohovýznamový	mnohovýznamového	AAns2x
mnohovýznamový	mnohovýznamovému	AAns3x
mnohovýznamový	mnohovýznamové	AAns4x
mnohovýznamový	mnohovýznamové	AAns5x
mnohovýznamový	mnohovýznamovom	AAns6x
mnohovýznamový	mnohovýznamovým	AAns7x
mnohovýznamový	mnohovýznamové	AAnp1x
mnohovýznamový	mnohovýznamových	AAnp2x
mnohovýznamový	mnohovýznamovým	AAnp3x
mnohovýznamový	mnohovýznamové	AAnp4x
mnohovýznamový	mnohovýznamové	AAnp5x
mnohovýznamový	mnohovýznamových	AAnp6x
mnohovýznamový	mnohovýznamovými	AAnp7x
mnohovýznamový	mnohovýznamovejší	AAms1y
mnohovýznamový	mnohovýznamovejšieho	AAms2y
mnohovýznamový	mnohovýznamovejšiemu	AAms3y
mnohovýznamový	mnohovýznamovejšieho	AAms4y
mnohovýznamový	mnohovýznamovejší	AAms5y
mnohovýznamový	mnohovýznamovejšom	AAms6y
mnohovýznamový	mnohovýznamovejším	AAms7y
mnohovýznamový	mnohovýznamovejší	AAmp1y
mnohovýznamový	mnohovýznamovejších	AAmp2y
mnohovýznamový	mnohovýznamovejším	AAmp3y
mnohovýznamový	mnohovýznamovejších	AAmp4y
mnohovýznamový	mnohovýznamovejší	AAmp5y
mnohovýznamový	mnohovýznamovejších	AAmp6y
mnohovýznamový	mnohovýznamovejšími	AAmp7y
mnohovýznamový	mnohovýznamovejší	AAis1y
mnohovýznamový	mnohovýznamovejšieho	AAis2y
mnohovýznamový	mnohovýznamovejšiemu	AAis3y
mnohovýznamový	mnohovýznamovejší	AAis4y
mnohovýznamový	mnohovýznamovejší	AAis5y
mnohovýznamový	mnohovýznamovejšom	AAis6y
mnohovýznamový	mnohovýznamovejším	AAis7y
mnohovýznamový	mnohovýznamovejšie	AAip1y
mnohovýznamový	mnohovýznamovejších	AAip2y
mnohovýznamový	mnohovýznamovejším	AAip3y
mnohovýznamový	mnohovýznamovejšie	AAip4y
mnohovýznamový	mnohovýznamovejšie	AAip5y
mnohovýznamový	mnohovýznamovejších	AAip6y
mnohovýznamový	mnohovýznamovejšími	AAip7y
mnohovýznamový	mnohovýznamovejšia	AAfs1y
mnohovýznamový	mnohovýznamovejšej	AAfs2y
mnohovýznamový	mnohovýznamovejšej	AAfs3y
mnohovýznamový	mnohovýznamovejšiu	AAfs4y
mnohovýznamový	mnohovýznamovejšia	AAfs5y
mnohovýznamový	mnohovýznamovejšej	AAfs6y
mnohovýznamový	mnohovýznamovejšou	AAfs7y
mnohovýznamový	mnohovýznamovejšie	AAfp1y
mnohovýznamový	mnohovýznamovejších	AAfp2y
mnohovýznamový	mnohovýznamovejším	AAfp3y
mnohovýznamový	mnohovýznamovejšie	AAfp4y
mnohovýznamový	mnohovýznamovejšie	AAfp5y
mnohovýznamový	mnohovýznamovejších	AAfp6y
mnohovýznamový	mnohovýznamovejšími	AAfp7y
mnohovýznamový	mnohovýznamovejšie	AAns1y
mnohovýznamový	mnohovýznamovejšieho	AAns2y
mnohovýznamový	mnohovýznamovejšiemu	AAns3y
mnohovýznamový	mnohovýznamovejšie	AAns4y
mnohovýznamový	mnohovýznamovejšie	AAns5y
mnohovýznamový	mnohovýznamovejšom	AAns6y
mnohovýznamový	mnohovýznamovejším	AAns7y
mnohovýznamový	mnohovýznamovejšie	AAnp1y
mnohovýznamový	mnohovýznamovejších	AAnp2y
mnohovýznamový	mnohovýznamovejším	AAnp3y
mnohovýznamový	mnohovýznamovejšie	AAnp4y
mnohovýznamový	mnohovýznamovejšie	AAnp5y
mnohovýznamový	mnohovýznamovejších	AAnp6y
mnohovýznamový	mnohovýznamovejšími	AAnp7y
mnohovýznamový	najmnohovýznamovejší	AAms1z
mnohovýznamový	najmnohovýznamovejšieho	AAms2z
mnohovýznamový	najmnohovýznamovejšiemu	AAms3z
mnohovýznamový	najmnohovýznamovejšieho	AAms4z
mnohovýznamový	najmnohovýznamovejší	AAms5z
mnohovýznamový	najmnohovýznamovejšom	AAms6z
mnohovýznamový	najmnohovýznamovejším	AAms7z
mnohovýznamový	najmnohovýznamovejší	AAmp1z
mnohovýznamový	najmnohovýznamovejších	AAmp2z
mnohovýznamový	najmnohovýznamovejším	AAmp3z
mnohovýznamový	najmnohovýznamovejších	AAmp4z
mnohovýznamový	najmnohovýznamovejší	AAmp5z
mnohovýznamový	najmnohovýznamovejších	AAmp6z
mnohovýznamový	najmnohovýznamovejšími	AAmp7z
mnohovýznamový	najmnohovýznamovejší	AAis1z
mnohovýznamový	najmnohovýznamovejšieho	AAis2z
mnohovýznamový	najmnohovýznamovejšiemu	AAis3z
mnohovýznamový	najmnohovýznamovejší	AAis4z
mnohovýznamový	najmnohovýznamovejší	AAis5z
mnohovýznamový	najmnohovýznamovejšom	AAis6z
mnohovýznamový	najmnohovýznamovejším	AAis7z
mnohovýznamový	najmnohovýznamovejšie	AAip1z
mnohovýznamový	najmnohovýznamovejších	AAip2z
mnohovýznamový	najmnohovýznamovejším	AAip3z
mnohovýznamový	najmnohovýznamovejšie	AAip4z
mnohovýznamový	najmnohovýznamovejšie	AAip5z
mnohovýznamový	najmnohovýznamovejších	AAip6z
mnohovýznamový	najmnohovýznamovejšími	AAip7z
mnohovýznamový	najmnohovýznamovejšia	AAfs1z
mnohovýznamový	najmnohovýznamovejšej	AAfs2z
mnohovýznamový	najmnohovýznamovejšej	AAfs3z
mnohovýznamový	najmnohovýznamovejšiu	AAfs4z
mnohovýznamový	najmnohovýznamovejšia	AAfs5z
mnohovýznamový	najmnohovýznamovejšej	AAfs6z
mnohovýznamový	najmnohovýznamovejšou	AAfs7z
mnohovýznamový	najmnohovýznamovejšie	AAfp1z
mnohovýznamový	najmnohovýznamovejších	AAfp2z
mnohovýznamový	najmnohovýznamovejším	AAfp3z
mnohovýznamový	najmnohovýznamovejšie	AAfp4z
mnohovýznamový	najmnohovýznamovejšie	AAfp5z
mnohovýznamový	najmnohovýznamovejších	AAfp6z
mnohovýznamový	najmnohovýznamovejšími	AAfp7z
mnohovýznamový	najmnohovýznamovejšie	AAns1z
mnohovýznamový	najmnohovýznamovejšieho	AAns2z
mnohovýznamový	najmnohovýznamovejšiemu	AAns3z
mnohovýznamový	najmnohovýznamovejšie	AAns4z
mnohovýznamový	najmnohovýznamovejšie	AAns5z
mnohovýznamový	najmnohovýznamovejšom	AAns6z
mnohovýznamový	najmnohovýznamovejším	AAns7z
mnohovýznamový	najmnohovýznamovejšie	AAnp1z
mnohovýznamový	najmnohovýznamovejších	AAnp2z
mnohovýznamový	najmnohovýznamovejším	AAnp3z
mnohovýznamový	najmnohovýznamovejšie	AAnp4z
mnohovýznamový	najmnohovýznamovejšie	AAnp5z
mnohovýznamový	najmnohovýznamovejších	AAnp6z
mnohovýznamový	najmnohovýznamovejšími	AAnp7z
mnohoznačne	mnohoznačne	Dx
mnohoznačne	mnohoznačnejšie	Dy
mnohoznačne	najmnohoznačnejšie	Dz
mnohoznačnosť	mnohoznačnosť	SSfs1
mnohoznačnosť	mnohoznačnosti	SSfs2
mnohoznačnosť	mnohoznačnosti	SSfs3
mnohoznačnosť	mnohoznačnosť	SSfs4
mnohoznačnosť	mnohoznačnosť	SSfs5
mnohoznačnosť	mnohoznačnosti	SSfs6
mnohoznačnosť	mnohoznačnosťou	SSfs7
mnohoznačnosť	mnohoznačnosti	SSfp1
mnohoznačnosť	mnohoznačností	SSfp2
mnohoznačnosť	mnohoznačnostiam	SSfp3
mnohoznačnosť	mnohoznačnosti	SSfp4
mnohoznačnosť	mnohoznačnosti	SSfp5
mnohoznačnosť	mnohoznačnostiach	SSfp6
mnohoznačnosť	mnohoznačnosťami	SSfp7
mnohoznačný	mnohoznačný	AAms1x
mnohoznačný	mnohoznačného	AAms2x
mnohoznačný	mnohoznačnému	AAms3x
mnohoznačný	mnohoznačného	AAms4x
mnohoznačný	mnohoznačný	AAms5x
mnohoznačný	mnohoznačnom	AAms6x
mnohoznačný	mnohoznačným	AAms7x
mnohoznačný	mnohoznační	AAmp1x
mnohoznačný	mnohoznačných	AAmp2x
mnohoznačný	mnohoznačným	AAmp3x
mnohoznačný	mnohoznačných	AAmp4x
mnohoznačný	mnohoznační	AAmp5x
mnohoznačný	mnohoznačných	AAmp6x
mnohoznačný	mnohoznačnými	AAmp7x
mnohoznačný	mnohoznačný	AAis1x
mnohoznačný	mnohoznačného	AAis2x
mnohoznačný	mnohoznačnému	AAis3x
mnohoznačný	mnohoznačný	AAis4x
mnohoznačný	mnohoznačný	AAis5x
mnohoznačný	mnohoznačnom	AAis6x
mnohoznačný	mnohoznačným	AAis7x
mnohoznačný	mnohoznačné	AAip1x
mnohoznačný	mnohoznačných	AAip2x
mnohoznačný	mnohoznačným	AAip3x
mnohoznačný	mnohoznačné	AAip4x
mnohoznačný	mnohoznačné	AAip5x
mnohoznačný	mnohoznačných	AAip6x
mnohoznačný	mnohoznačnými	AAip7x
mnohoznačný	mnohoznačná	AAfs1x
mnohoznačný	mnohoznačnej	AAfs2x
mnohoznačný	mnohoznačnej	AAfs3x
mnohoznačný	mnohoznačnú	AAfs4x
mnohoznačný	mnohoznačná	AAfs5x
mnohoznačný	mnohoznačnej	AAfs6x
mnohoznačný	mnohoznačnou	AAfs7x
mnohoznačný	mnohoznačné	AAfp1x
mnohoznačný	mnohoznačných	AAfp2x
mnohoznačný	mnohoznačným	AAfp3x
mnohoznačný	mnohoznačné	AAfp4x
mnohoznačný	mnohoznačné	AAfp5x
mnohoznačný	mnohoznačných	AAfp6x
mnohoznačný	mnohoznačnými	AAfp7x
mnohoznačný	mnohoznačné	AAns1x
mnohoznačný	mnohoznačného	AAns2x
mnohoznačný	mnohoznačnému	AAns3x
mnohoznačný	mnohoznačné	AAns4x
mnohoznačný	mnohoznačné	AAns5x
mnohoznačný	mnohoznačnom	AAns6x
mnohoznačný	mnohoznačným	AAns7x
mnohoznačný	mnohoznačné	AAnp1x
mnohoznačný	mnohoznačných	AAnp2x
mnohoznačný	mnohoznačným	AAnp3x
mnohoznačný	mnohoznačné	AAnp4x
mnohoznačný	mnohoznačné	AAnp5x
mnohoznačný	mnohoznačných	AAnp6x
mnohoznačný	mnohoznačnými	AAnp7x
mnohoznačný	mnohoznačnejší	AAms1y
mnohoznačný	mnohoznačnejšieho	AAms2y
mnohoznačný	mnohoznačnejšiemu	AAms3y
mnohoznačný	mnohoznačnejšieho	AAms4y
mnohoznačný	mnohoznačnejší	AAms5y
mnohoznačný	mnohoznačnejšom	AAms6y
mnohoznačný	mnohoznačnejším	AAms7y
mnohoznačný	mnohoznačnejší	AAmp1y
mnohoznačný	mnohoznačnejších	AAmp2y
mnohoznačný	mnohoznačnejším	AAmp3y
mnohoznačný	mnohoznačnejších	AAmp4y
mnohoznačný	mnohoznačnejší	AAmp5y
mnohoznačný	mnohoznačnejších	AAmp6y
mnohoznačný	mnohoznačnejšími	AAmp7y
mnohoznačný	mnohoznačnejší	AAis1y
mnohoznačný	mnohoznačnejšieho	AAis2y
mnohoznačný	mnohoznačnejšiemu	AAis3y
mnohoznačný	mnohoznačnejší	AAis4y
mnohoznačný	mnohoznačnejší	AAis5y
mnohoznačný	mnohoznačnejšom	AAis6y
mnohoznačný	mnohoznačnejším	AAis7y
mnohoznačný	mnohoznačnejšie	AAip1y
mnohoznačný	mnohoznačnejších	AAip2y
mnohoznačný	mnohoznačnejším	AAip3y
mnohoznačný	mnohoznačnejšie	AAip4y
mnohoznačný	mnohoznačnejšie	AAip5y
mnohoznačný	mnohoznačnejších	AAip6y
mnohoznačný	mnohoznačnejšími	AAip7y
mnohoznačný	mnohoznačnejšia	AAfs1y
mnohoznačný	mnohoznačnejšej	AAfs2y
mnohoznačný	mnohoznačnejšej	AAfs3y
mnohoznačný	mnohoznačnejšiu	AAfs4y
mnohoznačný	mnohoznačnejšia	AAfs5y
mnohoznačný	mnohoznačnejšej	AAfs6y
mnohoznačný	mnohoznačnejšou	AAfs7y
mnohoznačný	mnohoznačnejšie	AAfp1y
mnohoznačný	mnohoznačnejších	AAfp2y
mnohoznačný	mnohoznačnejším	AAfp3y
mnohoznačný	mnohoznačnejšie	AAfp4y
mnohoznačný	mnohoznačnejšie	AAfp5y
mnohoznačný	mnohoznačnejších	AAfp6y
mnohoznačný	mnohoznačnejšími	AAfp7y
mnohoznačný	mnohoznačnejšie	AAns1y
mnohoznačný	mnohoznačnejšieho	AAns2y
mnohoznačný	mnohoznačnejšiemu	AAns3y
mnohoznačný	mnohoznačnejšie	AAns4y
mnohoznačný	mnohoznačnejšie	AAns5y
mnohoznačný	mnohoznačnejšom	AAns6y
mnohoznačný	mnohoznačnejším	AAns7y
mnohoznačný	mnohoznačnejšie	AAnp1y
mnohoznačný	mnohoznačnejších	AAnp2y
mnohoznačný	mnohoznačnejším	AAnp3y
mnohoznačný	mnohoznačnejšie	AAnp4y
mnohoznačný	mnohoznačnejšie	AAnp5y
mnohoznačný	mnohoznačnejších	AAnp6y
mnohoznačný	mnohoznačnejšími	AAnp7y
mnohoznačný	najmnohoznačnejší	AAms1z
mnohoznačný	najmnohoznačnejšieho	AAms2z
mnohoznačný	najmnohoznačnejšiemu	AAms3z
mnohoznačný	najmnohoznačnejšieho	AAms4z
mnohoznačný	najmnohoznačnejší	AAms5z
mnohoznačný	najmnohoznačnejšom	AAms6z
mnohoznačný	najmnohoznačnejším	AAms7z
mnohoznačný	najmnohoznačnejší	AAmp1z
mnohoznačný	najmnohoznačnejších	AAmp2z
mnohoznačný	najmnohoznačnejším	AAmp3z
mnohoznačný	najmnohoznačnejších	AAmp4z
mnohoznačný	najmnohoznačnejší	AAmp5z
mnohoznačný	najmnohoznačnejších	AAmp6z
mnohoznačný	najmnohoznačnejšími	AAmp7z
mnohoznačný	najmnohoznačnejší	AAis1z
mnohoznačný	najmnohoznačnejšieho	AAis2z
mnohoznačný	najmnohoznačnejšiemu	AAis3z
mnohoznačný	najmnohoznačnejší	AAis4z
mnohoznačný	najmnohoznačnejší	AAis5z
mnohoznačný	najmnohoznačnejšom	AAis6z
mnohoznačný	najmnohoznačnejším	AAis7z
mnohoznačný	najmnohoznačnejšie	AAip1z
mnohoznačný	najmnohoznačnejších	AAip2z
mnohoznačný	najmnohoznačnejším	AAip3z
mnohoznačný	najmnohoznačnejšie	AAip4z
mnohoznačný	najmnohoznačnejšie	AAip5z
mnohoznačný	najmnohoznačnejších	AAip6z
mnohoznačný	najmnohoznačnejšími	AAip7z
mnohoznačný	najmnohoznačnejšia	AAfs1z
mnohoznačný	najmnohoznačnejšej	AAfs2z
mnohoznačný	najmnohoznačnejšej	AAfs3z
mnohoznačný	najmnohoznačnejšiu	AAfs4z
mnohoznačný	najmnohoznačnejšia	AAfs5z
mnohoznačný	najmnohoznačnejšej	AAfs6z
mnohoznačný	najmnohoznačnejšou	AAfs7z
mnohoznačný	najmnohoznačnejšie	AAfp1z
mnohoznačný	najmnohoznačnejších	AAfp2z
mnohoznačný	najmnohoznačnejším	AAfp3z
mnohoznačný	najmnohoznačnejšie	AAfp4z
mnohoznačný	najmnohoznačnejšie	AAfp5z
mnohoznačný	najmnohoznačnejších	AAfp6z
mnohoznačný	najmnohoznačnejšími	AAfp7z
mnohoznačný	najmnohoznačnejšie	AAns1z
mnohoznačný	najmnohoznačnejšieho	AAns2z
mnohoznačný	najmnohoznačnejšiemu	AAns3z
mnohoznačný	najmnohoznačnejšie	AAns4z
mnohoznačný	najmnohoznačnejšie	AAns5z
mnohoznačný	najmnohoznačnejšom	AAns6z
mnohoznačný	najmnohoznačnejším	AAns7z
mnohoznačný	najmnohoznačnejšie	AAnp1z
mnohoznačný	najmnohoznačnejších	AAnp2z
mnohoznačný	najmnohoznačnejším	AAnp3z
mnohoznačný	najmnohoznačnejšie	AAnp4z
mnohoznačný	najmnohoznačnejšie	AAnp5z
mnohoznačný	najmnohoznačnejších	AAnp6z
mnohoznačný	najmnohoznačnejšími	AAnp7z
mnohozväzkový	mnohozväzkový	AAms1x
mnohozväzkový	mnohozväzkového	AAms2x
mnohozväzkový	mnohozväzkovému	AAms3x
mnohozväzkový	mnohozväzkového	AAms4x
mnohozväzkový	mnohozväzkový	AAms5x
mnohozväzkový	mnohozväzkovom	AAms6x
mnohozväzkový	mnohozväzkovým	AAms7x
mnohozväzkový	mnohozväzkoví	AAmp1x
mnohozväzkový	mnohozväzkových	AAmp2x
mnohozväzkový	mnohozväzkovým	AAmp3x
mnohozväzkový	mnohozväzkových	AAmp4x
mnohozväzkový	mnohozväzkoví	AAmp5x
mnohozväzkový	mnohozväzkových	AAmp6x
mnohozväzkový	mnohozväzkovými	AAmp7x
mnohozväzkový	mnohozväzkový	AAis1x
mnohozväzkový	mnohozväzkového	AAis2x
mnohozväzkový	mnohozväzkovému	AAis3x
mnohozväzkový	mnohozväzkový	AAis4x
mnohozväzkový	mnohozväzkový	AAis5x
mnohozväzkový	mnohozväzkovom	AAis6x
mnohozväzkový	mnohozväzkovým	AAis7x
mnohozväzkový	mnohozväzkové	AAip1x
mnohozväzkový	mnohozväzkových	AAip2x
mnohozväzkový	mnohozväzkovým	AAip3x
mnohozväzkový	mnohozväzkové	AAip4x
mnohozväzkový	mnohozväzkové	AAip5x
mnohozväzkový	mnohozväzkových	AAip6x
mnohozväzkový	mnohozväzkovými	AAip7x
mnohozväzkový	mnohozväzková	AAfs1x
mnohozväzkový	mnohozväzkovej	AAfs2x
mnohozväzkový	mnohozväzkovej	AAfs3x
mnohozväzkový	mnohozväzkovú	AAfs4x
mnohozväzkový	mnohozväzková	AAfs5x
mnohozväzkový	mnohozväzkovej	AAfs6x
mnohozväzkový	mnohozväzkovou	AAfs7x
mnohozväzkový	mnohozväzkové	AAfp1x
mnohozväzkový	mnohozväzkových	AAfp2x
mnohozväzkový	mnohozväzkovým	AAfp3x
mnohozväzkový	mnohozväzkové	AAfp4x
mnohozväzkový	mnohozväzkové	AAfp5x
mnohozväzkový	mnohozväzkových	AAfp6x
mnohozväzkový	mnohozväzkovými	AAfp7x
mnohozväzkový	mnohozväzkové	AAns1x
mnohozväzkový	mnohozväzkového	AAns2x
mnohozväzkový	mnohozväzkovému	AAns3x
mnohozväzkový	mnohozväzkové	AAns4x
mnohozväzkový	mnohozväzkové	AAns5x
mnohozväzkový	mnohozväzkovom	AAns6x
mnohozväzkový	mnohozväzkovým	AAns7x
mnohozväzkový	mnohozväzkové	AAnp1x
mnohozväzkový	mnohozväzkových	AAnp2x
mnohozväzkový	mnohozväzkovým	AAnp3x
mnohozväzkový	mnohozväzkové	AAnp4x
mnohozväzkový	mnohozväzkové	AAnp5x
mnohozväzkový	mnohozväzkových	AAnp6x
mnohozväzkový	mnohozväzkovými	AAnp7x
mnohočlenný	mnohočlenný	AAms1x
mnohočlenný	mnohočlenného	AAms2x
mnohočlenný	mnohočlennému	AAms3x
mnohočlenný	mnohočlenného	AAms4x
mnohočlenný	mnohočlenný	AAms5x
mnohočlenný	mnohočlennom	AAms6x
mnohočlenný	mnohočlenným	AAms7x
mnohočlenný	mnohočlenní	AAmp1x
mnohočlenný	mnohočlenných	AAmp2x
mnohočlenný	mnohočlenným	AAmp3x
mnohočlenný	mnohočlenných	AAmp4x
mnohočlenný	mnohočlenní	AAmp5x
mnohočlenný	mnohočlenných	AAmp6x
mnohočlenný	mnohočlennými	AAmp7x
mnohočlenný	mnohočlenný	AAis1x
mnohočlenný	mnohočlenného	AAis2x
mnohočlenný	mnohočlennému	AAis3x
mnohočlenný	mnohočlenný	AAis4x
mnohočlenný	mnohočlenný	AAis5x
mnohočlenný	mnohočlennom	AAis6x
mnohočlenný	mnohočlenným	AAis7x
mnohočlenný	mnohočlenné	AAip1x
mnohočlenný	mnohočlenných	AAip2x
mnohočlenný	mnohočlenným	AAip3x
mnohočlenný	mnohočlenné	AAip4x
mnohočlenný	mnohočlenné	AAip5x
mnohočlenný	mnohočlenných	AAip6x
mnohočlenný	mnohočlennými	AAip7x
mnohočlenný	mnohočlenná	AAfs1x
mnohočlenný	mnohočlennej	AAfs2x
mnohočlenný	mnohočlennej	AAfs3x
mnohočlenný	mnohočlennú	AAfs4x
mnohočlenný	mnohočlenná	AAfs5x
mnohočlenný	mnohočlennej	AAfs6x
mnohočlenný	mnohočlennou	AAfs7x
mnohočlenný	mnohočlenné	AAfp1x
mnohočlenný	mnohočlenných	AAfp2x
mnohočlenný	mnohočlenným	AAfp3x
mnohočlenný	mnohočlenné	AAfp4x
mnohočlenný	mnohočlenné	AAfp5x
mnohočlenný	mnohočlenných	AAfp6x
mnohočlenný	mnohočlennými	AAfp7x
mnohočlenný	mnohočlenné	AAns1x
mnohočlenný	mnohočlenného	AAns2x
mnohočlenný	mnohočlennému	AAns3x
mnohočlenný	mnohočlenné	AAns4x
mnohočlenný	mnohočlenné	AAns5x
mnohočlenný	mnohočlennom	AAns6x
mnohočlenný	mnohočlenným	AAns7x
mnohočlenný	mnohočlenné	AAnp1x
mnohočlenný	mnohočlenných	AAnp2x
mnohočlenný	mnohočlenným	AAnp3x
mnohočlenný	mnohočlenné	AAnp4x
mnohočlenný	mnohočlenné	AAnp5x
mnohočlenný	mnohočlenných	AAnp6x
mnohočlenný	mnohočlennými	AAnp7x
mnohoženstvo	mnohoženstvo	SSns1
mnohoženstvo	mnohoženstva	SSns2
mnohoženstvo	mnohoženstvu	SSns3
mnohoženstvo	mnohoženstvo	SSns4
mnohoženstvo	mnohoženstvo	SSns5
mnohoženstvo	mnohoženstve	SSns6
mnohoženstvo	mnohoženstvom	SSns7
mnohoženstvo	mnohoženstvá	SSnp1
mnohoženstvo	mnohoženstiev	SSnp2
mnohoženstvo	mnohoženstvám	SSnp3
mnohoženstvo	mnohoženstvá	SSnp4
mnohoženstvo	mnohoženstvá	SSnp5
mnohoženstvo	mnohoženstvách	SSnp6
mnohoženstvo	mnohoženstvami	SSnp7
mnohé	mnohé	SAns1
mnohé	mnohého	SAns2
mnohé	mnohému	SAns3
mnohé	mnohé	SAns4
mnohé	mnohé	SAns5
mnohé	mnohom	SAns6
mnohé	mnohým	SAns7
mnohý	mnohé	NAfp1
mnohý	mnohých	NAfp2
mnohý	mnohým	NAfp3
mnohý	mnohé	NAfp4
mnohý	mnohé	NAfp5
mnohý	mnohých	NAfp6
mnohý	mnohými	NAfp7
mnohý	mnohá	NAfs1
mnohý	mnohej	NAfs2
mnohý	mnohej	NAfs3
mnohý	mnohú	NAfs4
mnohý	mnohá	NAfs5
mnohý	mnohej	NAfs6
mnohý	mnohou	NAfs7
mnohý	mnohé	NAip1
mnohý	mnohých	NAip2
mnohý	mnohým	NAip3
mnohý	mnohé	NAip4
mnohý	mnohé	NAip5
mnohý	mnohých	NAip6
mnohý	mnohými	NAip7
mnohý	mnohý	NAis1
mnohý	mnohého	NAis2
mnohý	mnohému	NAis3
mnohý	mnohý	NAis4
mnohý	mnohý	NAis5
mnohý	mnohom	NAis6
mnohý	mnohým	NAis7
mnohý	mnohí	NAmp1
mnohý	mnohých	NAmp2
mnohý	mnohým	NAmp3
mnohý	mnohých	NAmp4
mnohý	mnohí	NAmp5
mnohý	mnohých	NAmp6
mnohý	mnohými	NAmp7
mnohý	mnohý	NAms1
mnohý	mnohého	NAms2
mnohý	mnohému	NAms3
mnohý	mnohého	NAms4
mnohý	mnohý	NAms5
mnohý	mnohom	NAms6
mnohý	mnohým	NAms7
mnohý	mnohé	NAnp1
mnohý	mnohých	NAnp2
mnohý	mnohým	NAnp3
mnohý	mnohé	NAnp4
mnohý	mnohé	NAnp5
mnohý	mnohých	NAnp6
mnohý	mnohými	NAnp7
mnohý	mnohé	NAns1
mnohý	mnohého	NAns2
mnohý	mnohému	NAns3
mnohý	mnohé	NAns4
mnohý	mnohé	NAns5
mnohý	mnohom	NAns6
mnohý	mnohým	NAns7
množina	množina	SSfs1
množina	množiny	SSfs2
množina	množine	SSfs3
množina	množinu	SSfs4
množina	množina	SSfs5
množina	množine	SSfs6
množina	množinou	SSfs7
množina	množiny	SSfp1
množina	množín	SSfp2
množina	množinám	SSfp3
množina	množiny	SSfp4
množina	množiny	SSfp5
množina	množinách	SSfp6
množina	množinami	SSfp7
množinový	množinový	AAms1x
množinový	množinového	AAms2x
množinový	množinovému	AAms3x
množinový	množinového	AAms4x
množinový	množinový	AAms5x
množinový	množinovom	AAms6x
množinový	množinovým	AAms7x
množinový	množinoví	AAmp1x
množinový	množinových	AAmp2x
množinový	množinovým	AAmp3x
množinový	množinových	AAmp4x
množinový	množinoví	AAmp5x
množinový	množinových	AAmp6x
množinový	množinovými	AAmp7x
množinový	množinový	AAis1x
množinový	množinového	AAis2x
množinový	množinovému	AAis3x
množinový	množinový	AAis4x
množinový	množinový	AAis5x
množinový	množinovom	AAis6x
množinový	množinovým	AAis7x
množinový	množinové	AAip1x
množinový	množinových	AAip2x
množinový	množinovým	AAip3x
množinový	množinové	AAip4x
množinový	množinové	AAip5x
množinový	množinových	AAip6x
množinový	množinovými	AAip7x
množinový	množinová	AAfs1x
množinový	množinovej	AAfs2x
množinový	množinovej	AAfs3x
množinový	množinovú	AAfs4x
množinový	množinová	AAfs5x
množinový	množinovej	AAfs6x
množinový	množinovou	AAfs7x
množinový	množinové	AAfp1x
množinový	množinových	AAfp2x
množinový	množinovým	AAfp3x
množinový	množinové	AAfp4x
množinový	množinové	AAfp5x
množinový	množinových	AAfp6x
množinový	množinovými	AAfp7x
množinový	množinové	AAns1x
množinový	množinového	AAns2x
množinový	množinovému	AAns3x
množinový	množinové	AAns4x
množinový	množinové	AAns5x
množinový	množinovom	AAns6x
množinový	množinovým	AAns7x
množinový	množinové	AAnp1x
množinový	množinových	AAnp2x
množinový	množinovým	AAnp3x
množinový	množinové	AAnp4x
množinový	množinové	AAnp5x
množinový	množinových	AAnp6x
množinový	množinovými	AAnp7x
množiť	množiť	VIe+
množiť	množím	VKesa+
množiť	množíš	VKesb+
množiť	množí	VKesc+
množiť	množíme	VKepa+
množiť	množíte	VKepb+
množiť	množia	VKepc+
množiť	množ	VMesb+
množiť	množme	VMepa+
množiť	množte	VMepb+
množiť	množiac	VHe+
množiť	množil	VLesam+
množiť	množil	VLesai+
množiť	množil	VLesbm+
množiť	množil	VLesbi+
množiť	množil	VLescm+
množiť	množil	VLesci+
množiť	množila	VLesaf+
množiť	množila	VLesbf+
množiť	množila	VLescf+
množiť	množilo	VLesan+
množiť	množilo	VLesbn+
množiť	množilo	VLescn+
množiť	množili	VLepah+
množiť	množili	VLepbh+
množiť	množili	VLepcm+
množiť	množili	VLepci+
množiť	množili	VLepcf+
množiť	množili	VLepcn+
množiť	množili	VLepco+
množný	množný	AAms1x
množný	množného	AAms2x
množný	množnému	AAms3x
množný	množného	AAms4x
množný	množný	AAms5x
množný	množnom	AAms6x
množný	množným	AAms7x
množný	množní	AAmp1x
množný	množných	AAmp2x
množný	množným	AAmp3x
množný	množných	AAmp4x
množný	množní	AAmp5x
množný	množných	AAmp6x
množný	množnými	AAmp7x
množný	množný	AAis1x
množný	množného	AAis2x
množný	množnému	AAis3x
množný	množný	AAis4x
množný	množný	AAis5x
množný	množnom	AAis6x
množný	množným	AAis7x
množný	množné	AAip1x
množný	množných	AAip2x
množný	množným	AAip3x
množný	množné	AAip4x
množný	množné	AAip5x
množný	množných	AAip6x
množný	množnými	AAip7x
množný	množná	AAfs1x
množný	množnej	AAfs2x
množný	množnej	AAfs3x
množný	množnú	AAfs4x
množný	množná	AAfs5x
množný	množnej	AAfs6x
množný	množnou	AAfs7x
množný	množné	AAfp1x
množný	množných	AAfp2x
množný	množným	AAfp3x
množný	množné	AAfp4x
množný	množné	AAfp5x
množný	množných	AAfp6x
množný	množnými	AAfp7x
množný	množné	AAns1x
množný	množného	AAns2x
množný	množnému	AAns3x
množný	množné	AAns4x
množný	množné	AAns5x
množný	množnom	AAns6x
množný	množným	AAns7x
množný	množné	AAnp1x
množný	množných	AAnp2x
množný	množným	AAnp3x
množný	množné	AAnp4x
množný	množné	AAnp5x
množný	množných	AAnp6x
množný	množnými	AAnp7x
množstvo	množstvo	SSns1
množstvo	množstva	SSns2
množstvo	množstvu	SSns3
množstvo	množstvo	SSns4
množstvo	množstvo	SSns5
množstvo	množstve	SSns6
množstvo	množstvom	SSns7
množstvo	množstvá	SSnp1
množstvo	množstiev	SSnp2
množstvo	množstvám	SSnp3
množstvo	množstvá	SSnp4
množstvo	množstvá	SSnp5
množstvo	množstvách	SSnp6
množstvo	množstvami	SSnp7
množstvový	množstvový	AAms1x
množstvový	množstvového	AAms2x
množstvový	množstvovému	AAms3x
množstvový	množstvového	AAms4x
množstvový	množstvový	AAms5x
množstvový	množstvovom	AAms6x
množstvový	množstvovým	AAms7x
množstvový	množstvoví	AAmp1x
množstvový	množstvových	AAmp2x
množstvový	množstvovým	AAmp3x
množstvový	množstvových	AAmp4x
množstvový	množstvoví	AAmp5x
množstvový	množstvových	AAmp6x
množstvový	množstvovými	AAmp7x
množstvový	množstvový	AAis1x
množstvový	množstvového	AAis2x
množstvový	množstvovému	AAis3x
množstvový	množstvový	AAis4x
množstvový	množstvový	AAis5x
množstvový	množstvovom	AAis6x
množstvový	množstvovým	AAis7x
množstvový	množstvové	AAip1x
množstvový	množstvových	AAip2x
množstvový	množstvovým	AAip3x
množstvový	množstvové	AAip4x
množstvový	množstvové	AAip5x
množstvový	množstvových	AAip6x
množstvový	množstvovými	AAip7x
množstvový	množstvová	AAfs1x
množstvový	množstvovej	AAfs2x
množstvový	množstvovej	AAfs3x
množstvový	množstvovú	AAfs4x
množstvový	množstvová	AAfs5x
množstvový	množstvovej	AAfs6x
množstvový	množstvovou	AAfs7x
množstvový	množstvové	AAfp1x
množstvový	množstvových	AAfp2x
množstvový	množstvovým	AAfp3x
množstvový	množstvové	AAfp4x
množstvový	množstvové	AAfp5x
množstvový	množstvových	AAfp6x
množstvový	množstvovými	AAfp7x
množstvový	množstvové	AAns1x
množstvový	množstvového	AAns2x
množstvový	množstvovému	AAns3x
množstvový	množstvové	AAns4x
množstvový	množstvové	AAns5x
množstvový	množstvovom	AAns6x
množstvový	množstvovým	AAns7x
množstvový	množstvové	AAnp1x
množstvový	množstvových	AAnp2x
množstvový	množstvovým	AAnp3x
množstvový	množstvové	AAnp4x
množstvový	množstvové	AAnp5x
množstvový	množstvových	AAnp6x
množstvový	množstvovými	AAnp7x
mních	mních	SSms1
mních	mnícha	SSms2
mních	mníchovi	SSms3
mních	mnícha	SSms4
mních	mních	SSms5
mních	mníchovi	SSms6
mních	mníchom	SSms7
mních	mnísi	SSmp1
mních	mníchov	SSmp2
mních	mníchom	SSmp3
mních	mníchov	SSmp4
mních	mnísi	SSmp5
mních	mníchoch	SSmp6
mních	mníchmi	SSmp7
mníchovolehotský	mníchovolehotský	AAms1x
mníchovolehotský	mníchovolehotského	AAms2x
mníchovolehotský	mníchovolehotskému	AAms3x
mníchovolehotský	mníchovolehotského	AAms4x
mníchovolehotský	mníchovolehotský	AAms5x
mníchovolehotský	mníchovolehotskom	AAms6x
mníchovolehotský	mníchovolehotským	AAms7x
mníchovolehotský	mníchovolehotskí	AAmp1x
mníchovolehotský	mníchovolehotských	AAmp2x
mníchovolehotský	mníchovolehotským	AAmp3x
mníchovolehotský	mníchovolehotských	AAmp4x
mníchovolehotský	mníchovolehotskí	AAmp5x
mníchovolehotský	mníchovolehotských	AAmp6x
mníchovolehotský	mníchovolehotskými	AAmp7x
mníchovolehotský	mníchovolehotský	AAis1x
mníchovolehotský	mníchovolehotského	AAis2x
mníchovolehotský	mníchovolehotskému	AAis3x
mníchovolehotský	mníchovolehotský	AAis4x
mníchovolehotský	mníchovolehotský	AAis5x
mníchovolehotský	mníchovolehotskom	AAis6x
mníchovolehotský	mníchovolehotským	AAis7x
mníchovolehotský	mníchovolehotské	AAip1x
mníchovolehotský	mníchovolehotských	AAip2x
mníchovolehotský	mníchovolehotským	AAip3x
mníchovolehotský	mníchovolehotské	AAip4x
mníchovolehotský	mníchovolehotské	AAip5x
mníchovolehotský	mníchovolehotských	AAip6x
mníchovolehotský	mníchovolehotskými	AAip7x
mníchovolehotský	mníchovolehotská	AAfs1x
mníchovolehotský	mníchovolehotskej	AAfs2x
mníchovolehotský	mníchovolehotskej	AAfs3x
mníchovolehotský	mníchovolehotskú	AAfs4x
mníchovolehotský	mníchovolehotská	AAfs5x
mníchovolehotský	mníchovolehotskej	AAfs6x
mníchovolehotský	mníchovolehotskou	AAfs7x
mníchovolehotský	mníchovolehotské	AAfp1x
mníchovolehotský	mníchovolehotských	AAfp2x
mníchovolehotský	mníchovolehotským	AAfp3x
mníchovolehotský	mníchovolehotské	AAfp4x
mníchovolehotský	mníchovolehotské	AAfp5x
mníchovolehotský	mníchovolehotských	AAfp6x
mníchovolehotský	mníchovolehotskými	AAfp7x
mníchovolehotský	mníchovolehotské	AAns1x
mníchovolehotský	mníchovolehotského	AAns2x
mníchovolehotský	mníchovolehotskému	AAns3x
mníchovolehotský	mníchovolehotské	AAns4x
mníchovolehotský	mníchovolehotské	AAns5x
mníchovolehotský	mníchovolehotskom	AAns6x
mníchovolehotský	mníchovolehotským	AAns7x
mníchovolehotský	mníchovolehotské	AAnp1x
mníchovolehotský	mníchovolehotských	AAnp2x
mníchovolehotský	mníchovolehotským	AAnp3x
mníchovolehotský	mníchovolehotské	AAnp4x
mníchovolehotský	mníchovolehotské	AAnp5x
mníchovolehotský	mníchovolehotských	AAnp6x
mníchovolehotský	mníchovolehotskými	AAnp7x
mníchovský	mníchovský	AAms1x
mníchovský	mníchovského	AAms2x
mníchovský	mníchovskému	AAms3x
mníchovský	mníchovského	AAms4x
mníchovský	mníchovský	AAms5x
mníchovský	mníchovskom	AAms6x
mníchovský	mníchovským	AAms7x
mníchovský	mníchovskí	AAmp1x
mníchovský	mníchovských	AAmp2x
mníchovský	mníchovským	AAmp3x
mníchovský	mníchovských	AAmp4x
mníchovský	mníchovskí	AAmp5x
mníchovský	mníchovských	AAmp6x
mníchovský	mníchovskými	AAmp7x
mníchovský	mníchovský	AAis1x
mníchovský	mníchovského	AAis2x
mníchovský	mníchovskému	AAis3x
mníchovský	mníchovský	AAis4x
mníchovský	mníchovský	AAis5x
mníchovský	mníchovskom	AAis6x
mníchovský	mníchovským	AAis7x
mníchovský	mníchovské	AAip1x
mníchovský	mníchovských	AAip2x
mníchovský	mníchovským	AAip3x
mníchovský	mníchovské	AAip4x
mníchovský	mníchovské	AAip5x
mníchovský	mníchovských	AAip6x
mníchovský	mníchovskými	AAip7x
mníchovský	mníchovská	AAfs1x
mníchovský	mníchovskej	AAfs2x
mníchovský	mníchovskej	AAfs3x
mníchovský	mníchovskú	AAfs4x
mníchovský	mníchovská	AAfs5x
mníchovský	mníchovskej	AAfs6x
mníchovský	mníchovskou	AAfs7x
mníchovský	mníchovské	AAfp1x
mníchovský	mníchovských	AAfp2x
mníchovský	mníchovským	AAfp3x
mníchovský	mníchovské	AAfp4x
mníchovský	mníchovské	AAfp5x
mníchovský	mníchovských	AAfp6x
mníchovský	mníchovskými	AAfp7x
mníchovský	mníchovské	AAns1x
mníchovský	mníchovského	AAns2x
mníchovský	mníchovskému	AAns3x
mníchovský	mníchovské	AAns4x
mníchovský	mníchovské	AAns5x
mníchovský	mníchovskom	AAns6x
mníchovský	mníchovským	AAns7x
mníchovský	mníchovské	AAnp1x
mníchovský	mníchovských	AAnp2x
mníchovský	mníchovským	AAnp3x
mníchovský	mníchovské	AAnp4x
mníchovský	mníchovské	AAnp5x
mníchovský	mníchovských	AAnp6x
mníchovský	mníchovskými	AAnp7x
mníška	mníška	SSfs1
mníška	mníšky	SSfs2
mníška	mníške	SSfs3
mníška	mníšku	SSfs4
mníška	mníška	SSfs5
mníška	mníške	SSfs6
mníška	mníškou	SSfs7
mníška	mníšky	SSfp1
mníška	mníšok	SSfp2
mníška	mníškam	SSfp3
mníška	mníšky	SSfp4
mníška	mníšky	SSfp5
mníška	mníškach	SSfp6
mníška	mníškami	SSfp7
mníšsky	mníšsky	AAms1x
mníšsky	mníšskeho	AAms2x
mníšsky	mníšskemu	AAms3x
mníšsky	mníšskeho	AAms4x
mníšsky	mníšsky	AAms5x
mníšsky	mníšskom	AAms6x
mníšsky	mníšskym	AAms7x
mníšsky	mníšski	AAmp1x
mníšsky	mníšskych	AAmp2x
mníšsky	mníšskym	AAmp3x
mníšsky	mníšskych	AAmp4x
mníšsky	mníšski	AAmp5x
mníšsky	mníšskych	AAmp6x
mníšsky	mníšskymi	AAmp7x
mníšsky	mníšsky	AAis1x
mníšsky	mníšskeho	AAis2x
mníšsky	mníšskemu	AAis3x
mníšsky	mníšsky	AAis4x
mníšsky	mníšsky	AAis5x
mníšsky	mníšskom	AAis6x
mníšsky	mníšskym	AAis7x
mníšsky	mníšske	AAip1x
mníšsky	mníšskych	AAip2x
mníšsky	mníšskym	AAip3x
mníšsky	mníšske	AAip4x
mníšsky	mníšske	AAip5x
mníšsky	mníšskych	AAip6x
mníšsky	mníšskymi	AAip7x
mníšsky	mníšska	AAfs1x
mníšsky	mníšskej	AAfs2x
mníšsky	mníšskej	AAfs3x
mníšsky	mníšsku	AAfs4x
mníšsky	mníšska	AAfs5x
mníšsky	mníšskej	AAfs6x
mníšsky	mníšskou	AAfs7x
mníšsky	mníšske	AAfp1x
mníšsky	mníšskych	AAfp2x
mníšsky	mníšskym	AAfp3x
mníšsky	mníšske	AAfp4x
mníšsky	mníšske	AAfp5x
mníšsky	mníšskych	AAfp6x
mníšsky	mníšskymi	AAfp7x
mníšsky	mníšske	AAns1x
mníšsky	mníšskeho	AAns2x
mníšsky	mníšskemu	AAns3x
mníšsky	mníšske	AAns4x
mníšsky	mníšske	AAns5x
mníšsky	mníšskom	AAns6x
mníšsky	mníšskym	AAns7x
mníšsky	mníšske	AAnp1x
mníšsky	mníšskych	AAnp2x
mníšsky	mníšskym	AAnp3x
mníšsky	mníšske	AAnp4x
mníšsky	mníšske	AAnp5x
mníšsky	mníšskych	AAnp6x
mníšsky	mníšskymi	AAnp7x
mňam	mňam	J
mňau	mňau	J
mňaukať	mňaukať	VIe+
mňaukať	mňaukám	VKesa+
mňaukať	mňaukáš	VKesb+
mňaukať	mňauká	VKesc+
mňaukať	mňaukáme	VKepa+
mňaukať	mňaukáte	VKepb+
mňaukať	mňaukajú	VKepc+
mňaukať	mňaukaj	VMesb+
mňaukať	mňaukajme	VMepa+
mňaukať	mňaukajte	VMepb+
mňaukať	mňaukajúc	VHe+
mňaukať	mňaukal	VLesam+
mňaukať	mňaukal	VLesai+
mňaukať	mňaukal	VLesbm+
mňaukať	mňaukal	VLesbi+
mňaukať	mňaukal	VLescm+
mňaukať	mňaukal	VLesci+
mňaukať	mňaukala	VLesaf+
mňaukať	mňaukala	VLesbf+
mňaukať	mňaukala	VLescf+
mňaukať	mňaukalo	VLesan+
mňaukať	mňaukalo	VLesbn+
mňaukať	mňaukalo	VLescn+
mňaukať	mňaukali	VLepah+
mňaukať	mňaukali	VLepbh+
mňaukať	mňaukali	VLepcm+
mňaukať	mňaukali	VLepci+
mňaukať	mňaukali	VLepcf+
mňaukať	mňaukali	VLepcn+
mňaukať	mňaukali	VLepco+
mňauknúť	mňauknúť	VId+
mňauknúť	mňauknem	VKdsa+
mňauknúť	mňaukneš	VKdsb+
mňauknúť	mňaukne	VKdsc+
mňauknúť	mňaukneme	VKdpa+
mňauknúť	mňauknete	VKdpb+
mňauknúť	mňauknú	VKdpc+
mňauknúť	mňaukni	VMdsb+
mňauknúť	mňauknime	VMdpa+
mňauknúť	mňauknite	VMdpb+
mňauknúť	mňauknúc	VHd+
mňauknúť	mňaukol	VLdsam+
mňauknúť	mňaukol	VLdsai+
mňauknúť	mňaukol	VLdsbm+
mňauknúť	mňaukol	VLdsbi+
mňauknúť	mňaukol	VLdscm+
mňauknúť	mňaukol	VLdsci+
mňauknúť	mňaukla	VLdsaf+
mňauknúť	mňaukla	VLdsbf+
mňauknúť	mňaukla	VLdscf+
mňauknúť	mňauklo	VLdsan+
mňauknúť	mňauklo	VLdsbn+
mňauknúť	mňauklo	VLdscn+
mňauknúť	mňaukli	VLdpah+
mňauknúť	mňaukli	VLdpbh+
mňauknúť	mňaukli	VLdpcm+
mňauknúť	mňaukli	VLdpci+
mňauknúť	mňaukli	VLdpcf+
mňauknúť	mňaukli	VLdpcn+
mňauknúť	mňaukli	VLdpco+
mňaučať	mňaučať	VIe+
mňaučať	mňaučím	VKesa+
mňaučať	mňaučíš	VKesb+
mňaučať	mňaučí	VKesc+
mňaučať	mňaučíme	VKepa+
mňaučať	mňaučíte	VKepb+
mňaučať	mňaučia	VKepc+
mňaučať	mňauč	VMesb+
mňaučať	mňauči	VMesb+
mňaučať	mňaučime	VMepa+
mňaučať	mňaučme	VMepa+
mňaučať	mňaučte	VMepb+
mňaučať	mňaučite	VMepb+
mňaučať	mňaučiac	VHe+
mňaučať	mňaučal	VLesam+
mňaučať	mňaučal	VLesai+
mňaučať	mňaučal	VLesbm+
mňaučať	mňaučal	VLesbi+
mňaučať	mňaučal	VLescm+
mňaučať	mňaučal	VLesci+
mňaučať	mňaučala	VLesaf+
mňaučať	mňaučala	VLesbf+
mňaučať	mňaučala	VLescf+
mňaučať	mňaučalo	VLesan+
mňaučať	mňaučalo	VLesbn+
mňaučať	mňaučalo	VLescn+
mňaučať	mňaučali	VLepah+
mňaučať	mňaučali	VLepbh+
mňaučať	mňaučali	VLepcm+
mňaučať	mňaučali	VLepci+
mňaučať	mňaučali	VLepcf+
mňaučať	mňaučali	VLepcn+
mňaučať	mňaučali	VLepco+
