o	o	Eu4
o	o	Eu6
o	o	J
o	o	Q
o	o	SUnp1
o	o	SUnp2
o	o	SUnp3
o	o	SUnp4
o	o	SUnp5
o	o	SUnp6
o	o	SUnp7
o	o	SUns1
o	o	SUns2
o	o	SUns3
o	o	SUns4
o	o	SUns5
o	o	SUns6
o	o	SUns7
o	o	W
ó	ó	J
ó	ó	SUnp1
ó	ó	SUnp2
ó	ó	SUnp3
ó	ó	SUnp4
ó	ó	SUnp5
ó	ó	SUnp6
ó	ó	SUnp7
ó	ó	SUns1
ó	ó	SUns2
ó	ó	SUns3
ó	ó	SUns4
ó	ó	SUns5
ó	ó	SUns6
ó	ó	SUns7
ô	ô	SUnp1
ô	ô	SUnp2
ô	ô	SUnp3
ô	ô	SUnp4
ô	ô	SUnp5
ô	ô	SUnp6
ô	ô	SUnp7
ô	ô	SUns1
ô	ô	SUns2
ô	ô	SUns3
ô	ô	SUns4
ô	ô	SUns5
ô	ô	SUns6
ô	ô	SUns7
