oidipovský	oidipovský	AAms1x
oidipovský	oidipovského	AAms2x
oidipovský	oidipovskému	AAms3x
oidipovský	oidipovského	AAms4x
oidipovský	oidipovský	AAms5x
oidipovský	oidipovskom	AAms6x
oidipovský	oidipovským	AAms7x
oidipovský	oidipovskí	AAmp1x
oidipovský	oidipovských	AAmp2x
oidipovský	oidipovským	AAmp3x
oidipovský	oidipovských	AAmp4x
oidipovský	oidipovskí	AAmp5x
oidipovský	oidipovských	AAmp6x
oidipovský	oidipovskými	AAmp7x
oidipovský	oidipovský	AAis1x
oidipovský	oidipovského	AAis2x
oidipovský	oidipovskému	AAis3x
oidipovský	oidipovský	AAis4x
oidipovský	oidipovský	AAis5x
oidipovský	oidipovskom	AAis6x
oidipovský	oidipovským	AAis7x
oidipovský	oidipovské	AAip1x
oidipovský	oidipovských	AAip2x
oidipovský	oidipovským	AAip3x
oidipovský	oidipovské	AAip4x
oidipovský	oidipovské	AAip5x
oidipovský	oidipovských	AAip6x
oidipovský	oidipovskými	AAip7x
oidipovský	oidipovská	AAfs1x
oidipovský	oidipovskej	AAfs2x
oidipovský	oidipovskej	AAfs3x
oidipovský	oidipovskú	AAfs4x
oidipovský	oidipovská	AAfs5x
oidipovský	oidipovskej	AAfs6x
oidipovský	oidipovskou	AAfs7x
oidipovský	oidipovské	AAfp1x
oidipovský	oidipovských	AAfp2x
oidipovský	oidipovským	AAfp3x
oidipovský	oidipovské	AAfp4x
oidipovský	oidipovské	AAfp5x
oidipovský	oidipovských	AAfp6x
oidipovský	oidipovskými	AAfp7x
oidipovský	oidipovské	AAns1x
oidipovský	oidipovského	AAns2x
oidipovský	oidipovskému	AAns3x
oidipovský	oidipovské	AAns4x
oidipovský	oidipovské	AAns5x
oidipovský	oidipovskom	AAns6x
oidipovský	oidipovským	AAns7x
oidipovský	oidipovské	AAnp1x
oidipovský	oidipovských	AAnp2x
oidipovský	oidipovským	AAnp3x
oidipovský	oidipovské	AAnp4x
oidipovský	oidipovské	AAnp5x
oidipovský	oidipovských	AAnp6x
oidipovský	oidipovskými	AAnp7x
