OÚ	OÚ	W
OÚP	OÚP	W
ouagadougouský	ouagadougouský	AAms1x
ouagadougouský	ouagadougouského	AAms2x
ouagadougouský	ouagadougouskému	AAms3x
ouagadougouský	ouagadougouského	AAms4x
ouagadougouský	ouagadougouský	AAms5x
ouagadougouský	ouagadougouskom	AAms6x
ouagadougouský	ouagadougouským	AAms7x
ouagadougouský	ouagadougouskí	AAmp1x
ouagadougouský	ouagadougouských	AAmp2x
ouagadougouský	ouagadougouským	AAmp3x
ouagadougouský	ouagadougouských	AAmp4x
ouagadougouský	ouagadougouskí	AAmp5x
ouagadougouský	ouagadougouských	AAmp6x
ouagadougouský	ouagadougouskými	AAmp7x
ouagadougouský	ouagadougouský	AAis1x
ouagadougouský	ouagadougouského	AAis2x
ouagadougouský	ouagadougouskému	AAis3x
ouagadougouský	ouagadougouský	AAis4x
ouagadougouský	ouagadougouský	AAis5x
ouagadougouský	ouagadougouskom	AAis6x
ouagadougouský	ouagadougouským	AAis7x
ouagadougouský	ouagadougouské	AAip1x
ouagadougouský	ouagadougouských	AAip2x
ouagadougouský	ouagadougouským	AAip3x
ouagadougouský	ouagadougouské	AAip4x
ouagadougouský	ouagadougouské	AAip5x
ouagadougouský	ouagadougouských	AAip6x
ouagadougouský	ouagadougouskými	AAip7x
ouagadougouský	ouagadougouská	AAfs1x
ouagadougouský	ouagadougouskej	AAfs2x
ouagadougouský	ouagadougouskej	AAfs3x
ouagadougouský	ouagadougouskú	AAfs4x
ouagadougouský	ouagadougouská	AAfs5x
ouagadougouský	ouagadougouskej	AAfs6x
ouagadougouský	ouagadougouskou	AAfs7x
ouagadougouský	ouagadougouské	AAfp1x
ouagadougouský	ouagadougouských	AAfp2x
ouagadougouský	ouagadougouským	AAfp3x
ouagadougouský	ouagadougouské	AAfp4x
ouagadougouský	ouagadougouské	AAfp5x
ouagadougouský	ouagadougouských	AAfp6x
ouagadougouský	ouagadougouskými	AAfp7x
ouagadougouský	ouagadougouské	AAns1x
ouagadougouský	ouagadougouského	AAns2x
ouagadougouský	ouagadougouskému	AAns3x
ouagadougouský	ouagadougouské	AAns4x
ouagadougouský	ouagadougouské	AAns5x
ouagadougouský	ouagadougouskom	AAns6x
ouagadougouský	ouagadougouským	AAns7x
ouagadougouský	ouagadougouské	AAnp1x
ouagadougouský	ouagadougouských	AAnp2x
ouagadougouský	ouagadougouským	AAnp3x
ouagadougouský	ouagadougouské	AAnp4x
ouagadougouský	ouagadougouské	AAnp5x
ouagadougouský	ouagadougouských	AAnp6x
ouagadougouský	ouagadougouskými	AAnp7x
outsider	outsider	SSms1
outsider	outsidera	SSms2
outsider	outsiderovi	SSms3
outsider	outsidera	SSms4
outsider	outsider	SSms5
outsider	outsiderovi	SSms6
outsider	outsiderom	SSms7
outsider	outsideri	SSmp1
outsider	outsiderov	SSmp2
outsider	outsiderom	SSmp3
outsider	outsiderov	SSmp4
outsider	outsideri	SSmp5
outsider	outsideroch	SSmp6
outsider	outsidermi	SSmp7
ouvertúra	ouvertúra	SSfs1
ouvertúra	ouvertúry	SSfs2
ouvertúra	ouvertúre	SSfs3
ouvertúra	ouvertúru	SSfs4
ouvertúra	ouvertúra	SSfs5
ouvertúra	ouvertúre	SSfs6
ouvertúra	ouvertúrou	SSfs7
ouvertúra	ouvertúry	SSfp1
ouvertúra	ouvertúr	SSfp2
ouvertúra	ouvertúram	SSfp3
ouvertúra	ouvertúry	SSfp4
ouvertúra	ouvertúry	SSfp5
ouvertúra	ouvertúrach	SSfp6
ouvertúra	ouvertúrami	SSfp7
