ubabrať	ubabrať	VId+
ubabrať	ubabrem	VKdsa+
ubabrať	ubabreš	VKdsb+
ubabrať	ubabre	VKdsc+
ubabrať	ubabreme	VKdpa+
ubabrať	ubabrete	VKdpb+
ubabrať	ubabrú	VKdpc+
ubabrať	ubabri	VMdsb+
ubabrať	ubabrime	VMdpa+
ubabrať	ubabrite	VMdpb+
ubabrať	ubabrúc	VHd+
ubabrať	ubabral	VLdsam+
ubabrať	ubabral	VLdsai+
ubabrať	ubabral	VLdsbm+
ubabrať	ubabral	VLdsbi+
ubabrať	ubabral	VLdscm+
ubabrať	ubabral	VLdsci+
ubabrať	ubabrala	VLdsaf+
ubabrať	ubabrala	VLdsbf+
ubabrať	ubabrala	VLdscf+
ubabrať	ubabralo	VLdsan+
ubabrať	ubabralo	VLdsbn+
ubabrať	ubabralo	VLdscn+
ubabrať	ubabrali	VLdpah+
ubabrať	ubabrali	VLdpbh+
ubabrať	ubabrali	VLdpcm+
ubabrať	ubabrali	VLdpci+
ubabrať	ubabrali	VLdpcf+
ubabrať	ubabrali	VLdpcn+
ubabrať	ubabrali	VLdpco+
ubehnúť	ubehnúť	VId+
ubehnúť	ubehnem	VKdsa+
ubehnúť	ubehneš	VKdsb+
ubehnúť	ubehne	VKdsc+
ubehnúť	ubehneme	VKdpa+
ubehnúť	ubehnete	VKdpb+
ubehnúť	ubehnú	VKdpc+
ubehnúť	ubehni	VMdsb+
ubehnúť	ubehnime	VMdpa+
ubehnúť	ubehnite	VMdpb+
ubehnúť	ubehnúc	VHd+
ubehnúť	ubehol	VLdsam+
ubehnúť	ubehol	VLdsai+
ubehnúť	ubehol	VLdsbm+
ubehnúť	ubehol	VLdsbi+
ubehnúť	ubehol	VLdscm+
ubehnúť	ubehol	VLdsci+
ubehnúť	ubehla	VLdsaf+
ubehnúť	ubehla	VLdsbf+
ubehnúť	ubehla	VLdscf+
ubehnúť	ubehlo	VLdsan+
ubehnúť	ubehlo	VLdsbn+
ubehnúť	ubehlo	VLdscn+
ubehnúť	ubehli	VLdpah+
ubehnúť	ubehli	VLdpbh+
ubehnúť	ubehli	VLdpcm+
ubehnúť	ubehli	VLdpci+
ubehnúť	ubehli	VLdpcf+
ubehnúť	ubehli	VLdpcn+
ubehnúť	ubehli	VLdpco+
uberať	uberať	VIe+
uberať	uberám	VKesa+
uberať	uberáš	VKesb+
uberať	uberá	VKesc+
uberať	uberáme	VKepa+
uberať	uberáte	VKepb+
uberať	uberajú	VKepc+
uberať	uberaj	VMesb+
uberať	uberajme	VMepa+
uberať	uberajte	VMepb+
uberať	uberajúc	VHe+
uberať	uberal	VLesam+
uberať	uberal	VLesai+
uberať	uberal	VLesbm+
uberať	uberal	VLesbi+
uberať	uberal	VLescm+
uberať	uberal	VLesci+
uberať	uberala	VLesaf+
uberať	uberala	VLesbf+
uberať	uberala	VLescf+
uberať	uberalo	VLesan+
uberať	uberalo	VLesbn+
uberať	uberalo	VLescn+
uberať	uberali	VLepah+
uberať	uberali	VLepbh+
uberať	uberali	VLepcm+
uberať	uberali	VLepci+
uberať	uberali	VLepcf+
uberať	uberali	VLepcn+
uberať	uberali	VLepco+
ubezpečiť	ubezpečiť	VId+
ubezpečiť	ubezpečím	VKdsa+
ubezpečiť	ubezpečíš	VKdsb+
ubezpečiť	ubezpečí	VKdsc+
ubezpečiť	ubezpečíme	VKdpa+
ubezpečiť	ubezpečíte	VKdpb+
ubezpečiť	ubezpečia	VKdpc+
ubezpečiť	ubezpeč	VMdsb+
ubezpečiť	ubezpečme	VMdpa+
ubezpečiť	ubezpečte	VMdpb+
ubezpečiť	ubezpečiac	VHd+
ubezpečiť	ubezpečil	VLdsam+
ubezpečiť	ubezpečil	VLdsai+
ubezpečiť	ubezpečil	VLdsbm+
ubezpečiť	ubezpečil	VLdsbi+
ubezpečiť	ubezpečil	VLdscm+
ubezpečiť	ubezpečil	VLdsci+
ubezpečiť	ubezpečila	VLdsaf+
ubezpečiť	ubezpečila	VLdsbf+
ubezpečiť	ubezpečila	VLdscf+
ubezpečiť	ubezpečilo	VLdsan+
ubezpečiť	ubezpečilo	VLdsbn+
ubezpečiť	ubezpečilo	VLdscn+
ubezpečiť	ubezpečili	VLdpah+
ubezpečiť	ubezpečili	VLdpbh+
ubezpečiť	ubezpečili	VLdpcm+
ubezpečiť	ubezpečili	VLdpci+
ubezpečiť	ubezpečili	VLdpcf+
ubezpečiť	ubezpečili	VLdpcn+
ubezpečiť	ubezpečili	VLdpco+
ubezpečovať	ubezpečovať	VIe+
ubezpečovať	ubezpečujem	VKesa+
ubezpečovať	ubezpečuješ	VKesb+
ubezpečovať	ubezpečuje	VKesc+
ubezpečovať	ubezpečujeme	VKepa+
ubezpečovať	ubezpečujete	VKepb+
ubezpečovať	ubezpečujú	VKepc+
ubezpečovať	ubezpečuj	VMesb+
ubezpečovať	ubezpečujme	VMepa+
ubezpečovať	ubezpečujte	VMepb+
ubezpečovať	ubezpečujúc	VHe+
ubezpečovať	ubezpečoval	VLesam+
ubezpečovať	ubezpečoval	VLesai+
ubezpečovať	ubezpečoval	VLesbm+
ubezpečovať	ubezpečoval	VLesbi+
ubezpečovať	ubezpečoval	VLescm+
ubezpečovať	ubezpečoval	VLesci+
ubezpečovať	ubezpečovala	VLesaf+
ubezpečovať	ubezpečovala	VLesbf+
ubezpečovať	ubezpečovala	VLescf+
ubezpečovať	ubezpečovalo	VLesan+
ubezpečovať	ubezpečovalo	VLesbn+
ubezpečovať	ubezpečovalo	VLescn+
ubezpečovať	ubezpečovali	VLepah+
ubezpečovať	ubezpečovali	VLepbh+
ubezpečovať	ubezpečovali	VLepcm+
ubezpečovať	ubezpečovali	VLepci+
ubezpečovať	ubezpečovali	VLepcf+
ubezpečovať	ubezpečovali	VLepcn+
ubezpečovať	ubezpečovali	VLepco+
ubiedene	ubiedene	Dx
ubiedene	ubiedenejšie	Dy
ubiedene	najubiedenejšie	Dz
ubiedenosť	ubiedenosť	SSfs1
ubiedenosť	ubiedenosti	SSfs2
ubiedenosť	ubiedenosti	SSfs3
ubiedenosť	ubiedenosť	SSfs4
ubiedenosť	ubiedenosť	SSfs5
ubiedenosť	ubiedenosti	SSfs6
ubiedenosť	ubiedenosťou	SSfs7
ubiedenosť	ubiedenosti	SSfp1
ubiedenosť	ubiedeností	SSfp2
ubiedenosť	ubiedenostiam	SSfp3
ubiedenosť	ubiedenosti	SSfp4
ubiedenosť	ubiedenosti	SSfp5
ubiedenosť	ubiedenostiach	SSfp6
ubiedenosť	ubiedenosťami	SSfp7
ubiedený	ubiedený	AAms1x
ubiedený	ubiedeného	AAms2x
ubiedený	ubiedenému	AAms3x
ubiedený	ubiedeného	AAms4x
ubiedený	ubiedený	AAms5x
ubiedený	ubiedenom	AAms6x
ubiedený	ubiedeným	AAms7x
ubiedený	ubiedení	AAmp1x
ubiedený	ubiedených	AAmp2x
ubiedený	ubiedeným	AAmp3x
ubiedený	ubiedených	AAmp4x
ubiedený	ubiedení	AAmp5x
ubiedený	ubiedených	AAmp6x
ubiedený	ubiedenými	AAmp7x
ubiedený	ubiedený	AAis1x
ubiedený	ubiedeného	AAis2x
ubiedený	ubiedenému	AAis3x
ubiedený	ubiedený	AAis4x
ubiedený	ubiedený	AAis5x
ubiedený	ubiedenom	AAis6x
ubiedený	ubiedeným	AAis7x
ubiedený	ubiedené	AAip1x
ubiedený	ubiedených	AAip2x
ubiedený	ubiedeným	AAip3x
ubiedený	ubiedené	AAip4x
ubiedený	ubiedené	AAip5x
ubiedený	ubiedených	AAip6x
ubiedený	ubiedenými	AAip7x
ubiedený	ubiedená	AAfs1x
ubiedený	ubiedenej	AAfs2x
ubiedený	ubiedenej	AAfs3x
ubiedený	ubiedenú	AAfs4x
ubiedený	ubiedená	AAfs5x
ubiedený	ubiedenej	AAfs6x
ubiedený	ubiedenou	AAfs7x
ubiedený	ubiedené	AAfp1x
ubiedený	ubiedených	AAfp2x
ubiedený	ubiedeným	AAfp3x
ubiedený	ubiedené	AAfp4x
ubiedený	ubiedené	AAfp5x
ubiedený	ubiedených	AAfp6x
ubiedený	ubiedenými	AAfp7x
ubiedený	ubiedené	AAns1x
ubiedený	ubiedeného	AAns2x
ubiedený	ubiedenému	AAns3x
ubiedený	ubiedené	AAns4x
ubiedený	ubiedené	AAns5x
ubiedený	ubiedenom	AAns6x
ubiedený	ubiedeným	AAns7x
ubiedený	ubiedené	AAnp1x
ubiedený	ubiedených	AAnp2x
ubiedený	ubiedeným	AAnp3x
ubiedený	ubiedené	AAnp4x
ubiedený	ubiedené	AAnp5x
ubiedený	ubiedených	AAnp6x
ubiedený	ubiedenými	AAnp7x
ubiedený	ubiedenejší	AAms1y
ubiedený	ubiedenejšieho	AAms2y
ubiedený	ubiedenejšiemu	AAms3y
ubiedený	ubiedenejšieho	AAms4y
ubiedený	ubiedenejší	AAms5y
ubiedený	ubiedenejšom	AAms6y
ubiedený	ubiedenejším	AAms7y
ubiedený	ubiedenejší	AAmp1y
ubiedený	ubiedenejších	AAmp2y
ubiedený	ubiedenejším	AAmp3y
ubiedený	ubiedenejších	AAmp4y
ubiedený	ubiedenejší	AAmp5y
ubiedený	ubiedenejších	AAmp6y
ubiedený	ubiedenejšími	AAmp7y
ubiedený	ubiedenejší	AAis1y
ubiedený	ubiedenejšieho	AAis2y
ubiedený	ubiedenejšiemu	AAis3y
ubiedený	ubiedenejší	AAis4y
ubiedený	ubiedenejší	AAis5y
ubiedený	ubiedenejšom	AAis6y
ubiedený	ubiedenejším	AAis7y
ubiedený	ubiedenejšie	AAip1y
ubiedený	ubiedenejších	AAip2y
ubiedený	ubiedenejším	AAip3y
ubiedený	ubiedenejšie	AAip4y
ubiedený	ubiedenejšie	AAip5y
ubiedený	ubiedenejších	AAip6y
ubiedený	ubiedenejšími	AAip7y
ubiedený	ubiedenejšia	AAfs1y
ubiedený	ubiedenejšej	AAfs2y
ubiedený	ubiedenejšej	AAfs3y
ubiedený	ubiedenejšiu	AAfs4y
ubiedený	ubiedenejšia	AAfs5y
ubiedený	ubiedenejšej	AAfs6y
ubiedený	ubiedenejšou	AAfs7y
ubiedený	ubiedenejšie	AAfp1y
ubiedený	ubiedenejších	AAfp2y
ubiedený	ubiedenejším	AAfp3y
ubiedený	ubiedenejšie	AAfp4y
ubiedený	ubiedenejšie	AAfp5y
ubiedený	ubiedenejších	AAfp6y
ubiedený	ubiedenejšími	AAfp7y
ubiedený	ubiedenejšie	AAns1y
ubiedený	ubiedenejšieho	AAns2y
ubiedený	ubiedenejšiemu	AAns3y
ubiedený	ubiedenejšie	AAns4y
ubiedený	ubiedenejšie	AAns5y
ubiedený	ubiedenejšom	AAns6y
ubiedený	ubiedenejším	AAns7y
ubiedený	ubiedenejšie	AAnp1y
ubiedený	ubiedenejších	AAnp2y
ubiedený	ubiedenejším	AAnp3y
ubiedený	ubiedenejšie	AAnp4y
ubiedený	ubiedenejšie	AAnp5y
ubiedený	ubiedenejších	AAnp6y
ubiedený	ubiedenejšími	AAnp7y
ubiedený	najubiedenejší	AAms1z
ubiedený	najubiedenejšieho	AAms2z
ubiedený	najubiedenejšiemu	AAms3z
ubiedený	najubiedenejšieho	AAms4z
ubiedený	najubiedenejší	AAms5z
ubiedený	najubiedenejšom	AAms6z
ubiedený	najubiedenejším	AAms7z
ubiedený	najubiedenejší	AAmp1z
ubiedený	najubiedenejších	AAmp2z
ubiedený	najubiedenejším	AAmp3z
ubiedený	najubiedenejších	AAmp4z
ubiedený	najubiedenejší	AAmp5z
ubiedený	najubiedenejších	AAmp6z
ubiedený	najubiedenejšími	AAmp7z
ubiedený	najubiedenejší	AAis1z
ubiedený	najubiedenejšieho	AAis2z
ubiedený	najubiedenejšiemu	AAis3z
ubiedený	najubiedenejší	AAis4z
ubiedený	najubiedenejší	AAis5z
ubiedený	najubiedenejšom	AAis6z
ubiedený	najubiedenejším	AAis7z
ubiedený	najubiedenejšie	AAip1z
ubiedený	najubiedenejších	AAip2z
ubiedený	najubiedenejším	AAip3z
ubiedený	najubiedenejšie	AAip4z
ubiedený	najubiedenejšie	AAip5z
ubiedený	najubiedenejších	AAip6z
ubiedený	najubiedenejšími	AAip7z
ubiedený	najubiedenejšia	AAfs1z
ubiedený	najubiedenejšej	AAfs2z
ubiedený	najubiedenejšej	AAfs3z
ubiedený	najubiedenejšiu	AAfs4z
ubiedený	najubiedenejšia	AAfs5z
ubiedený	najubiedenejšej	AAfs6z
ubiedený	najubiedenejšou	AAfs7z
ubiedený	najubiedenejšie	AAfp1z
ubiedený	najubiedenejších	AAfp2z
ubiedený	najubiedenejším	AAfp3z
ubiedený	najubiedenejšie	AAfp4z
ubiedený	najubiedenejšie	AAfp5z
ubiedený	najubiedenejších	AAfp6z
ubiedený	najubiedenejšími	AAfp7z
ubiedený	najubiedenejšie	AAns1z
ubiedený	najubiedenejšieho	AAns2z
ubiedený	najubiedenejšiemu	AAns3z
ubiedený	najubiedenejšie	AAns4z
ubiedený	najubiedenejšie	AAns5z
ubiedený	najubiedenejšom	AAns6z
ubiedený	najubiedenejším	AAns7z
ubiedený	najubiedenejšie	AAnp1z
ubiedený	najubiedenejších	AAnp2z
ubiedený	najubiedenejším	AAnp3z
ubiedený	najubiedenejšie	AAnp4z
ubiedený	najubiedenejšie	AAnp5z
ubiedený	najubiedenejších	AAnp6z
ubiedený	najubiedenejšími	AAnp7z
ubiehať	ubiehať	VIe+
ubiehať	ubieham	VKesa+
ubiehať	ubiehaš	VKesb+
ubiehať	ubieha	VKesc+
ubiehať	ubiehame	VKepa+
ubiehať	ubiehate	VKepb+
ubiehať	ubiehajú	VKepc+
ubiehať	ubiehaj	VMesb+
ubiehať	ubiehajme	VMepa+
ubiehať	ubiehajte	VMepb+
ubiehať	ubiehajúc	VHe+
ubiehať	ubiehal	VLesam+
ubiehať	ubiehal	VLesai+
ubiehať	ubiehal	VLesbm+
ubiehať	ubiehal	VLesbi+
ubiehať	ubiehal	VLescm+
ubiehať	ubiehal	VLesci+
ubiehať	ubiehala	VLesaf+
ubiehať	ubiehala	VLesbf+
ubiehať	ubiehala	VLescf+
ubiehať	ubiehalo	VLesan+
ubiehať	ubiehalo	VLesbn+
ubiehať	ubiehalo	VLescn+
ubiehať	ubiehali	VLepah+
ubiehať	ubiehali	VLepbh+
ubiehať	ubiehali	VLepcm+
ubiehať	ubiehali	VLepci+
ubiehať	ubiehali	VLepcf+
ubiehať	ubiehali	VLepcn+
ubiehať	ubiehali	VLepco+
ubikácia	ubikácia	SSfs1
ubikácia	ubikácie	SSfs2
ubikácia	ubikácii	SSfs3
ubikácia	ubikáciu	SSfs4
ubikácia	ubikácia	SSfs5
ubikácia	ubikácii	SSfs6
ubikácia	ubikáciou	SSfs7
ubikácia	ubikácie	SSfp1
ubikácia	ubikácií	SSfp2
ubikácia	ubikáciám	SSfp3
ubikácia	ubikácie	SSfp4
ubikácia	ubikácie	SSfp5
ubikácia	ubikáciách	SSfp6
ubikácia	ubikáciami	SSfp7
ubiť	ubiť	VId+
ubiť	ubijem	VKdsa+
ubiť	ubiješ	VKdsb+
ubiť	ubije	VKdsc+
ubiť	ubijeme	VKdpa+
ubiť	ubijete	VKdpb+
ubiť	ubijú	VKdpc+
ubiť	ubi	VMdsb+
ubiť	ubime	VMdpa+
ubiť	ubite	VMdpb+
ubiť	ubijúc	VHd+
ubiť	ubil	VLdsam+
ubiť	ubil	VLdsai+
ubiť	ubil	VLdsbm+
ubiť	ubil	VLdsbi+
ubiť	ubil	VLdscm+
ubiť	ubil	VLdsci+
ubiť	ubila	VLdsaf+
ubiť	ubila	VLdsbf+
ubiť	ubila	VLdscf+
ubiť	ubilo	VLdsan+
ubiť	ubilo	VLdsbn+
ubiť	ubilo	VLdscn+
ubiť	ubili	VLdpah+
ubiť	ubili	VLdpbh+
ubiť	ubili	VLdpcm+
ubiť	ubili	VLdpci+
ubiť	ubili	VLdpcf+
ubiť	ubili	VLdpcn+
ubiť	ubili	VLdpco+
ubliansky	ubliansky	AAms1x
ubliansky	ublianskeho	AAms2x
ubliansky	ublianskemu	AAms3x
ubliansky	ublianskeho	AAms4x
ubliansky	ubliansky	AAms5x
ubliansky	ublianskom	AAms6x
ubliansky	ublianskym	AAms7x
ubliansky	ublianski	AAmp1x
ubliansky	ublianskych	AAmp2x
ubliansky	ublianskym	AAmp3x
ubliansky	ublianskych	AAmp4x
ubliansky	ublianski	AAmp5x
ubliansky	ublianskych	AAmp6x
ubliansky	ublianskymi	AAmp7x
ubliansky	ubliansky	AAis1x
ubliansky	ublianskeho	AAis2x
ubliansky	ublianskemu	AAis3x
ubliansky	ubliansky	AAis4x
ubliansky	ubliansky	AAis5x
ubliansky	ublianskom	AAis6x
ubliansky	ublianskym	AAis7x
ubliansky	ublianske	AAip1x
ubliansky	ublianskych	AAip2x
ubliansky	ublianskym	AAip3x
ubliansky	ublianske	AAip4x
ubliansky	ublianske	AAip5x
ubliansky	ublianskych	AAip6x
ubliansky	ublianskymi	AAip7x
ubliansky	ublianska	AAfs1x
ubliansky	ublianskej	AAfs2x
ubliansky	ublianskej	AAfs3x
ubliansky	ubliansku	AAfs4x
ubliansky	ublianska	AAfs5x
ubliansky	ublianskej	AAfs6x
ubliansky	ublianskou	AAfs7x
ubliansky	ublianske	AAfp1x
ubliansky	ublianskych	AAfp2x
ubliansky	ublianskym	AAfp3x
ubliansky	ublianske	AAfp4x
ubliansky	ublianske	AAfp5x
ubliansky	ublianskych	AAfp6x
ubliansky	ublianskymi	AAfp7x
ubliansky	ublianske	AAns1x
ubliansky	ublianskeho	AAns2x
ubliansky	ublianskemu	AAns3x
ubliansky	ublianske	AAns4x
ubliansky	ublianske	AAns5x
ubliansky	ublianskom	AAns6x
ubliansky	ublianskym	AAns7x
ubliansky	ublianske	AAnp1x
ubliansky	ublianskych	AAnp2x
ubliansky	ublianskym	AAnp3x
ubliansky	ublianske	AAnp4x
ubliansky	ublianske	AAnp5x
ubliansky	ublianskych	AAnp6x
ubliansky	ublianskymi	AAnp7x
ubliansky	ublianskejší	AAms1y
ubliansky	ublianskejšieho	AAms2y
ubliansky	ublianskejšiemu	AAms3y
ubliansky	ublianskejšieho	AAms4y
ubliansky	ublianskejší	AAms5y
ubliansky	ublianskejšom	AAms6y
ubliansky	ublianskejším	AAms7y
ubliansky	ublianskejší	AAmp1y
ubliansky	ublianskejších	AAmp2y
ubliansky	ublianskejším	AAmp3y
ubliansky	ublianskejších	AAmp4y
ubliansky	ublianskejší	AAmp5y
ubliansky	ublianskejších	AAmp6y
ubliansky	ublianskejšími	AAmp7y
ubliansky	ublianskejší	AAis1y
ubliansky	ublianskejšieho	AAis2y
ubliansky	ublianskejšiemu	AAis3y
ubliansky	ublianskejší	AAis4y
ubliansky	ublianskejší	AAis5y
ubliansky	ublianskejšom	AAis6y
ubliansky	ublianskejším	AAis7y
ubliansky	ublianskejšie	AAip1y
ubliansky	ublianskejších	AAip2y
ubliansky	ublianskejším	AAip3y
ubliansky	ublianskejšie	AAip4y
ubliansky	ublianskejšie	AAip5y
ubliansky	ublianskejších	AAip6y
ubliansky	ublianskejšími	AAip7y
ubliansky	ublianskejšia	AAfs1y
ubliansky	ublianskejšej	AAfs2y
ubliansky	ublianskejšej	AAfs3y
ubliansky	ublianskejšiu	AAfs4y
ubliansky	ublianskejšia	AAfs5y
ubliansky	ublianskejšej	AAfs6y
ubliansky	ublianskejšou	AAfs7y
ubliansky	ublianskejšie	AAfp1y
ubliansky	ublianskejších	AAfp2y
ubliansky	ublianskejším	AAfp3y
ubliansky	ublianskejšie	AAfp4y
ubliansky	ublianskejšie	AAfp5y
ubliansky	ublianskejších	AAfp6y
ubliansky	ublianskejšími	AAfp7y
ubliansky	ublianskejšie	AAns1y
ubliansky	ublianskejšieho	AAns2y
ubliansky	ublianskejšiemu	AAns3y
ubliansky	ublianskejšie	AAns4y
ubliansky	ublianskejšie	AAns5y
ubliansky	ublianskejšom	AAns6y
ubliansky	ublianskejším	AAns7y
ubliansky	ublianskejšie	AAnp1y
ubliansky	ublianskejších	AAnp2y
ubliansky	ublianskejším	AAnp3y
ubliansky	ublianskejšie	AAnp4y
ubliansky	ublianskejšie	AAnp5y
ubliansky	ublianskejších	AAnp6y
ubliansky	ublianskejšími	AAnp7y
ubliansky	najublianskejší	AAms1z
ubliansky	najublianskejšieho	AAms2z
ubliansky	najublianskejšiemu	AAms3z
ubliansky	najublianskejšieho	AAms4z
ubliansky	najublianskejší	AAms5z
ubliansky	najublianskejšom	AAms6z
ubliansky	najublianskejším	AAms7z
ubliansky	najublianskejší	AAmp1z
ubliansky	najublianskejších	AAmp2z
ubliansky	najublianskejším	AAmp3z
ubliansky	najublianskejších	AAmp4z
ubliansky	najublianskejší	AAmp5z
ubliansky	najublianskejších	AAmp6z
ubliansky	najublianskejšími	AAmp7z
ubliansky	najublianskejší	AAis1z
ubliansky	najublianskejšieho	AAis2z
ubliansky	najublianskejšiemu	AAis3z
ubliansky	najublianskejší	AAis4z
ubliansky	najublianskejší	AAis5z
ubliansky	najublianskejšom	AAis6z
ubliansky	najublianskejším	AAis7z
ubliansky	najublianskejšie	AAip1z
ubliansky	najublianskejších	AAip2z
ubliansky	najublianskejším	AAip3z
ubliansky	najublianskejšie	AAip4z
ubliansky	najublianskejšie	AAip5z
ubliansky	najublianskejších	AAip6z
ubliansky	najublianskejšími	AAip7z
ubliansky	najublianskejšia	AAfs1z
ubliansky	najublianskejšej	AAfs2z
ubliansky	najublianskejšej	AAfs3z
ubliansky	najublianskejšiu	AAfs4z
ubliansky	najublianskejšia	AAfs5z
ubliansky	najublianskejšej	AAfs6z
ubliansky	najublianskejšou	AAfs7z
ubliansky	najublianskejšie	AAfp1z
ubliansky	najublianskejších	AAfp2z
ubliansky	najublianskejším	AAfp3z
ubliansky	najublianskejšie	AAfp4z
ubliansky	najublianskejšie	AAfp5z
ubliansky	najublianskejších	AAfp6z
ubliansky	najublianskejšími	AAfp7z
ubliansky	najublianskejšie	AAns1z
ubliansky	najublianskejšieho	AAns2z
ubliansky	najublianskejšiemu	AAns3z
ubliansky	najublianskejšie	AAns4z
ubliansky	najublianskejšie	AAns5z
ubliansky	najublianskejšom	AAns6z
ubliansky	najublianskejším	AAns7z
ubliansky	najublianskejšie	AAnp1z
ubliansky	najublianskejších	AAnp2z
ubliansky	najublianskejším	AAnp3z
ubliansky	najublianskejšie	AAnp4z
ubliansky	najublianskejšie	AAnp5z
ubliansky	najublianskejších	AAnp6z
ubliansky	najublianskejšími	AAnp7z
ubliansky	ubliansky	Dx
ubližovať	ubližovať	VIe+
ubližovať	ubližujem	VKesa+
ubližovať	ubližuješ	VKesb+
ubližovať	ubližuje	VKesc+
ubližovať	ubližujeme	VKepa+
ubližovať	ubližujete	VKepb+
ubližovať	ubližujú	VKepc+
ubližovať	ubližuj	VMesb+
ubližovať	ubližujme	VMepa+
ubližovať	ubližujte	VMepb+
ubližovať	ubližujúc	VHe+
ubližovať	ubližoval	VLesam+
ubližovať	ubližoval	VLesai+
ubližovať	ubližoval	VLesbm+
ubližovať	ubližoval	VLesbi+
ubližovať	ubližoval	VLescm+
ubližovať	ubližoval	VLesci+
ubližovať	ubližovala	VLesaf+
ubližovať	ubližovala	VLesbf+
ubližovať	ubližovala	VLescf+
ubližovať	ubližovalo	VLesan+
ubližovať	ubližovalo	VLesbn+
ubližovať	ubližovalo	VLescn+
ubližovať	ubližovali	VLepah+
ubližovať	ubližovali	VLepbh+
ubližovať	ubližovali	VLepcm+
ubližovať	ubližovali	VLepci+
ubližovať	ubližovali	VLepcf+
ubližovať	ubližovali	VLepcn+
ubližovať	ubližovali	VLepco+
ublíženie	ublíženie	SSns1
ublíženie	ublíženia	SSns2
ublíženie	ublíženiu	SSns3
ublíženie	ublíženie	SSns4
ublíženie	ublíženie	SSns5
ublíženie	ublížení	SSns6
ublíženie	ublížením	SSns7
ublíženie	ublíženia	SSnp1
ublíženie	ublížení	SSnp2
ublíženie	ublíženiam	SSnp3
ublíženie	ublíženia	SSnp4
ublíženie	ublíženia	SSnp5
ublíženie	ublíženiach	SSnp6
ublíženie	ublíženiami	SSnp7
ublížiť	ublížiť	VId+
ublížiť	ublížim	VKdsa+
ublížiť	ublížiš	VKdsb+
ublížiť	ublíži	VKdsc+
ublížiť	ublížime	VKdpa+
ublížiť	ublížite	VKdpb+
ublížiť	ublížia	VKdpc+
ublížiť	ublíž	VMdsb+
ublížiť	ublížme	VMdpa+
ublížiť	ublížte	VMdpb+
ublížiť	ublížiac	VHd+
ublížiť	ublížil	VLdsam+
ublížiť	ublížil	VLdsai+
ublížiť	ublížil	VLdsbm+
ublížiť	ublížil	VLdsbi+
ublížiť	ublížil	VLdscm+
ublížiť	ublížil	VLdsci+
ublížiť	ublížila	VLdsaf+
ublížiť	ublížila	VLdsbf+
ublížiť	ublížila	VLdscf+
ublížiť	ublížilo	VLdsan+
ublížiť	ublížilo	VLdsbn+
ublížiť	ublížilo	VLdscn+
ublížiť	ublížili	VLdpah+
ublížiť	ublížili	VLdpbh+
ublížiť	ublížili	VLdpcm+
ublížiť	ublížili	VLdpci+
ublížiť	ublížili	VLdpcf+
ublížiť	ublížili	VLdpcn+
ublížiť	ublížili	VLdpco+
ubodať	ubodať	VId+
ubodať	ubodám	VKdsa+
ubodať	ubodáš	VKdsb+
ubodať	ubodá	VKdsc+
ubodať	ubodáme	VKdpa+
ubodať	ubodáte	VKdpb+
ubodať	ubodajú	VKdpc+
ubodať	ubodaj	VMdsb+
ubodať	ubodajme	VMdpa+
ubodať	ubodajte	VMdpb+
ubodať	ubodajúc	VHd+
ubodať	ubodal	VLdsam+
ubodať	ubodal	VLdsai+
ubodať	ubodal	VLdsbm+
ubodať	ubodal	VLdsbi+
ubodať	ubodal	VLdscm+
ubodať	ubodal	VLdsci+
ubodať	ubodala	VLdsaf+
ubodať	ubodala	VLdsbf+
ubodať	ubodala	VLdscf+
ubodať	ubodalo	VLdsan+
ubodať	ubodalo	VLdsbn+
ubodať	ubodalo	VLdscn+
ubodať	ubodali	VLdpah+
ubodať	ubodali	VLdpbh+
ubodať	ubodali	VLdpcm+
ubodať	ubodali	VLdpci+
ubodať	ubodali	VLdpcf+
ubodať	ubodali	VLdpcn+
ubodať	ubodali	VLdpco+
ubolene	ubolene	Dx
ubolene	ubolenejšie	Dy
ubolene	najubolenejšie	Dz
uboleno	uboleno	Dx
uboleno	ubolenejšie	Dy
uboleno	najubolenejšie	Dz
ubolenosť	ubolenosť	SSfs1
ubolenosť	ubolenosti	SSfs2
ubolenosť	ubolenosti	SSfs3
ubolenosť	ubolenosť	SSfs4
ubolenosť	ubolenosť	SSfs5
ubolenosť	ubolenosti	SSfs6
ubolenosť	ubolenosťou	SSfs7
ubolenosť	ubolenosti	SSfp1
ubolenosť	uboleností	SSfp2
ubolenosť	ubolenostiam	SSfp3
ubolenosť	ubolenosti	SSfp4
ubolenosť	ubolenosti	SSfp5
ubolenosť	ubolenostiach	SSfp6
ubolenosť	ubolenosťami	SSfp7
ubolený	ubolený	AAms1x
ubolený	uboleného	AAms2x
ubolený	ubolenému	AAms3x
ubolený	uboleného	AAms4x
ubolený	ubolený	AAms5x
ubolený	ubolenom	AAms6x
ubolený	uboleným	AAms7x
ubolený	ubolení	AAmp1x
ubolený	ubolených	AAmp2x
ubolený	uboleným	AAmp3x
ubolený	ubolených	AAmp4x
ubolený	ubolení	AAmp5x
ubolený	ubolených	AAmp6x
ubolený	ubolenými	AAmp7x
ubolený	ubolený	AAis1x
ubolený	uboleného	AAis2x
ubolený	ubolenému	AAis3x
ubolený	ubolený	AAis4x
ubolený	ubolený	AAis5x
ubolený	ubolenom	AAis6x
ubolený	uboleným	AAis7x
ubolený	ubolené	AAip1x
ubolený	ubolených	AAip2x
ubolený	uboleným	AAip3x
ubolený	ubolené	AAip4x
ubolený	ubolené	AAip5x
ubolený	ubolených	AAip6x
ubolený	ubolenými	AAip7x
ubolený	ubolená	AAfs1x
ubolený	ubolenej	AAfs2x
ubolený	ubolenej	AAfs3x
ubolený	ubolenú	AAfs4x
ubolený	ubolená	AAfs5x
ubolený	ubolenej	AAfs6x
ubolený	ubolenou	AAfs7x
ubolený	ubolené	AAfp1x
ubolený	ubolených	AAfp2x
ubolený	uboleným	AAfp3x
ubolený	ubolené	AAfp4x
ubolený	ubolené	AAfp5x
ubolený	ubolených	AAfp6x
ubolený	ubolenými	AAfp7x
ubolený	ubolené	AAns1x
ubolený	uboleného	AAns2x
ubolený	ubolenému	AAns3x
ubolený	ubolené	AAns4x
ubolený	ubolené	AAns5x
ubolený	ubolenom	AAns6x
ubolený	uboleným	AAns7x
ubolený	ubolené	AAnp1x
ubolený	ubolených	AAnp2x
ubolený	uboleným	AAnp3x
ubolený	ubolené	AAnp4x
ubolený	ubolené	AAnp5x
ubolený	ubolených	AAnp6x
ubolený	ubolenými	AAnp7x
ubolený	ubolenejší	AAms1y
ubolený	ubolenejšieho	AAms2y
ubolený	ubolenejšiemu	AAms3y
ubolený	ubolenejšieho	AAms4y
ubolený	ubolenejší	AAms5y
ubolený	ubolenejšom	AAms6y
ubolený	ubolenejším	AAms7y
ubolený	ubolenejší	AAmp1y
ubolený	ubolenejších	AAmp2y
ubolený	ubolenejším	AAmp3y
ubolený	ubolenejších	AAmp4y
ubolený	ubolenejší	AAmp5y
ubolený	ubolenejších	AAmp6y
ubolený	ubolenejšími	AAmp7y
ubolený	ubolenejší	AAis1y
ubolený	ubolenejšieho	AAis2y
ubolený	ubolenejšiemu	AAis3y
ubolený	ubolenejší	AAis4y
ubolený	ubolenejší	AAis5y
ubolený	ubolenejšom	AAis6y
ubolený	ubolenejším	AAis7y
ubolený	ubolenejšie	AAip1y
ubolený	ubolenejších	AAip2y
ubolený	ubolenejším	AAip3y
ubolený	ubolenejšie	AAip4y
ubolený	ubolenejšie	AAip5y
ubolený	ubolenejších	AAip6y
ubolený	ubolenejšími	AAip7y
ubolený	ubolenejšia	AAfs1y
ubolený	ubolenejšej	AAfs2y
ubolený	ubolenejšej	AAfs3y
ubolený	ubolenejšiu	AAfs4y
ubolený	ubolenejšia	AAfs5y
ubolený	ubolenejšej	AAfs6y
ubolený	ubolenejšou	AAfs7y
ubolený	ubolenejšie	AAfp1y
ubolený	ubolenejších	AAfp2y
ubolený	ubolenejším	AAfp3y
ubolený	ubolenejšie	AAfp4y
ubolený	ubolenejšie	AAfp5y
ubolený	ubolenejších	AAfp6y
ubolený	ubolenejšími	AAfp7y
ubolený	ubolenejšie	AAns1y
ubolený	ubolenejšieho	AAns2y
ubolený	ubolenejšiemu	AAns3y
ubolený	ubolenejšie	AAns4y
ubolený	ubolenejšie	AAns5y
ubolený	ubolenejšom	AAns6y
ubolený	ubolenejším	AAns7y
ubolený	ubolenejšie	AAnp1y
ubolený	ubolenejších	AAnp2y
ubolený	ubolenejším	AAnp3y
ubolený	ubolenejšie	AAnp4y
ubolený	ubolenejšie	AAnp5y
ubolený	ubolenejších	AAnp6y
ubolený	ubolenejšími	AAnp7y
ubolený	najubolenejší	AAms1z
ubolený	najubolenejšieho	AAms2z
ubolený	najubolenejšiemu	AAms3z
ubolený	najubolenejšieho	AAms4z
ubolený	najubolenejší	AAms5z
ubolený	najubolenejšom	AAms6z
ubolený	najubolenejším	AAms7z
ubolený	najubolenejší	AAmp1z
ubolený	najubolenejších	AAmp2z
ubolený	najubolenejším	AAmp3z
ubolený	najubolenejších	AAmp4z
ubolený	najubolenejší	AAmp5z
ubolený	najubolenejších	AAmp6z
ubolený	najubolenejšími	AAmp7z
ubolený	najubolenejší	AAis1z
ubolený	najubolenejšieho	AAis2z
ubolený	najubolenejšiemu	AAis3z
ubolený	najubolenejší	AAis4z
ubolený	najubolenejší	AAis5z
ubolený	najubolenejšom	AAis6z
ubolený	najubolenejším	AAis7z
ubolený	najubolenejšie	AAip1z
ubolený	najubolenejších	AAip2z
ubolený	najubolenejším	AAip3z
ubolený	najubolenejšie	AAip4z
ubolený	najubolenejšie	AAip5z
ubolený	najubolenejších	AAip6z
ubolený	najubolenejšími	AAip7z
ubolený	najubolenejšia	AAfs1z
ubolený	najubolenejšej	AAfs2z
ubolený	najubolenejšej	AAfs3z
ubolený	najubolenejšiu	AAfs4z
ubolený	najubolenejšia	AAfs5z
ubolený	najubolenejšej	AAfs6z
ubolený	najubolenejšou	AAfs7z
ubolený	najubolenejšie	AAfp1z
ubolený	najubolenejších	AAfp2z
ubolený	najubolenejším	AAfp3z
ubolený	najubolenejšie	AAfp4z
ubolený	najubolenejšie	AAfp5z
ubolený	najubolenejších	AAfp6z
ubolený	najubolenejšími	AAfp7z
ubolený	najubolenejšie	AAns1z
ubolený	najubolenejšieho	AAns2z
ubolený	najubolenejšiemu	AAns3z
ubolený	najubolenejšie	AAns4z
ubolený	najubolenejšie	AAns5z
ubolený	najubolenejšom	AAns6z
ubolený	najubolenejším	AAns7z
ubolený	najubolenejšie	AAnp1z
ubolený	najubolenejších	AAnp2z
ubolený	najubolenejším	AAnp3z
ubolený	najubolenejšie	AAnp4z
ubolený	najubolenejšie	AAnp5z
ubolený	najubolenejších	AAnp6z
ubolený	najubolenejšími	AAnp7z
ubrať	ubrať	VId+
ubrať	uberiem	VKdsa+
ubrať	uberieš	VKdsb+
ubrať	uberie	VKdsc+
ubrať	uberieme	VKdpa+
ubrať	uberiete	VKdpb+
ubrať	uberú	VKdpc+
ubrať	uber	VMdsb+
ubrať	uberme	VMdpa+
ubrať	uberte	VMdpb+
ubrať	uberúc	VHd+
ubrať	ubral	VLdsam+
ubrať	ubral	VLdsai+
ubrať	ubral	VLdsbm+
ubrať	ubral	VLdsbi+
ubrať	ubral	VLdscm+
ubrať	ubral	VLdsci+
ubrať	ubrala	VLdsaf+
ubrať	ubrala	VLdsbf+
ubrať	ubrala	VLdscf+
ubrať	ubralo	VLdsan+
ubrať	ubralo	VLdsbn+
ubrať	ubralo	VLdscn+
ubrať	ubrali	VLdpah+
ubrať	ubrali	VLdpbh+
ubrať	ubrali	VLdpcm+
ubrať	ubrali	VLdpci+
ubrať	ubrali	VLdpcf+
ubrať	ubrali	VLdpcn+
ubrať	ubrali	VLdpco+
ubrániť	ubrániť	VId+
ubrániť	ubránim	VKdsa+
ubrániť	ubrániš	VKdsb+
ubrániť	ubráni	VKdsc+
ubrániť	ubránime	VKdpa+
ubrániť	ubránite	VKdpb+
ubrániť	ubránia	VKdpc+
ubrániť	ubráň	VMdsb+
ubrániť	ubráňme	VMdpa+
ubrániť	ubráňte	VMdpb+
ubrániť	ubrániac	VHd+
ubrániť	ubránil	VLdsam+
ubrániť	ubránil	VLdsai+
ubrániť	ubránil	VLdsbm+
ubrániť	ubránil	VLdsbi+
ubrániť	ubránil	VLdscm+
ubrániť	ubránil	VLdsci+
ubrániť	ubránila	VLdsaf+
ubrániť	ubránila	VLdsbf+
ubrániť	ubránila	VLdscf+
ubrániť	ubránilo	VLdsan+
ubrániť	ubránilo	VLdsbn+
ubrániť	ubránilo	VLdscn+
ubrániť	ubránili	VLdpah+
ubrániť	ubránili	VLdpbh+
ubrániť	ubránili	VLdpcm+
ubrániť	ubránili	VLdpci+
ubrániť	ubránili	VLdpcf+
ubrániť	ubránili	VLdpcn+
ubrániť	ubránili	VLdpco+
ubudnúť	ubudnúť	VId+
ubudnúť	ubudnem	VKdsa+
ubudnúť	ubudneš	VKdsb+
ubudnúť	ubudne	VKdsc+
ubudnúť	ubudneme	VKdpa+
ubudnúť	ubudnete	VKdpb+
ubudnúť	ubudnú	VKdpc+
ubudnúť	ubudni	VMdsb+
ubudnúť	ubudnime	VMdpa+
ubudnúť	ubudnite	VMdpb+
ubudnúť	ubudnúc	VHd+
ubudnúť	ubudol	VLdsam+
ubudnúť	ubudol	VLdsai+
ubudnúť	ubudol	VLdsbm+
ubudnúť	ubudol	VLdsbi+
ubudnúť	ubudol	VLdscm+
ubudnúť	ubudol	VLdsci+
ubudnúť	ubudla	VLdsaf+
ubudnúť	ubudla	VLdsbf+
ubudnúť	ubudla	VLdscf+
ubudnúť	ubudlo	VLdsan+
ubudnúť	ubudlo	VLdsbn+
ubudnúť	ubudlo	VLdscn+
ubudnúť	ubudli	VLdpah+
ubudnúť	ubudli	VLdpbh+
ubudnúť	ubudli	VLdpcm+
ubudnúť	ubudli	VLdpci+
ubudnúť	ubudli	VLdpcf+
ubudnúť	ubudli	VLdpcn+
ubudnúť	ubudli	VLdpco+
ubytovací	ubytovací	AAms1x
ubytovací	ubytovacieho	AAms2x
ubytovací	ubytovaciemu	AAms3x
ubytovací	ubytovacieho	AAms4x
ubytovací	ubytovací	AAms5x
ubytovací	ubytovacom	AAms6x
ubytovací	ubytovacím	AAms7x
ubytovací	ubytovací	AAmp1x
ubytovací	ubytovacích	AAmp2x
ubytovací	ubytovacím	AAmp3x
ubytovací	ubytovacích	AAmp4x
ubytovací	ubytovací	AAmp5x
ubytovací	ubytovacích	AAmp6x
ubytovací	ubytovacími	AAmp7x
ubytovací	ubytovací	AAis1x
ubytovací	ubytovacieho	AAis2x
ubytovací	ubytovaciemu	AAis3x
ubytovací	ubytovací	AAis4x
ubytovací	ubytovací	AAis5x
ubytovací	ubytovacom	AAis6x
ubytovací	ubytovacím	AAis7x
ubytovací	ubytovacie	AAip1x
ubytovací	ubytovacích	AAip2x
ubytovací	ubytovacím	AAip3x
ubytovací	ubytovacie	AAip4x
ubytovací	ubytovacie	AAip5x
ubytovací	ubytovacích	AAip6x
ubytovací	ubytovacími	AAip7x
ubytovací	ubytovacia	AAfs1x
ubytovací	ubytovacej	AAfs2x
ubytovací	ubytovacej	AAfs3x
ubytovací	ubytovaciu	AAfs4x
ubytovací	ubytovacia	AAfs5x
ubytovací	ubytovacej	AAfs6x
ubytovací	ubytovacou	AAfs7x
ubytovací	ubytovacie	AAfp1x
ubytovací	ubytovacích	AAfp2x
ubytovací	ubytovacím	AAfp3x
ubytovací	ubytovacie	AAfp4x
ubytovací	ubytovacie	AAfp5x
ubytovací	ubytovacích	AAfp6x
ubytovací	ubytovacími	AAfp7x
ubytovací	ubytovacie	AAns1x
ubytovací	ubytovacieho	AAns2x
ubytovací	ubytovaciemu	AAns3x
ubytovací	ubytovacie	AAns4x
ubytovací	ubytovacie	AAns5x
ubytovací	ubytovacom	AAns6x
ubytovací	ubytovacím	AAns7x
ubytovací	ubytovacie	AAnp1x
ubytovací	ubytovacích	AAnp2x
ubytovací	ubytovacím	AAnp3x
ubytovací	ubytovacie	AAnp4x
ubytovací	ubytovacie	AAnp5x
ubytovací	ubytovacích	AAnp6x
ubytovací	ubytovacími	AAnp7x
ubytovanie	ubytovanie	SSns1
ubytovanie	ubytovania	SSns2
ubytovanie	ubytovaniu	SSns3
ubytovanie	ubytovanie	SSns4
ubytovanie	ubytovanie	SSns5
ubytovanie	ubytovaní	SSns6
ubytovanie	ubytovaním	SSns7
ubytovanie	ubytovania	SSnp1
ubytovanie	ubytovaní	SSnp2
ubytovanie	ubytovaniam	SSnp3
ubytovanie	ubytovania	SSnp4
ubytovanie	ubytovania	SSnp5
ubytovanie	ubytovaniach	SSnp6
ubytovanie	ubytovaniami	SSnp7
ubytovaný	ubytované	Gtfp1x
ubytovaný	ubytovaných	Gtfp2x
ubytovaný	ubytovaným	Gtfp3x
ubytovaný	ubytované	Gtfp4x
ubytovaný	ubytované	Gtfp5x
ubytovaný	ubytovaných	Gtfp6x
ubytovaný	ubytovanými	Gtfp7x
ubytovaný	ubytovaná	Gtfs1x
ubytovaný	ubytovanej	Gtfs2x
ubytovaný	ubytovanej	Gtfs3x
ubytovaný	ubytovanú	Gtfs4x
ubytovaný	ubytovaná	Gtfs5x
ubytovaný	ubytovanej	Gtfs6x
ubytovaný	ubytovanou	Gtfs7x
ubytovaný	ubytované	Gtip1x
ubytovaný	ubytovaných	Gtip2x
ubytovaný	ubytovaným	Gtip3x
ubytovaný	ubytované	Gtip4x
ubytovaný	ubytované	Gtip5x
ubytovaný	ubytovaných	Gtip6x
ubytovaný	ubytovanými	Gtip7x
ubytovaný	ubytovaný	Gtis1x
ubytovaný	ubytovaného	Gtis2x
ubytovaný	ubytovanému	Gtis3x
ubytovaný	ubytovaný	Gtis4x
ubytovaný	ubytovaný	Gtis5x
ubytovaný	ubytovanom	Gtis6x
ubytovaný	ubytovaným	Gtis7x
ubytovaný	ubytovaní	Gtmp1x
ubytovaný	ubytovaných	Gtmp2x
ubytovaný	ubytovaným	Gtmp3x
ubytovaný	ubytovaných	Gtmp4x
ubytovaný	ubytovaní	Gtmp5x
ubytovaný	ubytovaných	Gtmp6x
ubytovaný	ubytovanými	Gtmp7x
ubytovaný	ubytovaný	Gtms1x
ubytovaný	ubytovaného	Gtms2x
ubytovaný	ubytovanému	Gtms3x
ubytovaný	ubytovaného	Gtms4x
ubytovaný	ubytovaný	Gtms5x
ubytovaný	ubytovanom	Gtms6x
ubytovaný	ubytovaným	Gtms7x
ubytovaný	ubytované	Gtnp1x
ubytovaný	ubytovaných	Gtnp2x
ubytovaný	ubytovaným	Gtnp3x
ubytovaný	ubytované	Gtnp4x
ubytovaný	ubytované	Gtnp5x
ubytovaný	ubytovaných	Gtnp6x
ubytovaný	ubytovanými	Gtnp7x
ubytovaný	ubytované	Gtns1x
ubytovaný	ubytovaného	Gtns2x
ubytovaný	ubytovanému	Gtns3x
ubytovaný	ubytované	Gtns4x
ubytovaný	ubytované	Gtns5x
ubytovaný	ubytovanom	Gtns6x
ubytovaný	ubytovaným	Gtns7x
ubytovať	ubytovať	VId+
ubytovať	ubytujem	VKdsa+
ubytovať	ubytuješ	VKdsb+
ubytovať	ubytuje	VKdsc+
ubytovať	ubytujeme	VKdpa+
ubytovať	ubytujete	VKdpb+
ubytovať	ubytujú	VKdpc+
ubytovať	ubytuj	VMdsb+
ubytovať	ubytujme	VMdpa+
ubytovať	ubytujte	VMdpb+
ubytovať	ubytujúc	VHd+
ubytovať	ubytoval	VLdsam+
ubytovať	ubytoval	VLdsai+
ubytovať	ubytoval	VLdsbm+
ubytovať	ubytoval	VLdsbi+
ubytovať	ubytoval	VLdscm+
ubytovať	ubytoval	VLdsci+
ubytovať	ubytovala	VLdsaf+
ubytovať	ubytovala	VLdsbf+
ubytovať	ubytovala	VLdscf+
ubytovať	ubytovalo	VLdsan+
ubytovať	ubytovalo	VLdsbn+
ubytovať	ubytovalo	VLdscn+
ubytovať	ubytovali	VLdpah+
ubytovať	ubytovali	VLdpbh+
ubytovať	ubytovali	VLdpcm+
ubytovať	ubytovali	VLdpci+
ubytovať	ubytovali	VLdpcf+
ubytovať	ubytovali	VLdpcn+
ubytovať	ubytovali	VLdpco+
ubytovné	ubytovné	SAns1
ubytovné	ubytovného	SAns2
ubytovné	ubytovnému	SAns3
ubytovné	ubytovné	SAns4
ubytovné	ubytovné	SAns5
ubytovné	ubytovnom	SAns6
ubytovné	ubytovným	SAns7
ubytovávať	ubytovávať	VIe+
ubytovávať	ubytovávam	VKesa+
ubytovávať	ubytovávaš	VKesb+
ubytovávať	ubytováva	VKesc+
ubytovávať	ubytovávame	VKepa+
ubytovávať	ubytovávate	VKepb+
ubytovávať	ubytovávajú	VKepc+
ubytovávať	ubytovávaj	VMesb+
ubytovávať	ubytovávajme	VMepa+
ubytovávať	ubytovávajte	VMepb+
ubytovávať	ubytovávajúc	VHe+
ubytovávať	ubytovával	VLesam+
ubytovávať	ubytovával	VLesai+
ubytovávať	ubytovával	VLesbm+
ubytovávať	ubytovával	VLesbi+
ubytovávať	ubytovával	VLescm+
ubytovávať	ubytovával	VLesci+
ubytovávať	ubytovávala	VLesaf+
ubytovávať	ubytovávala	VLesbf+
ubytovávať	ubytovávala	VLescf+
ubytovávať	ubytovávalo	VLesan+
ubytovávať	ubytovávalo	VLesbn+
ubytovávať	ubytovávalo	VLescn+
ubytovávať	ubytovávali	VLepah+
ubytovávať	ubytovávali	VLepbh+
ubytovávať	ubytovávali	VLepcm+
ubytovávať	ubytovávali	VLepci+
ubytovávať	ubytovávali	VLepcf+
ubytovávať	ubytovávali	VLepcn+
ubytovávať	ubytovávali	VLepco+
ubytovňa	ubytovňa	SSfs1
ubytovňa	ubytovne	SSfs2
ubytovňa	ubytovni	SSfs3
ubytovňa	ubytovňu	SSfs4
ubytovňa	ubytovňa	SSfs5
ubytovňa	ubytovni	SSfs6
ubytovňa	ubytovňou	SSfs7
ubytovňa	ubytovne	SSfp1
ubytovňa	ubytovní	SSfp2
ubytovňa	ubytovniam	SSfp3
ubytovňa	ubytovne	SSfp4
ubytovňa	ubytovne	SSfp5
ubytovňa	ubytovniach	SSfp6
ubytovňa	ubytovňami	SSfp7
ubytúvať	ubytúvať	VIe+
ubytúvať	ubytúvam	VKesa+
ubytúvať	ubytúvaš	VKesb+
ubytúvať	ubytúva	VKesc+
ubytúvať	ubytúvame	VKepa+
ubytúvať	ubytúvate	VKepb+
ubytúvať	ubytúvajú	VKepc+
ubytúvať	ubytúvaj	VMesb+
ubytúvať	ubytúvajme	VMepa+
ubytúvať	ubytúvajte	VMepb+
ubytúvať	ubytúvajúc	VHe+
ubytúvať	ubytúval	VLesam+
ubytúvať	ubytúval	VLesai+
ubytúvať	ubytúval	VLesbm+
ubytúvať	ubytúval	VLesbi+
ubytúvať	ubytúval	VLescm+
ubytúvať	ubytúval	VLesci+
ubytúvať	ubytúvala	VLesaf+
ubytúvať	ubytúvala	VLesbf+
ubytúvať	ubytúvala	VLescf+
ubytúvať	ubytúvalo	VLesan+
ubytúvať	ubytúvalo	VLesbn+
ubytúvať	ubytúvalo	VLescn+
ubytúvať	ubytúvali	VLepah+
ubytúvať	ubytúvali	VLepbh+
ubytúvať	ubytúvali	VLepcm+
ubytúvať	ubytúvali	VLepci+
ubytúvať	ubytúvali	VLepcf+
ubytúvať	ubytúvali	VLepcn+
ubytúvať	ubytúvali	VLepco+
ubziknúť	ubziknúť	VId+
ubziknúť	ubziknem	VKdsa+
ubziknúť	ubzikneš	VKdsb+
ubziknúť	ubzikne	VKdsc+
ubziknúť	ubzikneme	VKdpa+
ubziknúť	ubziknete	VKdpb+
ubziknúť	ubziknú	VKdpc+
ubziknúť	ubzikni	VMdsb+
ubziknúť	ubziknime	VMdpa+
ubziknúť	ubziknite	VMdpb+
ubziknúť	ubziknúc	VHd+
ubziknúť	ubzikol	VLdsam+
ubziknúť	ubzikol	VLdsai+
ubziknúť	ubzikol	VLdsbm+
ubziknúť	ubzikol	VLdsbi+
ubziknúť	ubzikol	VLdscm+
ubziknúť	ubzikol	VLdsci+
ubziknúť	ubzikla	VLdsaf+
ubziknúť	ubzikla	VLdsbf+
ubziknúť	ubzikla	VLdscf+
ubziknúť	ubziklo	VLdsan+
ubziknúť	ubziklo	VLdsbn+
ubziknúť	ubziklo	VLdscn+
ubziknúť	ubzikli	VLdpah+
ubziknúť	ubzikli	VLdpbh+
ubziknúť	ubzikli	VLdpcm+
ubziknúť	ubzikli	VLdpci+
ubziknúť	ubzikli	VLdpcf+
ubziknúť	ubzikli	VLdpcn+
ubziknúť	ubzikli	VLdpco+
ubíjadlo	ubíjadlo	SSns1
ubíjadlo	ubíjadla	SSns2
ubíjadlo	ubíjadlu	SSns3
ubíjadlo	ubíjadlo	SSns4
ubíjadlo	ubíjadlo	SSns5
ubíjadlo	ubíjadle	SSns6
ubíjadlo	ubíjadlom	SSns7
ubíjadlo	ubíjadlá	SSnp1
ubíjadlo	ubíjadiel	SSnp2
ubíjadlo	ubíjadlám	SSnp3
ubíjadlo	ubíjadlá	SSnp4
ubíjadlo	ubíjadlá	SSnp5
ubíjadlo	ubíjadlách	SSnp6
ubíjadlo	ubíjadlami	SSnp7
ubíjač	ubíjač	SSis1
ubíjač	ubíjača	SSis2
ubíjač	ubíjaču	SSis3
ubíjač	ubíjač	SSis4
ubíjač	ubíjač	SSis5
ubíjač	ubíjači	SSis6
ubíjač	ubíjačom	SSis7
ubíjač	ubíjače	SSip1
ubíjač	ubíjačov	SSip2
ubíjač	ubíjačom	SSip3
ubíjač	ubíjače	SSip4
ubíjač	ubíjače	SSip5
ubíjač	ubíjačoch	SSip6
ubíjač	ubíjačmi	SSip7
ubíjačka	ubíjačka	SSfs1
ubíjačka	ubíjačky	SSfs2
ubíjačka	ubíjačke	SSfs3
ubíjačka	ubíjačku	SSfs4
ubíjačka	ubíjačka	SSfs5
ubíjačka	ubíjačke	SSfs6
ubíjačka	ubíjačkou	SSfs7
ubíjačka	ubíjačky	SSfp1
ubíjačka	ubíjačiek	SSfp2
ubíjačka	ubíjačkám	SSfp3
ubíjačka	ubíjačky	SSfp4
ubíjačka	ubíjačky	SSfp5
ubíjačka	ubíjačkách	SSfp6
ubíjačka	ubíjačkami	SSfp7
ubíjať	ubíjať	VIe+
ubíjať	ubíjam	VKesa+
ubíjať	ubíjaš	VKesb+
ubíjať	ubíja	VKesc+
ubíjať	ubíjame	VKepa+
ubíjať	ubíjate	VKepb+
ubíjať	ubíjajú	VKepc+
ubíjať	ubíjaj	VMesb+
ubíjať	ubíjajme	VMepa+
ubíjať	ubíjajte	VMepb+
ubíjať	ubíjajúc	VHe+
ubíjať	ubíjal	VLesam+
ubíjať	ubíjal	VLesai+
ubíjať	ubíjal	VLesbm+
ubíjať	ubíjal	VLesbi+
ubíjať	ubíjal	VLescm+
ubíjať	ubíjal	VLesci+
ubíjať	ubíjala	VLesaf+
ubíjať	ubíjala	VLesbf+
ubíjať	ubíjala	VLescf+
ubíjať	ubíjalo	VLesan+
ubíjať	ubíjalo	VLesbn+
ubíjať	ubíjalo	VLescn+
ubíjať	ubíjali	VLepah+
ubíjať	ubíjali	VLepbh+
ubíjať	ubíjali	VLepcm+
ubíjať	ubíjali	VLepci+
ubíjať	ubíjali	VLepcf+
ubíjať	ubíjali	VLepcn+
ubíjať	ubíjali	VLepco+
ubúdať	ubúdať	VIe+
ubúdať	ubúdam	VKesa+
ubúdať	ubúdaš	VKesb+
ubúdať	ubúda	VKesc+
ubúdať	ubúdame	VKepa+
ubúdať	ubúdate	VKepb+
ubúdať	ubúdajú	VKepc+
ubúdať	ubúdaj	VMesb+
ubúdať	ubúdajme	VMepa+
ubúdať	ubúdajte	VMepb+
ubúdať	ubúdajúc	VHe+
ubúdať	ubúdal	VLesam+
ubúdať	ubúdal	VLesai+
ubúdať	ubúdal	VLesbm+
ubúdať	ubúdal	VLesbi+
ubúdať	ubúdal	VLescm+
ubúdať	ubúdal	VLesci+
ubúdať	ubúdala	VLesaf+
ubúdať	ubúdala	VLesbf+
ubúdať	ubúdala	VLescf+
ubúdať	ubúdalo	VLesan+
ubúdať	ubúdalo	VLesbn+
ubúdať	ubúdalo	VLescn+
ubúdať	ubúdali	VLepah+
ubúdať	ubúdali	VLepbh+
ubúdať	ubúdali	VLepcm+
ubúdať	ubúdali	VLepci+
ubúdať	ubúdali	VLepcf+
ubúdať	ubúdali	VLepcn+
ubúdať	ubúdali	VLepco+
úbeľ	úbeľ	SSis1
úbeľ	úbeľa	SSis2
úbeľ	úbeľu	SSis3
úbeľ	úbeľ	SSis4
úbeľ	úbeľ	SSis5
úbeľ	úbeli	SSis6
úbeľ	úbeľom	SSis7
úbeľ	úbele	SSip1
úbeľ	úbeľov	SSip2
úbeľ	úbeľom	SSip3
úbeľ	úbele	SSip4
úbeľ	úbele	SSip5
úbeľ	úbeľoch	SSip6
úbeľ	úbeľmi	SSip7
úbeľovo	úbeľovo	Dx
úbeľový	úbeľový	AAms1x
úbeľový	úbeľového	AAms2x
úbeľový	úbeľovému	AAms3x
úbeľový	úbeľového	AAms4x
úbeľový	úbeľový	AAms5x
úbeľový	úbeľovom	AAms6x
úbeľový	úbeľovým	AAms7x
úbeľový	úbeľoví	AAmp1x
úbeľový	úbeľových	AAmp2x
úbeľový	úbeľovým	AAmp3x
úbeľový	úbeľových	AAmp4x
úbeľový	úbeľoví	AAmp5x
úbeľový	úbeľových	AAmp6x
úbeľový	úbeľovými	AAmp7x
úbeľový	úbeľový	AAis1x
úbeľový	úbeľového	AAis2x
úbeľový	úbeľovému	AAis3x
úbeľový	úbeľový	AAis4x
úbeľový	úbeľový	AAis5x
úbeľový	úbeľovom	AAis6x
úbeľový	úbeľovým	AAis7x
úbeľový	úbeľové	AAip1x
úbeľový	úbeľových	AAip2x
úbeľový	úbeľovým	AAip3x
úbeľový	úbeľové	AAip4x
úbeľový	úbeľové	AAip5x
úbeľový	úbeľových	AAip6x
úbeľový	úbeľovými	AAip7x
úbeľový	úbeľová	AAfs1x
úbeľový	úbeľovej	AAfs2x
úbeľový	úbeľovej	AAfs3x
úbeľový	úbeľovú	AAfs4x
úbeľový	úbeľová	AAfs5x
úbeľový	úbeľovej	AAfs6x
úbeľový	úbeľovou	AAfs7x
úbeľový	úbeľové	AAfp1x
úbeľový	úbeľových	AAfp2x
úbeľový	úbeľovým	AAfp3x
úbeľový	úbeľové	AAfp4x
úbeľový	úbeľové	AAfp5x
úbeľový	úbeľových	AAfp6x
úbeľový	úbeľovými	AAfp7x
úbeľový	úbeľové	AAns1x
úbeľový	úbeľového	AAns2x
úbeľový	úbeľovému	AAns3x
úbeľový	úbeľové	AAns4x
úbeľový	úbeľové	AAns5x
úbeľový	úbeľovom	AAns6x
úbeľový	úbeľovým	AAns7x
úbeľový	úbeľové	AAnp1x
úbeľový	úbeľových	AAnp2x
úbeľový	úbeľovým	AAnp3x
úbeľový	úbeľové	AAnp4x
úbeľový	úbeľové	AAnp5x
úbeľový	úbeľových	AAnp6x
úbeľový	úbeľovými	AAnp7x
úboho	úboho	Dx
úboho	úbohejšie	Dy
úboho	najúbohejšie	Dz
úbohosť	úbohosť	SSfs1
úbohosť	úbohosti	SSfs2
úbohosť	úbohosti	SSfs3
úbohosť	úbohosť	SSfs4
úbohosť	úbohosť	SSfs5
úbohosť	úbohosti	SSfs6
úbohosť	úbohosťou	SSfs7
úbohosť	úbohosti	SSfp1
úbohosť	úbohostí	SSfp2
úbohosť	úbohostiam	SSfp3
úbohosť	úbohosti	SSfp4
úbohosť	úbohosti	SSfp5
úbohosť	úbohostiach	SSfp6
úbohosť	úbohosťami	SSfp7
úbohý	úbohý	AAms1x
úbohý	úbohého	AAms2x
úbohý	úbohému	AAms3x
úbohý	úbohého	AAms4x
úbohý	úbohý	AAms5x
úbohý	úbohom	AAms6x
úbohý	úbohým	AAms7x
úbohý	úbohí	AAmp1x
úbohý	úbohých	AAmp2x
úbohý	úbohým	AAmp3x
úbohý	úbohých	AAmp4x
úbohý	úbohí	AAmp5x
úbohý	úbohých	AAmp6x
úbohý	úbohými	AAmp7x
úbohý	úbohý	AAis1x
úbohý	úbohého	AAis2x
úbohý	úbohému	AAis3x
úbohý	úbohý	AAis4x
úbohý	úbohý	AAis5x
úbohý	úbohom	AAis6x
úbohý	úbohým	AAis7x
úbohý	úbohé	AAip1x
úbohý	úbohých	AAip2x
úbohý	úbohým	AAip3x
úbohý	úbohé	AAip4x
úbohý	úbohé	AAip5x
úbohý	úbohých	AAip6x
úbohý	úbohými	AAip7x
úbohý	úbohá	AAfs1x
úbohý	úbohej	AAfs2x
úbohý	úbohej	AAfs3x
úbohý	úbohú	AAfs4x
úbohý	úbohá	AAfs5x
úbohý	úbohej	AAfs6x
úbohý	úbohou	AAfs7x
úbohý	úbohé	AAfp1x
úbohý	úbohých	AAfp2x
úbohý	úbohým	AAfp3x
úbohý	úbohé	AAfp4x
úbohý	úbohé	AAfp5x
úbohý	úbohých	AAfp6x
úbohý	úbohými	AAfp7x
úbohý	úbohé	AAns1x
úbohý	úbohého	AAns2x
úbohý	úbohému	AAns3x
úbohý	úbohé	AAns4x
úbohý	úbohé	AAns5x
úbohý	úbohom	AAns6x
úbohý	úbohým	AAns7x
úbohý	úbohé	AAnp1x
úbohý	úbohých	AAnp2x
úbohý	úbohým	AAnp3x
úbohý	úbohé	AAnp4x
úbohý	úbohé	AAnp5x
úbohý	úbohých	AAnp6x
úbohý	úbohými	AAnp7x
úbohý	úbohejší	AAms1y
úbohý	úbohejšieho	AAms2y
úbohý	úbohejšiemu	AAms3y
úbohý	úbohejšieho	AAms4y
úbohý	úbohejší	AAms5y
úbohý	úbohejšom	AAms6y
úbohý	úbohejším	AAms7y
úbohý	úbohejší	AAmp1y
úbohý	úbohejších	AAmp2y
úbohý	úbohejším	AAmp3y
úbohý	úbohejších	AAmp4y
úbohý	úbohejší	AAmp5y
úbohý	úbohejších	AAmp6y
úbohý	úbohejšími	AAmp7y
úbohý	úbohejší	AAis1y
úbohý	úbohejšieho	AAis2y
úbohý	úbohejšiemu	AAis3y
úbohý	úbohejší	AAis4y
úbohý	úbohejší	AAis5y
úbohý	úbohejšom	AAis6y
úbohý	úbohejším	AAis7y
úbohý	úbohejšie	AAip1y
úbohý	úbohejších	AAip2y
úbohý	úbohejším	AAip3y
úbohý	úbohejšie	AAip4y
úbohý	úbohejšie	AAip5y
úbohý	úbohejších	AAip6y
úbohý	úbohejšími	AAip7y
úbohý	úbohejšia	AAfs1y
úbohý	úbohejšej	AAfs2y
úbohý	úbohejšej	AAfs3y
úbohý	úbohejšiu	AAfs4y
úbohý	úbohejšia	AAfs5y
úbohý	úbohejšej	AAfs6y
úbohý	úbohejšou	AAfs7y
úbohý	úbohejšie	AAfp1y
úbohý	úbohejších	AAfp2y
úbohý	úbohejším	AAfp3y
úbohý	úbohejšie	AAfp4y
úbohý	úbohejšie	AAfp5y
úbohý	úbohejších	AAfp6y
úbohý	úbohejšími	AAfp7y
úbohý	úbohejšie	AAns1y
úbohý	úbohejšieho	AAns2y
úbohý	úbohejšiemu	AAns3y
úbohý	úbohejšie	AAns4y
úbohý	úbohejšie	AAns5y
úbohý	úbohejšom	AAns6y
úbohý	úbohejším	AAns7y
úbohý	úbohejšie	AAnp1y
úbohý	úbohejších	AAnp2y
úbohý	úbohejším	AAnp3y
úbohý	úbohejšie	AAnp4y
úbohý	úbohejšie	AAnp5y
úbohý	úbohejších	AAnp6y
úbohý	úbohejšími	AAnp7y
úbohý	najúbohejší	AAms1z
úbohý	najúbohejšieho	AAms2z
úbohý	najúbohejšiemu	AAms3z
úbohý	najúbohejšieho	AAms4z
úbohý	najúbohejší	AAms5z
úbohý	najúbohejšom	AAms6z
úbohý	najúbohejším	AAms7z
úbohý	najúbohejší	AAmp1z
úbohý	najúbohejších	AAmp2z
úbohý	najúbohejším	AAmp3z
úbohý	najúbohejších	AAmp4z
úbohý	najúbohejší	AAmp5z
úbohý	najúbohejších	AAmp6z
úbohý	najúbohejšími	AAmp7z
úbohý	najúbohejší	AAis1z
úbohý	najúbohejšieho	AAis2z
úbohý	najúbohejšiemu	AAis3z
úbohý	najúbohejší	AAis4z
úbohý	najúbohejší	AAis5z
úbohý	najúbohejšom	AAis6z
úbohý	najúbohejším	AAis7z
úbohý	najúbohejšie	AAip1z
úbohý	najúbohejších	AAip2z
úbohý	najúbohejším	AAip3z
úbohý	najúbohejšie	AAip4z
úbohý	najúbohejšie	AAip5z
úbohý	najúbohejších	AAip6z
úbohý	najúbohejšími	AAip7z
úbohý	najúbohejšia	AAfs1z
úbohý	najúbohejšej	AAfs2z
úbohý	najúbohejšej	AAfs3z
úbohý	najúbohejšiu	AAfs4z
úbohý	najúbohejšia	AAfs5z
úbohý	najúbohejšej	AAfs6z
úbohý	najúbohejšou	AAfs7z
úbohý	najúbohejšie	AAfp1z
úbohý	najúbohejších	AAfp2z
úbohý	najúbohejším	AAfp3z
úbohý	najúbohejšie	AAfp4z
úbohý	najúbohejšie	AAfp5z
úbohý	najúbohejších	AAfp6z
úbohý	najúbohejšími	AAfp7z
úbohý	najúbohejšie	AAns1z
úbohý	najúbohejšieho	AAns2z
úbohý	najúbohejšiemu	AAns3z
úbohý	najúbohejšie	AAns4z
úbohý	najúbohejšie	AAns5z
úbohý	najúbohejšom	AAns6z
úbohý	najúbohejším	AAns7z
úbohý	najúbohejšie	AAnp1z
úbohý	najúbohejších	AAnp2z
úbohý	najúbohejším	AAnp3z
úbohý	najúbohejšie	AAnp4z
úbohý	najúbohejšie	AAnp5z
úbohý	najúbohejších	AAnp6z
úbohý	najúbohejšími	AAnp7z
úbor	úbor	SSis1
úbor	úboru	SSis2
úbor	úboru	SSis3
úbor	úbor	SSis4
úbor	úbor	SSis5
úbor	úbore	SSis6
úbor	úborom	SSis7
úbor	úbory	SSip1
úbor	úborov	SSip2
úbor	úborom	SSip3
úbor	úbory	SSip4
úbor	úbory	SSip5
úbor	úboroch	SSip6
úbor	úbormi	SSip7
úboč	úboč	SSfs1
úboč	úboče	SSfs2
úboč	úboči	SSfs3
úboč	úboč	SSfs4
úboč	úboč	SSfs5
úboč	úboči	SSfs6
úboč	úbočou	SSfs7
úboč	úboče	SSfp1
úboč	úbočí	SSfp2
úboč	úbočiam	SSfp3
úboč	úboče	SSfp4
úboč	úboče	SSfp5
úboč	úbočiach	SSfp6
úboč	úbočami	SSfp7
úbočie	úbočie	SSns1
úbočie	úbočia	SSns2
úbočie	úbočiu	SSns3
úbočie	úbočie	SSns4
úbočie	úbočie	SSns5
úbočie	úbočí	SSns6
úbočie	úbočím	SSns7
úbočie	úbočia	SSnp1
úbočie	úbočí	SSnp2
úbočie	úbočiam	SSnp3
úbočie	úbočia	SSnp4
úbočie	úbočia	SSnp5
úbočie	úbočiach	SSnp6
úbočie	úbočiami	SSnp7
úbožiak	úbožiak	SSms1
úbožiak	úbožiaka	SSms2
úbožiak	úbožiakovi	SSms3
úbožiak	úbožiaka	SSms4
úbožiak	úbožiak	SSms5
úbožiak	úbožiakovi	SSms6
úbožiak	úbožiakom	SSms7
úbožiak	úbožiaci	SSmp1
úbožiak	úbožiakov	SSmp2
úbožiak	úbožiakom	SSmp3
úbožiak	úbožiakov	SSmp4
úbožiak	úbožiaci	SSmp5
úbožiak	úbožiakoch	SSmp6
úbožiak	úbožiakmi	SSmp7
úbožiatko	úbožiatko	SSns1
úbožiatko	úbožiatka	SSns2
úbožiatko	úbožiatku	SSns3
úbožiatko	úbožiatko	SSns4
úbožiatko	úbožiatko	SSns5
úbožiatko	úbožiatku	SSns6
úbožiatko	úbožiatkom	SSns7
úbožiatko	úbožiatka	SSnp1
úbožiatko	úbožiatok	SSnp2
úbožiatko	úbožiatkam	SSnp3
úbožiatko	úbožiatka	SSnp4
úbožiatko	úbožiatka	SSnp5
úbožiatko	úbožiatkach	SSnp6
úbožiatko	úbožiatkami	SSnp7
úbožiačik	úbožiačik	SSms1
úbožiačik	úbožiačika	SSms2
úbožiačik	úbožiačikovi	SSms3
úbožiačik	úbožiačika	SSms4
úbožiačik	úbožiačik	SSms5
úbožiačik	úbožiačikovi	SSms6
úbožiačik	úbožiačikom	SSms7
úbožiačik	úbožiačikovia	SSmp1
úbožiačik	úbožiačikov	SSmp2
úbožiačik	úbožiačikom	SSmp3
úbožiačik	úbožiačikov	SSmp4
úbožiačik	úbožiačikovia	SSmp5
úbožiačik	úbožiačikoch	SSmp6
úbožiačik	úbožiačikmi	SSmp7
úbožiačka	úbožiačka	SSfs1
úbožiačka	úbožiačky	SSfs2
úbožiačka	úbožiačke	SSfs3
úbožiačka	úbožiačku	SSfs4
úbožiačka	úbožiačka	SSfs5
úbožiačka	úbožiačke	SSfs6
úbožiačka	úbožiačkou	SSfs7
úbožiačka	úbožiačky	SSfp1
úbožiačka	úbožiačok	SSfp2
úbožiačka	úbožiačkam	SSfp3
úbožiačka	úbožiačky	SSfp4
úbožiačka	úbožiačky	SSfp5
úbožiačka	úbožiačkach	SSfp6
úbožiačka	úbožiačkami	SSfp7
úbrežský	úbrežský	AAms1x
úbrežský	úbrežského	AAms2x
úbrežský	úbrežskému	AAms3x
úbrežský	úbrežského	AAms4x
úbrežský	úbrežský	AAms5x
úbrežský	úbrežskom	AAms6x
úbrežský	úbrežským	AAms7x
úbrežský	úbrežskí	AAmp1x
úbrežský	úbrežských	AAmp2x
úbrežský	úbrežským	AAmp3x
úbrežský	úbrežských	AAmp4x
úbrežský	úbrežskí	AAmp5x
úbrežský	úbrežských	AAmp6x
úbrežský	úbrežskými	AAmp7x
úbrežský	úbrežský	AAis1x
úbrežský	úbrežského	AAis2x
úbrežský	úbrežskému	AAis3x
úbrežský	úbrežský	AAis4x
úbrežský	úbrežský	AAis5x
úbrežský	úbrežskom	AAis6x
úbrežský	úbrežským	AAis7x
úbrežský	úbrežské	AAip1x
úbrežský	úbrežských	AAip2x
úbrežský	úbrežským	AAip3x
úbrežský	úbrežské	AAip4x
úbrežský	úbrežské	AAip5x
úbrežský	úbrežských	AAip6x
úbrežský	úbrežskými	AAip7x
úbrežský	úbrežská	AAfs1x
úbrežský	úbrežskej	AAfs2x
úbrežský	úbrežskej	AAfs3x
úbrežský	úbrežskú	AAfs4x
úbrežský	úbrežská	AAfs5x
úbrežský	úbrežskej	AAfs6x
úbrežský	úbrežskou	AAfs7x
úbrežský	úbrežské	AAfp1x
úbrežský	úbrežských	AAfp2x
úbrežský	úbrežským	AAfp3x
úbrežský	úbrežské	AAfp4x
úbrežský	úbrežské	AAfp5x
úbrežský	úbrežských	AAfp6x
úbrežský	úbrežskými	AAfp7x
úbrežský	úbrežské	AAns1x
úbrežský	úbrežského	AAns2x
úbrežský	úbrežskému	AAns3x
úbrežský	úbrežské	AAns4x
úbrežský	úbrežské	AAns5x
úbrežský	úbrežskom	AAns6x
úbrežský	úbrežským	AAns7x
úbrežský	úbrežské	AAnp1x
úbrežský	úbrežských	AAnp2x
úbrežský	úbrežským	AAnp3x
úbrežský	úbrežské	AAnp4x
úbrežský	úbrežské	AAnp5x
úbrežský	úbrežských	AAnp6x
úbrežský	úbrežskými	AAnp7x
úbytok	úbytok	SSis1
úbytok	úbytku	SSis2
úbytok	úbytku	SSis3
úbytok	úbytok	SSis4
úbytok	úbytok	SSis5
úbytok	úbytku	SSis6
úbytok	úbytkom	SSis7
úbytok	úbytky	SSip1
úbytok	úbytkov	SSip2
úbytok	úbytkom	SSip3
úbytok	úbytky	SSip4
úbytok	úbytky	SSip5
úbytok	úbytkoch	SSip6
úbytok	úbytkami	SSip7
