ujarmiť	ujarmiť	VId+
ujarmiť	ujarmím	VKdsa+
ujarmiť	ujarmíš	VKdsb+
ujarmiť	ujarmí	VKdsc+
ujarmiť	ujarmíme	VKdpa+
ujarmiť	ujarmíte	VKdpb+
ujarmiť	ujarmia	VKdpc+
ujarmiť	ujarmi	VMdsb+
ujarmiť	ujarmime	VMdpa+
ujarmiť	ujarmite	VMdpb+
ujarmiť	ujarmiac	VHd+
ujarmiť	ujarmil	VLdsam+
ujarmiť	ujarmil	VLdsai+
ujarmiť	ujarmil	VLdsbm+
ujarmiť	ujarmil	VLdsbi+
ujarmiť	ujarmil	VLdscm+
ujarmiť	ujarmil	VLdsci+
ujarmiť	ujarmila	VLdsaf+
ujarmiť	ujarmila	VLdsbf+
ujarmiť	ujarmila	VLdscf+
ujarmiť	ujarmilo	VLdsan+
ujarmiť	ujarmilo	VLdsbn+
ujarmiť	ujarmilo	VLdscn+
ujarmiť	ujarmili	VLdpah+
ujarmiť	ujarmili	VLdpbh+
ujarmiť	ujarmili	VLdpcm+
ujarmiť	ujarmili	VLdpci+
ujarmiť	ujarmili	VLdpcf+
ujarmiť	ujarmili	VLdpcn+
ujarmiť	ujarmili	VLdpco+
ujarmovať	ujarmovať	VIe+
ujarmovať	ujarmujem	VKesa+
ujarmovať	ujarmuješ	VKesb+
ujarmovať	ujarmuje	VKesc+
ujarmovať	ujarmujeme	VKepa+
ujarmovať	ujarmujete	VKepb+
ujarmovať	ujarmujú	VKepc+
ujarmovať	ujarmuj	VMesb+
ujarmovať	ujarmujme	VMepa+
ujarmovať	ujarmujte	VMepb+
ujarmovať	ujarmujúc	VHe+
ujarmovať	ujarmoval	VLesam+
ujarmovať	ujarmoval	VLesai+
ujarmovať	ujarmoval	VLesbm+
ujarmovať	ujarmoval	VLesbi+
ujarmovať	ujarmoval	VLescm+
ujarmovať	ujarmoval	VLesci+
ujarmovať	ujarmovala	VLesaf+
ujarmovať	ujarmovala	VLesbf+
ujarmovať	ujarmovala	VLescf+
ujarmovať	ujarmovalo	VLesan+
ujarmovať	ujarmovalo	VLesbn+
ujarmovať	ujarmovalo	VLescn+
ujarmovať	ujarmovali	VLepah+
ujarmovať	ujarmovali	VLepbh+
ujarmovať	ujarmovali	VLepcm+
ujarmovať	ujarmovali	VLepci+
ujarmovať	ujarmovali	VLepcf+
ujarmovať	ujarmovali	VLepcn+
ujarmovať	ujarmovali	VLepco+
ujasniť	ujasniť	VId+
ujasniť	ujasním	VKdsa+
ujasniť	ujasníš	VKdsb+
ujasniť	ujasní	VKdsc+
ujasniť	ujasníme	VKdpa+
ujasniť	ujasníte	VKdpb+
ujasniť	ujasnia	VKdpc+
ujasniť	ujasni	VMdsb+
ujasniť	ujasnime	VMdpa+
ujasniť	ujasnite	VMdpb+
ujasniť	ujasniac	VHd+
ujasniť	ujasnil	VLdsam+
ujasniť	ujasnil	VLdsai+
ujasniť	ujasnil	VLdsbm+
ujasniť	ujasnil	VLdsbi+
ujasniť	ujasnil	VLdscm+
ujasniť	ujasnil	VLdsci+
ujasniť	ujasnila	VLdsaf+
ujasniť	ujasnila	VLdsbf+
ujasniť	ujasnila	VLdscf+
ujasniť	ujasnilo	VLdsan+
ujasniť	ujasnilo	VLdsbn+
ujasniť	ujasnilo	VLdscn+
ujasniť	ujasnili	VLdpah+
ujasniť	ujasnili	VLdpbh+
ujasniť	ujasnili	VLdpcm+
ujasniť	ujasnili	VLdpci+
ujasniť	ujasnili	VLdpcf+
ujasniť	ujasnili	VLdpcn+
ujasniť	ujasnili	VLdpco+
ujasňovať	ujasňovať	VIe+
ujasňovať	ujasňujem	VKesa+
ujasňovať	ujasňuješ	VKesb+
ujasňovať	ujasňuje	VKesc+
ujasňovať	ujasňujeme	VKepa+
ujasňovať	ujasňujete	VKepb+
ujasňovať	ujasňujú	VKepc+
ujasňovať	ujasňuj	VMesb+
ujasňovať	ujasňujme	VMepa+
ujasňovať	ujasňujte	VMepb+
ujasňovať	ujasňujúc	VHe+
ujasňovať	ujasňoval	VLesam+
ujasňovať	ujasňoval	VLesai+
ujasňovať	ujasňoval	VLesbm+
ujasňovať	ujasňoval	VLesbi+
ujasňovať	ujasňoval	VLescm+
ujasňovať	ujasňoval	VLesci+
ujasňovať	ujasňovala	VLesaf+
ujasňovať	ujasňovala	VLesbf+
ujasňovať	ujasňovala	VLescf+
ujasňovať	ujasňovalo	VLesan+
ujasňovať	ujasňovalo	VLesbn+
ujasňovať	ujasňovalo	VLescn+
ujasňovať	ujasňovali	VLepah+
ujasňovať	ujasňovali	VLepbh+
ujasňovať	ujasňovali	VLepcm+
ujasňovať	ujasňovali	VLepci+
ujasňovať	ujasňovali	VLepcf+
ujasňovať	ujasňovali	VLepcn+
ujasňovať	ujasňovali	VLepco+
ujazdiť	ujazdiť	VId+
ujazdiť	ujazdím	VKdsa+
ujazdiť	ujazdíš	VKdsb+
ujazdiť	ujazdí	VKdsc+
ujazdiť	ujazdíme	VKdpa+
ujazdiť	ujazdíte	VKdpb+
ujazdiť	ujazdia	VKdpc+
ujazdiť	ujazď	VMdsb+
ujazdiť	ujazdi	VMdsb+
ujazdiť	ujazďme	VMdpa+
ujazdiť	ujazdime	VMdpa+
ujazdiť	ujazďte	VMdpb+
ujazdiť	ujazdite	VMdpb+
ujazdiť	ujazdiac	VHd+
ujazdiť	ujazdil	VLdsam+
ujazdiť	ujazdil	VLdsai+
ujazdiť	ujazdil	VLdsbm+
ujazdiť	ujazdil	VLdsbi+
ujazdiť	ujazdil	VLdscm+
ujazdiť	ujazdil	VLdsci+
ujazdiť	ujazdila	VLdsaf+
ujazdiť	ujazdila	VLdsbf+
ujazdiť	ujazdila	VLdscf+
ujazdiť	ujazdilo	VLdsan+
ujazdiť	ujazdilo	VLdsbn+
ujazdiť	ujazdilo	VLdscn+
ujazdiť	ujazdili	VLdpah+
ujazdiť	ujazdili	VLdpbh+
ujazdiť	ujazdili	VLdpcm+
ujazdiť	ujazdili	VLdpci+
ujazdiť	ujazdili	VLdpcf+
ujazdiť	ujazdili	VLdpcn+
ujazdiť	ujazdili	VLdpco+
ujať	ujať	VId+
ujať	ujmem	VKdsa+
ujať	ujmeš	VKdsb+
ujať	ujme	VKdsc+
ujať	ujmeme	VKdpa+
ujať	ujmete	VKdpb+
ujať	ujmú	VKdpc+
ujať	ujmi	VMdsb+
ujať	ujmime	VMdpa+
ujať	ujmite	VMdpb+
ujať	ujmúc	VHd+
ujať	ujal	VLdsam+
ujať	ujal	VLdsai+
ujať	ujal	VLdsbm+
ujať	ujal	VLdsbi+
ujať	ujal	VLdscm+
ujať	ujal	VLdsci+
ujať	ujala	VLdsaf+
ujať	ujala	VLdsbf+
ujať	ujala	VLdscf+
ujať	ujalo	VLdsan+
ujať	ujalo	VLdsbn+
ujať	ujalo	VLdscn+
ujať	ujali	VLdpah+
ujať	ujali	VLdpbh+
ujať	ujali	VLdpcm+
ujať	ujali	VLdpci+
ujať	ujali	VLdpcf+
ujať	ujali	VLdpcn+
ujať	ujali	VLdpco+
ujec	ujec	SSms1
ujec	ujka	SSms2
ujec	ujkovi	SSms3
ujec	ujka	SSms4
ujec	ujec	SSms5
ujec	ujkovi	SSms6
ujec	ujkom	SSms7
ujec	ujkovia	SSmp1
ujec	ujkov	SSmp2
ujec	ujkom	SSmp3
ujec	ujkov	SSmp4
ujec	ujkovia	SSmp5
ujec	ujkoch	SSmp6
ujec	ujkami	SSmp7
ujedať	ujedať	VIe+
ujedať	ujedám	VKesa+
ujedať	ujedáš	VKesb+
ujedať	ujedá	VKesc+
ujedať	ujedáme	VKepa+
ujedať	ujedáte	VKepb+
ujedať	ujedajú	VKepc+
ujedať	ujedaj	VMesb+
ujedať	ujedajme	VMepa+
ujedať	ujedajte	VMepb+
ujedať	ujedajúc	VHe+
ujedať	ujedal	VLesam+
ujedať	ujedal	VLesai+
ujedať	ujedal	VLesbm+
ujedať	ujedal	VLesbi+
ujedať	ujedal	VLescm+
ujedať	ujedal	VLesci+
ujedať	ujedala	VLesaf+
ujedať	ujedala	VLesbf+
ujedať	ujedala	VLescf+
ujedať	ujedalo	VLesan+
ujedať	ujedalo	VLesbn+
ujedať	ujedalo	VLescn+
ujedať	ujedali	VLepah+
ujedať	ujedali	VLepbh+
ujedať	ujedali	VLepcm+
ujedať	ujedali	VLepci+
ujedať	ujedali	VLepcf+
ujedať	ujedali	VLepcn+
ujedať	ujedali	VLepco+
ujko	ujko	SSms1
ujko	ujka	SSms2
ujko	ujkovi	SSms3
ujko	ujka	SSms4
ujko	ujko	SSms5
ujko	ujkovi	SSms6
ujko	ujkom	SSms7
ujko	ujkovia	SSmp1
ujko	ujkov	SSmp2
ujko	ujkom	SSmp3
ujko	ujkov	SSmp4
ujko	ujkovia	SSmp5
ujko	ujkoch	SSmp6
ujko	ujkami	SSmp7
ujma	ujma	SSfs1
ujma	ujmy	SSfs2
ujma	ujme	SSfs3
ujma	ujmu	SSfs4
ujma	ujma	SSfs5
ujma	ujme	SSfs6
ujma	ujmou	SSfs7
ujma	ujmy	SSfp1
ujma	ujm	SSfp2
ujma	ujmam	SSfp3
ujma	ujmy	SSfp4
ujma	ujmy	SSfp5
ujma	ujmach	SSfp6
ujma	ujmami	SSfp7
ujo	ujo	SSms1
ujo	uja	SSms2
ujo	ujovi	SSms3
ujo	uja	SSms4
ujo	ujo	SSms5
ujo	ujovi	SSms6
ujo	ujom	SSms7
ujo	ujovia	SSmp1
ujo	ujov	SSmp2
ujo	ujom	SSmp3
ujo	ujov	SSmp4
ujo	ujovia	SSmp5
ujo	ujoch	SSmp6
ujo	ujami	SSmp7
ujsť	ujsť	VId+
ujsť	ujdem	VKdsa+
ujsť	ujdeš	VKdsb+
ujsť	ujde	VKdsc+
ujsť	ujdeme	VKdpa+
ujsť	ujdete	VKdpb+
ujsť	ujdú	VKdpc+
ujsť	ujdi	VMdsb+
ujsť	ujdime	VMdpa+
ujsť	ujdite	VMdpb+
ujsť	ujdúc	VHd+
ujsť	ušiel	VLdsam+
ujsť	ušiel	VLdsai+
ujsť	ušiel	VLdsbm+
ujsť	ušiel	VLdsbi+
ujsť	ušiel	VLdscm+
ujsť	ušiel	VLdsci+
ujsť	ušla	VLdsaf+
ujsť	ušla	VLdsbf+
ujsť	ušla	VLdscf+
ujsť	ušlo	VLdsan+
ujsť	ušlo	VLdsbn+
ujsť	ušlo	VLdscn+
ujsť	ušli	VLdpah+
ujsť	ušli	VLdpbh+
ujsť	ušli	VLdpcm+
ujsť	ušli	VLdpci+
ujsť	ušli	VLdpcf+
ujsť	ušli	VLdpcn+
ujsť	ušli	VLdpco+
ujujú	ujujú	J
ujímať	ujímať	VIe+
ujímať	ujímam	VKesa+
ujímať	ujímaš	VKesb+
ujímať	ujíma	VKesc+
ujímať	ujímame	VKepa+
ujímať	ujímate	VKepb+
ujímať	ujímajú	VKepc+
ujímať	ujímaj	VMesb+
ujímať	ujímajme	VMepa+
ujímať	ujímajte	VMepb+
ujímať	ujímajúc	VHe+
ujímať	ujímal	VLesam+
ujímať	ujímal	VLesai+
ujímať	ujímal	VLesbm+
ujímať	ujímal	VLesbi+
ujímať	ujímal	VLescm+
ujímať	ujímal	VLesci+
ujímať	ujímala	VLesaf+
ujímať	ujímala	VLesbf+
ujímať	ujímala	VLescf+
ujímať	ujímalo	VLesan+
ujímať	ujímalo	VLesbn+
ujímať	ujímalo	VLescn+
ujímať	ujímali	VLepah+
ujímať	ujímali	VLepbh+
ujímať	ujímali	VLepcm+
ujímať	ujímali	VLepci+
ujímať	ujímali	VLepcf+
ujímať	ujímali	VLepcn+
ujímať	ujímali	VLepco+
ujú	ujú	J
ujúkať	ujúkať	VIe+
ujúkať	ujúkam	VKesa+
ujúkať	ujúkaš	VKesb+
ujúkať	ujúka	VKesc+
ujúkať	ujúkame	VKepa+
ujúkať	ujúkate	VKepb+
ujúkať	ujúkajú	VKepc+
ujúkať	ujúkaj	VMesb+
ujúkať	ujúkajme	VMepa+
ujúkať	ujúkajte	VMepb+
ujúkať	ujúkajúc	VHe+
ujúkať	ujúkal	VLesam+
ujúkať	ujúkal	VLesai+
ujúkať	ujúkal	VLesbm+
ujúkať	ujúkal	VLesbi+
ujúkať	ujúkal	VLescm+
ujúkať	ujúkal	VLesci+
ujúkať	ujúkala	VLesaf+
ujúkať	ujúkala	VLesbf+
ujúkať	ujúkala	VLescf+
ujúkať	ujúkalo	VLesan+
ujúkať	ujúkalo	VLesbn+
ujúkať	ujúkalo	VLescn+
ujúkať	ujúkali	VLepah+
ujúkať	ujúkali	VLepbh+
ujúkať	ujúkali	VLepcm+
ujúkať	ujúkali	VLepci+
ujúkať	ujúkali	VLepcf+
ujúkať	ujúkali	VLepcn+
ujúkať	ujúkali	VLepco+
ujček	ujček	SSms1
ujček	ujčeka	SSms2
ujček	ujčekovi	SSms3
ujček	ujčeka	SSms4
ujček	ujček	SSms5
ujček	ujčekovi	SSms6
ujček	ujčekom	SSms7
ujček	ujčekovia	SSmp1
ujček	ujčekov	SSmp2
ujček	ujčekom	SSmp3
ujček	ujčekov	SSmp4
ujček	ujčekovia	SSmp5
ujček	ujčekoch	SSmp6
ujček	ujčekmi	SSmp7
ujčinka	ujčinka	SSfs1
ujčinka	ujčinky	SSfs2
ujčinka	ujčinke	SSfs3
ujčinka	ujčinku	SSfs4
ujčinka	ujčinka	SSfs5
ujčinka	ujčinke	SSfs6
ujčinka	ujčinkou	SSfs7
ujčinka	ujčinky	SSfp1
ujčinka	ujčiniek	SSfp2
ujčinka	ujčinkám	SSfp3
ujčinka	ujčinky	SSfp4
ujčinka	ujčinky	SSfp5
ujčinka	ujčinkách	SSfp6
ujčinka	ujčinkami	SSfp7
ujčiná	ujčiná	SFfs1
ujčiná	ujčinej	SFfs2
ujčiná	ujčinej	SFfs3
ujčiná	ujčinú	SFfs4
ujčiná	ujčiná	SFfs5
ujčiná	ujčinej	SFfs6
ujčiná	ujčinou	SFfs7
ujčiná	ujčiné	SFfp1
ujčiná	ujčín	SFfp2
ujčiná	ujčinám	SFfp3
ujčiná	ujčiné	SFfp4
ujčiná	ujčiné	SFfp5
ujčiná	ujčinách	SFfp6
ujčiná	ujčinami	SFfp7
újesť	újesť	SSfs1
újesť	újesti	SSfs2
újesť	újesti	SSfs3
újesť	újesť	SSfs4
újesť	újesť	SSfs5
újesť	újesti	SSfs6
újesť	újesťou	SSfs7
újesť	újesti	SSfp1
újesť	újestí	SSfp2
újesť	újestiam	SSfp3
újesť	újesti	SSfp4
újesť	újesti	SSfp5
újesť	újestiach	SSfp6
újesť	újesťami	SSfp7
