VK	VK	W
VKP	VKP	W
vklad	vklad	SSis1
vklad	vkladu	SSis2
vklad	vkladu	SSis3
vklad	vklad	SSis4
vklad	vklad	SSis5
vklad	vklade	SSis6
vklad	vkladom	SSis7
vklad	vklady	SSip1
vklad	vkladov	SSip2
vklad	vkladom	SSip3
vklad	vklady	SSip4
vklad	vklady	SSip5
vklad	vkladoch	SSip6
vklad	vkladmi	SSip7
vkladateľ	vkladateľ	SSms1
vkladateľ	vkladateľa	SSms2
vkladateľ	vkladateľovi	SSms3
vkladateľ	vkladateľa	SSms4
vkladateľ	vkladateľ	SSms5
vkladateľ	vkladateľovi	SSms6
vkladateľ	vkladateľom	SSms7
vkladateľ	vkladatelia	SSmp1
vkladateľ	vkladateľov	SSmp2
vkladateľ	vkladateľom	SSmp3
vkladateľ	vkladateľov	SSmp4
vkladateľ	vkladatelia	SSmp5
vkladateľ	vkladateľoch	SSmp6
vkladateľ	vkladateľmi	SSmp7
vkladateľka	vkladateľka	SSfs1
vkladateľka	vkladateľky	SSfs2
vkladateľka	vkladateľke	SSfs3
vkladateľka	vkladateľku	SSfs4
vkladateľka	vkladateľka	SSfs5
vkladateľka	vkladateľke	SSfs6
vkladateľka	vkladateľkou	SSfs7
vkladateľka	vkladateľky	SSfp1
vkladateľka	vkladateliek	SSfp2
vkladateľka	vkladateľkám	SSfp3
vkladateľka	vkladateľky	SSfp4
vkladateľka	vkladateľky	SSfp5
vkladateľka	vkladateľkách	SSfp6
vkladateľka	vkladateľkami	SSfp7
vkladateľský	vkladateľský	AAms1x
vkladateľský	vkladateľského	AAms2x
vkladateľský	vkladateľskému	AAms3x
vkladateľský	vkladateľského	AAms4x
vkladateľský	vkladateľský	AAms5x
vkladateľský	vkladateľskom	AAms6x
vkladateľský	vkladateľským	AAms7x
vkladateľský	vkladateľskí	AAmp1x
vkladateľský	vkladateľských	AAmp2x
vkladateľský	vkladateľským	AAmp3x
vkladateľský	vkladateľských	AAmp4x
vkladateľský	vkladateľskí	AAmp5x
vkladateľský	vkladateľských	AAmp6x
vkladateľský	vkladateľskými	AAmp7x
vkladateľský	vkladateľský	AAis1x
vkladateľský	vkladateľského	AAis2x
vkladateľský	vkladateľskému	AAis3x
vkladateľský	vkladateľský	AAis4x
vkladateľský	vkladateľský	AAis5x
vkladateľský	vkladateľskom	AAis6x
vkladateľský	vkladateľským	AAis7x
vkladateľský	vkladateľské	AAip1x
vkladateľský	vkladateľských	AAip2x
vkladateľský	vkladateľským	AAip3x
vkladateľský	vkladateľské	AAip4x
vkladateľský	vkladateľské	AAip5x
vkladateľský	vkladateľských	AAip6x
vkladateľský	vkladateľskými	AAip7x
vkladateľský	vkladateľská	AAfs1x
vkladateľský	vkladateľskej	AAfs2x
vkladateľský	vkladateľskej	AAfs3x
vkladateľský	vkladateľskú	AAfs4x
vkladateľský	vkladateľská	AAfs5x
vkladateľský	vkladateľskej	AAfs6x
vkladateľský	vkladateľskou	AAfs7x
vkladateľský	vkladateľské	AAfp1x
vkladateľský	vkladateľských	AAfp2x
vkladateľský	vkladateľským	AAfp3x
vkladateľský	vkladateľské	AAfp4x
vkladateľský	vkladateľské	AAfp5x
vkladateľský	vkladateľských	AAfp6x
vkladateľský	vkladateľskými	AAfp7x
vkladateľský	vkladateľské	AAns1x
vkladateľský	vkladateľského	AAns2x
vkladateľský	vkladateľskému	AAns3x
vkladateľský	vkladateľské	AAns4x
vkladateľský	vkladateľské	AAns5x
vkladateľský	vkladateľskom	AAns6x
vkladateľský	vkladateľským	AAns7x
vkladateľský	vkladateľské	AAnp1x
vkladateľský	vkladateľských	AAnp2x
vkladateľský	vkladateľským	AAnp3x
vkladateľský	vkladateľské	AAnp4x
vkladateľský	vkladateľské	AAnp5x
vkladateľský	vkladateľských	AAnp6x
vkladateľský	vkladateľskými	AAnp7x
vkladať	vkladať	VIe+
vkladať	vkladám	VKesa+
vkladať	vkladáš	VKesb+
vkladať	vkladá	VKesc+
vkladať	vkladáme	VKepa+
vkladať	vkladáte	VKepb+
vkladať	vkladajú	VKepc+
vkladať	vkladaj	VMesb+
vkladať	vkladajme	VMepa+
vkladať	vkladajte	VMepb+
vkladať	vkladajúc	VHe+
vkladať	vkladal	VLesam+
vkladať	vkladal	VLesai+
vkladať	vkladal	VLesbm+
vkladať	vkladal	VLesbi+
vkladať	vkladal	VLescm+
vkladať	vkladal	VLesci+
vkladať	vkladala	VLesaf+
vkladať	vkladala	VLesbf+
vkladať	vkladala	VLescf+
vkladať	vkladalo	VLesan+
vkladať	vkladalo	VLesbn+
vkladať	vkladalo	VLescn+
vkladať	vkladali	VLepah+
vkladať	vkladali	VLepbh+
vkladať	vkladali	VLepcm+
vkladať	vkladali	VLepci+
vkladať	vkladali	VLepcf+
vkladať	vkladali	VLepcn+
vkladať	vkladali	VLepco+
vkladný	vkladný	AAms1x
vkladný	vkladného	AAms2x
vkladný	vkladnému	AAms3x
vkladný	vkladného	AAms4x
vkladný	vkladný	AAms5x
vkladný	vkladnom	AAms6x
vkladný	vkladným	AAms7x
vkladný	vkladní	AAmp1x
vkladný	vkladných	AAmp2x
vkladný	vkladným	AAmp3x
vkladný	vkladných	AAmp4x
vkladný	vkladní	AAmp5x
vkladný	vkladných	AAmp6x
vkladný	vkladnými	AAmp7x
vkladný	vkladný	AAis1x
vkladný	vkladného	AAis2x
vkladný	vkladnému	AAis3x
vkladný	vkladný	AAis4x
vkladný	vkladný	AAis5x
vkladný	vkladnom	AAis6x
vkladný	vkladným	AAis7x
vkladný	vkladné	AAip1x
vkladný	vkladných	AAip2x
vkladný	vkladným	AAip3x
vkladný	vkladné	AAip4x
vkladný	vkladné	AAip5x
vkladný	vkladných	AAip6x
vkladný	vkladnými	AAip7x
vkladný	vkladná	AAfs1x
vkladný	vkladnej	AAfs2x
vkladný	vkladnej	AAfs3x
vkladný	vkladnú	AAfs4x
vkladný	vkladná	AAfs5x
vkladný	vkladnej	AAfs6x
vkladný	vkladnou	AAfs7x
vkladný	vkladné	AAfp1x
vkladný	vkladných	AAfp2x
vkladný	vkladným	AAfp3x
vkladný	vkladné	AAfp4x
vkladný	vkladné	AAfp5x
vkladný	vkladných	AAfp6x
vkladný	vkladnými	AAfp7x
vkladný	vkladné	AAns1x
vkladný	vkladného	AAns2x
vkladný	vkladnému	AAns3x
vkladný	vkladné	AAns4x
vkladný	vkladné	AAns5x
vkladný	vkladnom	AAns6x
vkladný	vkladným	AAns7x
vkladný	vkladné	AAnp1x
vkladný	vkladných	AAnp2x
vkladný	vkladným	AAnp3x
vkladný	vkladné	AAnp4x
vkladný	vkladné	AAnp5x
vkladný	vkladných	AAnp6x
vkladný	vkladnými	AAnp7x
vkladový	vkladový	AAms1x
vkladový	vkladového	AAms2x
vkladový	vkladovému	AAms3x
vkladový	vkladového	AAms4x
vkladový	vkladový	AAms5x
vkladový	vkladovom	AAms6x
vkladový	vkladovým	AAms7x
vkladový	vkladoví	AAmp1x
vkladový	vkladových	AAmp2x
vkladový	vkladovým	AAmp3x
vkladový	vkladových	AAmp4x
vkladový	vkladoví	AAmp5x
vkladový	vkladových	AAmp6x
vkladový	vkladovými	AAmp7x
vkladový	vkladový	AAis1x
vkladový	vkladového	AAis2x
vkladový	vkladovému	AAis3x
vkladový	vkladový	AAis4x
vkladový	vkladový	AAis5x
vkladový	vkladovom	AAis6x
vkladový	vkladovým	AAis7x
vkladový	vkladové	AAip1x
vkladový	vkladových	AAip2x
vkladový	vkladovým	AAip3x
vkladový	vkladové	AAip4x
vkladový	vkladové	AAip5x
vkladový	vkladových	AAip6x
vkladový	vkladovými	AAip7x
vkladový	vkladová	AAfs1x
vkladový	vkladovej	AAfs2x
vkladový	vkladovej	AAfs3x
vkladový	vkladovú	AAfs4x
vkladový	vkladová	AAfs5x
vkladový	vkladovej	AAfs6x
vkladový	vkladovou	AAfs7x
vkladový	vkladové	AAfp1x
vkladový	vkladových	AAfp2x
vkladový	vkladovým	AAfp3x
vkladový	vkladové	AAfp4x
vkladový	vkladové	AAfp5x
vkladový	vkladových	AAfp6x
vkladový	vkladovými	AAfp7x
vkladový	vkladové	AAns1x
vkladový	vkladového	AAns2x
vkladový	vkladovému	AAns3x
vkladový	vkladové	AAns4x
vkladový	vkladové	AAns5x
vkladový	vkladovom	AAns6x
vkladový	vkladovým	AAns7x
vkladový	vkladové	AAnp1x
vkladový	vkladových	AAnp2x
vkladový	vkladovým	AAnp3x
vkladový	vkladové	AAnp4x
vkladový	vkladové	AAnp5x
vkladový	vkladových	AAnp6x
vkladový	vkladovými	AAnp7x
vkliniť	vkliniť	VId+
vkliniť	vkliním	VKdsa+
vkliniť	vkliníš	VKdsb+
vkliniť	vkliní	VKdsc+
vkliniť	vkliníme	VKdpa+
vkliniť	vkliníte	VKdpb+
vkliniť	vklinia	VKdpc+
vkliniť	vkliň	VMdsb+
vkliniť	vkliňme	VMdpa+
vkliniť	vkliňte	VMdpb+
vkliniť	vkliniac	VHd+
vkliniť	vklinil	VLdsam+
vkliniť	vklinil	VLdsai+
vkliniť	vklinil	VLdsbm+
vkliniť	vklinil	VLdsbi+
vkliniť	vklinil	VLdscm+
vkliniť	vklinil	VLdsci+
vkliniť	vklinila	VLdsaf+
vkliniť	vklinila	VLdsbf+
vkliniť	vklinila	VLdscf+
vkliniť	vklinilo	VLdsan+
vkliniť	vklinilo	VLdsbn+
vkliniť	vklinilo	VLdscn+
vkliniť	vklinili	VLdpah+
vkliniť	vklinili	VLdpbh+
vkliniť	vklinili	VLdpcm+
vkliniť	vklinili	VLdpci+
vkliniť	vklinili	VLdpcf+
vkliniť	vklinili	VLdpcn+
vkliniť	vklinili	VLdpco+
vkomponovať	vkomponovať	VId+
vkomponovať	vkomponujem	VKdsa+
vkomponovať	vkomponuješ	VKdsb+
vkomponovať	vkomponuje	VKdsc+
vkomponovať	vkomponujeme	VKdpa+
vkomponovať	vkomponujete	VKdpb+
vkomponovať	vkomponujú	VKdpc+
vkomponovať	vkomponuj	VMdsb+
vkomponovať	vkomponujme	VMdpa+
vkomponovať	vkomponujte	VMdpb+
vkomponovať	vkomponujúc	VHd+
vkomponovať	vkomponoval	VLdsam+
vkomponovať	vkomponoval	VLdsai+
vkomponovať	vkomponoval	VLdsbm+
vkomponovať	vkomponoval	VLdsbi+
vkomponovať	vkomponoval	VLdscm+
vkomponovať	vkomponoval	VLdsci+
vkomponovať	vkomponovala	VLdsaf+
vkomponovať	vkomponovala	VLdsbf+
vkomponovať	vkomponovala	VLdscf+
vkomponovať	vkomponovalo	VLdsan+
vkomponovať	vkomponovalo	VLdsbn+
vkomponovať	vkomponovalo	VLdscn+
vkomponovať	vkomponovali	VLdpah+
vkomponovať	vkomponovali	VLdpbh+
vkomponovať	vkomponovali	VLdpcm+
vkomponovať	vkomponovali	VLdpci+
vkomponovať	vkomponovali	VLdpcf+
vkomponovať	vkomponovali	VLdpcn+
vkomponovať	vkomponovali	VLdpco+
vkorčuľovať	vkorčuľovať	VId+
vkorčuľovať	vkorčuľujem	VKdsa+
vkorčuľovať	vkorčuľuješ	VKdsb+
vkorčuľovať	vkorčuľuje	VKdsc+
vkorčuľovať	vkorčuľujeme	VKdpa+
vkorčuľovať	vkorčuľujete	VKdpb+
vkorčuľovať	vkorčuľujú	VKdpc+
vkorčuľovať	vkorčuľuj	VMdsb+
vkorčuľovať	vkorčuľujme	VMdpa+
vkorčuľovať	vkorčuľujte	VMdpb+
vkorčuľovať	vkorčuľujúc	VHd+
vkorčuľovať	vkorčuľoval	VLdsam+
vkorčuľovať	vkorčuľoval	VLdsai+
vkorčuľovať	vkorčuľoval	VLdsbm+
vkorčuľovať	vkorčuľoval	VLdsbi+
vkorčuľovať	vkorčuľoval	VLdscm+
vkorčuľovať	vkorčuľoval	VLdsci+
vkorčuľovať	vkorčuľovala	VLdsaf+
vkorčuľovať	vkorčuľovala	VLdsbf+
vkorčuľovať	vkorčuľovala	VLdscf+
vkorčuľovať	vkorčuľovalo	VLdsan+
vkorčuľovať	vkorčuľovalo	VLdsbn+
vkorčuľovať	vkorčuľovalo	VLdscn+
vkorčuľovať	vkorčuľovali	VLdpah+
vkorčuľovať	vkorčuľovali	VLdpbh+
vkorčuľovať	vkorčuľovali	VLdpcm+
vkorčuľovať	vkorčuľovali	VLdpci+
vkorčuľovať	vkorčuľovali	VLdpcf+
vkorčuľovať	vkorčuľovali	VLdpcn+
vkorčuľovať	vkorčuľovali	VLdpco+
vkotúľať	vkotúľať	VId+
vkotúľať	vkotúľam	VKdsa+
vkotúľať	vkotúľaš	VKdsb+
vkotúľať	vkotúľa	VKdsc+
vkotúľať	vkotúľame	VKdpa+
vkotúľať	vkotúľate	VKdpb+
vkotúľať	vkotúľajú	VKdpc+
vkotúľať	vkotúľaj	VMdsb+
vkotúľať	vkotúľajme	VMdpa+
vkotúľať	vkotúľajte	VMdpb+
vkotúľať	vkotúľajúc	VHd+
vkotúľať	vkotúľal	VLdsam+
vkotúľať	vkotúľal	VLdsai+
vkotúľať	vkotúľal	VLdsbm+
vkotúľať	vkotúľal	VLdsbi+
vkotúľať	vkotúľal	VLdscm+
vkotúľať	vkotúľal	VLdsci+
vkotúľať	vkotúľala	VLdsaf+
vkotúľať	vkotúľala	VLdsbf+
vkotúľať	vkotúľala	VLdscf+
vkotúľať	vkotúľalo	VLdsan+
vkotúľať	vkotúľalo	VLdsbn+
vkotúľať	vkotúľalo	VLdscn+
vkotúľať	vkotúľali	VLdpah+
vkotúľať	vkotúľali	VLdpbh+
vkotúľať	vkotúľali	VLdpcm+
vkotúľať	vkotúľali	VLdpci+
vkotúľať	vkotúľali	VLdpcf+
vkotúľať	vkotúľali	VLdpcn+
vkotúľať	vkotúľali	VLdpco+
vkradnúť	vkradnúť	VId+
vkradnúť	vkradnem	VKdsa+
vkradnúť	vkradneš	VKdsb+
vkradnúť	vkradne	VKdsc+
vkradnúť	vkradneme	VKdpa+
vkradnúť	vkradnete	VKdpb+
vkradnúť	vkradnú	VKdpc+
vkradnúť	vkradni	VMdsb+
vkradnúť	vkradnime	VMdpa+
vkradnúť	vkradnite	VMdpb+
vkradnúť	vkradnúc	VHd+
vkradnúť	vkradol	VLdsam+
vkradnúť	vkradol	VLdsai+
vkradnúť	vkradol	VLdsbm+
vkradnúť	vkradol	VLdsbi+
vkradnúť	vkradol	VLdscm+
vkradnúť	vkradol	VLdsci+
vkradnúť	vkradla	VLdsaf+
vkradnúť	vkradla	VLdsbf+
vkradnúť	vkradla	VLdscf+
vkradnúť	vkradlo	VLdsan+
vkradnúť	vkradlo	VLdsbn+
vkradnúť	vkradlo	VLdscn+
vkradnúť	vkradli	VLdpah+
vkradnúť	vkradli	VLdpbh+
vkradnúť	vkradli	VLdpcm+
vkradnúť	vkradli	VLdpci+
vkradnúť	vkradli	VLdpcf+
vkradnúť	vkradli	VLdpcn+
vkradnúť	vkradli	VLdpco+
vkrivkať	vkrivkať	VId+
vkrivkať	vkrivkám	VKdsa+
vkrivkať	vkrivkáš	VKdsb+
vkrivkať	vkrivká	VKdsc+
vkrivkať	vkrivkáme	VKdpa+
vkrivkať	vkrivkáte	VKdpb+
vkrivkať	vkrivkajú	VKdpc+
vkrivkať	vkrivkaj	VMdsb+
vkrivkať	vkrivkajme	VMdpa+
vkrivkať	vkrivkajte	VMdpb+
vkrivkať	vkrivkajúc	VHd+
vkrivkať	vkrivkal	VLdsam+
vkrivkať	vkrivkal	VLdsai+
vkrivkať	vkrivkal	VLdsbm+
vkrivkať	vkrivkal	VLdsbi+
vkrivkať	vkrivkal	VLdscm+
vkrivkať	vkrivkal	VLdsci+
vkrivkať	vkrivkala	VLdsaf+
vkrivkať	vkrivkala	VLdsbf+
vkrivkať	vkrivkala	VLdscf+
vkrivkať	vkrivkalo	VLdsan+
vkrivkať	vkrivkalo	VLdsbn+
vkrivkať	vkrivkalo	VLdscn+
vkrivkať	vkrivkali	VLdpah+
vkrivkať	vkrivkali	VLdpbh+
vkrivkať	vkrivkali	VLdpcm+
vkrivkať	vkrivkali	VLdpci+
vkrivkať	vkrivkali	VLdpcf+
vkrivkať	vkrivkali	VLdpcn+
vkrivkať	vkrivkali	VLdpco+
vkročiť	vkročiť	VId+
vkročiť	vkročím	VKdsa+
vkročiť	vkročíš	VKdsb+
vkročiť	vkročí	VKdsc+
vkročiť	vkročíme	VKdpa+
vkročiť	vkročíte	VKdpb+
vkročiť	vkročia	VKdpc+
vkročiť	vkroč	VMdsb+
vkročiť	vkročme	VMdpa+
vkročiť	vkročte	VMdpb+
vkročiť	vkročiac	VHd+
vkročiť	vkročil	VLdsam+
vkročiť	vkročil	VLdsai+
vkročiť	vkročil	VLdsbm+
vkročiť	vkročil	VLdsbi+
vkročiť	vkročil	VLdscm+
vkročiť	vkročil	VLdsci+
vkročiť	vkročila	VLdsaf+
vkročiť	vkročila	VLdsbf+
vkročiť	vkročila	VLdscf+
vkročiť	vkročilo	VLdsan+
vkročiť	vkročilo	VLdsbn+
vkročiť	vkročilo	VLdscn+
vkročiť	vkročili	VLdpah+
vkročiť	vkročili	VLdpbh+
vkročiť	vkročili	VLdpcm+
vkročiť	vkročili	VLdpci+
vkročiť	vkročili	VLdpcf+
vkročiť	vkročili	VLdpcn+
vkročiť	vkročili	VLdpco+
vkrádať	vkrádať	VIe+
vkrádať	vkrádam	VKesa+
vkrádať	vkrádaš	VKesb+
vkrádať	vkráda	VKesc+
vkrádať	vkrádame	VKepa+
vkrádať	vkrádate	VKepb+
vkrádať	vkrádajú	VKepc+
vkrádať	vkrádaj	VMesb+
vkrádať	vkrádajme	VMepa+
vkrádať	vkrádajte	VMepb+
vkrádať	vkrádajúc	VHe+
vkrádať	vkrádal	VLesam+
vkrádať	vkrádal	VLesai+
vkrádať	vkrádal	VLesbm+
vkrádať	vkrádal	VLesbi+
vkrádať	vkrádal	VLescm+
vkrádať	vkrádal	VLesci+
vkrádať	vkrádala	VLesaf+
vkrádať	vkrádala	VLesbf+
vkrádať	vkrádala	VLescf+
vkrádať	vkrádalo	VLesan+
vkrádať	vkrádalo	VLesbn+
vkrádať	vkrádalo	VLescn+
vkrádať	vkrádali	VLepah+
vkrádať	vkrádali	VLepbh+
vkrádať	vkrádali	VLepcm+
vkrádať	vkrádali	VLepci+
vkrádať	vkrádali	VLepcf+
vkrádať	vkrádali	VLepcn+
vkrádať	vkrádali	VLepco+
vkus	vkus	SSis1
vkus	vkusu	SSis2
vkus	vkusu	SSis3
vkus	vkus	SSis4
vkus	vkus	SSis5
vkus	vkuse	SSis6
vkus	vkusom	SSis7
vkus	vkusy	SSip1
vkus	vkusov	SSip2
vkus	vkusom	SSip3
vkus	vkusy	SSip4
vkus	vkusy	SSip5
vkus	vkusoch	SSip6
vkus	vkusmi	SSip7
vkusne	vkusne	Dx
vkusne	vkusnejšie	Dy
vkusne	najvkusnejšie	Dz
vkusnosť	vkusnosť	SSfs1
vkusnosť	vkusnosti	SSfs2
vkusnosť	vkusnosti	SSfs3
vkusnosť	vkusnosť	SSfs4
vkusnosť	vkusnosť	SSfs5
vkusnosť	vkusnosti	SSfs6
vkusnosť	vkusnosťou	SSfs7
vkusnosť	vkusnosti	SSfp1
vkusnosť	vkusností	SSfp2
vkusnosť	vkusnostiam	SSfp3
vkusnosť	vkusnosti	SSfp4
vkusnosť	vkusnosti	SSfp5
vkusnosť	vkusnostiach	SSfp6
vkusnosť	vkusnosťami	SSfp7
vkusný	vkusný	AAms1x
vkusný	vkusného	AAms2x
vkusný	vkusnému	AAms3x
vkusný	vkusného	AAms4x
vkusný	vkusný	AAms5x
vkusný	vkusnom	AAms6x
vkusný	vkusným	AAms7x
vkusný	vkusní	AAmp1x
vkusný	vkusných	AAmp2x
vkusný	vkusným	AAmp3x
vkusný	vkusných	AAmp4x
vkusný	vkusní	AAmp5x
vkusný	vkusných	AAmp6x
vkusný	vkusnými	AAmp7x
vkusný	vkusný	AAis1x
vkusný	vkusného	AAis2x
vkusný	vkusnému	AAis3x
vkusný	vkusný	AAis4x
vkusný	vkusný	AAis5x
vkusný	vkusnom	AAis6x
vkusný	vkusným	AAis7x
vkusný	vkusné	AAip1x
vkusný	vkusných	AAip2x
vkusný	vkusným	AAip3x
vkusný	vkusné	AAip4x
vkusný	vkusné	AAip5x
vkusný	vkusných	AAip6x
vkusný	vkusnými	AAip7x
vkusný	vkusná	AAfs1x
vkusný	vkusnej	AAfs2x
vkusný	vkusnej	AAfs3x
vkusný	vkusnú	AAfs4x
vkusný	vkusná	AAfs5x
vkusný	vkusnej	AAfs6x
vkusný	vkusnou	AAfs7x
vkusný	vkusné	AAfp1x
vkusný	vkusných	AAfp2x
vkusný	vkusným	AAfp3x
vkusný	vkusné	AAfp4x
vkusný	vkusné	AAfp5x
vkusný	vkusných	AAfp6x
vkusný	vkusnými	AAfp7x
vkusný	vkusné	AAns1x
vkusný	vkusného	AAns2x
vkusný	vkusnému	AAns3x
vkusný	vkusné	AAns4x
vkusný	vkusné	AAns5x
vkusný	vkusnom	AAns6x
vkusný	vkusným	AAns7x
vkusný	vkusné	AAnp1x
vkusný	vkusných	AAnp2x
vkusný	vkusným	AAnp3x
vkusný	vkusné	AAnp4x
vkusný	vkusné	AAnp5x
vkusný	vkusných	AAnp6x
vkusný	vkusnými	AAnp7x
vkusný	vkusnejší	AAms1y
vkusný	vkusnejšieho	AAms2y
vkusný	vkusnejšiemu	AAms3y
vkusný	vkusnejšieho	AAms4y
vkusný	vkusnejší	AAms5y
vkusný	vkusnejšom	AAms6y
vkusný	vkusnejším	AAms7y
vkusný	vkusnejší	AAmp1y
vkusný	vkusnejších	AAmp2y
vkusný	vkusnejším	AAmp3y
vkusný	vkusnejších	AAmp4y
vkusný	vkusnejší	AAmp5y
vkusný	vkusnejších	AAmp6y
vkusný	vkusnejšími	AAmp7y
vkusný	vkusnejší	AAis1y
vkusný	vkusnejšieho	AAis2y
vkusný	vkusnejšiemu	AAis3y
vkusný	vkusnejší	AAis4y
vkusný	vkusnejší	AAis5y
vkusný	vkusnejšom	AAis6y
vkusný	vkusnejším	AAis7y
vkusný	vkusnejšie	AAip1y
vkusný	vkusnejších	AAip2y
vkusný	vkusnejším	AAip3y
vkusný	vkusnejšie	AAip4y
vkusný	vkusnejšie	AAip5y
vkusný	vkusnejších	AAip6y
vkusný	vkusnejšími	AAip7y
vkusný	vkusnejšia	AAfs1y
vkusný	vkusnejšej	AAfs2y
vkusný	vkusnejšej	AAfs3y
vkusný	vkusnejšiu	AAfs4y
vkusný	vkusnejšia	AAfs5y
vkusný	vkusnejšej	AAfs6y
vkusný	vkusnejšou	AAfs7y
vkusný	vkusnejšie	AAfp1y
vkusný	vkusnejších	AAfp2y
vkusný	vkusnejším	AAfp3y
vkusný	vkusnejšie	AAfp4y
vkusný	vkusnejšie	AAfp5y
vkusný	vkusnejších	AAfp6y
vkusný	vkusnejšími	AAfp7y
vkusný	vkusnejšie	AAns1y
vkusný	vkusnejšieho	AAns2y
vkusný	vkusnejšiemu	AAns3y
vkusný	vkusnejšie	AAns4y
vkusný	vkusnejšie	AAns5y
vkusný	vkusnejšom	AAns6y
vkusný	vkusnejším	AAns7y
vkusný	vkusnejšie	AAnp1y
vkusný	vkusnejších	AAnp2y
vkusný	vkusnejším	AAnp3y
vkusný	vkusnejšie	AAnp4y
vkusný	vkusnejšie	AAnp5y
vkusný	vkusnejších	AAnp6y
vkusný	vkusnejšími	AAnp7y
vkusný	najvkusnejší	AAms1z
vkusný	najvkusnejšieho	AAms2z
vkusný	najvkusnejšiemu	AAms3z
vkusný	najvkusnejšieho	AAms4z
vkusný	najvkusnejší	AAms5z
vkusný	najvkusnejšom	AAms6z
vkusný	najvkusnejším	AAms7z
vkusný	najvkusnejší	AAmp1z
vkusný	najvkusnejších	AAmp2z
vkusný	najvkusnejším	AAmp3z
vkusný	najvkusnejších	AAmp4z
vkusný	najvkusnejší	AAmp5z
vkusný	najvkusnejších	AAmp6z
vkusný	najvkusnejšími	AAmp7z
vkusný	najvkusnejší	AAis1z
vkusný	najvkusnejšieho	AAis2z
vkusný	najvkusnejšiemu	AAis3z
vkusný	najvkusnejší	AAis4z
vkusný	najvkusnejší	AAis5z
vkusný	najvkusnejšom	AAis6z
vkusný	najvkusnejším	AAis7z
vkusný	najvkusnejšie	AAip1z
vkusný	najvkusnejších	AAip2z
vkusný	najvkusnejším	AAip3z
vkusný	najvkusnejšie	AAip4z
vkusný	najvkusnejšie	AAip5z
vkusný	najvkusnejších	AAip6z
vkusný	najvkusnejšími	AAip7z
vkusný	najvkusnejšia	AAfs1z
vkusný	najvkusnejšej	AAfs2z
vkusný	najvkusnejšej	AAfs3z
vkusný	najvkusnejšiu	AAfs4z
vkusný	najvkusnejšia	AAfs5z
vkusný	najvkusnejšej	AAfs6z
vkusný	najvkusnejšou	AAfs7z
vkusný	najvkusnejšie	AAfp1z
vkusný	najvkusnejších	AAfp2z
vkusný	najvkusnejším	AAfp3z
vkusný	najvkusnejšie	AAfp4z
vkusný	najvkusnejšie	AAfp5z
vkusný	najvkusnejších	AAfp6z
vkusný	najvkusnejšími	AAfp7z
vkusný	najvkusnejšie	AAns1z
vkusný	najvkusnejšieho	AAns2z
vkusný	najvkusnejšiemu	AAns3z
vkusný	najvkusnejšie	AAns4z
vkusný	najvkusnejšie	AAns5z
vkusný	najvkusnejšom	AAns6z
vkusný	najvkusnejším	AAns7z
vkusný	najvkusnejšie	AAnp1z
vkusný	najvkusnejších	AAnp2z
vkusný	najvkusnejším	AAnp3z
vkusný	najvkusnejšie	AAnp4z
vkusný	najvkusnejšie	AAnp5z
vkusný	najvkusnejších	AAnp6z
vkusný	najvkusnejšími	AAnp7z
vkvapkať	vkvapkať	VId+
vkvapkať	vkvapkám	VKdsa+
vkvapkať	vkvapkáš	VKdsb+
vkvapkať	vkvapká	VKdsc+
vkvapkať	vkvapkáme	VKdpa+
vkvapkať	vkvapkáte	VKdpb+
vkvapkať	vkvapkajú	VKdpc+
vkvapkať	vkvapkaj	VMdsb+
vkvapkať	vkvapkajme	VMdpa+
vkvapkať	vkvapkajte	VMdpb+
vkvapkať	vkvapkajúc	VHd+
vkvapkať	vkvapkal	VLdsam+
vkvapkať	vkvapkal	VLdsai+
vkvapkať	vkvapkal	VLdsbm+
vkvapkať	vkvapkal	VLdsbi+
vkvapkať	vkvapkal	VLdscm+
vkvapkať	vkvapkal	VLdsci+
vkvapkať	vkvapkala	VLdsaf+
vkvapkať	vkvapkala	VLdsbf+
vkvapkať	vkvapkala	VLdscf+
vkvapkať	vkvapkalo	VLdsan+
vkvapkať	vkvapkalo	VLdsbn+
vkvapkať	vkvapkalo	VLdscn+
vkvapkať	vkvapkali	VLdpah+
vkvapkať	vkvapkali	VLdpbh+
vkvapkať	vkvapkali	VLdpcm+
vkvapkať	vkvapkali	VLdpci+
vkvapkať	vkvapkali	VLdpcf+
vkvapkať	vkvapkali	VLdpcn+
vkvapkať	vkvapkali	VLdpco+
vkvapkávať	vkvapkávať	VIe+
vkvapkávať	vkvapkávam	VKesa+
vkvapkávať	vkvapkávaš	VKesb+
vkvapkávať	vkvapkáva	VKesc+
vkvapkávať	vkvapkávame	VKepa+
vkvapkávať	vkvapkávate	VKepb+
vkvapkávať	vkvapkávajú	VKepc+
vkvapkávať	vkvapkávaj	VMesb+
vkvapkávať	vkvapkávajme	VMepa+
vkvapkávať	vkvapkávajte	VMepb+
vkvapkávať	vkvapkávajúc	VHe+
vkvapkávať	vkvapkával	VLesam+
vkvapkávať	vkvapkával	VLesai+
vkvapkávať	vkvapkával	VLesbm+
vkvapkávať	vkvapkával	VLesbi+
vkvapkávať	vkvapkával	VLescm+
vkvapkávať	vkvapkával	VLesci+
vkvapkávať	vkvapkávala	VLesaf+
vkvapkávať	vkvapkávala	VLesbf+
vkvapkávať	vkvapkávala	VLescf+
vkvapkávať	vkvapkávalo	VLesan+
vkvapkávať	vkvapkávalo	VLesbn+
vkvapkávať	vkvapkávalo	VLescn+
vkvapkávať	vkvapkávali	VLepah+
vkvapkávať	vkvapkávali	VLepbh+
vkvapkávať	vkvapkávali	VLepcm+
vkvapkávať	vkvapkávali	VLepci+
vkvapkávať	vkvapkávali	VLepcf+
vkvapkávať	vkvapkávali	VLepcn+
vkvapkávať	vkvapkávali	VLepco+
vkĺznuť	vkĺznuť	VId+
vkĺznuť	vkĺznem	VKdsa+
vkĺznuť	vkĺzneš	VKdsb+
vkĺznuť	vkĺzne	VKdsc+
vkĺznuť	vkĺzneme	VKdpa+
vkĺznuť	vkĺznete	VKdpb+
vkĺznuť	vkĺznu	VKdpc+
vkĺznuť	vkĺzni	VMdsb+
vkĺznuť	vkĺznime	VMdpa+
vkĺznuť	vkĺznite	VMdpb+
vkĺznuť	vkĺznuc	VHd+
vkĺznuť	vkĺzol	VLdsam+
vkĺznuť	vkĺzol	VLdsai+
vkĺznuť	vkĺzol	VLdsbm+
vkĺznuť	vkĺzol	VLdsbi+
vkĺznuť	vkĺzol	VLdscm+
vkĺznuť	vkĺzol	VLdsci+
vkĺznuť	vkĺzla	VLdsaf+
vkĺznuť	vkĺzla	VLdsbf+
vkĺznuť	vkĺzla	VLdscf+
vkĺznuť	vkĺzlo	VLdsan+
vkĺznuť	vkĺzlo	VLdsbn+
vkĺznuť	vkĺzlo	VLdscn+
vkĺznuť	vkĺzli	VLdpah+
vkĺznuť	vkĺzli	VLdpbh+
vkĺznuť	vkĺzli	VLdpcm+
vkĺznuť	vkĺzli	VLdpci+
vkĺznuť	vkĺzli	VLdpcf+
vkĺznuť	vkĺzli	VLdpcn+
vkĺznuť	vkĺzli	VLdpco+
