WAP	WAP	W
Washington	Washington	SSis1
Washington	Washingtonu	SSis2
Washington	Washingtonu	SSis3
Washington	Washington	SSis4
Washington	Washington	SSis5
Washington	Washingtone	SSis6
Washington	Washingtonom	SSis7
wales	wales	W
waleský	waleský	AAms1x
waleský	waleského	AAms2x
waleský	waleskému	AAms3x
waleský	waleského	AAms4x
waleský	waleský	AAms5x
waleský	waleskom	AAms6x
waleský	waleským	AAms7x
waleský	waleskí	AAmp1x
waleský	waleských	AAmp2x
waleský	waleským	AAmp3x
waleský	waleských	AAmp4x
waleský	waleskí	AAmp5x
waleský	waleských	AAmp6x
waleský	waleskými	AAmp7x
waleský	waleský	AAis1x
waleský	waleského	AAis2x
waleský	waleskému	AAis3x
waleský	waleský	AAis4x
waleský	waleský	AAis5x
waleský	waleskom	AAis6x
waleský	waleským	AAis7x
waleský	waleské	AAip1x
waleský	waleských	AAip2x
waleský	waleským	AAip3x
waleský	waleské	AAip4x
waleský	waleské	AAip5x
waleský	waleských	AAip6x
waleský	waleskými	AAip7x
waleský	waleská	AAfs1x
waleský	waleskej	AAfs2x
waleský	waleskej	AAfs3x
waleský	waleskú	AAfs4x
waleský	waleská	AAfs5x
waleský	waleskej	AAfs6x
waleský	waleskou	AAfs7x
waleský	waleské	AAfp1x
waleský	waleských	AAfp2x
waleský	waleským	AAfp3x
waleský	waleské	AAfp4x
waleský	waleské	AAfp5x
waleský	waleských	AAfp6x
waleský	waleskými	AAfp7x
waleský	waleské	AAns1x
waleský	waleského	AAns2x
waleský	waleskému	AAns3x
waleský	waleské	AAns4x
waleský	waleské	AAns5x
waleský	waleskom	AAns6x
waleský	waleským	AAns7x
waleský	waleské	AAnp1x
waleský	waleských	AAnp2x
waleský	waleským	AAnp3x
waleský	waleské	AAnp4x
waleský	waleské	AAnp5x
waleský	waleských	AAnp6x
waleský	waleskými	AAnp7x
waleš	waleš	W
walkman	walkman	SSis1
walkman	walkmana	SSis2
walkman	walkmanu	SSis3
walkman	walkman	SSis4
walkman	walkman	SSis5
walkman	walkmane	SSis6
walkman	walkmanom	SSis7
walkman	walkmany	SSip1
walkman	walkmanov	SSip2
walkman	walkmanom	SSip3
walkman	walkmany	SSip4
walkman	walkmany	SSip5
walkman	walkmanoch	SSip6
walkman	walkmanmi	SSip7
waltz	waltz	SSis1
waltz	waltzu	SSis2
waltz	waltzu	SSis3
waltz	waltz	SSis4
waltz	waltz	SSis5
waltz	waltze	SSis6
waltz	waltzom	SSis7
waltz	waltzy	SSip1
waltz	waltzov	SSip2
waltz	waltzom	SSip3
waltz	waltzy	SSip4
waltz	waltzy	SSip5
waltz	waltzoch	SSip6
waltz	waltzmi	SSip7
wartburg	wartburg	SSis1
wartburg	wartburga	SSis2
wartburg	wartburgu	SSis3
wartburg	wartburg	SSis4
wartburg	wartburg	SSis5
wartburg	wartburge	SSis6
wartburg	wartburgom	SSis7
wartburg	wartburgy	SSip1
wartburg	wartburgov	SSip2
wartburg	wartburgom	SSip3
wartburg	wartburgy	SSip4
wartburg	wartburgy	SSip5
wartburg	wartburgoch	SSip6
wartburg	wartburgmi	SSip7
was	was	%
washingtonský	washingtonský	AAms1x
washingtonský	washingtonského	AAms2x
washingtonský	washingtonskému	AAms3x
washingtonský	washingtonského	AAms4x
washingtonský	washingtonský	AAms5x
washingtonský	washingtonskom	AAms6x
washingtonský	washingtonským	AAms7x
washingtonský	washingtonskí	AAmp1x
washingtonský	washingtonských	AAmp2x
washingtonský	washingtonským	AAmp3x
washingtonský	washingtonských	AAmp4x
washingtonský	washingtonskí	AAmp5x
washingtonský	washingtonských	AAmp6x
washingtonský	washingtonskými	AAmp7x
washingtonský	washingtonský	AAis1x
washingtonský	washingtonského	AAis2x
washingtonský	washingtonskému	AAis3x
washingtonský	washingtonský	AAis4x
washingtonský	washingtonský	AAis5x
washingtonský	washingtonskom	AAis6x
washingtonský	washingtonským	AAis7x
washingtonský	washingtonské	AAip1x
washingtonský	washingtonských	AAip2x
washingtonský	washingtonským	AAip3x
washingtonský	washingtonské	AAip4x
washingtonský	washingtonské	AAip5x
washingtonský	washingtonských	AAip6x
washingtonský	washingtonskými	AAip7x
washingtonský	washingtonská	AAfs1x
washingtonský	washingtonskej	AAfs2x
washingtonský	washingtonskej	AAfs3x
washingtonský	washingtonskú	AAfs4x
washingtonský	washingtonská	AAfs5x
washingtonský	washingtonskej	AAfs6x
washingtonský	washingtonskou	AAfs7x
washingtonský	washingtonské	AAfp1x
washingtonský	washingtonských	AAfp2x
washingtonský	washingtonským	AAfp3x
washingtonský	washingtonské	AAfp4x
washingtonský	washingtonské	AAfp5x
washingtonský	washingtonských	AAfp6x
washingtonský	washingtonskými	AAfp7x
washingtonský	washingtonské	AAns1x
washingtonský	washingtonského	AAns2x
washingtonský	washingtonskému	AAns3x
washingtonský	washingtonské	AAns4x
washingtonský	washingtonské	AAns5x
washingtonský	washingtonskom	AAns6x
washingtonský	washingtonským	AAns7x
washingtonský	washingtonské	AAnp1x
washingtonský	washingtonských	AAnp2x
washingtonský	washingtonským	AAnp3x
washingtonský	washingtonské	AAnp4x
washingtonský	washingtonské	AAnp5x
washingtonský	washingtonských	AAnp6x
washingtonský	washingtonskými	AAnp7x
watt	watt	SSis1
watt	wattu	SSis2
watt	wattu	SSis3
watt	watt	SSis4
watt	watt	SSis5
watt	watte	SSis6
watt	wattom	SSis7
watt	watty	SSip1
watt	wattov	SSip2
watt	wattom	SSip3
watt	watty	SSip4
watt	watty	SSip5
watt	wattoch	SSip6
watt	wattmi	SSip7
watthodina	watthodina	SSfs1
watthodina	watthodiny	SSfs2
watthodina	watthodine	SSfs3
watthodina	watthodinu	SSfs4
watthodina	watthodina	SSfs5
watthodina	watthodine	SSfs6
watthodina	watthodinou	SSfs7
watthodina	watthodiny	SSfp1
watthodina	watthodín	SSfp2
watthodina	watthodinám	SSfp3
watthodina	watthodiny	SSfp4
watthodina	watthodiny	SSfp5
watthodina	watthodinách	SSfp6
watthodina	watthodinami	SSfp7
wattmeter	wattmeter	SSis1
wattmeter	wattmetra	SSis2
wattmeter	wattmetru	SSis3
wattmeter	wattmeter	SSis4
wattmeter	wattmeter	SSis5
wattmeter	wattmetri	SSis6
wattmeter	wattmetrom	SSis7
wattmeter	wattmetre	SSip1
wattmeter	wattmetrov	SSip2
wattmeter	wattmetrom	SSip3
wattmeter	wattmetre	SSip4
wattmeter	wattmetre	SSip5
wattmeter	wattmetroch	SSip6
wattmeter	wattmetrami	SSip7
wattový	wattový	AAms1x
wattový	wattového	AAms2x
wattový	wattovému	AAms3x
wattový	wattového	AAms4x
wattový	wattový	AAms5x
wattový	wattovom	AAms6x
wattový	wattovým	AAms7x
wattový	wattoví	AAmp1x
wattový	wattových	AAmp2x
wattový	wattovým	AAmp3x
wattový	wattových	AAmp4x
wattový	wattoví	AAmp5x
wattový	wattových	AAmp6x
wattový	wattovými	AAmp7x
wattový	wattový	AAis1x
wattový	wattového	AAis2x
wattový	wattovému	AAis3x
wattový	wattový	AAis4x
wattový	wattový	AAis5x
wattový	wattovom	AAis6x
wattový	wattovým	AAis7x
wattový	wattové	AAip1x
wattový	wattových	AAip2x
wattový	wattovým	AAip3x
wattový	wattové	AAip4x
wattový	wattové	AAip5x
wattový	wattových	AAip6x
wattový	wattovými	AAip7x
wattový	wattová	AAfs1x
wattový	wattovej	AAfs2x
wattový	wattovej	AAfs3x
wattový	wattovú	AAfs4x
wattový	wattová	AAfs5x
wattový	wattovej	AAfs6x
wattový	wattovou	AAfs7x
wattový	wattové	AAfp1x
wattový	wattových	AAfp2x
wattový	wattovým	AAfp3x
wattový	wattové	AAfp4x
wattový	wattové	AAfp5x
wattový	wattových	AAfp6x
wattový	wattovými	AAfp7x
wattový	wattové	AAns1x
wattový	wattového	AAns2x
wattový	wattovému	AAns3x
wattový	wattové	AAns4x
wattový	wattové	AAns5x
wattový	wattovom	AAns6x
wattový	wattovým	AAns7x
wattový	wattové	AAnp1x
wattový	wattových	AAnp2x
wattový	wattovým	AAnp3x
wattový	wattové	AAnp4x
wattový	wattové	AAnp5x
wattový	wattových	AAnp6x
wattový	wattovými	AAnp7x
