WHO	WHO	W
whiskový	whiskový	AAms1x
whiskový	whiskového	AAms2x
whiskový	whiskovému	AAms3x
whiskový	whiskového	AAms4x
whiskový	whiskový	AAms5x
whiskový	whiskovom	AAms6x
whiskový	whiskovým	AAms7x
whiskový	whiskoví	AAmp1x
whiskový	whiskových	AAmp2x
whiskový	whiskovým	AAmp3x
whiskový	whiskových	AAmp4x
whiskový	whiskoví	AAmp5x
whiskový	whiskových	AAmp6x
whiskový	whiskovými	AAmp7x
whiskový	whiskový	AAis1x
whiskový	whiskového	AAis2x
whiskový	whiskovému	AAis3x
whiskový	whiskový	AAis4x
whiskový	whiskový	AAis5x
whiskový	whiskovom	AAis6x
whiskový	whiskovým	AAis7x
whiskový	whiskové	AAip1x
whiskový	whiskových	AAip2x
whiskový	whiskovým	AAip3x
whiskový	whiskové	AAip4x
whiskový	whiskové	AAip5x
whiskový	whiskových	AAip6x
whiskový	whiskovými	AAip7x
whiskový	whisková	AAfs1x
whiskový	whiskovej	AAfs2x
whiskový	whiskovej	AAfs3x
whiskový	whiskovú	AAfs4x
whiskový	whisková	AAfs5x
whiskový	whiskovej	AAfs6x
whiskový	whiskovou	AAfs7x
whiskový	whiskové	AAfp1x
whiskový	whiskových	AAfp2x
whiskový	whiskovým	AAfp3x
whiskový	whiskové	AAfp4x
whiskový	whiskové	AAfp5x
whiskový	whiskových	AAfp6x
whiskový	whiskovými	AAfp7x
whiskový	whiskové	AAns1x
whiskový	whiskového	AAns2x
whiskový	whiskovému	AAns3x
whiskový	whiskové	AAns4x
whiskový	whiskové	AAns5x
whiskový	whiskovom	AAns6x
whiskový	whiskovým	AAns7x
whiskový	whiskové	AAnp1x
whiskový	whiskových	AAnp2x
whiskový	whiskovým	AAnp3x
whiskový	whiskové	AAnp4x
whiskový	whiskové	AAnp5x
whiskový	whiskových	AAnp6x
whiskový	whiskovými	AAnp7x
whisky	whisky	SUfp1
whisky	whisky	SUfp2
whisky	whisky	SUfp3
whisky	whisky	SUfp4
whisky	whisky	SUfp5
whisky	whisky	SUfp6
whisky	whisky	SUfp7
whisky	whisky	SUfs1
whisky	whisky	SUfs2
whisky	whisky	SUfs3
whisky	whisky	SUfs4
whisky	whisky	SUfs5
whisky	whisky	SUfs6
whisky	whisky	SUfs7
