worcesterský	worcesterský	AAms1x
worcesterský	worcesterského	AAms2x
worcesterský	worcesterskému	AAms3x
worcesterský	worcesterského	AAms4x
worcesterský	worcesterský	AAms5x
worcesterský	worcesterskom	AAms6x
worcesterský	worcesterským	AAms7x
worcesterský	worcesterskí	AAmp1x
worcesterský	worcesterských	AAmp2x
worcesterský	worcesterským	AAmp3x
worcesterský	worcesterských	AAmp4x
worcesterský	worcesterskí	AAmp5x
worcesterský	worcesterských	AAmp6x
worcesterský	worcesterskými	AAmp7x
worcesterský	worcesterský	AAis1x
worcesterský	worcesterského	AAis2x
worcesterský	worcesterskému	AAis3x
worcesterský	worcesterský	AAis4x
worcesterský	worcesterský	AAis5x
worcesterský	worcesterskom	AAis6x
worcesterský	worcesterským	AAis7x
worcesterský	worcesterské	AAip1x
worcesterský	worcesterských	AAip2x
worcesterský	worcesterským	AAip3x
worcesterský	worcesterské	AAip4x
worcesterský	worcesterské	AAip5x
worcesterský	worcesterských	AAip6x
worcesterský	worcesterskými	AAip7x
worcesterský	worcesterská	AAfs1x
worcesterský	worcesterskej	AAfs2x
worcesterský	worcesterskej	AAfs3x
worcesterský	worcesterskú	AAfs4x
worcesterský	worcesterská	AAfs5x
worcesterský	worcesterskej	AAfs6x
worcesterský	worcesterskou	AAfs7x
worcesterský	worcesterské	AAfp1x
worcesterský	worcesterských	AAfp2x
worcesterský	worcesterským	AAfp3x
worcesterský	worcesterské	AAfp4x
worcesterský	worcesterské	AAfp5x
worcesterský	worcesterských	AAfp6x
worcesterský	worcesterskými	AAfp7x
worcesterský	worcesterské	AAns1x
worcesterský	worcesterského	AAns2x
worcesterský	worcesterskému	AAns3x
worcesterský	worcesterské	AAns4x
worcesterský	worcesterské	AAns5x
worcesterský	worcesterskom	AAns6x
worcesterský	worcesterským	AAns7x
worcesterský	worcesterské	AAnp1x
worcesterský	worcesterských	AAnp2x
worcesterský	worcesterským	AAnp3x
worcesterský	worcesterské	AAnp4x
worcesterský	worcesterské	AAnp5x
worcesterský	worcesterských	AAnp6x
worcesterský	worcesterskými	AAnp7x
workaholic	workaholic	SSms1
workaholic	workaholica	SSms2
workaholic	workaholicovi	SSms3
workaholic	workaholica	SSms4
workaholic	workaholic	SSms5
workaholic	workaholicovi	SSms6
workaholic	workaholicom	SSms7
workaholic	workaholici	SSmp1
workaholic	workaholicov	SSmp2
workaholic	workaholicom	SSmp3
workaholic	workaholicov	SSmp4
workaholic	workaholici	SSmp5
workaholic	workaholicoch	SSmp6
workaholic	workaholicmi	SSmp7
